sid,revisions,refactor,bugfixes,authors,loc_added,max_added,ave_added,loc_deleted,max_deleted,ave_deleted,code_churn,max_churn,ave_churn,max_changeset,ave_changeset,age,weighted_age,label
136,0.06451612903225806,0.25,0.03333333333333333,0.3333333333333333,0.016869728209934397,0.07692307692307693,0.013704819277108428,0.004810996563573883,0.009523809523809525,0.027450980392156862,0.026918671248568157,0.08425720620842572,0.01517706576728499,0.7475247524752475,0.386277001270648,0.3177570093457944,0.520358498813256,true
167,0.06451612903225806,0.25,0.1,0.16666666666666666,0.059044048734770385,0.3360323886639676,0.07469879518072288,0.01993127147766323,0.03571428571428571,0.11372549019607843,0.09163802978235967,0.36807095343680707,0.0659921304103429,0.09900990099009901,0.045743329097839895,0.056074766355140186,0.09659501530816707,true
201,0.06451612903225806,0.25,0.03333333333333333,0.3333333333333333,0.02280537332083724,0.0951417004048583,0.02228915662650602,0.007560137457044674,0.011904761904761904,0.04313725490196079,0.035509736540664374,0.10421286031042129,0.021922428330522766,0.7475247524752475,0.386277001270648,0.3177570093457944,0.5157553556763254,true
168,0.5806451612903226,0.5833333333333334,0.4,0.6666666666666666,0.2796001249609497,0.22064777327935223,0.03301042005861283,0.29690721649484536,0.1976190476190476,0.22893481717011127,0.2651775486827033,0.24168514412416853,0.011287847712805554,1.0,0.26992685188364984,0.7289719626168224,0.8622107059666143,true
3,0.04838709677419355,0.08333333333333333,0.06666666666666667,0.16666666666666666,0.027803811308965948,0.14979757085020243,0.04273343373493975,0.006872852233676976,0.01904761904761905,0.049019607843137254,0.04524627720504009,0.164079822616408,0.041596402473299605,0.7475247524752475,0.29224904701397714,0.2897196261682243,0.47215774568386165,true
238,0.0,0.0,0.0,0.0,0.13277100905966885,0.8603238866396761,1.0,0.0,0.0,0.0,0.2434135166093929,0.9423503325942351,1.0,0.019801980198019802,0.025412960609911054,0.0,0.004514563498141776,true
70,0.3387096774193548,0.3333333333333333,0.26666666666666666,0.5,0.19900031240237426,0.2935222672064777,0.04494112814895947,0.07972508591065292,0.12380952380952381,0.1033868092691622,0.2983963344788087,0.3215077605321508,0.037559405181664875,1.0,0.3118863347579993,0.5981308411214953,0.702018018369691,true
141,0.04838709677419355,0.25,0.03333333333333333,0.16666666666666666,0.03498906591690097,0.13360323886639677,0.05572289156626505,0.015807560137457044,0.04285714285714286,0.11274509803921569,0.05097365406643757,0.14634146341463414,0.047217537942664416,0.7475247524752475,0.39390088945362134,0.11214953271028037,0.15501076239691078,true
73,0.1935483870967742,0.3333333333333333,0.06666666666666667,0.5,0.11840049984379881,0.18016194331983806,0.04738183503243743,0.07697594501718213,0.12142857142857143,0.16892911010558068,0.15292096219931273,0.18625277161862527,0.032472867211484416,0.7475247524752475,0.1661616655263415,0.3177570093457944,0.4117237541130869,true
112,0.03225806451612903,0.08333333333333333,0.03333333333333333,0.16666666666666666,0.02999062792877226,0.0931174089068826,0.07003012048192771,0.005498281786941581,0.016666666666666666,0.0522875816993464,0.050400916380297825,0.10199556541019955,0.06839048154393854,0.034653465346534656,0.03600169419737399,0.056074766355140186,0.09828277550994935,true
14,0.5806451612903226,0.6666666666666666,0.7,0.5,0.1724461105904405,0.0951417004048583,0.012068544448062518,0.09965635738831616,0.05952380952380952,0.07684154742978272,0.23310423825887744,0.08869179600886919,0.007884781915136045,1.0,0.17188090250352003,0.5794392523364486,0.49687830721660187,true
146,0.3870967741935484,0.4166666666666667,0.23333333333333334,0.5,0.13245860668541082,0.19635627530364372,0.017499999999999995,0.0879725085910653,0.0761904761904762,0.1003921568627451,0.16953035509736541,0.17960088691796008,0.010590219224283307,0.7475247524752475,0.0963151207115629,0.3177570093457944,0.4185559689228522,true
115,0.24193548387096775,0.4166666666666667,0.13333333333333333,0.3333333333333333,0.17150890346766634,0.21052631578947367,0.05812311746987951,0.1731958762886598,0.20238095238095238,0.3088235294117647,0.17010309278350516,0.23059866962305986,0.027121978639685216,1.0,0.462992376111817,0.6074766355140186,0.7691032283194804,true
116,0.1935483870967742,0.3333333333333333,0.06666666666666667,0.3333333333333333,0.06529209621993128,0.10728744939271255,0.017840593141797957,0.03230240549828179,0.04523809523809524,0.07088989441930618,0.09278350515463918,0.10864745011086474,0.01431227569507502,0.7475247524752475,0.16909393021210048,0.3177570093457944,0.4272072387039054,true
81,0.5967741935483871,0.5,0.4,0.6666666666666666,0.4133083411433927,0.39473684210526316,0.056971306277742544,0.5099656357388316,0.38333333333333336,0.3828689370485036,0.33276059564719357,0.43237250554323725,0.017484689802076864,1.0,0.22336654851869187,0.6915887850467289,0.6058570947672794,true
147,0.06451612903225806,0.08333333333333333,0.06666666666666667,0.16666666666666666,0.047485160887222745,0.16396761133603238,0.057981927710843366,0.010309278350515464,0.030952380952380953,0.058823529411764705,0.07846506300114547,0.17960088691796008,0.05564924114671164,0.28217821782178215,0.10927573062261753,0.3177570093457944,0.5175821646077929,true
49,0.0,0.0,0.03333333333333333,0.0,0.03811308965948141,0.24696356275303644,0.31551204819277107,0.0,0.0,0.0,0.06987399770904926,0.270509977827051,0.31871838111298484,0.024752475247524754,0.03176620076238882,0.0,0.0,true
87,0.03225806451612903,0.08333333333333333,0.0,0.16666666666666666,0.0037488284910965324,0.0,0.00677710843373494,6.872852233676976E-4,0.002380952380952381,0.0065359477124183,0.006300114547537228,0.0,0.010680157391793142,0.28217821782178215,0.2795425667090216,0.3177570093457944,0.5388131535032208,true
213,0.0967741935483871,0.3333333333333333,0.06666666666666667,0.3333333333333333,0.045298344267416434,0.24493927125506074,0.03248709122203098,0.02542955326460481,0.06190476190476191,0.10364145658263305,0.061855670103092786,0.2682926829268293,0.02513450574158837,0.7475247524752475,0.28680341259756764,0.3177570093457944,0.5271470517006527,true
50,0.04838709677419355,0.0,0.06666666666666667,0.0,0.09122149328334896,0.3299595141700405,0.15737951807228917,0.016494845360824743,0.047619047619047616,0.11764705882352941,0.15349369988545247,0.3614190687361419,0.14783586284429454,0.10891089108910891,0.05559085133418043,0.2897196261682243,0.49042973001297957,true
89,0.0967741935483871,0.16666666666666666,0.06666666666666667,0.3333333333333333,0.08059981255857544,0.3684210526315789,0.06895438898450945,0.012371134020618556,0.014285714285714285,0.05042016806722689,0.13745704467353953,0.4035476718403548,0.06753392756765438,0.7475247524752475,0.18515157015792338,0.308411214953271,0.4395701039606782,true
152,0.06451612903225806,0.08333333333333333,0.06666666666666667,0.0,0.09497032177444549,0.4392712550607287,0.1266566265060241,0.04398625429553265,0.07857142857142857,0.25098039215686274,0.13745704467353953,0.4811529933481153,0.10196739741427768,0.04950495049504951,0.015247776365946635,0.037383177570093455,0.054616699669537465,true
246,0.04838709677419355,0.08333333333333333,0.0,0.16666666666666666,0.00937207122774133,0.032388663967611336,0.009412650602409638,6.872852233676976E-4,0.002380952380952381,0.004901960784313725,0.016609392898052692,0.03547671840354767,0.013490725126475547,0.28217821782178215,0.22871664548919948,0.3177570093457944,0.5374665681839474,true
118,0.6774193548387096,0.75,0.4,1.0,0.27491408934707906,0.22672064777327935,0.024359064163631265,0.2570446735395189,0.3333333333333333,0.17054263565891473,0.2898052691867125,0.2106430155210643,0.009372916584964117,1.0,0.23314913861883513,0.7289719626168224,0.5674527885935252,true
248,0.03225806451612903,0.08333333333333333,0.03333333333333333,0.16666666666666666,0.06154326772883474,0.20040485829959515,0.1460843373493976,0.024054982817869417,0.08095238095238096,0.22875816993464052,0.09278350515463918,0.21951219512195122,0.12385235150833802,0.28217821782178215,0.17153748411689962,0.3177570093457944,0.5142288471650065,true
119,0.016129032258064516,0.0,0.0,0.0,0.00937207122774133,0.058704453441295545,0.04216867469879517,6.872852233676976E-4,0.002380952380952381,0.00980392156862745,0.016609392898052692,0.06430155210643015,0.045531197301854974,0.11386138613861387,0.0698856416772554,0.3177570093457944,0.5353260423874148,true
220,0.08064516129032258,0.25,0.06666666666666667,0.3333333333333333,0.02999062792877226,0.15789473684210525,0.023343373493975902,0.005498281786941581,0.007142857142857143,0.0261437908496732,0.050400916380297825,0.1729490022172949,0.02492036724751733,0.7475247524752475,0.30072003388394747,0.3177570093457944,0.5274757738796616,true
122,0.3548387096774194,0.5833333333333334,0.23333333333333334,0.6666666666666666,0.18775382692908466,0.1862348178137652,0.03843635411210057,0.14914089347079038,0.2714285714285714,0.18499573742540495,0.21993127147766323,0.2039911308203991,0.0217269105750666,1.0,0.46820617645433954,0.7289719626168224,0.8410115026653598,true
23,0.06451612903225806,0.16666666666666666,0.0,0.3333333333333333,0.11121524523586379,0.2125506072874494,0.15015060240963854,0.16013745704467353,0.29285714285714287,0.9137254901960784,0.070446735395189,0.2328159645232816,0.04935356942102304,0.7475247524752475,0.2579415501905972,0.12149532710280374,0.16776188499149491,true
249,0.11290322580645161,0.3333333333333333,0.06666666666666667,0.16666666666666666,0.062480474851608875,0.31781376518218624,0.041039156626506014,0.005498281786941581,0.011904761904761904,0.0196078431372549,0.10996563573883161,0.34811529933481156,0.04328274311410905,0.7475247524752475,0.15803684879288438,1.0,0.0887270133121636,true
184,0.03225806451612903,0.08333333333333333,0.03333333333333333,0.16666666666666666,0.00937207122774133,0.04251012145748988,0.020331325301204815,0.002061855670103093,0.007142857142857143,0.0196078431372549,0.015463917525773196,0.04656319290465632,0.022671913059771405,0.019801980198019802,0.008470986869970352,0.11214953271028037,0.16579345260417208,true
94,0.9032258064516129,0.75,0.43333333333333335,0.8333333333333334,1.0,1.0,0.10462904248573239,1.0,1.0,0.500515995872033,1.0,1.0,0.051428458724100866,1.0,0.19472123765576582,0.7289719626168224,0.5686099017496974,true
24,0.22580645161290322,0.3333333333333333,0.16666666666666666,0.3333333333333333,0.2352389878163074,0.402834008097166,0.09427710843373494,0.22268041237113403,0.5404761904761904,0.42352941176470593,0.24570446735395188,0.3991130820399113,0.04995315720442196,1.0,0.28801355357899194,0.40186915887850466,0.5141920190143474,true
252,0.8225806451612904,0.8333333333333334,0.6,0.6666666666666666,0.6451109028428617,0.8340080971659919,0.0675828313253012,0.38762886597938145,0.2857142857142857,0.21266968325791857,0.8596792668957618,0.9135254988913526,0.0475634539715484,1.0,0.15712051607858468,0.6915887850467289,0.7061430876664658,true
223,0.3225806451612903,0.4166666666666667,0.26666666666666666,0.3333333333333333,0.2902218056857232,0.3340080971659919,0.07960413080895007,0.20481099656357388,0.4595238095238095,0.27824463118580767,0.361397479954181,0.36585365853658536,0.052008886747503945,1.0,0.4807285048708175,0.7289719626168224,0.8280143457516601,true
57,0.0,0.0,0.03333333333333333,0.0,0.0830990315526398,0.5384615384615384,0.6408132530120482,0.0,0.0,0.0,0.15234822451317298,0.5898004434589801,0.642495784148398,0.06435643564356436,0.08259212198221093,0.037383177570093455,0.05868932547584307,true
153,0.1774193548387097,0.25,0.13333333333333333,0.16666666666666666,0.11433926897844424,0.20647773279352227,0.05082831325301205,0.02542955326460481,0.03333333333333333,0.06045751633986928,0.1884306987399771,0.2261640798226164,0.04834176503653738,1.0,0.5061414654807285,0.6074766355140186,0.7740528491204808,true
124,0.532258064516129,0.4166666666666667,0.5,0.5,0.6504217432052484,0.5141700404858299,0.11684975194897236,0.41855670103092785,0.6357142857142857,0.35121107266435986,0.8436426116838488,0.5631929046563193,0.0807128922395265,1.0,0.2827191867852605,0.7289719626168224,0.5460899451890882,true
26,0.3387096774193548,0.5,0.26666666666666666,0.5,0.11277725710715401,0.305668016194332,0.016600492880613365,0.07010309278350516,0.05714285714285714,0.09090909090909091,0.14833906071019473,0.3348115299334812,0.010782359854872501,0.7475247524752475,0.13370682684532748,0.3177570093457944,0.43317759014946466,true
253,0.24193548387096775,0.3333333333333333,0.16666666666666666,0.5,0.0696657294595439,0.10728744939271255,0.012095256024096383,0.03367697594501718,0.04523809523809524,0.06004901960784314,0.09965635738831616,0.09534368070953436,0.00983698707138842,0.7475247524752475,0.13738881829733163,0.3177570093457944,0.4419415924814403,true
254,0.06451612903225806,0.16666666666666666,0.03333333333333333,0.3333333333333333,0.020930959075288972,0.07692307692307693,0.019578313253012045,0.006872852233676976,0.014285714285714285,0.0392156862745098,0.03264604810996564,0.08425720620842572,0.01967397414277684,0.7475247524752475,0.32147395171537485,0.3177570093457944,0.5067953939571891,true
126,0.11290322580645161,0.25,0.06666666666666667,0.3333333333333333,0.09653233364573571,0.354251012145749,0.07181852409638553,0.06804123711340206,0.14285714285714285,0.2426470588235294,0.12027491408934708,0.38802660753880264,0.04834176503653738,0.7475247524752475,0.17153748411689962,0.12149532710280374,0.16274532539221173,true
225,0.0967741935483871,0.25,0.16666666666666666,0.3333333333333333,0.05310840362386754,0.0931174089068826,0.04055507745266781,0.008934707903780068,0.014285714285714285,0.036414565826330535,0.08991981672394044,0.10199556541019955,0.04087368505580984,0.28217821782178215,0.07986930477400617,0.3177570093457944,0.40164794596725467,true
95,0.1935483870967742,0.25,0.13333333333333333,0.16666666666666666,0.15245235863792564,0.23684210526315788,0.06632298424467098,0.037800687285223365,0.05,0.08295625942684766,0.2479954180985109,0.25942350332594233,0.061183897608855446,1.0,0.44472681067344344,0.6822429906542056,0.7649166671197483,true
255,0.2903225806451613,0.3333333333333333,0.26666666666666666,0.5,0.11683848797250859,0.27530364372469635,0.024453075459733672,0.0879725085910653,0.16666666666666666,0.13209494324045407,0.140893470790378,0.30155210643015523,0.013875329132274192,0.7475247524752475,0.11669899016919681,0.3177570093457944,0.4194781917023398,true
27,0.06451612903225806,0.25,0.03333333333333333,0.3333333333333333,0.016557325835676352,0.08502024291497975,0.013253012048192767,0.0027491408934707906,0.004761904761904762,0.01568627450980392,0.028064146620847653,0.09312638580931264,0.016076447442383363,0.28217821782178215,0.2147395171537484,0.3177570093457944,0.5382084249358771,true
28,0.5161290322580645,0.6666666666666666,0.36666666666666664,0.6666666666666666,0.267416432364886,0.3582995951417004,0.03717141292442497,0.15532646048109966,0.10952380952380952,0.13428401663695783,0.36082474226804123,0.3924611973392461,0.02628306675524213,1.0,0.21158214932039582,0.6915887850467289,0.750793869721794,true
63,0.08064516129032258,0.25,0.03333333333333333,0.5,0.010621680724773508,0.0465587044534413,0.0,0.004123711340206186,0.004761904761904762,0.0196078431372549,0.016036655211912942,0.050997782705099776,0.0024358253700580866,0.7475247524752475,0.3218975010588733,0.3177570093457944,0.5221602394383011,true
132,0.03225806451612903,0.08333333333333333,0.0,0.16666666666666666,0.006560449859418931,0.0,0.013554216867469875,6.872852233676976E-4,0.002380952380952381,0.0065359477124183,0.011454753722794959,0.0,0.017425519955030916,0.28217821782178215,0.2795425667090216,0.3177570093457944,0.5385229315640546,true
262,0.1935483870967742,0.4166666666666667,0.06666666666666667,0.3333333333333333,0.10621680724773508,0.1680161943319838,0.04060472659870249,0.03161512027491409,0.03333333333333333,0.0693815987933635,0.16838487972508592,0.18403547671840353,0.03714273360141826,1.0,0.5229205356270159,0.6074766355140186,0.7742231042601289,true
99,0.3709677419354839,0.4166666666666667,0.4,0.6666666666666666,0.6704154951577632,0.8947368421052632,0.18128765060240964,0.5869415807560138,0.8928571428571429,0.6977124183006537,0.7399770904925544,0.9800443458980045,0.10511523327712198,1.0,0.2824544684455739,0.7289719626168224,0.8211885095696517,true
134,0.08064516129032258,0.25,0.06666666666666667,0.16666666666666666,0.09746954076850985,0.2550607287449393,0.10466867469879516,0.07285223367697595,0.1523809523809524,0.34640522875817,0.11798396334478808,0.2749445676274945,0.06913996627318718,0.7475247524752475,0.26577721304531976,0.11214953271028037,0.1296144458444439,true
194,0.0,0.0,0.0,0.0,0.05060918462980318,0.32793522267206476,0.40587349397590355,0.0,0.0,0.0,0.09278350515463918,0.35920177383592017,0.4086565486228218,0.019801980198019802,0.025412960609911054,0.0,0.004514563498141776,true
66,0.03225806451612903,0.16666666666666666,0.03333333333333333,0.16666666666666666,0.02592939706341768,0.12348178137651822,0.06024096385542168,0.012371134020618556,0.023809523809523808,0.11764705882352941,0.03722794959908362,0.1352549889135255,0.051152332771219784,0.24752475247524752,0.20542143159678103,0.11214953271028037,0.16949948989644906,true
102,1.0,0.8333333333333334,1.0,0.8333333333333334,0.5891908778506717,0.5789473684210527,0.04528829604130808,0.5594501718213059,0.7142857142857143,0.2533457827575475,0.6139747995418099,0.6341463414634146,0.0207089768641202,1.0,0.15873015873015872,0.7289719626168224,0.7580963998302038,true
229,0.5161290322580645,0.5,0.4,0.5,0.5601374570446735,0.582995951417004,0.1013143483023001,0.474914089347079,0.7452380952380953,0.4105763517528223,0.6311569301260023,0.6385809312638581,0.05844277513754748,1.0,0.34423010280697697,0.7289719626168224,0.8201333063263485,true
35,0.03225806451612903,0.08333333333333333,0.03333333333333333,0.16666666666666666,0.02280537332083724,0.05060728744939271,0.052710843373493965,0.006185567010309278,0.016666666666666666,0.058823529411764705,0.03665521191294387,0.05543237250554324,0.05040284804197115,0.034653465346534656,0.03600169419737399,0.056074766355140186,0.0982029307467077,true
37,0.03225806451612903,0.08333333333333333,0.03333333333333333,0.16666666666666666,0.05092158700406123,0.3097165991902834,0.12048192771084336,0.004123711340206186,0.014285714285714285,0.0392156862745098,0.08991981672394044,0.3392461197339246,0.1201049278620948,0.7475247524752475,0.39178314273612874,0.2897196261682243,0.4836492057538062,true
233,0.27419354838709675,0.08333333333333333,0.13333333333333333,0.8333333333333334,0.0859106529209622,0.07489878542510121,0.014683734939759031,0.029553264604810996,0.03333333333333333,0.046840958605664486,0.13287514318442153,0.082039911308204,0.013927924551870589,1.0,0.3550755329662572,0.7289719626168224,0.7370658141570146,true
195,0.16129032258064516,0.5833333333333334,0.03333333333333333,0.3333333333333333,0.09184629803186505,0.1680161943319838,0.04278477546549835,0.02336769759450172,0.02142857142857143,0.06060606060606061,0.14891179839633448,0.18403547671840353,0.040318871684807606,1.0,0.44472681067344344,0.6074766355140186,0.6420354232000195,true
234,0.04838709677419355,0.0,0.03333333333333333,0.0,0.04498594189315839,0.05263157894736842,0.07379518072289155,0.009621993127147767,0.03333333333333333,0.06862745098039216,0.07445589919816724,0.057649667405764965,0.07026419336706015,1.0,0.9069250317662008,0.6355140186915887,0.7994189561796745,false
165,0.016129032258064516,0.08333333333333333,0.06666666666666667,0.16666666666666666,0.013745704467353952,0.0708502024291498,0.057981927710843366,6.872852233676976E-4,0.002380952380952381,0.00980392156862745,0.024627720504009163,0.07760532150776053,0.06127037661607645,0.04455445544554455,0.05717916137229987,0.056074766355140186,0.08464806559015826,false
196,0.0967741935483871,0.08333333333333333,0.03333333333333333,0.16666666666666666,0.03342705404561075,0.02631578947368421,0.02022375215146299,0.010996563573883162,0.02619047619047619,0.04481792717086835,0.05211912943871707,0.028824833702882482,0.01967397414277684,1.0,0.7750952986022871,0.6074766355140186,0.7760534653305712,false
38,0.2903225806451613,0.5,0.2,0.3333333333333333,0.12089971883786317,0.1882591093117409,0.025998731769181986,0.028178694158075602,0.03333333333333333,0.04231166150670795,0.1981672394043528,0.20620842572062084,0.025709298541463275,1.0,0.30729619474352976,0.6074766355140186,0.7407637207812412,false
198,0.06451612903225806,0.0,0.03333333333333333,0.0,0.03405185879412684,0.022267206477732792,0.03855421686746987,0.026804123711340205,0.09285714285714286,0.15294117647058822,0.04009163802978236,0.024390243902439025,0.02551995503091625,1.0,1.0,0.5981308411214953,0.679062846760639,false
1,0.06451612903225806,0.25,0.1,0.16666666666666666,0.013745704467353952,0.04251012145748988,0.009186746987951806,0.010309278350515464,0.02619047619047619,0.058823529411764705,0.016609392898052692,0.04656319290465632,0.0070826306913996636,0.15346534653465346,0.11054637865311308,0.056074766355140186,0.08737561437028558,false
199,0.1774193548387097,0.08333333333333333,0.1,0.16666666666666666,0.06935332708528585,0.032388663967611336,0.023719879518072286,0.05360824742268041,0.10476190476190476,0.12745098039215685,0.08247422680412371,0.03547671840354767,0.01367809630878771,1.0,0.6363828886065227,0.7289719626168224,0.87702619253001,false
39,0.3870967741935484,0.8333333333333334,0.16666666666666666,0.6666666666666666,0.11746329272102468,0.09716599190283401,0.013162650602409637,0.11271477663230241,0.18095238095238095,0.12862745098039216,0.12142038946162657,0.10643015521064302,0.0030354131534569974,1.0,0.4856416772554002,0.7757009345794392,0.6726867232163107,false
166,0.03225806451612903,0.08333333333333333,0.0,0.16666666666666666,0.00999687597625742,0.03441295546558704,0.02183734939759036,0.004123711340206186,0.011904761904761904,0.0392156862745098,0.014891179839633447,0.026607538802660754,0.021922428330522766,0.08415841584158416,0.1037695891571368,0.12149532710280374,0.1142936992279559,false
236,0.08064516129032258,0.16666666666666666,0.1,0.3333333333333333,0.033114651671352704,0.05465587044534413,0.027108433734939753,0.056357388316151204,0.13095238095238096,0.2679738562091503,0.013745704467353952,0.05321507760532151,9.368559115608006E-4,0.43564356435643564,0.23824650571791614,0.3177570093457944,0.4916494412565889,false
2,0.06451612903225806,0.16666666666666666,0.13333333333333333,0.16666666666666666,0.033739456419868794,0.1417004048582996,0.03810240963855421,0.008247422680412371,0.01904761904761905,0.047058823529411764,0.054982817869415807,0.15521064301552107,0.03721191680719506,0.15346534653465346,0.06607369758576874,0.056074766355140186,0.08864810163079126,false
137,0.0,0.08333333333333333,0.0,0.0,0.004686035613870665,0.030364372469635626,0.07379518072289155,0.0,0.0,0.0,0.00859106529209622,0.03325942350332594,0.07813378302417089,0.28217821782178215,0.3621346886912325,0.3177570093457944,0.5372330562788712,false
237,0.016129032258064516,0.0,0.03333333333333333,0.0,0.10309278350515463,0.5080971659919028,0.38102409638554213,0.01168384879725086,0.04047619047619048,0.16666666666666666,0.17926689576174112,0.5188470066518847,0.36481169196177626,0.0049504950495049506,0.0,0.037383177570093455,0.04259200618707777,false
202,0.016129032258064516,0.08333333333333333,0.0,0.16666666666666666,0.007497656982193065,0.016194331983805668,0.03539156626506024,0.0013745704467353953,0.004761904761904762,0.0196078431372549,0.012600229095074456,0.013303769401330377,0.03766160764474424,0.08415841584158416,0.06353240152477764,0.12149532710280374,0.12241412562269041,false
40,0.03225806451612903,0.16666666666666666,0.06666666666666667,0.16666666666666666,0.01718213058419244,0.08502024291497975,0.0391566265060241,0.004123711340206186,0.014285714285714285,0.0392156862745098,0.028064146620847653,0.09312638580931264,0.03916057710324152,0.28217821782178215,0.17153748411689962,0.3177570093457944,0.5313858806638081,false
169,0.03225806451612903,0.16666666666666666,0.06666666666666667,0.16666666666666666,0.015620118712902219,0.09716599190283401,0.03539156626506024,0.009621993127147767,0.02619047619047619,0.09150326797385622,0.020618556701030927,0.10643015521064302,0.02941727562300918,0.24752475247524752,0.14400677678949597,0.056074766355140186,0.0915646083853883,false
4,0.0,0.0,0.03333333333333333,0.0,0.00499843798812871,0.032388663967611336,0.07605421686746987,0.0,0.0,0.0,0.009163802978235968,0.03547671840354767,0.08038223721191681,0.024752475247524754,0.03176620076238882,0.0,0.0,false
5,0.04838709677419355,0.16666666666666666,0.1,0.16666666666666666,0.015620118712902219,0.0951417004048583,0.020707831325301202,0.009621993127147767,0.023809523809523808,0.06862745098039216,0.020618556701030927,0.10421286031042129,0.017425519955030916,0.24752475247524752,0.11118170266836086,0.056074766355140186,0.09136203181816399,false
41,0.06451612903225806,0.08333333333333333,0.06666666666666667,0.0,0.03655107778819119,0.032388663967611336,0.04216867469879517,0.01168384879725086,0.03333333333333333,0.06666666666666667,0.0572737686139748,0.03547671840354767,0.03901068015739179,1.0,0.96569250317662,0.6074766355140186,0.7892546716975511,false
71,0.08064516129032258,0.0,0.03333333333333333,0.16666666666666666,0.05029678225554514,0.05060728744939271,0.047816265060240955,0.05017182130584193,0.1261904761904762,0.23856209150326796,0.050400916380297825,0.04878048780487805,0.02492036724751733,1.0,0.4119017365523083,0.37383177570093457,0.5542283574901298,false
138,0.06451612903225806,0.3333333333333333,0.13333333333333333,0.16666666666666666,0.05529522024367385,0.2408906882591093,0.06927710843373493,0.07766323024054983,0.2119047619047619,0.4431372549019608,0.03665521191294387,0.2638580931263858,0.022821810005621133,0.15346534653465346,0.10292249047013977,0.056074766355140186,0.08987284700447115,false
42,0.1935483870967742,0.16666666666666666,0.06666666666666667,0.6666666666666666,0.10090596688534832,0.1437246963562753,0.03765060240963855,0.026804123711340205,0.03571428571428571,0.058823529411764705,0.16265750286368844,0.1574279379157428,0.03541315345699832,1.0,0.4862672270550288,0.7570093457943925,0.8465771209335944,false
139,0.7258064516129032,0.75,0.36666666666666664,0.8333333333333334,0.2755388940955951,0.2408906882591093,0.021346254583551598,0.21168384879725086,0.19523809523809524,0.13128729752770674,0.32875143184421535,0.2638580931263858,0.010875675147249311,1.0,0.30205513507541015,0.7757009345794392,0.7857101662636842,false
6,0.04838709677419355,0.16666666666666666,0.03333333333333333,0.16666666666666666,0.017494532958450486,0.10323886639676114,0.024096385542168672,0.002061855670103093,0.004761904761904762,0.014705882352941176,0.030355097365406643,0.1130820399113082,0.026981450252951095,0.7475247524752475,0.27001270648030495,0.056074766355140186,0.0904525043734834,false
171,0.1774193548387097,0.3333333333333333,0.06666666666666667,0.3333333333333333,0.1162136832239925,0.1720647773279352,0.051957831325301206,0.10927835051546392,0.26904761904761904,0.25980392156862747,0.12199312714776632,0.18181818181818182,0.026606707888326774,1.0,0.36319356204997877,0.37383177570093457,0.5439484694823571,false
140,0.0,0.0,0.0,0.0,0.013745704467353952,0.08906882591093117,0.13930722891566263,0.0,0.0,0.0,0.025200458190148912,0.0975609756097561,0.1433389544688027,0.01485148514851485,0.01905972045743329,0.028037383177570093,0.04966019847955953,false
172,0.03225806451612903,0.08333333333333333,0.06666666666666667,0.0,0.033739456419868794,0.2125506072874494,0.07906626506024096,6.872852233676976E-4,0.002380952380952381,0.0065359477124183,0.06128293241695303,0.2328159645232816,0.08263069139966273,0.04950495049504951,0.021177467174925878,0.037383177570093455,0.06473087368659161,false
7,0.14516129032258066,0.5,0.1,0.16666666666666666,0.05810684161199625,0.10931174089068826,0.024999999999999994,0.03848797250859107,0.06428571428571428,0.10980392156862745,0.07445589919816724,0.1197339246119734,0.016975829117481734,0.15346534653465346,0.07052096569250317,0.056074766355140186,0.08621972437806277,false
203,0.0,0.0,0.0,0.0,0.09184629803186505,0.5951417004048583,0.704066265060241,0.0,0.0,0.0,0.16838487972508592,0.6518847006651884,0.7054525014052838,0.0049504950495049506,0.0063532401524777635,0.12149532710280374,0.20089807566730897,false
72,0.0,0.0,0.0,0.0,0.019056544829740705,0.12348178137651822,0.17771084337349397,0.0,0.0,0.0,0.03493699885452463,0.1352549889135255,0.18156267566048342,0.019801980198019802,0.025412960609911054,0.0,0.004514563498141773,false
43,0.4838709677419355,1.0,0.36666666666666664,0.5,0.21836925960637302,0.19230769230769232,0.029634667703070345,0.16563573883161511,0.17857142857142858,0.15243516761543327,0.2623138602520046,0.2106430155210643,0.016700212152532232,1.0,0.31274337008648606,0.719626168224299,0.6592411530185418,false
173,0.1935483870967742,0.08333333333333333,0.1,0.16666666666666666,0.11715089034676664,0.0951417004048583,0.0466867469879518,0.07628865979381444,0.17857142857142858,0.167420814479638,0.15120274914089346,0.10421286031042129,0.031953993168158425,1.0,0.6553611572671293,0.7289719626168224,0.8576438383479804,false
142,0.0,0.0,0.0,0.0,0.0043736332396126214,0.02834008097165992,0.07153614457831324,0.0,0.0,0.0,0.008018327605956471,0.031042128603104215,0.07588532883642496,0.0049504950495049506,0.0063532401524777635,0.12149532710280374,0.20089807566730897,false
239,0.0967741935483871,0.16666666666666666,0.1,0.3333333333333333,0.03498906591690097,0.044534412955465584,0.02183734939759036,0.02268041237113402,0.047619047619047616,0.09243697478991597,0.04524627720504009,0.04656319290465632,0.015819481249498113,0.16336633663366337,0.08622254492648393,0.32710280373831774,0.4449747265061311,false
240,0.12903225806451613,0.0,0.1,0.16666666666666666,0.1274601686972821,0.1720647773279352,0.08609437751004015,0.10927835051546392,0.26904761904761904,0.34640522875817,0.14261168384879724,0.18181818181818182,0.05065267628505403,1.0,0.277424819991529,0.37383177570093457,0.5435751896334855,false
143,0.0967741935483871,0.25,0.1,0.3333333333333333,0.09090909090909091,0.25303643724696356,0.07960413080895007,0.10446735395189004,0.28809523809523807,0.42577030812324934,0.07961053837342497,0.2771618625277162,0.035091945715891755,0.08415841584158416,0.04991831548375386,0.11214953271028037,0.131849312948081,false
8,0.08064516129032258,0.0,0.1,0.0,0.04248672289909403,0.22469635627530365,0.038403614457831324,0.006872852233676976,0.01904761904761905,0.032679738562091505,0.07216494845360824,0.24611973392461198,0.03916057710324152,0.054455445544554455,0.023295213892418468,0.056074766355140186,0.09439291606785453,false
9,0.27419354838709675,0.25,0.16666666666666666,0.5,0.1880662293033427,0.2611336032388664,0.05572289156626505,0.1140893470790378,0.14761904761904762,0.18082788671023964,0.24971363115693013,0.2860310421286031,0.0394104053463244,1.0,0.38013553578991954,0.6355140186915887,0.7825279226648112,false
204,0.04838709677419355,0.25,0.0,0.0,0.03155263980006248,0.0708502024291498,0.04951054216867469,0.04673539518900344,0.15,0.3333333333333333,0.018900343642611683,0.07760532150776053,0.015739179314221474,0.7475247524752475,0.4320203303684879,0.3364485981308411,0.5289388582241455,false
110,0.3870967741935484,0.5,0.2,0.3333333333333333,0.24617307091533897,0.2408906882591093,0.050391566265060236,0.20962199312714777,0.35,0.2392156862745098,0.2766323024054983,0.24168514412416853,0.027408656548622824,1.0,0.4332909783989835,0.7289719626168224,0.7777386810677452,false
111,0.4032258064516129,0.5,0.3,0.5,0.183067791315214,0.19838056680161945,0.03000463392029657,0.15601374570446735,0.3,0.1711915535444947,0.20561282932416952,0.1662971175166297,0.014917628745622,1.0,0.39414524484410124,0.7289719626168224,0.7526674381934545,false
75,0.08064516129032258,0.25,0.13333333333333333,0.16666666666666666,0.07216494845360824,0.2854251012145749,0.07417168674698794,0.019243986254295534,0.02857142857142857,0.09150326797385622,0.11626575028636885,0.31263858093126384,0.06801573917931422,0.24752475247524752,0.10800508259212198,0.056074766355140186,0.08561111436727155,false
44,0.27419354838709675,0.25,0.2,0.5,0.1655732583567635,0.23684210526315788,0.0466867469879518,0.11202749140893471,0.23809523809523808,0.1775599128540305,0.21019473081328752,0.20842572062084258,0.03079133095996502,1.0,0.5223775236481717,0.7289719626168224,0.5522047404245904,false
45,0.16129032258064516,0.3333333333333333,0.1,0.3333333333333333,0.08903467666354264,0.12348178137651822,0.040936473165388815,0.027491408934707903,0.03333333333333333,0.07130124777183601,0.14032073310423826,0.1352549889135255,0.037252797792426795,1.0,0.5544645951253321,0.6074766355140186,0.7586558088083389,false
10,0.5806451612903226,0.75,0.43333333333333335,0.5,0.3558263042799125,0.4109311740890688,0.04790784760664278,0.3161512027491409,0.5261904761904762,0.24377318494965552,0.3888888888888889,0.4501108647450111,0.024413958646673655,1.0,0.32659088567601907,0.7289719626168224,0.6453175865756421,false
144,0.0967741935483871,0.0,0.06666666666666667,0.16666666666666666,0.08903467666354264,0.11538461538461539,0.07766781411359724,0.08041237113402062,0.20238095238095238,0.3277310924369748,0.09621993127147767,0.1197339246119734,0.04440697020798201,1.0,0.35396623706661823,0.37383177570093457,0.5520820758358583,false
77,0.24193548387096775,0.5,0.16666666666666666,0.3333333333333333,0.13651983755076538,0.14979757085020243,0.04230986445783132,0.058419243986254296,0.06428571428571428,0.10416666666666667,0.2016036655211913,0.164079822616408,0.03485103991006183,1.0,0.5682179161372299,0.719626168224299,0.8947088154220543,false
46,0.3709677419354839,0.5,0.23333333333333334,0.5,0.20899718837863168,0.15384615384615385,0.04226280120481928,0.252233676975945,0.24523809523809523,0.29983660130718953,0.1729667812142039,0.11086474501108648,0.012366498032602586,1.0,0.41719610334603985,0.7289719626168224,0.6333505096944734,false
11,0.2903225806451613,0.5833333333333334,0.16666666666666666,0.3333333333333333,0.1965010934083099,0.2550607287449393,0.0547717184527584,0.09347079037800687,0.1,0.14035087719298245,0.28235967926689576,0.2793791574279379,0.04310523357297122,1.0,0.48351501370962346,0.719626168224299,0.7612467964937433,false
145,0.12903225806451613,0.08333333333333333,0.06666666666666667,0.16666666666666666,0.09559512652296158,0.0728744939271255,0.06049196787148594,0.06529209621993128,0.1523809523809524,0.20697167755991286,0.12084765177548683,0.07982261640798226,0.04115920304790457,1.0,0.6466186644077367,0.7289719626168224,0.8521914435601604,false
174,0.0,0.0,0.0,0.0,0.0018744142455482662,0.012145748987854251,0.05346385542168674,0.0,0.0,0.0,0.003436426116838488,0.013303769401330377,0.05789769533445756,0.07920792079207921,0.10165184243964422,0.11214953271028037,0.1918689486710254,false
78,0.0,0.0,0.0,0.0,0.043423930021868166,0.2813765182186235,0.35391566265060237,0.0,0.0,0.0,0.07961053837342497,0.3082039911308204,0.35694210230466555,0.019801980198019802,0.025412960609911054,0.0,0.004514563498141776,false
79,0.11290322580645161,0.0,0.1,0.16666666666666666,0.11652608559825055,0.20040485829959515,0.08989081325301204,0.08728522336769759,0.18095238095238095,0.3112745098039216,0.140893470790378,0.16851441241685144,0.05845980888139404,1.0,0.30813214739517153,0.37383177570093457,0.5136469951102751,false
206,0.12903225806451613,0.25,0.06666666666666667,0.0,0.05123398937831927,0.06072874493927125,0.02484939759036144,0.021993127147766325,0.03333333333333333,0.06971677559912853,0.07560137457044673,0.06651884700665188,0.021422771844357005,1.0,0.6557955668502047,0.6074766355140186,0.7818424524828755,false
175,0.6774193548387096,0.8333333333333334,0.4,0.8333333333333334,0.35863792564823493,0.3603238866396761,0.03843863827402633,0.2797250859106529,0.48333333333333334,0.1855905152758778,0.42439862542955326,0.3946784922394678,0.021660980169156963,1.0,0.23506988564167725,0.7289719626168224,0.8481121945807581,false
47,0.04838709677419355,0.0,0.06666666666666667,0.16666666666666666,0.1527647610121837,0.5870445344129555,0.26863704819277107,0.11271477663230241,0.37857142857142856,0.803921568627451,0.1861397479954181,0.6430155210643016,0.17987633501967398,0.11386138613861387,0.042884371029224905,0.028037383177570093,0.04417199120957479,false
241,0.03225806451612903,0.16666666666666666,0.0,0.0,0.00937207122774133,0.01417004048582996,0.020331325301204815,0.006185567010309278,0.014285714285714285,0.058823529411764705,0.012027491408934709,0.015521064301552107,0.018175004684279555,0.08415841584158416,0.1058873358746294,0.11214953271028037,0.1451665676557657,false
176,0.11290322580645161,0.16666666666666666,0.13333333333333333,0.3333333333333333,0.06154326772883474,0.2834008097165992,0.04019201807228915,0.010309278350515464,0.014285714285714285,0.03676470588235294,0.10423825887743414,0.31042128603104213,0.04047217537942664,0.19306930693069307,0.04764930114358323,0.11214953271028037,0.146542731149682,false
242,0.08064516129032258,0.3333333333333333,0.06666666666666667,0.16666666666666666,0.0971571383942518,0.39068825910931176,0.10429216867469879,0.15051546391752577,0.3261904761904762,0.7156862745098039,0.052691867124856816,0.4279379157427938,0.026419336706014616,0.15346534653465346,0.06141465480728504,0.056074766355140186,0.09077735128343188,false
114,0.5967741935483871,1.0,0.5,0.6666666666666666,0.42736644798500467,0.7165991902834008,0.059646480659480014,0.10309278350515463,0.05476190476190476,0.07739938080495355,0.697594501718213,0.7849223946784922,0.05517588237034408,1.0,0.22269778639737844,0.719626168224299,0.7320529642565259,false
80,0.06451612903225806,0.16666666666666666,0.06666666666666667,0.16666666666666666,0.026241799437675725,0.11336032388663968,0.027259036144578308,0.016494845360824743,0.05,0.09411764705882353,0.03436426116838488,0.12416851441241686,0.0210230466554244,0.7475247524752475,0.2668360864040661,0.3177570093457944,0.5053691058745758,false
208,0.08064516129032258,0.16666666666666666,0.06666666666666667,0.16666666666666666,0.023430178069353328,0.05263157894736842,0.015436746987951808,0.010996563573883162,0.011904761904761904,0.0522875816993464,0.03379152348224513,0.057649667405764965,0.014052838673412029,0.24752475247524752,0.0688267683185091,0.056074766355140186,0.09640565450643526,false
209,0.016129032258064516,0.0,0.03333333333333333,0.0,0.013120899718837863,0.05060728744939271,0.05572289156626505,0.0013745704467353953,0.004761904761904762,0.0196078431372549,0.022909507445589918,0.05543237250554324,0.05789769533445756,0.10891089108910891,0.10800508259212198,0.2897196261682243,0.4921519150617126,false
243,0.0,0.08333333333333333,0.0,0.0,0.0,0.0,0.03990963855421686,0.0,0.0,0.0,0.0,0.0,0.04440697020798201,0.7475247524752475,0.9593392630241423,0.056074766355140186,0.09480583346097726,false
178,0.0967741935483871,0.25,0.03333333333333333,0.3333333333333333,0.037800687285223365,0.05465587044534413,0.024741824440619616,0.048109965635738834,0.06428571428571428,0.19607843137254902,0.029209621993127148,0.03547671840354767,0.006825664498514416,0.7475247524752475,0.17426030132510437,0.11214953271028037,0.10235030534713363,false
117,0.1935483870967742,0.3333333333333333,0.13333333333333333,0.5,0.0746641674476726,0.0931174089068826,0.023053753475440225,0.030240549828178694,0.03333333333333333,0.06636500754147813,0.11168384879725086,0.10199556541019955,0.020019890171660826,1.0,0.47942527612159125,0.6074766355140186,0.7121512562349637,false
210,0.25806451612903225,0.25,0.1,0.5,0.15057794439237737,0.18016194331983806,0.044427710843373484,0.088659793814433,0.19523809523809524,0.14878892733564014,0.20217640320733105,0.1973392461197339,0.0318420791588136,1.0,0.41632408999177817,0.7289719626168224,0.8261961024584618,false
48,0.4838709677419355,0.5833333333333334,0.26666666666666666,0.6666666666666666,0.28834739144017496,0.2388663967611336,0.04595802565099106,0.30652920962199315,0.3476190476190476,0.2820999367488931,0.27319587628865977,0.25942350332594233,0.01807829697727973,1.0,0.3781202606877895,0.7289719626168224,0.6869352223292404,false
82,0.0967741935483871,0.0,0.03333333333333333,0.16666666666666666,0.13183380193689473,0.5141700404858299,0.12188037865748709,0.06804123711340206,0.22380952380952382,0.2773109243697479,0.1849942726231386,0.5631929046563193,0.09419417007949893,1.0,0.20239607914322016,0.3364485981308411,0.5436788497178846,false
83,0.04838709677419355,0.16666666666666666,0.0,0.16666666666666666,0.020618556701030927,0.03643724696356275,0.029743975903614456,0.004810996563573883,0.011904761904761904,0.03431372549019608,0.03379152348224513,0.037694013303769404,0.03035413153456998,0.24752475247524752,0.11118170266836086,0.056074766355140186,0.09619862432742526,false
211,0.016129032258064516,0.0,0.03333333333333333,0.16666666666666666,0.04248672289909403,0.2732793522267207,0.1618975903614458,6.872852233676976E-4,0.002380952380952381,0.00980392156862745,0.07731958762886598,0.29933481152993346,0.16469926925238898,0.019801980198019802,0.01588310038119441,0.028037383177570093,0.045131871068313664,false
84,0.1774193548387097,0.25,0.16666666666666666,0.3333333333333333,0.05248359887535145,0.05465587044534413,0.013554216867469875,0.027491408934707903,0.04047619047619048,0.06535947712418301,0.07331042382588775,0.0598669623059867,0.010680157391793142,1.0,0.583439220669208,0.7102803738317757,0.8485997367272412,false
15,0.04838709677419355,0.08333333333333333,0.03333333333333333,0.0,0.07872539831302718,0.13157894736842105,0.134789156626506,0.07079037800687285,0.22142857142857142,0.5049019607843137,0.08533791523482245,0.14412416851441243,0.08094435075885328,1.0,0.5479669631512071,0.40186915887850466,0.583579887619616,false
148,0.06451612903225806,0.16666666666666666,0.0,0.16666666666666666,0.038425492033739454,0.10526315789473684,0.044879518072289154,0.0288659793814433,0.0761904761904762,0.16470588235294117,0.04639175257731959,0.11529933481152993,0.03046655424395728,0.25742574257425743,0.09529860228716645,0.3177570093457944,0.5196083199732117,false
179,0.06451612903225806,0.16666666666666666,0.03333333333333333,0.0,0.13839425179631365,0.24898785425101214,0.18945783132530122,0.1161512027491409,0.3595238095238095,0.6627450980392157,0.15693012600229095,0.2727272727272727,0.11725688589094997,1.0,0.6302414231257941,0.40186915887850466,0.5663380925041526,false
85,0.016129032258064516,0.0,0.0,0.0,0.05529522024367385,0.3481781376518219,0.2082078313253012,0.002061855670103093,0.007142857142857143,0.029411764705882353,0.09965635738831616,0.38137472283813745,0.20854412591343452,0.0,0.0,0.06542056074766354,0.10592707524908263,false
180,0.016129032258064516,0.08333333333333333,0.03333333333333333,0.16666666666666666,0.023117775695095284,0.12955465587044535,0.09186746987951806,0.0013745704467353953,0.004761904761904762,0.0196078431372549,0.041237113402061855,0.1419068736141907,0.09387296233839236,0.28217821782178215,0.25095298602287164,0.3177570093457944,0.5321431072368485,false
17,0.0967741935483871,0.0,0.06666666666666667,0.3333333333333333,0.07685098406747891,0.07489878542510121,0.06508175559380379,0.013745704467353952,0.02619047619047619,0.056022408963585436,0.12943871706758306,0.082039911308204,0.06303701919216254,1.0,0.6380468324559811,0.6355140186915887,0.6438360702678392,false
212,0.22580645161290322,0.25,0.16666666666666666,0.3333333333333333,0.08747266479225242,0.05668016194331984,0.023042168674698795,0.06872852233676977,0.13333333333333333,0.13071895424836602,0.10309278350515463,0.06208425720620843,0.012628817687839612,1.0,0.6010165184243964,0.7289719626168224,0.8539633983230158,false
244,0.08064516129032258,0.25,0.1,0.16666666666666666,0.09122149328334896,0.24898785425101214,0.09713855421686747,0.04261168384879725,0.06190476190476191,0.20261437908496732,0.13172966781214204,0.2727272727272727,0.07813378302417089,0.15346534653465346,0.10906395595086828,0.056074766355140186,0.0853181961094137,false
88,0.03225806451612903,0.0,0.0,0.0,0.08559825054670415,0.47368421052631576,0.20406626506024098,0.0,0.0,0.0,0.15693012600229095,0.5188470066518847,0.2077946411841859,0.0049504950495049506,0.0,0.12149532710280374,0.20089807566730897,false
181,0.3387096774193548,0.5,0.26666666666666666,0.5,0.3717588253670728,0.7510121457489879,0.1017250821467689,0.2501718213058419,0.2642857142857143,0.32442067736185387,0.47308132875143183,0.8226164079822617,0.06873115642086974,0.900990099009901,0.20272611759269954,0.719626168224299,0.6933524442441681,false
214,0.04838709677419355,0.08333333333333333,0.0,0.16666666666666666,0.006248047485160888,0.008097165991902834,0.003765060240963854,0.006185567010309278,0.011904761904761904,0.04411764705882353,0.006300114547537228,0.0022172949002217295,0.003372681281618887,0.08415841584158416,0.08259212198221093,0.12149532710280374,0.11103004603242428,false
150,0.14516129032258066,0.25,0.1,0.16666666666666666,0.052171196501093406,0.06275303643724696,0.020707831325301202,0.021993127147766325,0.03333333333333333,0.06274509803921569,0.07731958762886598,0.06873614190687362,0.018100056211354694,1.0,0.5978398983481575,0.6074766355140186,0.7795493580906706,false
245,0.016129032258064516,0.16666666666666666,0.0,0.0,0.010934083099031553,0.048582995951417005,0.047816265060240955,0.007560137457044674,0.02619047619047619,0.10784313725490197,0.013745704467353952,0.05321507760532151,0.039910061832490164,0.08415841584158416,0.10800508259212198,0.04672897196261682,0.0772133677658375,false
91,0.12903225806451613,0.16666666666666666,0.1,0.3333333333333333,0.07560137457044673,0.11336032388663968,0.044427710843373484,0.018556701030927835,0.03333333333333333,0.058823529411764705,0.12313860252004583,0.12416851441241686,0.04215851602023609,1.0,0.6663843004376676,0.5981308411214953,0.7813120957756288,false
18,0.08064516129032258,0.25,0.13333333333333333,0.16666666666666666,0.140893470790378,0.48380566801619435,0.15700301204819275,0.09278350515463918,0.24047619047619048,0.4411764705882353,0.18098510882016036,0.5299334811529933,0.11036162638186248,0.24752475247524752,0.10800508259212198,0.056074766355140186,0.0840990607388707,false
151,0.3064516129032258,0.16666666666666666,0.13333333333333333,0.6666666666666666,0.14745392064979693,0.11133603238866396,0.03313253012048192,0.09759450171821306,0.1976190476190476,0.1392156862745098,0.18900343642611683,0.12195121951219512,0.02169758291174817,1.0,0.4809402795425667,0.7289719626168224,0.7543519585950036,false
182,0.06451612903225806,0.16666666666666666,0.03333333333333333,0.3333333333333333,0.04842236800999688,0.2894736842105263,0.059337349397590354,0.0027491408934707906,0.007142857142857143,0.01568627450980392,0.08648339060710195,0.3170731707317073,0.06194491287240022,0.30198019801980197,0.10038119440914867,0.3177570093457944,0.5108117584290905,false
19,0.03225806451612903,0.08333333333333333,0.03333333333333333,0.16666666666666666,0.03467666354264293,0.16396761133603238,0.08132530120481928,0.005498281786941581,0.011904761904761904,0.0522875816993464,0.05899198167239404,0.17960088691796008,0.07963275248266816,0.10891089108910891,0.10800508259212198,0.2897196261682243,0.49239597060128326,false
52,0.016129032258064516,0.08333333333333333,0.03333333333333333,0.16666666666666666,0.027803811308965948,0.07692307692307693,0.10881024096385541,0.002061855670103093,0.007142857142857143,0.029411764705882353,0.049255441008018326,0.08425720620842572,0.10961214165261383,0.034653465346534656,0.03176620076238882,0.028037383177570093,0.039820765214378724,false
219,0.2903225806451613,0.5,0.23333333333333334,0.16666666666666666,0.16182442986566697,0.22469635627530365,0.04157419150285351,0.1422680412371134,0.20714285714285716,0.21362229102167185,0.17812142038946163,0.24611973392461198,0.021567409248247092,1.0,0.5196281682605497,0.7289719626168224,0.901879145713945,false
218,0.04838709677419355,0.0,0.06666666666666667,0.16666666666666666,0.08716026241799438,0.15182186234817813,0.15003765060240964,0.1402061855670103,0.24523809523809523,1.0,0.0429553264604811,0.1574279379157428,0.03934794828555368,0.019801980198019802,0.007941550190597205,0.028037383177570093,0.03982962617171659,false
247,0.22580645161290322,0.4166666666666667,0.16666666666666666,0.16666666666666666,0.06216807247735083,0.048582995951417005,0.0108433734939759,0.02611683848797251,0.02857142857142857,0.04967320261437908,0.09221076746849943,0.05321507760532151,0.009780775716694771,1.0,0.6010165184243964,0.7289719626168224,0.9230392998931987,false
53,0.03225806451612903,0.16666666666666666,0.0,0.16666666666666666,0.024054982817869417,0.10728744939271255,0.05572289156626505,0.008934707903780068,0.02619047619047619,0.0849673202614379,0.03665521191294387,0.11751662971175167,0.05040284804197115,0.24752475247524752,0.1376535366370182,0.2523364485981308,0.3864681333623556,false
120,0.1774193548387097,0.4166666666666667,0.13333333333333333,0.16666666666666666,0.08184942205560762,0.12348178137651822,0.03125,0.0288659793814433,0.03333333333333333,0.06862745098039216,0.12600229095074456,0.1352549889135255,0.0279183061645119,1.0,0.51143583227446,0.6074766355140186,0.7674913621444402,false
20,0.6129032258064516,0.5,0.4,0.8333333333333334,0.4311152764761012,0.4251012145748988,0.05821362372567191,0.6130584192439863,0.4928571428571429,0.44846656611362495,0.27949599083619703,0.4656319290465632,0.011199031435119123,1.0,0.19238914410451896,0.7102803738317757,0.7718556908051682,false
21,0.0,0.08333333333333333,0.0,0.0,0.031865042174320526,0.20647773279352227,0.2703313253012048,0.0,0.0,0.0,0.058419243986254296,0.2261640798226164,0.27374929735806636,0.08415841584158416,0.10800508259212198,0.028037383177570093,0.04740291673048863,false
22,0.2903225806451613,0.5,0.16666666666666666,0.5,0.3673851921274602,0.5850202429149798,0.11980818008877615,0.2515463917525773,0.7547619047619047,0.3777089783281734,0.4639175257731959,0.5631929046563193,0.08061891660010059,1.0,0.37952250384538216,0.719626168224299,0.7279133698760504,false
121,0.1935483870967742,0.4166666666666667,0.13333333333333333,0.5,0.0718525460793502,0.0465587044534413,0.021489805375347542,0.018556701030927835,0.030952380952380953,0.04072398190045249,0.11626575028636885,0.050997782705099776,0.021403554287196785,1.0,0.4623203987879973,0.7289719626168224,0.7523747547658988,false
221,0.04838709677419355,0.25,0.0,0.3333333333333333,0.009684473601999375,0.05060728744939271,0.009977409638554214,0.004123711340206186,0.004761904761904762,0.029411764705882353,0.0143184421534937,0.05543237250554324,0.011242270938729624,0.7475247524752475,0.4272554002541296,0.3177570093457944,0.5241867329494954,false
92,0.2903225806451613,0.5,0.26666666666666666,0.16666666666666666,0.1908778506716651,0.19635627530364372,0.052631578947368404,0.12920962199312716,0.2976190476190476,0.19401444788441694,0.2422680412371134,0.21507760532150777,0.03482145498653886,1.0,0.515615595532669,0.7289719626168224,0.8304288745748565,false
93,0.04838709677419355,0.16666666666666666,0.06666666666666667,0.3333333333333333,0.026866604186191814,0.044534412955465584,0.041039156626506014,0.029553264604810996,0.07380952380952381,0.2107843137254902,0.024627720504009163,0.04878048780487805,0.021360314783586284,0.08415841584158416,0.05717916137229987,0.11214953271028037,0.09937979911041038,false
222,0.14516129032258066,0.16666666666666666,0.06666666666666667,0.16666666666666666,0.13964386129334583,0.3866396761133603,0.08396084337349397,0.17388316151202748,0.43333333333333335,0.49607843137254903,0.1111111111111111,0.36363636363636365,0.03136593591905565,0.12376237623762376,0.0590851334180432,0.12149532710280374,0.1442236711632681,false
250,0.08064516129032258,0.16666666666666666,0.03333333333333333,0.16666666666666666,0.05779443923773821,0.20242914979757085,0.05685240963855421,0.05085910652920962,0.11190476190476191,0.24183006535947713,0.06357388316151202,0.22172949002217296,0.03353944163387671,0.7475247524752475,0.18212621770436255,0.11214953271028037,0.1733549993018853,false
54,0.04838709677419355,0.08333333333333333,0.06666666666666667,0.16666666666666666,0.08247422680412371,0.22267206477732793,0.14156626506024095,0.06597938144329897,0.15476190476190477,0.47058823529411764,0.09621993127147767,0.24390243902439024,0.09162450815064643,0.15346534653465346,0.05717916137229987,0.11214953271028037,0.16455738559065747,false
185,0.016129032258064516,0.0,0.03333333333333333,0.0,0.024054982817869417,0.09919028340080972,0.09525602409638553,0.004810996563573883,0.016666666666666666,0.06862745098039216,0.04009163802978236,0.10864745011086474,0.09162450815064643,0.10891089108910891,0.10800508259212198,0.2897196261682243,0.4919369358475153,false
55,0.08064516129032258,0.25,0.06666666666666667,0.16666666666666666,0.03686348016244923,0.145748987854251,0.03162650602409638,0.02336769759450172,0.05714285714285714,0.11111111111111112,0.048109965635738834,0.15964523281596452,0.02342139778902005,0.7475247524752475,0.23401101228293097,0.2523364485981308,0.3575781663870649,false
123,0.14516129032258066,0.4166666666666667,0.2,0.3333333333333333,0.03811308965948141,0.03441295546558704,0.010542168674698793,0.013058419243986255,0.014285714285714285,0.03725490196078431,0.05899198167239404,0.037694013303769404,0.010905002810567733,0.7475247524752475,0.15374841168996187,0.32710280373831774,0.3784709065942187,false
56,0.3387096774193548,0.75,0.26666666666666666,0.5,0.1352702280537332,0.14979757085020243,0.023993702081051473,0.06597938144329897,0.04047619047619048,0.0855614973262032,0.19301260022909508,0.164079822616408,0.018754151975062597,1.0,0.44270532517038236,0.719626168224299,0.8507210159768439,false
58,0.11290322580645161,0.4166666666666667,0.06666666666666667,0.3333333333333333,0.04498594189315839,0.05263157894736842,0.02522590361445783,0.015807560137457044,0.01904761904761905,0.056372549019607844,0.06930126002290951,0.057649667405764965,0.02332771219786397,1.0,0.4185196950444727,0.6074766355140186,0.7467665470094862,false
25,0.016129032258064516,0.08333333333333333,0.0,0.0,0.023742580443611373,0.13562753036437247,0.09412650602409638,0.0,0.0,0.0,0.043528064146620846,0.14855875831485588,0.0983698707138842,0.054455445544554455,0.06670902160101652,0.037383177570093455,0.06526582903323229,false
125,0.14516129032258066,0.25,0.1,0.16666666666666666,0.07810059356451109,0.11538461538461539,0.03945783132530121,0.02542955326460481,0.03333333333333333,0.07254901960784314,0.12199312714776632,0.12638580931263857,0.03563799887577291,1.0,0.5978398983481575,0.6074766355140186,0.7861511472843286,false
154,0.04838709677419355,0.0,0.03333333333333333,0.0,0.028116213683223992,0.016194331983805668,0.04329819277108433,0.009621993127147767,0.03333333333333333,0.06862745098039216,0.043528064146620846,0.017738359201773836,0.039910061832490164,1.0,0.9069250317662008,0.6355140186915887,0.7957874640792281,false
186,0.0967741935483871,0.08333333333333333,0.03333333333333333,0.16666666666666666,0.05092158700406123,0.06477732793522267,0.038296041308089494,0.010309278350515464,0.02619047619047619,0.04201680672268907,0.08476517754868271,0.07095343680709534,0.0379828153858508,1.0,0.7841713559629697,0.6074766355140186,0.7800149357090452,false
127,0.04838709677419355,0.16666666666666666,0.06666666666666667,0.16666666666666666,0.01780693533270853,0.01417004048582996,0.02466114457831325,0.03573883161512027,0.08333333333333333,0.2549019607843137,0.0028636884306987398,0.008869179600886918,0.0,0.43564356435643564,0.32560355781448536,0.3177570093457944,0.5197324836596039,false
226,0.016129032258064516,0.0,0.03333333333333333,0.0,0.027491408934707903,0.145748987854251,0.10768072289156626,0.006185567010309278,0.02142857142857143,0.08823529411764706,0.04524627720504009,0.15964523281596452,0.1017425519955031,0.009900990099009901,0.0031766200762388818,0.24299065420560748,0.40568801641922286,false
256,0.04838709677419355,0.0,0.03333333333333333,0.16666666666666666,0.028116213683223992,0.018218623481781375,0.04329819277108433,0.007560137457044674,0.02619047619047619,0.05392156862745098,0.04524627720504009,0.019955654101995565,0.041596402473299605,1.0,0.8846886912325286,0.6074766355140186,0.7830854718641174,false
60,0.1774193548387097,0.25,0.16666666666666666,0.3333333333333333,0.05060918462980318,0.05060728744939271,0.012424698795180723,0.02611683848797251,0.04047619047619048,0.06209150326797385,0.07101947308132875,0.05543237250554324,0.0099306726625445,1.0,0.583439220669208,0.7102803738317757,0.8503774370262946,false
59,0.3709677419354839,0.5833333333333334,0.3,0.5,0.17369572008747267,0.12550607287449392,0.03162650602409638,0.11890034364261168,0.09761904761904762,0.14133986928104575,0.21935853379152348,0.13747228381374724,0.019955030916245082,1.0,0.32163278271918677,0.719626168224299,0.5670956569523671,false
155,0.0,0.08333333333333333,0.0,0.0,9.372071227741331E-4,0.006072874493927126,0.0466867469879518,0.0,0.0,0.0,0.001718213058419244,0.0066518847006651885,0.051152332771219784,0.08415841584158416,0.10800508259212198,0.028037383177570093,0.04740291673048863,false
128,0.0967741935483871,0.08333333333333333,0.03333333333333333,0.16666666666666666,0.12714776632302405,0.20040485829959515,0.11703958691910499,0.10790378006872853,0.30238095238095236,0.43977591036414565,0.143184421534937,0.21286031042128603,0.07074600497872,1.0,0.48284625158831,0.37383177570093457,0.5483793578811798,false
61,0.16129032258064516,0.16666666666666666,0.06666666666666667,0.3333333333333333,0.10309278350515463,0.16396761133603238,0.05017798466593647,0.027491408934707903,0.03333333333333333,0.07130124777183601,0.1660939289805269,0.17960088691796008,0.04645101946956922,1.0,0.5689037772900543,0.6355140186915887,0.7874760676116238,false
227,0.3064516129032258,0.6666666666666666,0.26666666666666666,0.3333333333333333,0.12277413308341144,0.1659919028340081,0.024209337349397588,0.09278350515463918,0.16666666666666666,0.1323529411764706,0.14776632302405499,0.18181818181818182,0.013603147835862845,1.0,0.2722363405336722,0.5794392523364486,0.705708845160832,false
129,0.03225806451612903,0.16666666666666666,0.0,0.3333333333333333,0.09684473601999376,0.43724696356275305,0.23117469879518074,0.058419243986254296,0.2,0.5555555555555556,0.12886597938144329,0.4789356984478936,0.17106988945100243,0.7475247524752475,0.3621346886912325,0.12149532710280374,0.17480576858559313,false
187,0.11290322580645161,0.25,0.06666666666666667,0.3333333333333333,0.12527335207747578,0.2813765182186235,0.09779743975903614,0.1759450171821306,0.31666666666666665,0.6274509803921569,0.08304696449026346,0.3082039911308204,0.030073074761101742,0.7475247524752475,0.15247776365946633,0.11214953271028037,0.11621054710950962,false
130,0.016129032258064516,0.08333333333333333,0.0,0.16666666666666666,0.005310840362386754,0.018218623481781375,0.027484939759036143,0.0013745704467353953,0.004761904761904762,0.0196078431372549,0.00859106529209622,0.015521064301552107,0.029792017987633503,0.08415841584158416,0.1048284625158831,0.12149532710280374,0.10559062403987149,false
156,0.1774193548387097,0.3333333333333333,0.16666666666666666,0.0,0.09215870040612309,0.15384615384615385,0.03746234939759036,0.02542955326460481,0.03333333333333333,0.06045751633986928,0.14776632302405499,0.16851441241685144,0.03503841109237399,1.0,0.4923761118170267,0.6074766355140186,0.7753518210964946,false
257,0.016129032258064516,0.08333333333333333,0.06666666666666667,0.16666666666666666,0.013120899718837863,0.06680161943319839,0.05572289156626505,6.872852233676976E-4,0.002380952380952381,0.00980392156862745,0.023482245131729668,0.07317073170731707,0.05902192242833052,0.04455445544554455,0.05717916137229987,0.056074766355140186,0.0844223374152512,false
30,0.14516129032258066,0.25,0.1,0.16666666666666666,0.05998125585754452,0.08097165991902834,0.026355421686746986,0.021993127147766325,0.03333333333333333,0.06274509803921569,0.09163802978235967,0.08869179600886919,0.023721191680719508,1.0,0.5978398983481575,0.6074766355140186,0.7785672563693092,false
62,0.3870967741935484,0.5,0.16666666666666666,0.6666666666666666,0.08403623867541393,0.07894736842105263,0.0034939759036144583,0.05154639175257732,0.04047619047619048,0.058823529411764705,0.1111111111111111,0.08647450110864745,0.0014165261382799344,1.0,0.4673443456162643,0.7757009345794392,0.8644401063159075,false
189,0.0,0.08333333333333333,0.0,0.0,0.001562011871290222,0.010121457489878543,0.051204819277108425,0.0,0.0,0.0,0.0028636884306987398,0.011086474501108648,0.05564924114671164,0.04950495049504951,0.06353240152477764,0.037383177570093455,0.06546117072305574,false
157,0.0,0.0,0.03333333333333333,0.0,0.031240237425804437,0.20242914979757085,0.26581325301204817,0.0,0.0,0.0,0.0572737686139748,0.22172949002217296,0.2692523889825745,0.10891089108910891,0.1397712833545108,0.2897196261682243,0.4853155760502407,false
96,0.0967741935483871,0.25,0.16666666666666666,0.3333333333333333,0.04967197750702906,0.1680161943319838,0.0370051635111876,0.02542955326460481,0.05,0.10364145658263305,0.06987399770904926,0.18403547671840353,0.02963141411708022,0.7475247524752475,0.16155382102014884,0.2616822429906542,0.3738155144664558,false
158,0.4032258064516129,0.5,0.23333333333333334,0.3333333333333333,0.30303030303030304,0.31983805668016196,0.06336886005560705,0.24810996563573884,0.44285714285714284,0.27224736048265463,0.3487972508591065,0.3303769401330377,0.03653738055087127,1.0,0.37386374743426837,0.7289719626168224,0.7345371232294733,false
258,0.16129032258064516,0.5,0.13333333333333333,0.5,0.14339268978444236,0.23076923076923078,0.07667031763417305,0.04536082474226804,0.05952380952380952,0.11764705882352941,0.22508591065292097,0.25277161862527714,0.06750472686391742,0.900990099009901,0.3020676908859882,0.719626168224299,0.8565341345745493,false
131,0.1774193548387097,0.3333333333333333,0.1,0.3333333333333333,0.08184942205560762,0.05263157894736842,0.03125,0.056357388316151204,0.1261904761904762,0.13398692810457516,0.10309278350515463,0.057649667405764965,0.020423458872025478,1.0,0.6512071156289707,0.7289719626168224,0.8585298702035199,false
259,0.06451612903225806,0.25,0.06666666666666667,0.3333333333333333,0.027803811308965948,0.12348178137651822,0.02951807228915662,0.015120274914089347,0.023809523809523808,0.08627450980392158,0.03837342497136312,0.1352549889135255,0.02417088251826869,0.24752475247524752,0.10800508259212198,0.2523364485981308,0.38055455128566873,false
31,0.3709677419354839,0.5833333333333334,0.16666666666666666,0.5,0.15120274914089346,0.09716599190283401,0.02484939759036144,0.12783505154639174,0.1738095238095238,0.15196078431372548,0.1706758304696449,0.10643015521064302,0.011991755667978266,1.0,0.35975222363405335,0.7289719626168224,0.7197069514200722,false
32,0.03225806451612903,0.16666666666666666,0.0,0.3333333333333333,0.02218056857232115,0.032388663967611336,0.051204819277108425,0.002061855670103093,0.007142857142857143,0.0196078431372549,0.038946162657502864,0.028824833702882482,0.05340078695896571,0.19801980198019803,0.12706480304955528,0.7102803738317757,0.5632031968060605,false
190,0.016129032258064516,0.0,0.0,0.0,0.02218056857232115,0.07894736842105263,0.08847891566265059,0.006872852233676976,0.023809523809523808,0.09803921568627451,0.03493699885452463,0.08647450110864745,0.08150646430578977,0.01485148514851485,0.01905972045743329,0.028037383177570093,0.0445528135119648,false
65,0.12903225806451613,0.25,0.06666666666666667,0.0,0.07372696032489846,0.10931174089068826,0.04292168674698795,0.02268041237113402,0.03333333333333333,0.0718954248366013,0.11626575028636885,0.1197339246119734,0.03916057710324152,1.0,0.6557955668502047,0.6074766355140186,0.7845251121373111,false
191,0.0967741935483871,0.25,0.13333333333333333,0.16666666666666666,0.06997813183380194,0.1680161943319838,0.057981927710843366,0.10034364261168385,0.2642857142857143,0.40896358543417366,0.044673539518900345,0.1662971175166297,0.015498273508391551,0.43564356435643564,0.23143946269740426,0.3177570093457944,0.5097963340669501,false
192,0.5483870967741935,0.9166666666666666,0.43333333333333335,0.6666666666666666,0.35645110902842864,0.3299595141700405,0.05210843373493975,0.29759450171821306,0.45476190476190476,0.24257703081232493,0.4054982817869416,0.35033259423503327,0.02873203244198185,1.0,0.37629333817389726,0.7757009345794392,0.84922260635811,false
261,0.14516129032258066,0.0,0.06666666666666667,0.16666666666666666,0.07872539831302718,0.02834008097165992,0.03990963855421686,0.056357388316151204,0.09761904761904762,0.16078431372549018,0.09736540664375716,0.031042128603104215,0.02596964586846543,1.0,0.8208386277001269,0.9813084112149533,1.0,false
160,0.04838709677419355,0.0,0.03333333333333333,0.0,0.08840987191502656,0.145748987854251,0.15229668674698796,0.07835051546391752,0.23809523809523808,0.5588235294117647,0.09679266895761741,0.15299334811529933,0.09218662169758292,1.0,0.5829097839898348,0.37383177570093457,0.5674632121788077,false
161,0.04838709677419355,0.0,0.03333333333333333,0.0,0.10309278350515463,0.17813765182186234,0.17884036144578314,0.009621993127147767,0.03333333333333333,0.06862745098039216,0.18098510882016036,0.1951219512195122,0.17481731309724563,1.0,0.9069250317662008,0.6355140186915887,0.8035418606189774,false
162,0.16129032258064516,0.16666666666666666,0.1,0.16666666666666666,0.1393314589190878,0.17408906882591094,0.07400054764512595,0.020618556701030927,0.03333333333333333,0.053475935828877004,0.23825887743413515,0.19068736141906872,0.072206040165568,1.0,0.668245350583343,0.719626168224299,0.9337193570856113,false
163,0.08064516129032258,0.0,0.03333333333333333,0.0,0.06373008434864105,0.06275303643724696,0.06400602409638553,0.04879725085910653,0.14047619047619048,0.23202614379084968,0.07617411225658649,0.06873614190687362,0.04178377365561176,1.0,0.893689114781872,1.0,0.6996503159221484,false
193,0.1935483870967742,0.4166666666666667,0.16666666666666666,0.3333333333333333,0.07560137457044673,0.0951417004048583,0.023575069508804447,0.03573883161512027,0.047619047619047616,0.0784313725490196,0.10882016036655212,0.10421286031042129,0.01915510009945086,1.0,0.5209656925031766,0.7102803738317757,0.7211847982225997,false
34,0.04838709677419355,0.16666666666666666,0.03333333333333333,0.16666666666666666,0.06716651046547954,0.4048582995951417,0.11389307228915661,0.003436426116838488,0.007142857142857143,0.024509803921568627,0.12027491408934708,0.4434589800443459,0.11523327712197864,0.11386138613861387,0.05241423125794155,0.037383177570093455,0.06184766207948135,false
228,0.14516129032258066,0.25,0.1,0.16666666666666666,0.05248359887535145,0.06477732793522267,0.020933734939759037,0.021305841924398626,0.03333333333333333,0.060784313725490195,0.07846506300114547,0.07095343680709534,0.01854974704890388,1.0,0.5978398983481575,0.6074766355140186,0.7769771081687114,false
101,0.1935483870967742,0.4166666666666667,0.16666666666666666,0.3333333333333333,0.07622617931896282,0.09716599190283401,0.023922613531047264,0.036426116838487975,0.047619047619047616,0.07993966817496229,0.10939289805269187,0.10643015521064302,0.019328058113892852,1.0,0.5209656925031766,0.7102803738317757,0.7205791065811621,false
135,0.08064516129032258,0.16666666666666666,0.03333333333333333,0.16666666666666666,0.05873164636051234,0.15182186234817813,0.057981927710843366,0.0288659793814433,0.09047619047619047,0.13725490196078433,0.0836197021764032,0.14634146341463414,0.04665542439572794,0.25742574257425743,0.10059296908089792,0.3177570093457944,0.49810683929497573,false
230,0.25806451612903225,0.25,0.2,0.3333333333333333,0.1943142767885036,0.19635627530364372,0.06303153791637135,0.13470790378006872,0.2785714285714286,0.22606689734717417,0.24398625429553264,0.21507760532150777,0.0414972059650167,1.0,0.5531056132745347,0.7289719626168224,0.865379313253035,false
67,0.2903225806451613,0.5,0.23333333333333334,0.16666666666666666,0.11527647610121837,0.16396761133603238,0.02385859226379201,0.056357388316151204,0.04523809523809524,0.0846233230134159,0.16437571592210767,0.17960088691796008,0.01872725659004171,1.0,0.420985755366816,0.6074766355140186,0.7066656478168144,false
68,0.04838709677419355,0.16666666666666666,0.06666666666666667,0.3333333333333333,0.02218056857232115,0.13157894736842105,0.032567771084337345,0.003436426116838488,0.004761904761904762,0.024509803921568627,0.037800687285223365,0.14412416851441243,0.034288926363125354,0.7475247524752475,0.3573697585768742,0.3177570093457944,0.5222301129365617,false
232,0.08064516129032258,0.08333333333333333,0.03333333333333333,0.16666666666666666,0.1049671977507029,0.18016194331983806,0.11370481927710842,0.09209621993127148,0.2785714285714286,0.43790849673202614,0.1156930126002291,0.19068736141906872,0.06764099681468991,1.0,0.5643795002117746,0.37383177570093457,0.567284669894249,false
103,0.0967741935483871,0.16666666666666666,0.06666666666666667,0.3333333333333333,0.08122461730709153,0.10728744939271255,0.06959982788296042,0.017869415807560136,0.03333333333333333,0.07282913165266107,0.13402061855670103,0.11751662971175167,0.06560668112101502,1.0,0.6906879651479396,0.5981308411214953,0.695289805416939,false
106,0.06451612903225806,0.0,0.03333333333333333,0.0,0.08434864104967198,0.08906882591093117,0.11129518072289156,0.05910652920962199,0.17142857142857143,0.3372549019607843,0.10538373424971363,0.0975609756097561,0.07678471051152333,1.0,1.0,0.5981308411214953,0.7191790549791488,false
36,0.04838709677419355,0.16666666666666666,0.03333333333333333,0.16666666666666666,0.028116213683223992,0.048582995951417005,0.04329819277108433,0.04673539518900344,0.12380952380952381,0.3333333333333333,0.012600229095074456,0.04656319290465632,0.00955593029792018,0.43564356435643564,0.35578144853875476,0.3177570093457944,0.5259083885208207,false
263,0.25806451612903225,0.08333333333333333,0.16666666666666666,0.3333333333333333,0.24242424242424243,0.4392712550607287,0.08349574769666902,0.12989690721649486,0.24761904761904763,0.21799307958477507,0.3361970217640321,0.4811529933481153,0.06279138974308104,1.0,0.3299947679198744,0.6355140186915887,0.661987178816141,false
