sid,revisions,refactor,bugfixes,authors,loc_added,max_added,ave_added,loc_deleted,max_deleted,ave_deleted,code_churn,max_churn,ave_churn,max_changeset,ave_changeset,age,weighted_age,label
131,0.0759493670886076,0.29411764705882354,0.06976744186046512,0.5,0.027356859554561172,0.022115384615384617,0.024603953455768962,0.022770398481973434,0.040394551432597466,0.10792329418760221,0.03394449950445986,0.022115384615384617,0.015069401122894574,1.0,0.4785630547646961,0.23076923076923078,0.1791281543048829,false
133,0.03164556962025317,0.0,0.046511627906976744,0.5,0.027458557917217533,0.041666666666666664,0.0792308770718977,0.0018975332068311196,0.0028182245185533112,0.0179872156979337,0.06417244796828543,0.041666666666666664,0.08823300062383033,0.004608294930875576,0.31703232289398764,1.0,0.8981866805250097,false
406,0.006329113924050633,0.0,0.0,0.0,0.08024000813586901,0.1266025641025641,0.6553936740394052,0.0,0.0,0.0,0.19549058473736372,0.1266025641025641,0.6602074235807861,0.004608294930875576,0.6565064478311841,0.06153846153846154,0.37052482204182385,false
2,0.0189873417721519,0.058823529411764705,0.0,0.0,0.005695108308756229,0.0022435897435897434,0.01616969879972824,8.625150940141452E-4,0.0018788163457022077,0.011446409989594173,0.01263627353815659,0.0019230769230769232,0.027456331877729258,0.004608294930875576,0.38405627198124265,0.5076923076923077,0.4891004283307236,false
3,0.012658227848101266,0.058823529411764705,0.0,0.0,0.005390013220787145,0.007692307692307693,0.025760549558390584,6.900120752113162E-4,0.0018788163457022077,0.011446409989594173,0.012140733399405352,0.007692307692307693,0.0369132096069869,0.004608294930875576,0.4897420867526378,0.47692307692307695,0.5099949751430116,false
6,0.13924050632911392,0.058823529411764705,0.16279069767441862,0.0,0.06376487338553849,0.07628205128205129,0.03915037366951008,0.026220458858030017,0.015969938938468764,0.07249392993409642,0.11769078295341923,0.07628205128205129,0.03701555676855896,0.004608294930875576,0.06784876905041032,1.0,0.8324823794297856,true
409,0.06962025316455696,0.23529411764705882,0.06976744186046512,0.0,0.09976609376589037,0.07628205128205129,0.165215926973306,0.08952906675866827,0.12024424612494129,0.45697590650764425,0.11446977205153618,0.07147435897435897,0.07881256298286866,1.0,0.5099648300117233,0.046153846153846156,0.04383059244244982,false
7,0.012658227848101266,0.0,0.0,0.0,0.00905115427641615,0.013461538461538462,0.0481807201630558,8.625150940141452E-4,0.0018788163457022077,0.014308012486992717,0.02081268582755203,0.013461538461538462,0.05840611353711791,0.004608294930875576,0.49853458382180543,0.9538461538461539,0.800052693660555,false
134,0.0189873417721519,0.0,0.0,0.0,0.009254551001728872,0.013461538461538462,0.0336076092700234,0.0012075211316198034,0.0018788163457022077,0.01602497398543184,0.02081268582755203,0.013461538461538462,0.04366812227074236,0.004608294930875576,0.38686987104337633,0.5076923076923077,0.5482606501197871,false
135,0.012658227848101266,0.0,0.0,0.0,0.0020339672531272247,0.002564102564102564,0.005208726504114141,6.900120752113162E-4,0.0018788163457022077,0.011446409989594173,0.003964321110009911,0.002564102564102564,0.016648471615720525,0.004608294930875576,0.48270808909730367,0.5076923076923077,0.44627054121212884,false
10,0.056962025316455694,0.058823529411764705,0.046511627906976744,0.0,0.04312010576629716,0.06442307692307692,0.07450743564580661,0.003967569432465068,0.004697040864255519,0.02393340270551509,0.09935579781962339,0.06442307692307692,0.08229952362048433,0.004608294930875576,0.19695193434935523,1.0,0.7262976184288634,true
11,0.10759493670886076,0.23529411764705882,0.18604651162790697,1.0,0.04647615173395708,0.032371794871794875,0.034971175201535205,0.050025875452820424,0.048849224988257396,0.17470836299906897,0.041377601585728445,0.032371794871794875,0.010960124109400138,1.0,0.34744246313321403,0.5692307692307692,0.45730577259262967,false
412,0.006329113924050633,0.0,0.0,0.0,0.0012203803518763348,0.001282051282051282,0.010190986638484188,6.900120752113162E-4,0.0018788163457022077,0.015261879986125564,0.0019821605550049554,0.001282051282051282,0.020742358078602616,0.004608294930875576,0.6565064478311841,0.9538461538461539,0.539134047074287,false
410,0.006329113924050633,0.0,0.0,0.0,0.006203600122038035,0.009294871794871795,0.050879444402506246,5.175090564084871E-4,0.0014091122592766556,0.011446409989594173,0.014370664023785926,0.009294871794871795,0.061681222707423586,0.004608294930875576,0.8077373974208676,1.0,0.7700342270897621,false
138,0.0379746835443038,0.0,0.0,0.0,0.018509102003457744,0.025,0.0382161998943157,0.0046575815076763845,0.010333489901362142,0.038631633714880334,0.03840436075322101,0.025,0.043361080786026206,0.004608294930875576,0.2844372801875733,1.0,0.8562642419793323,false
411,0.0189873417721519,0.0,0.023255813953488372,0.0,0.02328892504830672,0.03621794871794872,0.10236279912433005,6.900120752113162E-4,0.0014091122592766556,0.009157127991675338,0.05574826560951437,0.03621794871794872,0.11293668122270743,0.004608294930875576,0.4621336459554514,1.0,0.9035461191019717,false
274,0.0189873417721519,0.058823529411764705,0.023255813953488372,0.0,0.014542865859859656,0.013461538461538462,0.05951536196874765,0.011385199240986717,0.028182245185533115,0.15109261186264308,0.019078295341922697,0.011217948717948718,0.0402292576419214,0.20276497695852536,0.9418522860492381,1.0,0.38452000993682933,false
140,0.006329113924050633,0.0,0.0,0.0,0.004678124682192616,0.006730769230769231,0.03842379406658111,6.900120752113162E-4,0.0018788163457022077,0.015261879986125564,0.010406342913776016,0.006730769230769231,0.048580786026200876,0.004608294930875576,0.6752637749120751,0.09230769230769231,0.3338003482216205,false
418,0.05063291139240506,0.11764705882352941,0.06976744186046512,0.0,0.05318824366927692,0.08076923076923077,0.10958707631916662,0.003450060376056581,0.004227336777829967,0.022892819979188347,0.12462834489593658,0.08076923076923077,0.11711244541484717,0.004608294930875576,0.21137162954279015,1.0,0.9404795776745698,false
13,0.0189873417721519,0.0,0.0,0.0,0.01566154784907963,0.029487179487179487,0.0649958481165547,0.012247714335000862,0.03193987787693753,0.16253902185223726,0.020564915758176414,0.029487179487179487,0.043176855895196514,0.004608294930875576,0.37631887456037516,0.23076923076923078,0.5599607875676419,false
419,0.02531645569620253,0.0,0.046511627906976744,0.0,0.012915692057357877,0.01955128205128205,0.03800860572205028,0.0010350181128169743,0.0028182245185533112,0.011446409989594173,0.02998017839444995,0.01955128205128205,0.04899017467248909,0.004608294930875576,0.32532239155920284,0.5384615384615384,0.5776453617864469,false
279,0.0189873417721519,0.058823529411764705,0.023255813953488372,0.0,0.006101901759381674,0.008974358974358974,0.018162602853476262,8.625150940141452E-4,0.0018788163457022077,0.011446409989594173,0.013627353815659068,0.008974358974358974,0.029421397379912666,0.004608294930875576,0.3960140679953107,0.5230769230769231,0.46580016379947187,true
280,0.006329113924050633,0.0,0.0,0.0,0.008440964100477982,0.01282051282051282,0.06914773156186307,5.175090564084871E-4,0.0014091122592766556,0.011446409989594173,0.019821605550049554,0.01282051282051282,0.07969432314410481,0.004608294930875576,0.8077373974208676,1.0,0.8123191547550613,false
281,0.03164556962025317,0.11764705882352941,0.046511627906976744,0.5,0.0375266958201973,0.027884615384615386,0.11446257373637159,0.03398309470415732,0.04837952090183185,0.32213468113572175,0.04261645193260654,0.027884615384615386,0.05770430442919527,0.20276497695852536,0.6416010718472618,0.09230769230769231,0.06546173603952761,false
144,0.006329113924050633,0.0,0.0,0.0,0.0033560459676599207,0.004807692307692308,0.027628897108779353,5.175090564084871E-4,0.0014091122592766556,0.011446409989594173,0.007433102081268583,0.004807692307692308,0.03875545851528385,0.004608294930875576,0.8077373974208676,1.0,0.6772190894212657,false
18,0.1962025316455696,0.4117647058823529,0.3488372093023256,1.0,0.13180107800264415,0.11314102564102564,0.07088397372990113,0.12678971882007936,0.17426021606387976,0.25494276795005205,0.1389990089197225,0.06185897435897436,0.0291534339023422,1.0,0.17989981882127254,0.09230769230769231,0.0,true
145,0.006329113924050633,0.0,0.0,0.0,0.007017187023288925,0.010576923076923078,0.05752245791499964,5.175090564084871E-4,0.0014091122592766556,0.011446409989594173,0.01635282457879088,0.010576923076923078,0.06823144104803494,0.004608294930875576,0.6565064478311841,0.06153846153846154,0.323296252067826,false
283,0.12658227848101267,0.11764705882352941,0.23255813953488372,0.5,0.059086748703345876,0.08365384615384615,0.040197780629576525,0.010177678109366914,0.007984969469234382,0.030697190426638918,0.12933597621407333,0.08365384615384615,0.047017665740373166,0.004608294930875576,0.05403389107961208,0.5230769230769231,0.6735098950259658,true
146,0.02531645569620253,0.11764705882352941,0.023255813953488372,0.0,0.020339672531272248,0.015705128205128205,0.06831735487280141,0.01794031395549422,0.030530765617660875,0.19840443981963232,0.023785926660059464,0.015705128205128205,0.03875545851528385,0.20276497695852536,0.7643610785463072,0.09230769230769231,0.08693078993436178,false
19,0.0189873417721519,0.0,0.023255813953488372,0.0,0.010983423166887014,0.016987179487179486,0.04207745149845248,3.450060376056581E-4,4.697040864255519E-4,0.004578563995837669,0.02626362735381566,0.016987179487179486,0.05447598253275109,0.004608294930875576,0.3882766705744432,0.1076923076923077,0.3565967733996756,false
287,0.0189873417721519,0.0,0.0,0.0,0.011797010068137903,0.01282051282051282,0.04606325960594852,0.009660169052958427,0.023954908407703146,0.12819979188345473,0.014866204162537165,0.01282051282051282,0.03187772925764192,0.004608294930875576,0.3784290738569754,0.1076923076923077,0.44737285386485703,false
289,0.012658227848101266,0.0,0.0,0.0,0.006101901759381674,0.008974358974358974,0.030120027175964376,8.625150940141452E-4,0.0018788163457022077,0.014308012486992717,0.013627353815659068,0.008974358974358974,0.04059770742358079,0.004608294930875576,0.4712778429073857,0.9538461538461539,0.7518233728791257,false
290,0.15822784810126583,0.23529411764705882,0.27906976744186046,0.5,0.13993694701515305,0.10865384615384616,0.10060978166964431,0.12092461618078316,0.16768435885392202,0.2971827186187228,0.16724479682854312,0.08942307692307692,0.0493995633187773,1.0,0.24345447440406412,1.0,0.2645695316421631,false
430,1.0,1.0,1.0,1.0,1.0,1.0,0.12398892202008004,1.0,1.0,0.41471774193548394,1.0,1.0,0.04722980349344978,1.0,0.004638042203985938,1.0,0.5581711649642421,true
432,0.0,0.0,0.0,0.0,0.0,0.0,0.015173246772854235,0.0,0.0,0.0,0.0,0.0,0.028930131004366817,0.0,0.5293083235638922,0.24615384615384617,0.5062135430518625,false
152,0.0189873417721519,0.0,0.0,0.0,0.01657683311298688,0.02532051282051282,0.06947988223748774,0.0010350181128169743,0.0018788163457022077,0.013735691987513007,0.03889990089197225,0.02532051282051282,0.07953056768558953,0.004608294930875576,0.37350527549824153,0.5076923076923077,0.6158217371284893,false
154,0.0189873417721519,0.0,0.0,0.0,0.03478084002847554,0.04935897435897436,0.15866233864271156,0.006037605658099017,0.011272898074213245,0.08012486992715921,0.07606541129831516,0.04935897435897436,0.15322052401746725,0.004608294930875576,0.48534583821805394,1.0,0.8540640781111251,false
293,0.006329113924050633,0.0,0.0,0.0,0.0011186819892199736,0.001282051282051282,0.009360609949422512,5.175090564084871E-4,0.0014091122592766556,0.011446409989594173,0.0019821605550049554,0.001282051282051282,0.020742358078602616,0.004608294930875576,0.8077373974208676,1.0,0.5267118677004669,false
435,0.0189873417721519,0.058823529411764705,0.023255813953488372,0.0,0.05725617817553137,0.04583333333333333,0.2687702876122896,0.0481283422459893,0.07562235791451385,0.6387096774193548,0.07036669970267592,0.04551282051282051,0.14192139737991266,0.20276497695852536,0.8518171160609613,0.09230769230769231,0.08320888365053342,false
155,0.03164556962025317,0.0,0.0,0.0,0.00823756737516526,0.0125,0.011970365257902064,6.900120752113162E-4,0.0014091122592766556,0.006540805708339527,0.019078295341922697,0.0125,0.02436837180286962,0.004608294930875576,0.33763188745603756,1.0,0.7104925774339194,false
439,0.006329113924050633,0.0,0.0,0.0,0.06905318824366928,0.10897435897435898,0.5640522382426211,0.0,0.0,0.0,0.1682358771060456,0.10897435897435898,0.57014192139738,0.004608294930875576,0.6565064478311841,0.06153846153846154,0.36920471913164754,false
441,0.10759493670886076,0.058823529411764705,0.16279069767441862,0.0,0.10759686769043018,0.1201923076923077,0.11376955258986149,0.05313092979127135,0.0967590418036637,0.18555233035763186,0.18582755203171458,0.1201923076923077,0.08633072856814528,0.004608294930875576,0.09310791633244894,1.0,0.6882857405740095,true
295,0.006329113924050633,0.0,0.023255813953488372,0.0,0.004373029594223533,0.00641025641025641,0.03593266399939609,5.175090564084871E-4,0.0014091122592766556,0.011446409989594173,0.009910802775024777,0.00641025641025641,0.04694323144104804,0.004608294930875576,0.64947245017585,0.5692307692307692,0.5344252410353032,false
156,0.15822784810126583,0.23529411764705882,0.20930232558139536,1.0,0.088680972236347,0.07724358974358975,0.05410868708219052,0.06917371053993444,0.12165335838421794,0.17000038540100976,0.11669970267591676,0.07115384615384615,0.030840611353711796,1.0,0.23355477400026053,1.0,0.21559131551329455,false
442,0.04430379746835443,0.0,0.0,0.0,0.02898403335706295,0.03942307692307692,0.05918321129312298,0.006900120752113162,0.013621418506341005,0.05087293328708522,0.060703666997026756,0.03942307692307692,0.061408296943231445,0.004608294930875576,0.24384525205158264,1.0,0.9390999752094961,false
157,0.08227848101265822,0.0,0.09302325581395349,0.5,0.08725719515915793,0.13012820512820514,0.11880425756775122,0.008107641883732966,0.0061061531235321745,0.03586541796739508,0.20094152626362735,0.13012820512820514,0.1234170305676856,0.004608294930875576,0.12661195779601409,1.0,0.7849555297745452,false
23,0.006329113924050633,0.0,0.0,0.0,0.011390216617512458,0.017948717948717947,0.09322865554465164,0.0,0.0,0.0,0.027750247770069375,0.017948717948717947,0.10589519650655023,0.004608294930875576,0.6471277842907386,0.015384615384615385,0.312623607445715,false
22,0.0949367088607595,0.058823529411764705,0.06976744186046512,0.0,0.05806976507678226,0.07403846153846154,0.059280902668306705,0.018975332068311195,0.02489431658055425,0.07406500581502112,0.11422200198216055,0.07403846153846154,0.0565277421012073,0.004608294930875576,0.12288807668436659,1.0,0.908099715923017,false
297,0.0379746835443038,0.0,0.0,0.0,0.024102511949557613,0.03685897435897436,0.05534271910621274,0.0013800241504226323,0.0018788163457022077,0.011446409989594173,0.056739345887016845,0.03685897435897436,0.06608215065502183,0.004608294930875576,0.2347596717467761,0.5384615384615384,0.4125385487826992,false
300,0.02531645569620253,0.0,0.0,0.0,0.014441167497203295,0.022115384615384617,0.04423643089001284,8.625150940141452E-4,0.0014091122592766556,0.009538674991328478,0.03394449950445986,0.022115384615384617,0.05554039301310044,0.004608294930875576,0.3933177022274327,1.0,0.7745491576229091,false
301,0.06329113924050633,0.23529411764705882,0.06976744186046512,0.0,0.02389911522424489,0.019230769230769232,0.026590926247452254,0.020355356218733828,0.03663691874119305,0.11255636489767605,0.028989098116947474,0.01826923076923077,0.01603438864628821,1.0,0.5715123094958968,0.5230769230769231,0.240948504278759,false
447,0.006329113924050633,0.0,0.0,0.0,0.008339265737821622,0.01282051282051282,0.06831735487280141,5.175090564084871E-4,0.0014091122592766556,0.011446409989594173,0.019573835480673936,0.01282051282051282,0.0788755458515284,0.004608294930875576,0.8077373974208676,1.0,0.803761937726204,false
302,0.006329113924050633,0.0,0.023255813953488372,0.5,0.007525678836570731,0.011858974358974358,0.061674341360308,0.0,0.0,0.0,0.018334985133795837,0.011858974358974358,0.07478165938864628,0.004608294930875576,0.6541617819460728,0.1076923076923077,0.34055288342205275,false
449,0.012658227848101266,0.0,0.0,0.0,0.013424183870639683,0.021153846153846155,0.0749603683852948,0.0,0.0,0.0,0.03270564915758176,0.021153846153846155,0.087882096069869,0.004608294930875576,0.4915005861664713,0.09230769230769231,0.3593996159986076,false
450,0.006329113924050633,0.0,0.0,0.0,0.013017390420014237,0.020512820512820513,0.10651468256963842,0.0,0.0,0.0,0.031714568880079286,0.020512820512820513,0.11899563318777293,0.004608294930875576,0.6565064478311841,0.06153846153846154,0.3371823806498393,false
453,0.012658227848101266,0.058823529411764705,0.0,0.0,0.01078002644157429,0.01217948717948718,0.058768022948592145,0.005175090564084871,0.012212306247064349,0.0858480749219563,0.018830525272547076,0.01217948717948718,0.053493449781659395,0.004608294930875576,0.5064478311840563,0.49230769230769234,0.48792446833476766,false
455,0.006329113924050633,0.0,0.0,0.0,0.003966236143598088,0.0057692307692307696,0.0326111572431494,5.175090564084871E-4,0.0014091122592766556,0.011446409989594173,0.008919722497522299,0.0057692307692307696,0.04366812227074236,0.004608294930875576,0.8077373974208676,1.0,0.7029421418608204,false
167,0.08227848101265822,0.058823529411764705,0.09302325581395349,0.0,0.15722566866673446,0.21346153846153845,0.2330640899826376,0.037088149042608244,0.03663691874119305,0.16406520985084982,0.32978196233894946,0.21346153846153845,0.2085698689956332,0.004608294930875576,0.08370457209847597,0.07692307692307693,0.4109062426993663,false
307,0.006329113924050633,0.0,0.0,0.0,0.001322078714532696,0.0016025641025641025,0.01102136332754586,5.175090564084871E-4,0.0014091122592766556,0.011446409989594173,0.002477700693756194,0.0016025641025641025,0.02237991266375546,0.004608294930875576,0.8077373974208676,1.0,0.5459790259541496,false
456,0.056962025316455694,0.058823529411764705,0.023255813953488372,0.0,0.030814603884877452,0.04230769230769231,0.047105004906771344,0.006900120752113162,0.007515265382808831,0.04162330905306972,0.0651635282457879,0.04230769230769231,0.05148372369988091,0.004608294930875576,0.18128530320792924,1.0,0.813344466861333,false
457,0.0189873417721519,0.0,0.0,0.0,0.019729482355334078,0.028205128205128206,0.08492488865403489,0.003277557357253752,0.006575857209957727,0.04349635796045786,0.0433597621407334,0.028205128205128206,0.08837336244541485,0.004608294930875576,0.47760844079718645,1.0,0.9073575121995668,false
308,0.012658227848101266,0.0,0.0,0.5,0.010373232990948845,0.015705128205128205,0.05627689288140712,6.900120752113162E-4,0.0014091122592766556,0.011446409989594173,0.024281466798810703,0.015705128205128205,0.06700327510917031,0.004608294930875576,0.597010550996483,1.0,0.785842884268962,false
310,0.006329113924050633,0.0,0.0,0.0,0.015864944574392352,0.025,0.1297652298633653,0.0,0.0,0.0,0.03865213082259663,0.025,0.14192139737991266,0.004608294930875576,0.6541617819460728,0.06153846153846154,0.3468620539743977,false
312,0.006329113924050633,0.0,0.0,0.5,0.01657683311298688,0.026282051282051282,0.13557786668679703,0.0,0.0,0.0,0.04038652130822597,0.026282051282051282,0.1476528384279476,0.004608294930875576,0.6471277842907386,0.09230769230769231,0.3625782505161126,false
458,0.10759493670886076,0.23529411764705882,0.13953488372093023,0.0,0.03447574494050646,0.035256410256410256,0.019499946363228222,0.03691564602380542,0.04321277595115078,0.12892272304069227,0.03097125867195243,0.035256410256410256,0.00553033785336704,1.0,0.3509594619608811,0.9846153846153847,0.7141661680366268,false
313,0.0189873417721519,0.0,0.023255813953488372,0.0,0.015559849486423269,0.023717948717948717,0.0644976221031177,8.625150940141452E-4,0.0014091122592766556,0.011446409989594173,0.036669970267591674,0.023717948717948717,0.07510917030567686,0.004608294930875576,0.4930832356389214,1.0,0.8170367505260533,false
314,0.11392405063291139,0.0,0.16279069767441862,1.0,0.062137699583036714,0.07435897435897436,0.05092096323695933,0.0255304467828187,0.05495537811178957,0.08470343392299688,0.1147175421209118,0.07435897435897436,0.046001637554585154,0.004608294930875576,0.07842907385697538,1.0,0.8247628061758185,false
316,0.012658227848101266,0.058823529411764705,0.0,0.0,0.011390216617512458,0.0125,0.06250471804936968,0.005002587545282043,0.011742602160638797,0.08298647242455776,0.020564915758176414,0.0125,0.057792030567685594,0.004608294930875576,0.5064478311840563,0.49230769230769234,0.4819123260898086,false
171,0.0189873417721519,0.0,0.023255813953488372,0.0,0.010373232990948845,0.019230769230769232,0.03908809541783046,0.003795066413662239,0.008454673555659934,0.050364203954214364,0.019821605550049554,0.019230769230769232,0.041703056768558955,0.004608294930875576,0.4839390386869871,1.0,0.6270415530462555,false
172,0.006329113924050633,0.0,0.0,0.0,0.0012203803518763348,0.0019230769230769232,0.010190986638484188,0.0,0.0,0.0,0.002973240832507433,0.0019230769230769232,0.0240174672489083,0.004608294930875576,0.6752637749120751,0.09230769230769231,0.2438726343978469,false
317,0.0189873417721519,0.058823529411764705,0.0,0.0,0.012203803518763347,0.013141025641025641,0.04805616365969654,0.005002587545282043,0.007515265382808831,0.0663891779396462,0.02254707631318137,0.013141025641025641,0.04710698689956332,0.004608294930875576,0.3981242672919109,0.5076923076923077,0.5381572187310537,false
460,0.012658227848101266,0.0,0.0,0.0,0.00579680667141259,0.008012820512820512,0.028251679625575607,0.0012075211316198034,0.0018788163457022077,0.020031217481789803,0.012388503468780971,0.008012820512820512,0.03752729257641922,0.004608294930875576,0.5046893317702228,0.1076923076923077,0.35228295845966123,false
461,0.08860759493670886,0.058823529411764705,0.09302325581395349,0.0,0.05979863724194041,0.09230769230769231,0.06748697818373973,0.0022425392444367777,0.0014091122592766556,0.009300208116545266,0.14246778989098116,0.09230769230769231,0.07851733078602621,0.004608294930875576,0.12924970691676438,1.0,0.7420828665560794,false
319,0.006329113924050633,0.0,0.0,0.0,0.004271331231567171,0.006730769230769231,0.03510228731033442,0.0,0.0,0.0,0.010406342913776016,0.006730769230769231,0.048580786026200876,0.004608294930875576,0.6635404454865181,0.15384615384615385,0.3259956580026538,false
176,0.012658227848101266,0.058823529411764705,0.0,0.0,0.004881521407505339,0.0054487179487179484,0.022646636974409304,0.002415042263239607,0.004697040864255519,0.040062434963579606,0.00842418235877106,0.0054487179487179484,0.027701965065502186,0.004608294930875576,0.5169988276670575,0.2923076923076923,0.46267490832489605,false
320,0.08227848101265822,0.23529411764705882,0.13953488372093023,0.5,0.04871351571239703,0.038141025641025644,0.05586170453687629,0.042953251681904434,0.060122123062470646,0.19001040582726328,0.05698711595639247,0.038141025641025644,0.028275109170305682,1.0,0.4098475967174678,0.09230769230769231,0.0873992426320742,false
177,0.006329113924050633,0.0,0.023255813953488372,0.0,0.0020339672531272247,0.002564102564102564,0.016834000150977586,6.900120752113162E-4,0.0018788163457022077,0.015261879986125564,0.003964321110009911,0.002564102564102564,0.027292576419213975,0.004608294930875576,0.6518171160609614,0.7384615384615385,0.5244234222682361,false
179,0.056962025316455694,0.0,0.09302325581395349,0.5,0.07484999491508186,0.10256410256410256,0.14516494300596364,0.016560289805071588,0.016439643024894316,0.09989594172736732,0.15857284440039643,0.10256410256410256,0.13566891623660182,0.004608294930875576,0.18544175636789942,1.0,0.8374473676882043,false
181,0.04430379746835443,0.11764705882352941,0.06976744186046512,0.0,0.030916302247533816,0.02564102564102564,0.06444226365718025,0.0255304467828187,0.046031000469704084,0.18822985316221527,0.03865213082259663,0.02435897435897436,0.03711790393013101,0.20276497695852536,0.5631105900742478,1.0,0.35857788040590743,false
462,0.012658227848101266,0.058823529411764705,0.0,0.0,0.014441167497203295,0.015384615384615385,0.08118819355325736,0.005002587545282043,0.011742602160638797,0.08298647242455776,0.027998017839444996,0.015384615384615385,0.07621451965065502,0.004608294930875576,0.48886283704572103,0.49230769230769234,0.48006810485941354,false
322,0.006329113924050633,0.0,0.0,0.5,0.004373029594223533,0.00641025641025641,0.03593266399939609,5.175090564084871E-4,0.0014091122592766556,0.011446409989594173,0.009910802775024777,0.00641025641025641,0.04694323144104804,0.004608294930875576,0.6553341148886285,0.23076923076923078,0.38800963672461575,false
183,0.05063291139240506,0.17647058823529413,0.06976744186046512,0.5,0.04189972541442083,0.038141025641025644,0.08193553257341285,0.030878040365706398,0.0615312353217473,0.20489073881373568,0.05773042616451932,0.038141025641025644,0.05079148471615721,0.20276497695852536,0.5511137162954279,1.0,0.46640200116734054,false
184,0.012658227848101266,0.0,0.0,0.0,0.004169632868910811,0.00641025641025641,0.018287159356835513,1.7250301880282904E-4,4.697040864255519E-4,0.0028616024973985433,0.009910802775024777,0.00641025641025641,0.031386462882096074,0.004608294930875576,0.5046893317702228,0.1076923076923077,0.31039285890071844,false
326,0.006329113924050633,0.0,0.0,0.0,0.004271331231567171,0.006730769230769231,0.03510228731033442,0.0,0.0,0.0,0.010406342913776016,0.006730769230769231,0.048580786026200876,0.004608294930875576,0.6635404454865181,0.15384615384615385,0.3259956580026538,false
327,0.15822784810126583,0.29411764705882354,0.16279069767441862,0.5,0.0380351876334791,0.022756410256410255,0.008161176954111206,0.04174573055028463,0.04133395960544857,0.10259374879562186,0.03270564915758176,0.022756410256410255,0.0,1.0,0.24384525205158264,1.0,0.481151273578582,false
188,0.006329113924050633,0.0,0.023255813953488372,0.5,0.003864537780941727,0.00608974358974359,0.03178078055408773,0.0,0.0,0.0,0.009415262636273538,0.00608974358974359,0.045305676855895205,0.004608294930875576,0.6541617819460728,0.1076923076923077,0.30493310183683986,false
189,0.08860759493670886,0.058823529411764705,0.09302325581395349,0.0,0.04474727956879894,0.06217948717948718,0.044444025062278264,0.00897015697774711,0.007045561296383279,0.03720083246618106,0.09613478691774034,0.06217948717948718,0.049808951965065504,0.004608294930875576,0.11540152403282533,1.0,0.8303803447393735,false
38,0.012658227848101266,0.0,0.0,0.0,0.010373232990948845,0.015705128205128205,0.05627689288140712,6.900120752113162E-4,0.0014091122592766556,0.011446409989594173,0.024281466798810703,0.015705128205128205,0.06700327510917031,0.004608294930875576,0.4712778429073857,0.07692307692307693,0.35318985056069657,false
41,0.0759493670886076,0.0,0.023255813953488372,0.5,0.04240821722770263,0.06217948717948718,0.050938757023153494,0.005175090564084871,0.007984969469234382,0.024528021406273227,0.09588701684836472,0.06217948717948718,0.058932470368059896,0.004608294930875576,0.14846759336794507,1.0,0.8551835601453847,false
331,0.006329113924050633,0.0,0.0,0.0,0.004576426319536256,0.006730769230769231,0.03759341737751944,5.175090564084871E-4,0.0014091122592766556,0.011446409989594173,0.010406342913776016,0.006730769230769231,0.048580786026200876,0.004608294930875576,0.8077373974208676,1.0,0.7248543717167375,false
43,0.006329113924050633,0.0,0.0,0.0,0.12244482863825892,0.19294871794871796,1.0,0.0,0.0,0.0,0.2983151635282458,0.19294871794871796,1.0,0.004608294930875576,0.6565064478311841,0.06153846153846154,0.3735608215301198,false
332,0.006329113924050633,0.0,0.0,0.0,0.003864537780941727,0.00608974358974359,0.03178078055408773,0.0,0.0,0.0,0.009415262636273538,0.00608974358974359,0.045305676855895205,0.004608294930875576,0.6752637749120751,0.09230769230769231,0.30102929188309624,false
333,0.03164556962025317,0.11764705882352941,0.046511627906976744,0.5,0.030916302247533816,0.025,0.09133065168393924,0.026392961876832845,0.04509159229685298,0.25018581834398695,0.037413280475718534,0.023717948717948717,0.05033530879600749,1.0,0.8536258583151902,0.07692307692307693,0.0756605061664379,false
470,0.006329113924050633,0.0,0.0,0.0,0.0018305705278145023,0.0028846153846153848,0.015173246772854235,0.0,0.0,0.0,0.0044598612487611496,0.0028846153846153848,0.028930131004366817,0.004608294930875576,0.6635404454865181,0.15384615384615385,0.2747870138607083,false
47,0.006329113924050633,0.0,0.0,0.0,0.004474727956879894,0.006730769230769231,0.036763040688457774,5.175090564084871E-4,0.0014091122592766556,0.011446409989594173,0.010158572844400396,0.006730769230769231,0.04776200873362446,0.004608294930875576,0.8077373974208676,1.0,0.7111391668111936,false
46,0.012658227848101266,0.0,0.0,0.0,0.011288518254856097,0.015705128205128205,0.06188193553257343,0.004485078488873555,0.010803193987787695,0.07440166493236212,0.021060455896927652,0.015705128205128205,0.05902019650655022,0.004608294930875576,0.6207502930832357,1.0,0.9442430617820478,false
48,0.006329113924050633,0.0,0.0,0.0,0.005491711583443507,0.008653846153846154,0.04506680757907452,0.0,0.0,0.0,0.013379583746283449,0.008653846153846154,0.05840611353711791,0.004608294930875576,0.6600234466588512,0.09230769230769231,0.3197883999808191,false
49,0.006329113924050633,0.0,0.0,0.0,0.009559646089697955,0.014423076923076924,0.0782818751415415,6.900120752113162E-4,0.0018788163457022077,0.015261879986125564,0.022299306243805748,0.014423076923076924,0.087882096069869,0.004608294930875576,0.6834701055099649,0.3076923076923077,0.4704366262911691,false
334,0.056962025316455694,0.11764705882352941,0.06976744186046512,0.5,0.04281501067832808,0.035256410256410256,0.07382803653657434,0.028808004140072452,0.060122123062470646,0.1737773152965661,0.06293359762140734,0.032692307692307694,0.04947399761810243,1.0,0.5627198124267292,1.0,0.30299426650817207,false
335,0.012658227848101266,0.0,0.0,0.0,0.010271534628292485,0.015705128205128205,0.05565411036461087,6.900120752113162E-4,0.0014091122592766556,0.011446409989594173,0.024033696729435085,0.015705128205128205,0.066389192139738,0.004608294930875576,0.5926143024618992,1.0,0.8089175314118308,false
50,0.006329113924050633,0.0,0.0,0.0,0.003050950879690837,0.004487179487179487,0.025137767041594327,5.175090564084871E-4,0.0014091122592766556,0.011446409989594173,0.006689791873141724,0.004487179487179487,0.036299126637554587,0.004608294930875576,0.8077373974208676,1.0,0.6501292714556924,false
198,0.012658227848101266,0.058823529411764705,0.0,0.0,0.004881521407505339,0.0054487179487179484,0.022646636974409304,0.002415042263239607,0.004697040864255519,0.040062434963579606,0.00842418235877106,0.0054487179487179484,0.027701965065502186,0.004608294930875576,0.5169988276670575,0.2923076923076923,0.4633283317528679,false
337,0.10126582278481013,0.23529411764705882,0.11627906976744186,0.0,0.06386657174819485,0.05448717948717949,0.06222792581968245,0.0564084871485251,0.08830436824800376,0.20794311481096084,0.07457879088206144,0.04006410256410257,0.030704148471615723,1.0,0.36498632278233684,0.5230769230769231,0.21104929448059703,false
472,0.012658227848101266,0.058823529411764705,0.0,0.0,0.0131190887826706,0.014423076923076924,0.07309202083490603,0.006037605658099017,0.01456082667919211,0.10015608740894902,0.023290386521308225,0.014423076923076924,0.06454694323144106,0.004608294930875576,0.5064478311840563,0.49230769230769234,0.4861581334549545,false
200,0.37341772151898733,0.23529411764705882,0.3953488372093023,1.0,0.23258415539509814,0.2826923076923077,0.06520003910566823,0.09039158185268242,0.05636449037106623,0.09832653827126797,0.436818632309217,0.2826923076923077,0.057157813730403045,0.004608294930875576,0.0024791958949128444,1.0,0.8369099896436768,false
201,0.056962025316455694,0.23529411764705882,0.06976744186046512,0.0,0.03681480728160277,0.027564102564102563,0.06046652072167284,0.03294807659134035,0.048849224988257396,0.1987513007284079,0.04236868186323092,0.027243589743589744,0.030939857086145297,1.0,0.614835340509432,0.046153846153846156,0.07704240873209751,false
202,0.006329113924050633,0.0,0.0,0.0,0.01149191498016882,0.01826923076923077,0.0940590322337133,0.0,0.0,0.0,0.027998017839444996,0.01826923076923077,0.10671397379912664,0.004608294930875576,0.686987104337632,0.24615384615384617,0.4288455317826923,false
203,0.06329113924050633,0.058823529411764705,0.13953488372093023,0.5,0.04708634190989525,0.06025641025641026,0.07392239752396772,0.015007762635846127,0.028651949271958667,0.08298647242455776,0.0931615460852329,0.06025641025641026,0.06905021834061137,0.004608294930875576,0.13012895662368112,0.35384615384615387,0.5436032021176491,false
341,0.012658227848101266,0.058823529411764705,0.0,0.0,0.00579680667141259,0.006730769230769231,0.028251679625575607,0.002415042263239607,0.004697040864255519,0.040062434963579606,0.010654112983151635,0.006730769230769231,0.033228711790393016,0.004608294930875576,0.48886283704572103,0.49230769230769234,0.47249511916429654,false
205,0.12658227848101267,0.23529411764705882,0.13953488372093023,0.5,0.04047594833723177,0.03141025641025641,0.019476107797992002,0.048300845264792135,0.04321277595115078,0.14568158168574402,0.02923686818632309,0.03141025641025641,0.001910480349344978,1.0,0.3182883939038687,1.0,0.7500591850924833,false
474,0.03164556962025317,0.0,0.023255813953488372,0.0,0.026848367741279366,0.04006410256410257,0.07709562272859624,0.0025875452820424355,0.0023485204321277596,0.024528021406273227,0.061694747274529234,0.04006410256410257,0.08472395508421711,0.004608294930875576,0.3215541785295596,1.0,0.7062257665399131,false
342,0.03164556962025317,0.0,0.0,0.0,0.058679955252720434,0.08878205128205129,0.18848472430415514,0.004140072451267897,0.0056364490371066224,0.039244834250037164,0.13701684836471753,0.08878205128205129,0.19139893948845912,0.004608294930875576,0.33411488862837047,1.0,0.8964798441076852,false
344,0.04430379746835443,0.0,0.0,0.5,0.01240720024407607,0.01858974358974359,0.01406607785410534,0.0012075211316198034,0.0018788163457022077,0.008902763325239912,0.028493557978196235,0.01858974358974359,0.02592794759825328,0.004608294930875576,0.2446268073466198,1.0,0.6936211284894934,false
208,0.02531645569620253,0.11764705882352941,0.023255813953488372,0.0,0.023797416861588528,0.019230769230769232,0.08243375858684987,0.020872865275142316,0.03663691874119305,0.23083593479014916,0.027998017839444996,0.01730769230769231,0.045715065502183405,1.0,1.0,0.07692307692307693,0.06772286132088372,false
54,0.03164556962025317,0.0,0.0,0.0,0.017695515102206856,0.027243589743589744,0.04506680757907452,6.900120752113162E-4,0.0018788163457022077,0.006540805708339527,0.042120911793855305,0.027243589743589744,0.05700249532127261,0.004608294930875576,0.330095461396751,1.0,0.6160024352338284,false
56,0.17088607594936708,0.0,0.09302325581395349,0.0,0.07444320146445642,0.10544871794871795,0.03630490182552719,0.01276522339140935,0.010333489901362142,0.029208080663102376,0.1630327056491576,0.10544871794871795,0.04349872007227827,0.004608294930875576,0.043052916683510536,1.0,0.8402445666697015,true
211,0.006329113924050633,0.0,0.0,0.0,0.00661039357266348,0.009935897435897435,0.05420095115875293,5.175090564084871E-4,0.0014091122592766556,0.011446409989594173,0.015361744301288404,0.009935897435897435,0.06495633187772926,0.004608294930875576,0.8077373974208676,1.0,0.7790925644294031,false
58,0.13924050632911392,0.23529411764705882,0.18604651162790697,0.5,0.08634190989525069,0.07275641025641026,0.06219332679097155,0.09056408487148525,0.11507750117426022,0.25039021852237253,0.0802775024777007,0.06666666666666667,0.02156113537117904,1.0,0.24765533411488866,1.0,0.29572959417809586,false
59,0.012658227848101266,0.0,0.0,0.0,0.04250991559035899,0.06698717948717949,0.25307616818902395,1.7250301880282904E-4,4.697040864255519E-4,0.0028616024973985433,0.1033201189296333,0.06698717948717949,0.2628957423580786,0.004608294930875576,0.4765533411488863,0.06153846153846154,0.3639550968833018,false
477,0.03164556962025317,0.058823529411764705,0.023255813953488372,0.0,0.030916302247533816,0.046153846153846156,0.09133065168393924,0.002932551319648094,0.005166744950681071,0.02779842426044299,0.07111000991080277,0.046153846153846156,0.09805832813474737,0.004608294930875576,0.2597554848434098,0.8,0.7938125039693895,false
346,0.006329113924050633,0.0,0.0,0.0,0.005084918132818062,0.007371794871794872,0.04174530082282781,6.900120752113162E-4,0.0018788163457022077,0.015261879986125564,0.011397423191278493,0.007371794871794872,0.05185589519650655,0.004608294930875576,0.6834701055099649,0.3076923076923077,0.4329181493761559,false
347,0.0189873417721519,0.0,0.0,0.0,0.010678328078917929,0.015064102564102564,0.040582773458141465,0.0053475935828877,0.011742602160638797,0.07096774193548387,0.018334985133795837,0.015064102564102564,0.03875545851528385,0.004608294930875576,0.4663540445486518,1.0,0.959174273180464,false
478,0.0189873417721519,0.0,0.0,0.0,0.008034170649852537,0.01282051282051282,0.027628897108779353,0.0,0.0,0.0,0.019573835480673936,0.01282051282051282,0.041211790393013106,0.004608294930875576,0.37631887456037516,0.12307692307692308,0.34972745401650507,false
62,0.006329113924050633,0.0,0.023255813953488372,0.0,0.007627377199227093,0.011858974358974358,0.06250471804936968,3.450060376056581E-4,9.394081728511038E-4,0.007630939993062782,0.01808721506442022,0.011858974358974358,0.07396288209606988,0.004608294930875576,0.64947245017585,0.5692307692307692,0.5878942599840257,false
479,0.006329113924050633,0.0,0.0,0.0,0.0028475541543781144,0.004487179487179487,0.023477013663470978,0.0,0.0,0.0,0.006937561942517344,0.004487179487179487,0.03711790393013101,0.004608294930875576,0.6752637749120751,0.09230769230769231,0.284541794531582,false
480,0.006329113924050633,0.0,0.0,0.0,0.0032543476050035593,0.005128205128205128,0.02679852041971768,0.0,0.0,0.0,0.007928642220019821,0.005128205128205128,0.040393013100436685,0.004608294930875576,0.6635404454865181,0.15384615384615385,0.30905162133803954,false
63,0.006329113924050633,0.0,0.023255813953488372,0.5,0.015458151123766908,0.02435897435897436,0.1264437231071186,0.0,0.0,0.0,0.03766105054509415,0.02435897435897436,0.138646288209607,0.004608294930875576,0.6541617819460728,0.1076923076923077,0.37093074679525756,false
481,0.0379746835443038,0.0,0.023255813953488372,0.0,0.019831180717990442,0.029487179487179487,0.042264286253491365,0.0018975332068311196,0.0014091122592766556,0.015738813735691987,0.04558969276511397,0.029487179487179487,0.05226528384279477,0.004608294930875576,0.2888335287221571,1.0,0.7322730377070442,false
216,0.0379746835443038,0.0,0.0,0.0,0.03447574494050646,0.05384615384615385,0.08710462746282178,6.900120752113162E-4,0.0014091122592766556,0.005723204994797087,0.0830029732408325,0.05384615384615385,0.09862854803493451,0.004608294930875576,0.28839390386869873,1.0,0.7860476973753007,false
349,0.06329113924050633,0.17647058823529413,0.11627906976744186,1.0,0.03396725312722465,0.028205128205128206,0.047142749301728695,0.02777298602725548,0.0497886331611085,0.1535726673603885,0.04286422200198216,0.0266025641025641,0.027497270742358085,0.20276497695852536,0.3988862837045721,1.0,0.2666211109507996,false
217,0.0189873417721519,0.0,0.046511627906976744,0.0,0.031018000610190177,0.0483974358974359,0.14022797614554242,6.900120752113162E-4,0.0014091122592766556,0.009157127991675338,0.07457879088206144,0.0483974358974359,0.15027292576419216,0.004608294930875576,0.4600234466588512,1.0,0.9225127455258675,false
352,0.04430379746835443,0.17647058823529413,0.046511627906976744,0.5,0.01901759381673955,0.016346153846153847,0.03205757278377495,0.01587027772986027,0.032409581963363084,0.11700774656029599,0.023538156590683847,0.014102564102564103,0.02046943231441048,1.0,0.7499023055881204,1.0,0.3529312329824588,false
484,0.006329113924050633,0.0,0.0,0.0,0.006508695210007119,0.009615384615384616,0.05337057446969127,6.900120752113162E-4,0.0018788163457022077,0.015261879986125564,0.014866204162537165,0.009615384615384616,0.06331877729257643,0.004608294930875576,0.6752637749120751,0.09230769230769231,0.34689515502963025,false
66,0.0379746835443038,0.0,0.023255813953488372,0.0,0.058985050340689515,0.08301282051282051,0.16214992073677062,0.0106951871657754,0.01456082667919211,0.08870967741935484,0.12834489593657086,0.08301282051282051,0.15481713973799127,0.004608294930875576,0.27784290738569756,1.0,1.0,false
354,0.13291139240506328,0.11764705882352941,0.09302325581395349,0.0,0.10149496593104851,0.15096153846153845,0.08232544858392879,0.009832672071761256,0.005166744950681071,0.028367189974211646,0.2331516352824579,0.15096153846153845,0.08905686348965257,0.004608294930875576,0.07997349508129875,1.0,0.8084723337133307,false
223,0.012658227848101266,0.0,0.0,0.0,0.0031526492423471983,0.004487179487179487,0.012059334188872955,5.175090564084871E-4,0.0014091122592766556,0.00858480749219563,0.006937561942517344,0.004487179487179487,0.0240174672489083,0.004608294930875576,0.5943728018757327,1.0,0.6107068823495394,false
486,0.006329113924050633,0.0,0.0,0.0,0.0016271738025017796,0.0019230769230769232,0.013512493394730884,6.900120752113162E-4,0.0018788163457022077,0.015261879986125564,0.002973240832507433,0.0019230769230769232,0.0240174672489083,0.004608294930875576,0.6611957796014069,0.5384615384615384,0.43699298671052045,false
225,0.05063291139240506,0.17647058823529413,0.06976744186046512,0.0,0.0679345062544493,0.06346153846153846,0.14570846229334947,0.050198378471623256,0.10145608266791921,0.33309053069719047,0.09340931615460853,0.05737179487179487,0.08616266375545852,1.0,0.6830011723329426,1.0,0.4201644775686196,false
226,0.012658227848101266,0.0,0.0,0.0,0.005593409946099867,0.008012820512820512,0.027006114591983096,8.625150940141452E-4,0.0014091122592766556,0.014308012486992717,0.012388503468780971,0.008012820512820512,0.03752729257641922,0.004608294930875576,0.5917350527549825,1.0,0.5985763995871233,false
487,0.0189873417721519,0.058823529411764705,0.023255813953488372,0.0,0.017085324926268686,0.026282051282051282,0.07197101230467276,8.625150940141452E-4,0.0018788163457022077,0.011446409989594173,0.04038652130822597,0.026282051282051282,0.08247816593886463,0.004608294930875576,0.4009378663540446,0.2923076923076923,0.4482955469440169,true
227,0.2468354430379747,0.5294117647058824,0.2558139534883721,0.5,0.17695515102206855,0.1375,0.07824136896158727,0.14645506296360186,0.2099577266322217,0.23702444100403544,0.2207631318136769,0.13012820512820514,0.04025322185536266,1.0,0.1315014439710634,1.0,0.30601966227396543,false
488,0.0379746835443038,0.0,0.0,0.0,0.0679345062544493,0.10256410256410256,0.18955235147580587,0.03674314300500259,0.08031939877876937,0.3047606659729449,0.11273538156590684,0.10256410256410256,0.13547352620087338,0.004608294930875576,0.23871629542790154,0.1076923076923077,0.46579879598727225,false
355,0.012658227848101266,0.0,0.0,0.0,0.003559442692972643,0.004807692307692308,0.01455046425605798,8.625150940141452E-4,0.0014091122592766556,0.014308012486992717,0.007433102081268583,0.004807692307692308,0.02524563318777293,0.004608294930875576,0.5908558030480657,1.0,0.698930344826103,false
489,0.006329113924050633,0.0,0.0,0.0,0.005898505034068952,0.009294871794871795,0.0483883143353212,0.0,0.0,0.0,0.014370664023785926,0.009294871794871795,0.061681222707423586,0.004608294930875576,0.6635404454865181,0.15384615384615385,0.3456074791633988,false
490,0.03164556962025317,0.058823529411764705,0.0,0.0,0.028678938269093866,0.04391025641025641,0.0835013857585006,0.0015525271692254615,0.0018788163457022077,0.014716812843763938,0.0676412289395441,0.04391025641025641,0.09314566437928885,0.004608294930875576,0.28437447663707927,0.9538461538461539,0.9030719166777796,false
492,0.056962025316455694,0.17647058823529413,0.046511627906976744,0.0,0.2316688701311909,0.2169871794871795,0.4943760851513551,0.1657754010695187,0.32644434006575856,1.0,0.3263131813676908,0.20064102564102565,0.28684497816593885,1.0,0.598529255035703,1.0,0.3889741673133775,true
357,0.0189873417721519,0.0,0.023255813953488372,0.0,0.005593409946099867,0.008333333333333333,0.01567147278629124,5.175090564084871E-4,0.0014091122592766556,0.006867845993756503,0.01288404360753221,0.008333333333333333,0.027947598253275117,0.004608294930875576,0.4930832356389214,1.0,0.6495910448705616,false
74,0.12658227848101267,0.4117647058823529,0.13953488372093023,1.0,0.11339367436184278,0.09326923076923077,0.10066430135124936,0.09746420562359841,0.14044152184124,0.2939646201873049,0.13627353815659068,0.09326923076923077,0.050143906312028586,1.0,0.2741660449749547,0.35384615384615387,0.24895175484986024,false
232,0.006329113924050633,0.0,0.0,0.0,0.006101901759381674,0.008974358974358974,0.05004906771344456,6.900120752113162E-4,0.0018788163457022077,0.015261879986125564,0.013875123885034688,0.008974358974358974,0.06004366812227075,0.004608294930875576,0.6600234466588512,0.09230769230769231,0.3444095667003322,false
359,0.06962025316455696,0.29411764705882354,0.06976744186046512,0.5,0.11430895962575002,0.09743589743589744,0.19261835771234126,0.09591167845437296,0.1512447158290277,0.48955415032418154,0.14073339940535184,0.08269230769230769,0.09884111521666107,1.0,0.5318784380918027,0.0,0.022418481215569854,false
75,0.006329113924050633,0.0,0.0,0.0,0.003559442692972643,0.005128205128205128,0.029289650486902703,5.175090564084871E-4,0.0014091122592766556,0.011446409989594173,0.007928642220019821,0.005128205128205128,0.040393013100436685,0.004608294930875576,0.8077373974208676,1.0,0.6862765022520949,false
76,0.006329113924050633,0.0,0.0,0.0,0.005288314858130784,0.007692307692307693,0.04340605420095116,6.900120752113162E-4,0.0018788163457022077,0.015261879986125564,0.011892963330029732,0.007692307692307693,0.053493449781659395,0.004608294930875576,0.6518171160609614,0.5230769230769231,0.5361850439717297,false
360,0.012658227848101266,0.0,0.0,0.0,0.008339265737821622,0.0125,0.04382124254548201,6.900120752113162E-4,0.0018788163457022077,0.011446409989594173,0.019326065411298315,0.0125,0.054721615720524024,0.004608294930875576,0.47391559202813605,0.5076923076923077,0.5684455670161686,false
361,0.0189873417721519,0.058823529411764705,0.0,0.0,0.006305298484694397,0.008653846153846154,0.019159054880350277,0.0013800241504226323,0.0018788163457022077,0.018314255983350677,0.013379583746283449,0.008653846153846154,0.028930131004366817,0.004608294930875576,0.40726846424384533,0.2923076923076923,0.44887932196591124,false
77,0.0189873417721519,0.0,0.023255813953488372,0.0,0.009356249364385233,0.013782051282051282,0.034105835283460416,0.0012075211316198034,0.0018788163457022077,0.01602497398543184,0.021060455896927652,0.013782051282051282,0.04415938864628821,0.004608294930875576,0.3847596717467761,0.09230769230769231,0.36328469115011774,false
79,0.0189873417721519,0.0,0.023255813953488372,0.0,0.018712498728770465,0.029166666666666667,0.07994262851966484,5.175090564084871E-4,0.0014091122592766556,0.006867845993756503,0.04484638255698711,0.029166666666666667,0.09132096069868996,0.004608294930875576,0.46565064478311846,1.0,0.8313895556606614,false
494,0.012658227848101266,0.0,0.0,0.0,0.02298382996033764,0.035256410256410256,0.13350192496414284,0.0012075211316198034,0.0018788163457022077,0.020031217481789803,0.054261645193260655,0.035256410256410256,0.14130731441048036,0.004608294930875576,0.4695193434935522,0.3230769230769231,0.518066523274012,false
496,0.006329113924050633,0.0,0.0,0.0,0.002644157429065392,0.004166666666666667,0.021816260285347635,0.0,0.0,0.0,0.006442021803766105,0.004166666666666667,0.03548034934497817,0.004608294930875576,0.6600234466588512,0.09230769230769231,0.2806060693573496,false
498,0.012658227848101266,0.058823529411764705,0.0,0.0,0.007627377199227093,0.008653846153846154,0.03946176492790821,0.0013800241504226323,0.0018788163457022077,0.022892819979188347,0.016600594648166503,0.007371794871794872,0.04796670305676856,0.004608294930875576,0.5064478311840563,0.49230769230769234,0.3533273325634155,false
236,0.012658227848101266,0.058823529411764705,0.0,0.0,0.01322078714532696,0.020192307692307693,0.07371480335170229,6.900120752113162E-4,0.0018788163457022077,0.011446409989594173,0.031219028741328047,0.020192307692307693,0.08419759825327512,0.004608294930875576,0.5169988276670575,0.2923076923076923,0.47582873213237503,false
499,0.006329113924050633,0.0,0.0,0.0,0.004067934506254449,0.00641025641025641,0.03344153393221107,0.0,0.0,0.0,0.009910802775024777,0.00641025641025641,0.04694323144104804,0.004608294930875576,0.6635404454865181,0.15384615384615385,0.32296356723109126,false
82,0.012658227848101266,0.0,0.0,0.0,0.00579680667141259,0.008653846153846154,0.028251679625575607,5.175090564084871E-4,0.0014091122592766556,0.00858480749219563,0.013379583746283449,0.008653846153846154,0.03998362445414848,0.004608294930875576,0.6207502930832357,1.0,0.6648656388655384,false
238,0.012658227848101266,0.0,0.0,0.0,0.002339062341096308,0.003205128205128205,0.007077074054502909,5.175090564084871E-4,0.0014091122592766556,0.00858480749219563,0.004955401387512388,0.003205128205128205,0.01910480349344978,0.004608294930875576,0.6014067995310669,1.0,0.6124878215841414,false
86,0.012658227848101266,0.0,0.0,0.0,0.004067934506254449,0.0057692307692307696,0.01766437684003926,6.900120752113162E-4,0.0014091122592766556,0.011446409989594173,0.008919722497522299,0.0057692307692307696,0.028930131004366817,0.004608294930875576,0.597010550996483,1.0,0.7101793945876977,false
366,0.012658227848101266,0.0,0.0,0.0,0.01647513475033052,0.02564102564102564,0.09364384388918247,5.175090564084871E-4,0.0014091122592766556,0.00858480749219563,0.03939544103072349,0.02564102564102564,0.10446233624454149,0.004608294930875576,0.5943728018757327,1.0,0.8069133770343172,false
367,0.012658227848101266,0.0,0.0,0.0,0.009559646089697955,0.014743589743589743,0.05129463274703708,5.175090564084871E-4,0.0014091122592766556,0.00858480749219563,0.02254707631318137,0.014743589743589743,0.06270469432314411,0.004608294930875576,0.6207502930832357,1.0,0.708097573344349,false
96,0.0189873417721519,0.0,0.0,0.0,0.005390013220787145,0.006730769230769231,0.014675020759417233,0.0018975332068311196,0.0023485204321277596,0.025182101977107182,0.010406342913776016,0.006730769230769231,0.023034934497816593,0.004608294930875576,0.3910902696365768,0.1076923076923077,0.36023078914678475,false
97,0.006329113924050633,0.0,0.0,0.0,0.003864537780941727,0.00608974358974359,0.03178078055408773,0.0,0.0,0.0,0.009415262636273538,0.00608974358974359,0.045305676855895205,0.004608294930875576,0.6752637749120751,0.09230769230769231,0.30102929188309624,false
369,0.006329113924050633,0.0,0.0,0.0,0.014746262585172379,0.022756410256410255,0.12063108628368689,5.175090564084871E-4,0.0014091122592766556,0.011446409989594173,0.03518334985133796,0.022756410256410255,0.1304585152838428,0.004608294930875576,0.8077373974208676,1.0,0.8761819259703078,false
370,0.05063291139240506,0.0,0.023255813953488372,0.0,0.016068341299705073,0.022756410256410255,0.018660828866913264,0.0027600483008452647,0.0023485204321277596,0.018314255983350677,0.03518334985133796,0.022756410256410255,0.028438864628820965,0.004608294930875576,0.19237983587338806,0.5076923076923077,0.6319367487487632,false
508,0.012658227848101266,0.0,0.0,0.0,0.0020339672531272247,0.0022435897435897434,0.005208726504114141,0.0010350181128169743,0.0014091122592766556,0.01716961498439126,0.003468780971258672,0.0022435897435897434,0.015420305676855896,0.004608294930875576,0.597010550996483,1.0,0.6161950231915464,false
509,0.10759493670886076,0.058823529411764705,0.16279069767441862,0.0,0.05776466998881318,0.08557692307692308,0.04952461927824772,0.006037605658099017,0.0028182245185533112,0.021085492086094528,0.13206144697720515,0.08557692307692308,0.05827683291197426,0.004608294930875576,0.09403344233972975,1.0,0.8304452543514234,false
512,0.02531645569620253,0.058823529411764705,0.046511627906976744,0.5,0.004983219770161701,0.003205128205128205,0.005623914848644977,0.005520096601690529,0.013151714419915453,0.061047519944502256,0.00421209117938553,0.0022435897435897434,0.006413755458515286,0.20276497695852536,0.7766705744431419,1.0,0.2743433063110641,false
372,0.21518987341772153,0.11764705882352941,0.18604651162790697,0.0,0.13617410759686768,0.16826923076923078,0.06548023451850735,0.04985337243401759,0.05307656176608737,0.09188923574979768,0.2601585728444004,0.16826923076923078,0.05881550218340612,0.004608294930875576,0.03126221180148496,1.0,0.9573326256903227,true
98,0.0189873417721519,0.0,0.0,0.0,0.01881419709142683,0.028525641025641025,0.08044085453310186,0.0012075211316198034,0.0014091122592766556,0.01602497398543184,0.04410307234886026,0.028525641025641025,0.0898471615720524,0.004608294930875576,0.4895662368112544,1.0,0.81009511864347,false
514,0.006329113924050633,0.0,0.0,0.0,0.022882131597681276,0.03621794871794872,0.18706122140862086,0.0,0.0,0.0,0.05574826560951437,0.03621794871794872,0.1984170305676856,0.004608294930875576,0.6565064478311841,0.06153846153846154,0.3519826869126816,false
373,0.056962025316455694,0.0,0.0,0.0,0.009661344452354318,0.014423076923076924,0.0,8.625150940141452E-4,0.0014091122592766556,0.005202913631633715,0.022299306243805748,0.014423076923076924,0.012852322350138945,0.004608294930875576,0.2068634765000533,1.0,0.7794715977918839,false
245,0.012658227848101266,0.0,0.0,0.0,0.002949252517034476,0.0038461538461538464,0.010813769155280444,8.625150940141452E-4,0.0018788163457022077,0.014308012486992717,0.005946481665014866,0.0038461538461538464,0.02156113537117904,0.004608294930875576,0.49853458382180543,0.9538461538461539,0.5597455880683294,false
101,0.0189873417721519,0.058823529411764705,0.023255813953488372,0.0,0.005288314858130784,0.0035256410256410257,0.014176794745980228,0.005520096601690529,0.013621418506341005,0.0732570239334027,0.004955401387512388,0.0028846153846153848,0.012227074235807859,0.20276497695852536,0.9418522860492381,1.0,0.3049810122317269,false
375,0.012658227848101266,0.0,0.0,0.0,0.004169632868910811,0.0057692307692307696,0.018287159356835513,8.625150940141452E-4,0.0018788163457022077,0.014308012486992717,0.008919722497522299,0.0057692307692307696,0.028930131004366817,0.004608294930875576,0.5046893317702228,0.1076923076923077,0.33477899640397424,false
246,0.056962025316455694,0.11764705882352941,0.046511627906976744,0.0,0.025322892301433947,0.03878205128205128,0.03487582094059033,0.0013800241504226323,0.0014091122592766556,0.008324661810613945,0.05971258671952428,0.03878205128205128,0.0465710599444224,0.004608294930875576,0.21101992966002345,1.0,0.8061490147810776,false
517,0.0379746835443038,0.0,0.023255813953488372,0.0,0.012813993694701516,0.01891025641025641,0.020778289424020536,0.0013800241504226323,0.0014091122592766556,0.011446409989594173,0.02923686818632309,0.01891025641025641,0.03200054585152839,0.004608294930875576,0.27256740914419697,1.0,0.8087549588522269,false
103,0.16455696202531644,0.4117647058823529,0.16279069767441862,1.0,0.17614156412081766,0.13333333333333333,0.12762997552006386,0.1354148697602208,0.20385157350868952,0.32090828006540806,0.2346382556987116,0.12403846153846154,0.07095095134123518,1.0,0.2140345000837381,0.8461538461538461,0.27818144923538224,false
518,0.0189873417721519,0.0,0.023255813953488372,0.0,0.008339265737821622,0.0125,0.029123575149090367,8.625150940141452E-4,0.0018788163457022077,0.011446409989594173,0.019078295341922697,0.0125,0.0402292576419214,0.004608294930875576,0.3692848769050411,0.07692307692307693,0.33569975591126805,false
248,0.02531645569620253,0.058823529411764705,0.0,0.0,0.02613647920268484,0.04006410256410257,0.09198309051105913,0.0012075211316198034,0.0028182245185533112,0.01335414498785987,0.06194251734390486,0.04006410256410257,0.10180131004366813,0.004608294930875576,0.32297772567409144,0.09230769230769231,0.38265982331756043,false
520,0.006329113924050633,0.0,0.0,0.0,0.02145835452049222,0.03397435897435897,0.1754359477617574,0.0,0.0,0.0,0.0522794846382557,0.03397435897435897,0.1869541484716157,0.004608294930875576,0.6565064478311841,0.06153846153846154,0.3504453619870377,false
521,0.05063291139240506,0.058823529411764705,0.06976744186046512,0.5,0.04596765992067528,0.038141025641025644,0.09190005284215295,0.0391581852682422,0.0643494598403006,0.25983350676378775,0.05574826560951437,0.03205128205128205,0.04882641921397381,0.20276497695852536,0.4002344665885112,0.12307692307692308,0.06077890781261613,false
249,0.13924050632911392,0.29411764705882354,0.13953488372093023,0.5,0.15407301942438728,0.1294871794871795,0.13132218615535596,0.12747973089529066,0.1982151244715829,0.35245404092958726,0.19226957383548068,0.11955128205128206,0.06782205240174674,1.0,0.2920574443141853,1.0,0.38962053269198355,false
522,0.12658227848101267,0.35294117647058826,0.13953488372093023,0.5,0.06447676192413303,0.05897435897435897,0.04619913942779498,0.06434362601345524,0.085955847815876,0.19406867845993755,0.06466798810703667,0.05897435897435897,0.017876637554585153,1.0,0.31413194074389855,1.0,0.440857238654331,false
378,0.012658227848101266,0.0,0.0,0.0,0.013729278958608766,0.021153846153846155,0.07682871593568356,6.900120752113162E-4,0.0018788163457022077,0.011446409989594173,0.032457879088206146,0.021153846153846155,0.08726801310043669,0.004608294930875576,0.4958968347010551,0.1076923076923077,0.37313357490066046,false
524,0.006329113924050633,0.0,0.0,0.0,0.003559442692972643,0.005128205128205128,0.029289650486902703,5.175090564084871E-4,0.0014091122592766556,0.011446409989594173,0.007928642220019821,0.005128205128205128,0.040393013100436685,0.004608294930875576,0.8077373974208676,1.0,0.6862765022520949,false
105,0.06329113924050633,0.058823529411764705,0.046511627906976744,0.0,0.06905318824366928,0.08878205128205129,0.11876273873329814,0.02173538036915646,0.023485204321277594,0.12018730489073882,0.13701684836471753,0.08878205128205129,0.10528111353711792,0.004608294930875576,0.1869871043376319,1.0,0.9365324798076876,true
252,0.0189873417721519,0.0,0.0,0.0,0.019729482355334078,0.029487179487179487,0.08492488865403489,0.0018975332068311196,0.0032879286049788633,0.025182101977107182,0.045341922695738356,0.029487179487179487,0.09230349344978166,0.004608294930875576,0.4839390386869871,1.0,0.8270608939153515,false
253,0.006329113924050633,0.0,0.0,0.0,0.004576426319536256,0.006730769230769231,0.03759341737751944,5.175090564084871E-4,0.0014091122592766556,0.011446409989594173,0.010406342913776016,0.006730769230769231,0.048580786026200876,0.004608294930875576,0.8077373974208676,1.0,0.7248543717167375,false
107,0.34177215189873417,0.17647058823529413,0.6511627906976745,0.0,0.3416048001627174,0.4881410256410256,0.12135766588661585,0.054165947904088324,0.012682010333489901,0.06418165601308161,0.7544598612487612,0.4881410256410256,0.11985827354959452,0.004608294930875576,0.0,1.0,0.8856440122942137,false
526,0.056962025316455694,0.0,0.046511627906976744,0.0,0.040069154886606326,0.06057692307692308,0.06771344455348383,0.002932551319648094,0.004227336777829967,0.01768990634755463,0.09340931615460853,0.06057692307692308,0.07694025406907504,0.004608294930875576,0.17904721304486837,1.0,0.6222567451563986,false
381,0.012658227848101266,0.0,0.0,0.0,0.005695108308756229,0.008333333333333333,0.027628897108779353,6.900120752113162E-4,0.0018788163457022077,0.011446409989594173,0.01288404360753221,0.008333333333333333,0.03875545851528385,0.004608294930875576,0.6207502930832357,1.0,0.7451377447273656,false
108,0.0379746835443038,0.0,0.023255813953488372,0.5,0.0262381775653412,0.038141025641025644,0.06188193553257343,0.00362256339485941,0.004227336777829967,0.030046826222684706,0.0587215064420218,0.038141025641025644,0.06853848253275109,0.004608294930875576,0.2809202813599062,1.0,0.857313181071266,true
382,0.06329113924050633,0.17647058823529413,0.046511627906976744,1.0,0.044035391030204415,0.03717948717948718,0.06769457235600515,0.03415559772296015,0.05918271488961954,0.18886576482830386,0.058225966303270565,0.03717948717948718,0.04018831877729258,0.20276497695852536,0.44577960140679956,1.0,0.17838182127344956,false
109,0.08860759493670886,0.17647058823529413,0.16279069767441862,0.5,0.06122241431912946,0.04583333333333333,0.06966671699252662,0.05554597205451096,0.07562235791451385,0.23035900104058274,0.06937561942517344,0.04326923076923077,0.033228711790393016,1.0,0.38181418522860494,0.09230769230769231,0.06379402673516885,false
528,0.012658227848101266,0.0,0.0,0.0,0.009152852639072511,0.013782051282051282,0.048803502679852055,6.900120752113162E-4,0.0018788163457022077,0.011446409989594173,0.02130822596630327,0.013782051282051282,0.059634279475982536,0.004608294930875576,0.49853458382180543,0.3076923076923077,0.4678793686108473,false
112,0.0189873417721519,0.11764705882352941,0.023255813953488372,0.0,0.019424387267364996,0.01826923076923077,0.08343021061372387,0.013627738485423495,0.035227806481916396,0.18085327783558794,0.027750247770069375,0.017628205128205128,0.05742358078602621,0.20276497695852536,0.8581477139507621,0.5230769230769231,0.27435079223841746,false
256,0.006329113924050633,0.0,0.0,0.0,0.00905115427641615,0.013782051282051282,0.07412999169623312,5.175090564084871E-4,0.0014091122592766556,0.011446409989594173,0.02130822596630327,0.013782051282051282,0.08460698689956332,0.004608294930875576,0.8077373974208676,1.0,0.821268183082772,false
530,0.006329113924050633,0.0,0.023255813953488372,0.5,0.051459371504118785,0.0810897435897436,0.42039707103495133,0.0,0.0,0.0,0.12537165510406342,0.0810897435897436,0.4284934497816594,0.004608294930875576,0.6541617819460728,0.1076923076923077,0.3989114923660921,false
529,0.08227848101265822,0.11764705882352941,0.11627906976744186,0.5,0.06661242753991661,0.1,0.08509096399184723,0.0053475935828877,0.005166744950681071,0.023655913978494626,0.15460852329038652,0.1,0.09279475982532752,0.004608294930875576,0.09613130128956625,0.5230769230769231,0.5951879253268358,true
258,0.02531645569620253,0.058823529411764705,0.046511627906976744,0.5,0.012610596969388793,0.010576923076923078,0.036763040688457774,0.010005175090564086,0.023954908407703146,0.11064862989941034,0.01635282457879088,0.010576923076923078,0.026473799126637557,0.20276497695852536,0.7766705744431419,1.0,0.40844506264157415,false
390,0.056962025316455694,0.23529411764705882,0.06976744186046512,0.0,0.048205023899115226,0.035256410256410256,0.08583075413301128,0.04467828186993272,0.060122123062470646,0.2695109261186265,0.05327056491575818,0.03365384615384615,0.040765184597062326,1.0,0.6151550676755836,0.046153846153846156,0.0703586729774949,false
531,0.056962025316455694,0.0,0.046511627906976744,0.5,0.02959422353300112,0.04519230769230769,0.04438740846984224,0.0017250301880282904,0.0018788163457022077,0.01040582726326743,0.06962338949454906,0.04519230769230769,0.05550317586343787,0.004608294930875576,0.14419695193434937,0.18461538461538463,0.4118498609250265,false
259,0.0189873417721519,0.0,0.0,0.0,0.01159361334282518,0.017948717948717947,0.04506680757907452,5.175090564084871E-4,0.0014091122592766556,0.006867845993756503,0.027502477700693757,0.017948717948717947,0.05693231441048035,0.004608294930875576,0.48253223915592025,1.0,0.753188340029452,false
114,0.0189873417721519,0.0,0.0,0.0,0.014237770771890573,0.021474358974358974,0.05802068392843665,0.0010350181128169743,0.0014091122592766556,0.013735691987513007,0.033201189296333006,0.021474358974358974,0.06823144104803494,0.004608294930875576,0.48745603751465416,1.0,0.7008313340742409,false
532,0.03164556962025317,0.0,0.023255813953488372,0.0,0.02501779721346486,0.03782051282051282,0.0706898596986919,0.0018975332068311196,0.0028182245185533112,0.0179872156979337,0.058225966303270565,0.03782051282051282,0.07981129132875858,0.004608294930875576,0.3290906045888461,1.0,0.8132786511687593,false
116,0.012658227848101266,0.0,0.0,0.0,0.008135869012508899,0.011858974358974358,0.042575677511889495,0.0010350181128169743,0.0018788163457022077,0.01716961498439126,0.018334985133795837,0.011858974358974358,0.05226528384279477,0.004608294930875576,0.4862250879249707,0.5384615384615384,0.5731544607690231,false
115,0.17088607594936708,0.35294117647058826,0.11627906976744186,0.5,0.1694294721854978,0.1407051282051282,0.11653647019624484,0.1436950146627566,0.21465476749647722,0.32878825935627404,0.20639246778989098,0.12147435897435897,0.05832141243788586,1.0,0.22981768201479563,1.0,0.2370882794581266,false
534,0.012658227848101266,0.0,0.023255813953488372,0.0,0.027763653005186618,0.04294871794871795,0.16277270325356688,0.0010350181128169743,0.0014091122592766556,0.01716961498439126,0.06615460852329039,0.04294871794871795,0.17078329694323144,0.004608294930875576,0.47919109026963663,0.2153846153846154,0.4579777387874876,false
117,0.006329113924050633,0.0,0.0,0.0,0.012000406793450626,0.01826923076923077,0.09821091567902168,6.900120752113162E-4,0.0018788163457022077,0.015261879986125564,0.028245787908820614,0.01826923076923077,0.10753275109170307,0.004608294930875576,0.6834701055099649,0.3076923076923077,0.48186492268322745,false
392,0.0949367088607595,0.058823529411764705,0.11627906976744186,0.0,0.03864537780941727,0.049679487179487176,0.03129232367816909,0.012247714335000862,0.016439643024894316,0.04780559466242273,0.0765609514370664,0.049679487179487176,0.03456524531209864,0.004608294930875576,0.12061237156058205,1.0,0.7713529954664686,false
118,0.006329113924050633,0.0,0.0,0.0,0.005491711583443507,0.008012820512820512,0.04506680757907452,6.900120752113162E-4,0.0018788163457022077,0.015261879986125564,0.012388503468780971,0.008012820512820512,0.05513100436681224,0.004608294930875576,0.6565064478311841,0.2153846153846154,0.39573225130762507,false
393,0.189873417721519,0.29411764705882354,0.32558139534883723,1.0,0.13790297976202584,0.10865384615384616,0.07869706348607233,0.1300672761773331,0.16768435885392202,0.2697060353798127,0.1491575817641229,0.0798076923076923,0.033689274017467255,1.0,0.2053048065650645,1.0,0.16466668618377422,true
394,0.006329113924050633,0.0,0.0,0.0,0.009559646089697955,0.015064102564102564,0.0782818751415415,0.0,0.0,0.0,0.023290386521308225,0.015064102564102564,0.09115720524017469,0.004608294930875576,0.686987104337632,0.24615384615384617,0.4200822825770496,false
119,0.0379746835443038,0.058823529411764705,0.046511627906976744,0.0,0.027153462829248447,0.038461538461538464,0.06468445685815657,0.004830084526479214,0.007045561296383279,0.040062434963579606,0.05921704658077304,0.038461538461538464,0.06915256550218342,0.004608294930875576,0.23256154747948418,0.5076923076923077,0.6267287945139732,false
120,0.012658227848101266,0.0,0.023255813953488372,0.0,0.008847757551103428,0.013461538461538462,0.04693515512946329,6.900120752113162E-4,0.0014091122592766556,0.011446409989594173,0.020564915758176414,0.013461538461538462,0.057792030567685594,0.004608294930875576,0.47831184056271986,0.35384615384615387,0.38975654447322816,false
396,0.006329113924050633,0.0,0.0,0.0,0.004779823044848978,0.007051282051282051,0.039254170755642796,6.900120752113162E-4,0.0018788163457022077,0.015261879986125564,0.010654112983151635,0.007051282051282051,0.0493995633187773,0.004608294930875576,0.6565064478311841,0.9538461538461539,0.7100145285490675,false
537,0.006329113924050633,0.0,0.0,0.0,0.006915488660632563,0.010897435897435897,0.056692081225937954,0.0,0.0,0.0,0.01684836471754212,0.010897435897435897,0.06986899563318777,0.004608294930875576,0.6635404454865181,0.15384615384615385,0.35480052033249804,false
399,0.006329113924050633,0.0,0.0,0.5,0.023695718498932167,0.0375,0.19370423492111424,0.0,0.0,0.0,0.05773042616451932,0.0375,0.20496724890829696,0.004608294930875576,0.6471277842907386,0.09230769230769231,0.372892918455746,false
265,0.012658227848101266,0.058823529411764705,0.023255813953488372,0.0,0.005695108308756229,0.00641025641025641,0.027628897108779353,0.0022425392444367777,0.004227336777829967,0.03720083246618106,0.010654112983151635,0.00641025641025641,0.033228711790393016,0.004608294930875576,0.48798358733880426,0.35384615384615387,0.41160470882288513,false
538,0.02531645569620253,0.0,0.0,0.0,0.019932879080646802,0.027884615384615386,0.06665660149467804,0.003967569432465068,0.0061061531235321745,0.043877904960111,0.04286422200198216,0.027884615384615386,0.070278384279476,0.004608294930875576,0.3886283704572099,1.0,0.893663988678194,false
539,0.02531645569620253,0.0,0.046511627906976744,0.5,0.043831994304891694,0.06153846153846154,0.16422586245942478,0.008107641883732966,0.007045561296383279,0.08966354491848769,0.09514370664023786,0.06153846153846154,0.15665938864628823,0.004608294930875576,0.30480656506447834,0.35384615384615387,0.5272054242461701,false
400,0.012658227848101266,0.0,0.0,0.0,0.036509712193633685,0.05673076923076923,0.21633199969804487,0.0010350181128169743,0.0028182245185533112,0.01716961498439126,0.08746283448959366,0.05673076923076923,0.22359443231441048,0.004608294930875576,0.5002930832356389,0.24615384615384617,0.4808248432334535,false
401,0.02531645569620253,0.11764705882352941,0.023255813953488372,0.0,0.01250889860673243,0.008974358974358974,0.036347852343926935,0.011730205278592375,0.02160638797557539,0.1297259798820673,0.013627353815659068,0.008974358974358974,0.021970524017467248,1.0,1.0,0.07692307692307693,0.07128271042612408,false
541,0.03164556962025317,0.058823529411764705,0.0,0.0,0.01718702328892505,0.025961538461538463,0.04328742895965664,0.0013800241504226323,0.0018788163457022077,0.013081611416679054,0.039890981169474725,0.025961538461538463,0.053844354335620716,0.004608294930875576,0.2733210517501256,0.5230769230769231,0.6196032261087929,false
268,0.006329113924050633,0.0,0.0,0.0,0.006712091935319841,0.010256410256410256,0.055031327847814615,5.175090564084871E-4,0.0014091122592766556,0.011446409989594173,0.015609514370664023,0.010256410256410256,0.06577510917030568,0.004608294930875576,0.8077373974208676,1.0,0.7731744385592244,false
124,0.12025316455696203,0.23529411764705882,0.18604651162790697,1.0,0.04474727956879894,0.03717948717948718,0.02679852041971768,0.04226323960669312,0.040864255519023014,0.13354144987859867,0.04831516352824579,0.03717948717948718,0.01173580786026201,1.0,0.33227265114721155,1.0,0.4727675692603496,false
542,0.02531645569620253,0.11764705882352941,0.023255813953488372,0.0,0.003864537780941727,0.0019230769230769232,0.001056843058805771,0.004485078488873555,0.011272898074213245,0.04960110995490808,0.002973240832507433,0.0019230769230769232,0.004366812227074236,1.0,1.0,0.07692307692307693,0.07132911420481948,false
125,0.012658227848101266,0.0,0.0,0.0,0.02074646598189769,0.03141025641025641,0.11980070959462522,0.0015525271692254615,0.0028182245185533112,0.02575442247658689,0.04831516352824579,0.03141025641025641,0.12656932314410482,0.004608294930875576,0.5943728018757327,1.0,0.7466716450101683,false
403,0.006329113924050633,0.0,0.0,0.0,0.005491711583443507,0.008653846153846154,0.04506680757907452,0.0,0.0,0.0,0.013379583746283449,0.008653846153846154,0.05840611353711791,0.004608294930875576,0.6752637749120751,0.09230769230769231,0.3197883999808191,false
126,0.03164556962025317,0.11764705882352941,0.046511627906976744,0.0,0.032340079324722874,0.026923076923076925,0.09631291181830928,0.02915301017767811,0.04790981681540629,0.27634904117734505,0.03691774033696729,0.020833333333333332,0.049633499688084844,0.20276497695852536,0.6461229274828337,0.09230769230769231,0.037033371821360274,false
404,0.02531645569620253,0.11764705882352941,0.023255813953488372,0.0,0.01728872165158141,0.013141025641025641,0.05586170453687629,0.015525271692254615,0.027712541099107563,0.1716961498439126,0.019821605550049554,0.01282051282051282,0.03220524017467249,1.0,1.0,0.07692307692307693,0.07786894340402797,false
128,0.13291139240506328,0.0,0.06976744186046512,0.0,0.10485101189870843,0.13814102564102565,0.08589967868032468,0.02932551319648094,0.046031000469704084,0.08460389992308737,0.21333002973240833,0.13814102564102565,0.08051310043668122,0.004608294930875576,0.07875019114124064,1.0,0.8202271251422604,false
545,0.006329113924050633,0.0,0.0,0.0,0.0012203803518763348,0.0019230769230769232,0.010190986638484188,0.0,0.0,0.0,0.002973240832507433,0.0019230769230769232,0.0240174672489083,0.004608294930875576,0.686987104337632,0.24615384615384617,0.2729413792659106,false
271,0.24050632911392406,0.4117647058823529,0.4418604651162791,0.5,0.12803823858435878,0.08782051282051281,0.05098324148863895,0.12454717957564257,0.13715359323626117,0.20660770031217485,0.13305252725470762,0.08525641025641026,0.01990311135371179,1.0,0.15307737397420867,1.0,0.25890049023656714,true
129,0.012658227848101266,0.0,0.0,0.0,0.00579680667141259,0.013461538461538462,0.028251679625575607,3.450060376056581E-4,9.394081728511038E-4,0.005723204994797087,0.013627353815659068,0.013461538461538462,0.04059770742358079,0.004608294930875576,0.5046893317702228,0.1076923076923077,0.25661023107716074,false
