3e5772b@8229215	STATEMENT_PARENT_CHANGE
3e5772b@8229215	STATEMENT_INSERT
3e5772b@8229215	STATEMENT_INSERT
3e5772b@8229215	STATEMENT_INSERT
3e5772b@8229215	STATEMENT_INSERT
3e5772b@8229215	STATEMENT_INSERT
3e5772b@8229215	STATEMENT_INSERT
3e5772b@8229215	STATEMENT_INSERT
4cd30eb@f6f197c	COMMENT_INSERT
4cd30eb@f6f197c	STATEMENT_INSERT
4cd30eb@f6f197c	STATEMENT_INSERT
4cd30eb@f6f197c	STATEMENT_INSERT
4cd30eb@f6f197c	STATEMENT_INSERT
4cd30eb@f6f197c	STATEMENT_INSERT
4cd30eb@f6f197c	STATEMENT_INSERT
4cd30eb@f6f197c	STATEMENT_INSERT
4cd30eb@f6f197c	STATEMENT_INSERT
4cd30eb@f6f197c	STATEMENT_INSERT
4cd30eb@f6f197c	STATEMENT_INSERT
4cd30eb@f6f197c	COMMENT_INSERT
4cd30eb@f6f197c	STATEMENT_INSERT
4cd30eb@f6f197c	STATEMENT_INSERT
4cd30eb@f6f197c	STATEMENT_INSERT
4cd30eb@f6f197c	STATEMENT_INSERT
4cd30eb@f6f197c	STATEMENT_INSERT
6d71632@aab93c7	STATEMENT_UPDATE
6d71632@aab93c7	COMMENT_INSERT
6d71632@aab93c7	STATEMENT_UPDATE
6d71632@aab93c7	COMMENT_INSERT
bfee0b5@832bac2	DOC_UPDATE
bfee0b5@832bac2	STATEMENT_UPDATE
43508dd@ae8bc0a	STATEMENT_INSERT
43508dd@ae8bc0a	STATEMENT_INSERT
43508dd@ae8bc0a	STATEMENT_INSERT
43508dd@ae8bc0a	STATEMENT_INSERT
43508dd@ae8bc0a	STATEMENT_INSERT
43508dd@ae8bc0a	STATEMENT_INSERT
3ac6b3b@1afbc16	DOC_UPDATE
3ac6b3b@1afbc16	STATEMENT_PARENT_CHANGE
3ac6b3b@1afbc16	STATEMENT_INSERT
3ac6b3b@1afbc16	STATEMENT_PARENT_CHANGE
3ac6b3b@1afbc16	STATEMENT_PARENT_CHANGE
3ac6b3b@1afbc16	STATEMENT_DELETE
3ac6b3b@1afbc16	STATEMENT_DELETE
3ac6b3b@1afbc16	STATEMENT_INSERT
a5eeadc@f8401a3	ATTRIBUTE_TYPE_CHANGE
a5eeadc@f8401a3	STATEMENT_INSERT
a5eeadc@f8401a3	PARAMETER_TYPE_CHANGE
a044742@b8c556d	STATEMENT_UPDATE
a044742@b8c556d	STATEMENT_UPDATE
a044742@b8c556d	STATEMENT_UPDATE
a044742@b8c556d	STATEMENT_UPDATE
a044742@b8c556d	STATEMENT_INSERT
a044742@b8c556d	STATEMENT_INSERT
a044742@b8c556d	STATEMENT_INSERT
a044742@b8c556d	STATEMENT_INSERT
a044742@b8c556d	STATEMENT_INSERT
a044742@b8c556d	STATEMENT_INSERT
a044742@b8c556d	STATEMENT_INSERT
a044742@b8c556d	STATEMENT_INSERT
a044742@b8c556d	STATEMENT_INSERT
a044742@b8c556d	STATEMENT_INSERT
a044742@b8c556d	STATEMENT_INSERT
a044742@b8c556d	STATEMENT_INSERT
a044742@b8c556d	STATEMENT_INSERT
a044742@b8c556d	STATEMENT_INSERT
a044742@b8c556d	STATEMENT_INSERT
a044742@b8c556d	STATEMENT_INSERT
a044742@b8c556d	STATEMENT_INSERT
a044742@b8c556d	STATEMENT_INSERT
a044742@b8c556d	STATEMENT_INSERT
5411a83@69b120d	DOC_UPDATE
5411a83@69b120d	ADDITIONAL_OBJECT_STATE
5411a83@69b120d	CONDITION_EXPRESSION_CHANGE
5411a83@69b120d	CONDITION_EXPRESSION_CHANGE
5411a83@69b120d	STATEMENT_PARENT_CHANGE
5411a83@69b120d	STATEMENT_PARENT_CHANGE
5411a83@69b120d	STATEMENT_INSERT
5411a83@69b120d	STATEMENT_UPDATE
5411a83@69b120d	STATEMENT_UPDATE
5411a83@69b120d	STATEMENT_INSERT
5411a83@69b120d	CONDITION_EXPRESSION_CHANGE
5411a83@69b120d	CONDITION_EXPRESSION_CHANGE
5411a83@69b120d	STATEMENT_INSERT
5411a83@69b120d	STATEMENT_UPDATE
5411a83@69b120d	STATEMENT_UPDATE
5411a83@69b120d	STATEMENT_INSERT
5411a83@69b120d	STATEMENT_INSERT
5411a83@69b120d	STATEMENT_INSERT
5411a83@69b120d	ALTERNATIVE_PART_INSERT
5411a83@69b120d	COMMENT_INSERT
5411a83@69b120d	STATEMENT_INSERT
5411a83@69b120d	ALTERNATIVE_PART_INSERT
5411a83@69b120d	COMMENT_INSERT
5411a83@69b120d	STATEMENT_INSERT
5411a83@69b120d	STATEMENT_INSERT
5411a83@69b120d	STATEMENT_INSERT
5411a83@69b120d	STATEMENT_INSERT
5411a83@69b120d	STATEMENT_INSERT
5411a83@69b120d	STATEMENT_INSERT
5411a83@69b120d	STATEMENT_INSERT
5411a83@69b120d	STATEMENT_INSERT
5411a83@69b120d	ALTERNATIVE_PART_INSERT
5411a83@69b120d	COMMENT_INSERT
5411a83@69b120d	STATEMENT_INSERT
5411a83@69b120d	ALTERNATIVE_PART_INSERT
5411a83@69b120d	COMMENT_INSERT
5411a83@69b120d	STATEMENT_INSERT
69b120d@c795877	ADDITIONAL_OBJECT_STATE
69b120d@c795877	ADDITIONAL_OBJECT_STATE
69b120d@c795877	ADDITIONAL_OBJECT_STATE
69b120d@c795877	ADDITIONAL_OBJECT_STATE
69b120d@c795877	ADDITIONAL_OBJECT_STATE
69b120d@c795877	ADDITIONAL_OBJECT_STATE
69b120d@c795877	ADDITIONAL_OBJECT_STATE
69b120d@c795877	STATEMENT_UPDATE
69b120d@c795877	STATEMENT_DELETE
69b120d@c795877	STATEMENT_DELETE
69b120d@c795877	ALTERNATIVE_PART_DELETE
69b120d@c795877	STATEMENT_DELETE
69b120d@c795877	STATEMENT_DELETE
69b120d@c795877	STATEMENT_DELETE
69b120d@c795877	STATEMENT_DELETE
69b120d@c795877	STATEMENT_INSERT
69b120d@c795877	STATEMENT_DELETE
69b120d@c795877	STATEMENT_INSERT
69b120d@c795877	STATEMENT_DELETE
69b120d@c795877	STATEMENT_DELETE
69b120d@c795877	STATEMENT_DELETE
69b120d@c795877	STATEMENT_DELETE
69b120d@c795877	ADDITIONAL_FUNCTIONALITY
69b120d@c795877	ALTERNATIVE_PART_DELETE
69b120d@c795877	ALTERNATIVE_PART_DELETE
69b120d@c795877	STATEMENT_DELETE
69b120d@c795877	ALTERNATIVE_PART_DELETE
69b120d@c795877	COMMENT_DELETE
69b120d@c795877	STATEMENT_DELETE
69b120d@c795877	ALTERNATIVE_PART_DELETE
69b120d@c795877	COMMENT_DELETE
69b120d@c795877	STATEMENT_DELETE
69b120d@c795877	STATEMENT_DELETE
69b120d@c795877	STATEMENT_DELETE
69b120d@c795877	ALTERNATIVE_PART_DELETE
69b120d@c795877	STATEMENT_DELETE
69b120d@c795877	STATEMENT_DELETE
69b120d@c795877	STATEMENT_DELETE
69b120d@c795877	STATEMENT_DELETE
69b120d@c795877	STATEMENT_DELETE
69b120d@c795877	STATEMENT_DELETE
69b120d@c795877	ALTERNATIVE_PART_DELETE
69b120d@c795877	ALTERNATIVE_PART_DELETE
69b120d@c795877	STATEMENT_DELETE
69b120d@c795877	ALTERNATIVE_PART_DELETE
69b120d@c795877	COMMENT_DELETE
69b120d@c795877	STATEMENT_DELETE
69b120d@c795877	ALTERNATIVE_PART_DELETE
69b120d@c795877	COMMENT_DELETE
69b120d@c795877	STATEMENT_DELETE
69b120d@c795877	STATEMENT_UPDATE
ba74d5a@7666c9a	ADDITIONAL_OBJECT_STATE
ba74d5a@7666c9a	STATEMENT_PARENT_CHANGE
ba74d5a@7666c9a	STATEMENT_ORDERING_CHANGE
ba74d5a@7666c9a	STATEMENT_ORDERING_CHANGE
ba74d5a@7666c9a	COMMENT_INSERT
ba74d5a@7666c9a	STATEMENT_ORDERING_CHANGE
ba74d5a@7666c9a	STATEMENT_ORDERING_CHANGE
ba74d5a@7666c9a	STATEMENT_INSERT
ba74d5a@7666c9a	STATEMENT_INSERT
ba74d5a@7666c9a	STATEMENT_INSERT
ba74d5a@7666c9a	STATEMENT_INSERT
ba74d5a@7666c9a	STATEMENT_INSERT
ba74d5a@7666c9a	STATEMENT_INSERT
ba74d5a@7666c9a	COMMENT_MOVE
ba74d5a@7666c9a	STATEMENT_INSERT
ba74d5a@7666c9a	STATEMENT_ORDERING_CHANGE
ba74d5a@7666c9a	STATEMENT_INSERT
ba74d5a@7666c9a	STATEMENT_ORDERING_CHANGE
ba74d5a@7666c9a	STATEMENT_INSERT
ba74d5a@7666c9a	STATEMENT_ORDERING_CHANGE
ba74d5a@7666c9a	COMMENT_INSERT
ba74d5a@7666c9a	STATEMENT_ORDERING_CHANGE
ba74d5a@7666c9a	COMMENT_MOVE
ba74d5a@7666c9a	STATEMENT_ORDERING_CHANGE
ba74d5a@7666c9a	STATEMENT_ORDERING_CHANGE
ba74d5a@7666c9a	STATEMENT_INSERT
ba74d5a@7666c9a	STATEMENT_ORDERING_CHANGE
ba74d5a@7666c9a	STATEMENT_INSERT
ba74d5a@7666c9a	STATEMENT_ORDERING_CHANGE
ba74d5a@7666c9a	STATEMENT_INSERT
ba74d5a@7666c9a	STATEMENT_ORDERING_CHANGE
ba74d5a@7666c9a	STATEMENT_INSERT
ba74d5a@7666c9a	STATEMENT_ORDERING_CHANGE
ba74d5a@7666c9a	STATEMENT_INSERT
ba74d5a@7666c9a	STATEMENT_ORDERING_CHANGE
ba74d5a@7666c9a	STATEMENT_INSERT
ba74d5a@7666c9a	STATEMENT_ORDERING_CHANGE
ba74d5a@7666c9a	STATEMENT_ORDERING_CHANGE
ba74d5a@7666c9a	STATEMENT_ORDERING_CHANGE
ba74d5a@7666c9a	STATEMENT_ORDERING_CHANGE
ba74d5a@7666c9a	ADDITIONAL_FUNCTIONALITY
ba74d5a@7666c9a	ADDITIONAL_FUNCTIONALITY
7666c9a@61254a2	STATEMENT_DELETE
61254a2@5117009	STATEMENT_INSERT
61254a2@5117009	CONDITION_EXPRESSION_CHANGE
61254a2@5117009	CONDITION_EXPRESSION_CHANGE
61254a2@5117009	STATEMENT_INSERT
61254a2@5117009	STATEMENT_INSERT
61254a2@5117009	STATEMENT_INSERT
61254a2@5117009	STATEMENT_INSERT
e63b627@60b348f	STATEMENT_INSERT
0e9559c@a2a07fd	STATEMENT_UPDATE
8cc04fb@f5ab257	STATEMENT_UPDATE
8cc04fb@f5ab257	STATEMENT_UPDATE
8cc04fb@f5ab257	STATEMENT_UPDATE
dbea233@6c8210c	STATEMENT_UPDATE
6c8210c@a59d6de	CONDITION_EXPRESSION_CHANGE
6c8210c@a59d6de	STATEMENT_DELETE
6c8210c@a59d6de	STATEMENT_DELETE
6c8210c@a59d6de	STATEMENT_DELETE
6c8210c@a59d6de	STATEMENT_INSERT
6c8210c@a59d6de	STATEMENT_INSERT
6c8210c@a59d6de	STATEMENT_INSERT
6c8210c@a59d6de	CONDITION_EXPRESSION_CHANGE
6c8210c@a59d6de	CONDITION_EXPRESSION_CHANGE
6c8210c@a59d6de	STATEMENT_INSERT
6c8210c@a59d6de	STATEMENT_DELETE
6c8210c@a59d6de	STATEMENT_DELETE
6c8210c@a59d6de	STATEMENT_DELETE
6c8210c@a59d6de	STATEMENT_DELETE
6c8210c@a59d6de	STATEMENT_INSERT
6c8210c@a59d6de	STATEMENT_INSERT
6c8210c@a59d6de	STATEMENT_DELETE
6c8210c@a59d6de	STATEMENT_INSERT
6c8210c@a59d6de	STATEMENT_INSERT
6c8210c@a59d6de	STATEMENT_DELETE
6c8210c@a59d6de	STATEMENT_INSERT
6c8210c@a59d6de	STATEMENT_DELETE
6c8210c@a59d6de	STATEMENT_DELETE
6c8210c@a59d6de	STATEMENT_DELETE
6c8210c@a59d6de	STATEMENT_DELETE
6c8210c@a59d6de	STATEMENT_DELETE
6c8210c@a59d6de	COMMENT_MOVE
6c8210c@a59d6de	STATEMENT_DELETE
6c8210c@a59d6de	STATEMENT_DELETE
6c8210c@a59d6de	STATEMENT_DELETE
6c8210c@a59d6de	STATEMENT_DELETE
6c8210c@a59d6de	STATEMENT_UPDATE
6c8210c@a59d6de	STATEMENT_UPDATE
6c8210c@a59d6de	STATEMENT_DELETE
6c8210c@a59d6de	STATEMENT_UPDATE
6c8210c@a59d6de	STATEMENT_UPDATE
6c8210c@a59d6de	STATEMENT_DELETE
6c8210c@a59d6de	STATEMENT_DELETE
6c8210c@a59d6de	STATEMENT_DELETE
6c8210c@a59d6de	STATEMENT_DELETE
6c8210c@a59d6de	STATEMENT_DELETE
6c8210c@a59d6de	STATEMENT_DELETE
6c8210c@a59d6de	STATEMENT_DELETE
6c8210c@a59d6de	STATEMENT_DELETE
5bc4c67@718b6aa	STATEMENT_UPDATE
5bc4c67@718b6aa	CONDITION_EXPRESSION_CHANGE
5bc4c67@718b6aa	STATEMENT_UPDATE
5bc4c67@718b6aa	STATEMENT_UPDATE
0a216d3@4ea93d7	REMOVED_OBJECT_STATE
dac40f1@cee0b32	CONDITION_EXPRESSION_CHANGE
dac40f1@cee0b32	CONDITION_EXPRESSION_CHANGE
cee0b32@d5346db	STATEMENT_INSERT
cee0b32@d5346db	STATEMENT_INSERT
d23422d@5d769f3	STATEMENT_UPDATE
d23422d@5d769f3	CONDITION_EXPRESSION_CHANGE
d23422d@5d769f3	STATEMENT_UPDATE
d23422d@5d769f3	STATEMENT_DELETE
d23422d@5d769f3	STATEMENT_UPDATE
d23422d@5d769f3	CONDITION_EXPRESSION_CHANGE
d23422d@5d769f3	STATEMENT_DELETE
d23422d@5d769f3	STATEMENT_DELETE
d23422d@5d769f3	COMMENT_MOVE
d23422d@5d769f3	STATEMENT_DELETE
d23422d@5d769f3	CONDITION_EXPRESSION_CHANGE
d23422d@5d769f3	CONDITION_EXPRESSION_CHANGE
d23422d@5d769f3	STATEMENT_INSERT
d23422d@5d769f3	STATEMENT_DELETE
d23422d@5d769f3	STATEMENT_INSERT
d23422d@5d769f3	STATEMENT_INSERT
d23422d@5d769f3	STATEMENT_DELETE
d23422d@5d769f3	STATEMENT_INSERT
d23422d@5d769f3	STATEMENT_DELETE
d23422d@5d769f3	STATEMENT_DELETE
d23422d@5d769f3	STATEMENT_INSERT
d23422d@5d769f3	STATEMENT_DELETE
d23422d@5d769f3	STATEMENT_INSERT
d23422d@5d769f3	STATEMENT_INSERT
d23422d@5d769f3	STATEMENT_INSERT
d23422d@5d769f3	STATEMENT_INSERT
d23422d@5d769f3	STATEMENT_INSERT
d23422d@5d769f3	STATEMENT_INSERT
d23422d@5d769f3	STATEMENT_UPDATE
d23422d@5d769f3	STATEMENT_UPDATE
d23422d@5d769f3	STATEMENT_UPDATE
d23422d@5d769f3	STATEMENT_INSERT
d23422d@5d769f3	STATEMENT_INSERT
d23422d@5d769f3	STATEMENT_INSERT
d23422d@5d769f3	STATEMENT_INSERT
d23422d@5d769f3	STATEMENT_INSERT
d23422d@5d769f3	STATEMENT_UPDATE
d23422d@5d769f3	STATEMENT_DELETE
d23422d@5d769f3	STATEMENT_ORDERING_CHANGE
d23422d@5d769f3	STATEMENT_INSERT
d23422d@5d769f3	STATEMENT_INSERT
d23422d@5d769f3	STATEMENT_INSERT
d23422d@5d769f3	STATEMENT_INSERT
d23422d@5d769f3	STATEMENT_INSERT
d23422d@5d769f3	STATEMENT_INSERT
d23422d@5d769f3	STATEMENT_INSERT
d23422d@5d769f3	STATEMENT_INSERT
d23422d@5d769f3	PARAMETER_TYPE_CHANGE
d23422d@5d769f3	STATEMENT_UPDATE
d23422d@5d769f3	STATEMENT_UPDATE
d23422d@5d769f3	STATEMENT_INSERT
d23422d@5d769f3	STATEMENT_INSERT
d23422d@5d769f3	STATEMENT_INSERT
d23422d@5d769f3	STATEMENT_INSERT
d23422d@5d769f3	STATEMENT_INSERT
5d769f3@9df11f8	ADDITIONAL_OBJECT_STATE
5d769f3@9df11f8	STATEMENT_UPDATE
5d769f3@9df11f8	PARAMETER_ORDERING_CHANGE
5d769f3@9df11f8	STATEMENT_INSERT
5d769f3@9df11f8	STATEMENT_INSERT
5d769f3@9df11f8	STATEMENT_UPDATE
5d769f3@9df11f8	STATEMENT_INSERT
5d769f3@9df11f8	STATEMENT_INSERT
5d769f3@9df11f8	ADDITIONAL_FUNCTIONALITY
5d769f3@9df11f8	ADDITIONAL_FUNCTIONALITY
9df11f8@86dd1f5	ADDITIONAL_OBJECT_STATE
9df11f8@86dd1f5	COMMENT_INSERT
9df11f8@86dd1f5	STATEMENT_INSERT
9df11f8@86dd1f5	STATEMENT_INSERT
9df11f8@86dd1f5	STATEMENT_INSERT
9df11f8@86dd1f5	STATEMENT_INSERT
9df11f8@86dd1f5	STATEMENT_INSERT
9df11f8@86dd1f5	STATEMENT_INSERT
9df11f8@86dd1f5	STATEMENT_UPDATE
9df11f8@86dd1f5	STATEMENT_INSERT
9df11f8@86dd1f5	STATEMENT_INSERT
9df11f8@86dd1f5	STATEMENT_INSERT
9df11f8@86dd1f5	STATEMENT_INSERT
9df11f8@86dd1f5	STATEMENT_UPDATE
9df11f8@86dd1f5	STATEMENT_UPDATE
9df11f8@86dd1f5	STATEMENT_UPDATE
9df11f8@86dd1f5	STATEMENT_PARENT_CHANGE
9df11f8@86dd1f5	DOC_UPDATE
9df11f8@86dd1f5	STATEMENT_INSERT
9df11f8@86dd1f5	PARAMETER_INSERT
9df11f8@86dd1f5	COMMENT_DELETE
9df11f8@86dd1f5	STATEMENT_DELETE
9df11f8@86dd1f5	DOC_UPDATE
9df11f8@86dd1f5	COMMENT_INSERT
9df11f8@86dd1f5	STATEMENT_INSERT
9df11f8@86dd1f5	PARAMETER_INSERT
9df11f8@86dd1f5	PARAMETER_INSERT
9df11f8@86dd1f5	STATEMENT_UPDATE
9df11f8@86dd1f5	STATEMENT_UPDATE
9df11f8@86dd1f5	DOC_UPDATE
9df11f8@86dd1f5	STATEMENT_PARENT_CHANGE
9df11f8@86dd1f5	STATEMENT_PARENT_CHANGE
9df11f8@86dd1f5	STATEMENT_INSERT
9df11f8@86dd1f5	STATEMENT_DELETE
9df11f8@86dd1f5	PARAMETER_INSERT
9df11f8@86dd1f5	PARAMETER_INSERT
9df11f8@86dd1f5	STATEMENT_INSERT
9df11f8@86dd1f5	STATEMENT_INSERT
9df11f8@86dd1f5	ALTERNATIVE_PART_INSERT
9df11f8@86dd1f5	COMMENT_INSERT
9df11f8@86dd1f5	STATEMENT_INSERT
9df11f8@86dd1f5	STATEMENT_INSERT
9df11f8@86dd1f5	STATEMENT_INSERT
9df11f8@86dd1f5	ADDITIONAL_FUNCTIONALITY
9df11f8@86dd1f5	ADDITIONAL_FUNCTIONALITY
86dd1f5@9366995	STATEMENT_UPDATE
86dd1f5@9366995	CONDITION_EXPRESSION_CHANGE
86dd1f5@9366995	STATEMENT_UPDATE
86dd1f5@9366995	CONDITION_EXPRESSION_CHANGE
86dd1f5@9366995	STATEMENT_UPDATE
86dd1f5@9366995	CONDITION_EXPRESSION_CHANGE
86dd1f5@9366995	STATEMENT_UPDATE
9366995@3c92646	STATEMENT_DELETE
9366995@3c92646	STATEMENT_DELETE
9366995@3c92646	STATEMENT_UPDATE
3c92646@a6a750b	DOC_INSERT
3c92646@a6a750b	ATTRIBUTE_RENAMING
3c92646@a6a750b	ATTRIBUTE_RENAMING
3c92646@a6a750b	STATEMENT_UPDATE
3c92646@a6a750b	STATEMENT_UPDATE
3c92646@a6a750b	STATEMENT_DELETE
3c92646@a6a750b	CONDITION_EXPRESSION_CHANGE
3c92646@a6a750b	STATEMENT_UPDATE
3c92646@a6a750b	STATEMENT_UPDATE
3c92646@a6a750b	CONDITION_EXPRESSION_CHANGE
3c92646@a6a750b	STATEMENT_UPDATE
3c92646@a6a750b	STATEMENT_INSERT
3c92646@a6a750b	STATEMENT_UPDATE
3c92646@a6a750b	STATEMENT_UPDATE
3c92646@a6a750b	STATEMENT_PARENT_CHANGE
3c92646@a6a750b	STATEMENT_UPDATE
3c92646@a6a750b	STATEMENT_UPDATE
3c92646@a6a750b	STATEMENT_DELETE
3c92646@a6a750b	STATEMENT_DELETE
3c92646@a6a750b	STATEMENT_INSERT
3c92646@a6a750b	DOC_UPDATE
3c92646@a6a750b	PARAMETER_TYPE_CHANGE
3c92646@a6a750b	PARAMETER_RENAMING
3c92646@a6a750b	STATEMENT_UPDATE
3c92646@a6a750b	STATEMENT_UPDATE
3c92646@a6a750b	CONDITION_EXPRESSION_CHANGE
3c92646@a6a750b	STATEMENT_DELETE
3c92646@a6a750b	STATEMENT_UPDATE
3c92646@a6a750b	STATEMENT_UPDATE
3c92646@a6a750b	STATEMENT_UPDATE
3c92646@a6a750b	DOC_UPDATE
3c92646@a6a750b	STATEMENT_INSERT
3c92646@a6a750b	PARAMETER_TYPE_CHANGE
3c92646@a6a750b	PARAMETER_RENAMING
3c92646@a6a750b	PARAMETER_DELETE
3c92646@a6a750b	STATEMENT_DELETE
3c92646@a6a750b	STATEMENT_PARENT_CHANGE
3c92646@a6a750b	CONDITION_EXPRESSION_CHANGE
3c92646@a6a750b	STATEMENT_UPDATE
3c92646@a6a750b	STATEMENT_INSERT
3c92646@a6a750b	STATEMENT_INSERT
3c92646@a6a750b	STATEMENT_INSERT
3c92646@a6a750b	STATEMENT_INSERT
3c92646@a6a750b	STATEMENT_PARENT_CHANGE
3c92646@a6a750b	STATEMENT_ORDERING_CHANGE
3c92646@a6a750b	STATEMENT_ORDERING_CHANGE
3c92646@a6a750b	STATEMENT_ORDERING_CHANGE
3c92646@a6a750b	STATEMENT_ORDERING_CHANGE
3c92646@a6a750b	STATEMENT_UPDATE
3c92646@a6a750b	STATEMENT_UPDATE
3c92646@a6a750b	STATEMENT_UPDATE
3c92646@a6a750b	STATEMENT_INSERT
3c92646@a6a750b	COMMENT_INSERT
3c92646@a6a750b	STATEMENT_UPDATE
3c92646@a6a750b	STATEMENT_UPDATE
3c92646@a6a750b	STATEMENT_UPDATE
3c92646@a6a750b	COMMENT_UPDATE
3c92646@a6a750b	CONDITION_EXPRESSION_CHANGE
3c92646@a6a750b	STATEMENT_UPDATE
3c92646@a6a750b	CONDITION_EXPRESSION_CHANGE
3c92646@a6a750b	STATEMENT_UPDATE
3c92646@a6a750b	STATEMENT_UPDATE
3c92646@a6a750b	DOC_UPDATE
3c92646@a6a750b	STATEMENT_INSERT
3c92646@a6a750b	PARAMETER_DELETE
3c92646@a6a750b	PARAMETER_TYPE_CHANGE
3c92646@a6a750b	PARAMETER_RENAMING
3c92646@a6a750b	PARAMETER_DELETE
3c92646@a6a750b	STATEMENT_DELETE
3c92646@a6a750b	STATEMENT_DELETE
3c92646@a6a750b	ALTERNATIVE_PART_DELETE
3c92646@a6a750b	COMMENT_DELETE
3c92646@a6a750b	STATEMENT_DELETE
3c92646@a6a750b	STATEMENT_DELETE
3c92646@a6a750b	STATEMENT_DELETE
3c92646@a6a750b	STATEMENT_DELETE
3c92646@a6a750b	STATEMENT_DELETE
3c92646@a6a750b	STATEMENT_DELETE
3c92646@a6a750b	STATEMENT_UPDATE
3c92646@a6a750b	STATEMENT_UPDATE
3c92646@a6a750b	COMMENT_INSERT
3c92646@a6a750b	STATEMENT_UPDATE
3c92646@a6a750b	STATEMENT_INSERT
a6a750b@821558a	STATEMENT_UPDATE
a6a750b@821558a	STATEMENT_UPDATE
a6a750b@821558a	COMMENT_UPDATE
821558a@f35d55c	STATEMENT_INSERT
f35d55c@bc5f33f	STATEMENT_PARENT_CHANGE
f35d55c@bc5f33f	STATEMENT_PARENT_CHANGE
e2fbed6@4d58a69	STATEMENT_UPDATE
4d58a69@f0b5b86	STATEMENT_INSERT
4d58a69@f0b5b86	STATEMENT_INSERT
a7125ed@54e573b	STATEMENT_INSERT
54e573b@a8e7172	COMMENT_INSERT
54e573b@a8e7172	STATEMENT_INSERT
54e573b@a8e7172	STATEMENT_ORDERING_CHANGE
54e573b@a8e7172	STATEMENT_ORDERING_CHANGE
54e573b@a8e7172	STATEMENT_INSERT
54e573b@a8e7172	STATEMENT_INSERT
54e573b@a8e7172	STATEMENT_ORDERING_CHANGE
54e573b@a8e7172	STATEMENT_ORDERING_CHANGE
54e573b@a8e7172	COMMENT_MOVE
54e573b@a8e7172	STATEMENT_ORDERING_CHANGE
54e573b@a8e7172	STATEMENT_INSERT
54e573b@a8e7172	STATEMENT_ORDERING_CHANGE
54e573b@a8e7172	STATEMENT_ORDERING_CHANGE
54e573b@a8e7172	COMMENT_MOVE
54e573b@a8e7172	STATEMENT_ORDERING_CHANGE
54e573b@a8e7172	STATEMENT_ORDERING_CHANGE
54e573b@a8e7172	STATEMENT_ORDERING_CHANGE
54e573b@a8e7172	STATEMENT_ORDERING_CHANGE
54e573b@a8e7172	STATEMENT_ORDERING_CHANGE
54e573b@a8e7172	STATEMENT_ORDERING_CHANGE
54e573b@a8e7172	ADDITIONAL_CLASS
235df78@6fd3c44	CONDITION_EXPRESSION_CHANGE
235df78@6fd3c44	CONDITION_EXPRESSION_CHANGE
235df78@6fd3c44	CONDITION_EXPRESSION_CHANGE
235df78@6fd3c44	ALTERNATIVE_PART_INSERT
235df78@6fd3c44	STATEMENT_INSERT
235df78@6fd3c44	STATEMENT_INSERT
a9d2094@2c1a774	ADDITIONAL_FUNCTIONALITY
a9d2094@2c1a774	ADDITIONAL_FUNCTIONALITY
2c1a774@6d6eaab	ADDITIONAL_FUNCTIONALITY
2c1a774@6d6eaab	ADDITIONAL_FUNCTIONALITY
6d6eaab@f5e2f3d	CONDITION_EXPRESSION_CHANGE
6d6eaab@f5e2f3d	CONDITION_EXPRESSION_CHANGE
6d6eaab@f5e2f3d	STATEMENT_INSERT
6d6eaab@f5e2f3d	ALTERNATIVE_PART_INSERT
6d6eaab@f5e2f3d	STATEMENT_INSERT
0fe68ce@47884fb	CONDITION_EXPRESSION_CHANGE
0fe68ce@47884fb	CONDITION_EXPRESSION_CHANGE
0fe68ce@47884fb	ALTERNATIVE_PART_INSERT
0fe68ce@47884fb	STATEMENT_INSERT
0fe68ce@47884fb	CONDITION_EXPRESSION_CHANGE
0fe68ce@47884fb	CONDITION_EXPRESSION_CHANGE
0fe68ce@47884fb	ALTERNATIVE_PART_INSERT
0fe68ce@47884fb	STATEMENT_INSERT
0fe68ce@47884fb	CONDITION_EXPRESSION_CHANGE
0fe68ce@47884fb	CONDITION_EXPRESSION_CHANGE
0fe68ce@47884fb	STATEMENT_INSERT
0fe68ce@47884fb	CONDITION_EXPRESSION_CHANGE
0fe68ce@47884fb	CONDITION_EXPRESSION_CHANGE
0fe68ce@47884fb	STATEMENT_ORDERING_CHANGE
0fe68ce@47884fb	STATEMENT_ORDERING_CHANGE
0fe68ce@47884fb	STATEMENT_ORDERING_CHANGE
0fe68ce@47884fb	STATEMENT_INSERT
0fe68ce@47884fb	STATEMENT_ORDERING_CHANGE
0fe68ce@47884fb	STATEMENT_ORDERING_CHANGE
0fe68ce@47884fb	STATEMENT_ORDERING_CHANGE
0fe68ce@47884fb	STATEMENT_ORDERING_CHANGE
0fe68ce@47884fb	STATEMENT_ORDERING_CHANGE
423a939@d6c7d6e	REMOVING_ATTRIBUTE_MODIFIABILITY
423a939@d6c7d6e	REMOVING_ATTRIBUTE_MODIFIABILITY
972b7d0@6d3b1a0	STATEMENT_INSERT
972b7d0@6d3b1a0	STATEMENT_INSERT
972b7d0@6d3b1a0	STATEMENT_INSERT
972b7d0@6d3b1a0	STATEMENT_INSERT
972b7d0@6d3b1a0	STATEMENT_INSERT
972b7d0@6d3b1a0	STATEMENT_INSERT
c4aeb9a@a380a75	DOC_UPDATE
c4aeb9a@a380a75	ADDITIONAL_OBJECT_STATE
c4aeb9a@a380a75	STATEMENT_PARENT_CHANGE
c4aeb9a@a380a75	CONDITION_EXPRESSION_CHANGE
c4aeb9a@a380a75	STATEMENT_PARENT_CHANGE
c4aeb9a@a380a75	STATEMENT_INSERT
c4aeb9a@a380a75	STATEMENT_INSERT
c4aeb9a@a380a75	STATEMENT_INSERT
c4aeb9a@a380a75	ALTERNATIVE_PART_INSERT
c4aeb9a@a380a75	STATEMENT_INSERT
c4aeb9a@a380a75	STATEMENT_PARENT_CHANGE
c4aeb9a@a380a75	CONDITION_EXPRESSION_CHANGE
c4aeb9a@a380a75	CONDITION_EXPRESSION_CHANGE
c4aeb9a@a380a75	STATEMENT_ORDERING_CHANGE
c4aeb9a@a380a75	STATEMENT_ORDERING_CHANGE
c4aeb9a@a380a75	CONDITION_EXPRESSION_CHANGE
c4aeb9a@a380a75	CONDITION_EXPRESSION_CHANGE
c4aeb9a@a380a75	STATEMENT_PARENT_CHANGE
c4aeb9a@a380a75	STATEMENT_PARENT_CHANGE
c4aeb9a@a380a75	STATEMENT_PARENT_CHANGE
c4aeb9a@a380a75	STATEMENT_PARENT_CHANGE
c4aeb9a@a380a75	STATEMENT_PARENT_CHANGE
c4aeb9a@a380a75	CONDITION_EXPRESSION_CHANGE
c4aeb9a@a380a75	CONDITION_EXPRESSION_CHANGE
a380a75@5fd9613	ADDITIONAL_OBJECT_STATE
a380a75@5fd9613	CONDITION_EXPRESSION_CHANGE
a380a75@5fd9613	CONDITION_EXPRESSION_CHANGE
a380a75@5fd9613	CONDITION_EXPRESSION_CHANGE
a380a75@5fd9613	STATEMENT_INSERT
a380a75@5fd9613	STATEMENT_INSERT
a380a75@5fd9613	STATEMENT_INSERT
a380a75@5fd9613	CONDITION_EXPRESSION_CHANGE
a380a75@5fd9613	CONDITION_EXPRESSION_CHANGE
a380a75@5fd9613	STATEMENT_ORDERING_CHANGE
a380a75@5fd9613	STATEMENT_ORDERING_CHANGE
a380a75@5fd9613	STATEMENT_PARENT_CHANGE
a380a75@5fd9613	PARAMETER_INSERT
a380a75@5fd9613	STATEMENT_PARENT_CHANGE
a380a75@5fd9613	STATEMENT_INSERT
a380a75@5fd9613	ALTERNATIVE_PART_INSERT
a380a75@5fd9613	STATEMENT_INSERT
a380a75@5fd9613	STATEMENT_INSERT
7aca932@59b9fd7	STATEMENT_INSERT
7aca932@59b9fd7	STATEMENT_PARENT_CHANGE
3d87d02@a66f78b	REMOVED_OBJECT_STATE
3d87d02@a66f78b	REMOVED_OBJECT_STATE
3d87d02@a66f78b	REMOVED_OBJECT_STATE
3d87d02@a66f78b	REMOVED_OBJECT_STATE
3d87d02@a66f78b	STATEMENT_INSERT
3d87d02@a66f78b	STATEMENT_DELETE
3d87d02@a66f78b	REMOVED_FUNCTIONALITY
3d87d02@a66f78b	REMOVED_FUNCTIONALITY
290c64f@77cd73a	STATEMENT_INSERT
74d68a5@3525b9e	ADDITIONAL_OBJECT_STATE
74d68a5@3525b9e	ADDITIONAL_FUNCTIONALITY
74d68a5@3525b9e	ADDITIONAL_FUNCTIONALITY
e9cb58b@0ea7a53	STATEMENT_UPDATE
e9cb58b@0ea7a53	STATEMENT_UPDATE
0ea7a53@27a8401	STATEMENT_UPDATE
7ba4602@81f8edf	STATEMENT_UPDATE
cd2afb5@cebc64c	STATEMENT_INSERT
cd2afb5@cebc64c	STATEMENT_INSERT
cd2afb5@cebc64c	STATEMENT_INSERT
cebc64c@f273c14	STATEMENT_INSERT
f273c14@928d07a	STATEMENT_INSERT
928d07a@62174b2	STATEMENT_PARENT_CHANGE
928d07a@62174b2	STATEMENT_INSERT
928d07a@62174b2	COMMENT_INSERT
928d07a@62174b2	STATEMENT_INSERT
928d07a@62174b2	STATEMENT_INSERT
928d07a@62174b2	ALTERNATIVE_PART_INSERT
62174b2@9446f8d	STATEMENT_UPDATE
9446f8d@0323f79	COMMENT_UPDATE
9446f8d@0323f79	COMMENT_UPDATE
9446f8d@0323f79	STATEMENT_DELETE
9446f8d@0323f79	ALTERNATIVE_PART_DELETE
9446f8d@0323f79	STATEMENT_DELETE
992be97@abfd69b	STATEMENT_UPDATE
992be97@abfd69b	STATEMENT_INSERT
992be97@abfd69b	CONDITION_EXPRESSION_CHANGE
992be97@abfd69b	CONDITION_EXPRESSION_CHANGE
992be97@abfd69b	STATEMENT_INSERT
992be97@abfd69b	STATEMENT_UPDATE
992be97@abfd69b	STATEMENT_UPDATE
992be97@abfd69b	CONDITION_EXPRESSION_CHANGE
992be97@abfd69b	STATEMENT_UPDATE
992be97@abfd69b	STATEMENT_INSERT
992be97@abfd69b	STATEMENT_UPDATE
992be97@abfd69b	CONDITION_EXPRESSION_CHANGE
992be97@abfd69b	CONDITION_EXPRESSION_CHANGE
992be97@abfd69b	STATEMENT_UPDATE
992be97@abfd69b	STATEMENT_INSERT
992be97@abfd69b	STATEMENT_INSERT
24487ed@787905a	DOC_UPDATE
24487ed@787905a	STATEMENT_PARENT_CHANGE
24487ed@787905a	STATEMENT_INSERT
24487ed@787905a	STATEMENT_INSERT
24487ed@787905a	ALTERNATIVE_PART_INSERT
24487ed@787905a	STATEMENT_INSERT
24487ed@787905a	STATEMENT_PARENT_CHANGE
24487ed@787905a	STATEMENT_PARENT_CHANGE
24487ed@787905a	STATEMENT_PARENT_CHANGE
24487ed@787905a	STATEMENT_PARENT_CHANGE
787905a@8ca439a	STATEMENT_INSERT
787905a@8ca439a	CONDITION_EXPRESSION_CHANGE
787905a@8ca439a	CONDITION_EXPRESSION_CHANGE
787905a@8ca439a	STATEMENT_PARENT_CHANGE
787905a@8ca439a	STATEMENT_PARENT_CHANGE
787905a@8ca439a	STATEMENT_PARENT_CHANGE
787905a@8ca439a	STATEMENT_PARENT_CHANGE
787905a@8ca439a	CONDITION_EXPRESSION_CHANGE
787905a@8ca439a	STATEMENT_ORDERING_CHANGE
787905a@8ca439a	STATEMENT_ORDERING_CHANGE
787905a@8ca439a	STATEMENT_INSERT
787905a@8ca439a	STATEMENT_ORDERING_CHANGE
787905a@8ca439a	STATEMENT_ORDERING_CHANGE
4c59818@55e3ce0	STATEMENT_UPDATE
4469448@6356792	CONDITION_EXPRESSION_CHANGE
a237463@84eddf5	DOC_UPDATE
a237463@84eddf5	STATEMENT_INSERT
a237463@84eddf5	STATEMENT_INSERT
ea07610@110aeea	ADDITIONAL_FUNCTIONALITY
ea07610@110aeea	ADDITIONAL_FUNCTIONALITY
110aeea@1b7198d	ADDITIONAL_FUNCTIONALITY
110aeea@1b7198d	ADDITIONAL_FUNCTIONALITY
31c96bf@f3ee222	ADDITIONAL_OBJECT_STATE
bf5c866@7c4fdc5	STATEMENT_INSERT
bf5c866@7c4fdc5	STATEMENT_DELETE
bf5c866@7c4fdc5	STATEMENT_INSERT
bf5c866@7c4fdc5	STATEMENT_DELETE
bf5c866@7c4fdc5	STATEMENT_INSERT
bf5c866@7c4fdc5	STATEMENT_DELETE
bf5c866@7c4fdc5	STATEMENT_DELETE
bf5c866@7c4fdc5	STATEMENT_UPDATE
bf5c866@7c4fdc5	STATEMENT_UPDATE
bf5c866@7c4fdc5	ALTERNATIVE_PART_INSERT
bf5c866@7c4fdc5	STATEMENT_INSERT
bf5c866@7c4fdc5	STATEMENT_DELETE
bf5c866@7c4fdc5	STATEMENT_ORDERING_CHANGE
bf5c866@7c4fdc5	STATEMENT_PARENT_CHANGE
bf5c866@7c4fdc5	STATEMENT_INSERT
bf5c866@7c4fdc5	STATEMENT_PARENT_CHANGE
bf5c866@7c4fdc5	STATEMENT_INSERT
bf5c866@7c4fdc5	STATEMENT_PARENT_CHANGE
1ea84dc@1c73d70	ADDITIONAL_OBJECT_STATE
1ea84dc@1c73d70	ADDITIONAL_OBJECT_STATE
1c73d70@f7872e6	ADDITIONAL_OBJECT_STATE
f7872e6@53bc9e3	ADDITIONAL_OBJECT_STATE
438cb58@126f33e	ADDITIONAL_OBJECT_STATE
438cb58@126f33e	ADDITIONAL_OBJECT_STATE
126f33e@a0a802e	ADDITIONAL_OBJECT_STATE
22d48e3@ee93d69	ADDITIONAL_OBJECT_STATE
22d48e3@ee93d69	COMMENT_INSERT
22d48e3@ee93d69	STATEMENT_INSERT
22d48e3@ee93d69	STATEMENT_INSERT
22d48e3@ee93d69	STATEMENT_INSERT
22d48e3@ee93d69	STATEMENT_INSERT
22d48e3@ee93d69	STATEMENT_INSERT
22d48e3@ee93d69	STATEMENT_INSERT
efc2915@dc1d544	COMMENT_INSERT
efc2915@dc1d544	STATEMENT_INSERT
efc2915@dc1d544	STATEMENT_INSERT
434ba31@b311dc1	REMOVING_ATTRIBUTE_MODIFIABILITY
b311dc1@f134e7e	STATEMENT_UPDATE
b311dc1@f134e7e	CONDITION_EXPRESSION_CHANGE
b311dc1@f134e7e	CONDITION_EXPRESSION_CHANGE
b311dc1@f134e7e	STATEMENT_INSERT
b311dc1@f134e7e	STATEMENT_INSERT
b311dc1@f134e7e	STATEMENT_UPDATE
b311dc1@f134e7e	STATEMENT_UPDATE
b311dc1@f134e7e	CONDITION_EXPRESSION_CHANGE
b311dc1@f134e7e	CONDITION_EXPRESSION_CHANGE
b311dc1@f134e7e	STATEMENT_INSERT
b311dc1@f134e7e	STATEMENT_INSERT
b311dc1@f134e7e	CONDITION_EXPRESSION_CHANGE
b311dc1@f134e7e	STATEMENT_UPDATE
b311dc1@f134e7e	STATEMENT_UPDATE
b311dc1@f134e7e	CONDITION_EXPRESSION_CHANGE
b311dc1@f134e7e	CONDITION_EXPRESSION_CHANGE
b311dc1@f134e7e	STATEMENT_UPDATE
b311dc1@f134e7e	STATEMENT_INSERT
b311dc1@f134e7e	STATEMENT_INSERT
1ce0779@a539d93	ADDITIONAL_OBJECT_STATE
1ce0779@a539d93	ADDITIONAL_FUNCTIONALITY
1ce0779@a539d93	ADDITIONAL_FUNCTIONALITY
a539d93@1dfd4d6	CONDITION_EXPRESSION_CHANGE
a539d93@1dfd4d6	STATEMENT_PARENT_CHANGE
a539d93@1dfd4d6	STATEMENT_UPDATE
1dfd4d6@751cb1a	STATEMENT_PARENT_CHANGE
751cb1a@d598289	DOC_UPDATE
751cb1a@d598289	ADDITIONAL_OBJECT_STATE
751cb1a@d598289	STATEMENT_INSERT
751cb1a@d598289	STATEMENT_INSERT
751cb1a@d598289	STATEMENT_INSERT
751cb1a@d598289	COMMENT_INSERT
751cb1a@d598289	STATEMENT_INSERT
751cb1a@d598289	COMMENT_INSERT
751cb1a@d598289	STATEMENT_INSERT
751cb1a@d598289	STATEMENT_INSERT
751cb1a@d598289	ADDITIONAL_FUNCTIONALITY
751cb1a@d598289	ADDITIONAL_FUNCTIONALITY
9c10fc8@c4a87a6	STATEMENT_UPDATE
9c10fc8@c4a87a6	STATEMENT_UPDATE
9c10fc8@c4a87a6	STATEMENT_INSERT
9c10fc8@c4a87a6	STATEMENT_INSERT
9c10fc8@c4a87a6	STATEMENT_PARENT_CHANGE
9c10fc8@c4a87a6	ALTERNATIVE_PART_DELETE
9c10fc8@c4a87a6	STATEMENT_ORDERING_CHANGE
9c10fc8@c4a87a6	STATEMENT_PARENT_CHANGE
9c10fc8@c4a87a6	STATEMENT_PARENT_CHANGE
9c10fc8@c4a87a6	STATEMENT_PARENT_CHANGE
9c10fc8@c4a87a6	ALTERNATIVE_PART_INSERT
9c10fc8@c4a87a6	STATEMENT_PARENT_CHANGE
9c10fc8@c4a87a6	STATEMENT_PARENT_CHANGE
9c10fc8@c4a87a6	STATEMENT_PARENT_CHANGE
9c10fc8@c4a87a6	STATEMENT_PARENT_CHANGE
9c10fc8@c4a87a6	ALTERNATIVE_PART_DELETE
9c10fc8@c4a87a6	STATEMENT_PARENT_CHANGE
9c10fc8@c4a87a6	STATEMENT_PARENT_CHANGE
9c10fc8@c4a87a6	STATEMENT_PARENT_CHANGE
9c10fc8@c4a87a6	STATEMENT_ORDERING_CHANGE
9c10fc8@c4a87a6	ALTERNATIVE_PART_INSERT
9c10fc8@c4a87a6	STATEMENT_DELETE
9c10fc8@c4a87a6	STATEMENT_ORDERING_CHANGE
9c10fc8@c4a87a6	STATEMENT_PARENT_CHANGE
9c10fc8@c4a87a6	STATEMENT_PARENT_CHANGE
9c10fc8@c4a87a6	STATEMENT_ORDERING_CHANGE
9c10fc8@c4a87a6	STATEMENT_INSERT
9c10fc8@c4a87a6	STATEMENT_INSERT
9c10fc8@c4a87a6	STATEMENT_INSERT
a4a8305@f773951	DOC_UPDATE
a4a8305@f773951	STATEMENT_INSERT
a4a8305@f773951	STATEMENT_INSERT
a4a8305@f773951	STATEMENT_INSERT
3637859@8ac9e74	STATEMENT_DELETE
3637859@8ac9e74	STATEMENT_PARENT_CHANGE
3637859@8ac9e74	STATEMENT_DELETE
3637859@8ac9e74	COMMENT_MOVE
3637859@8ac9e74	STATEMENT_PARENT_CHANGE
3637859@8ac9e74	STATEMENT_INSERT
3637859@8ac9e74	STATEMENT_INSERT
35b7b20@3f28dda	ADDITIONAL_OBJECT_STATE
35b7b20@3f28dda	STATEMENT_PARENT_CHANGE
35b7b20@3f28dda	COMMENT_MOVE
35b7b20@3f28dda	STATEMENT_INSERT
35b7b20@3f28dda	STATEMENT_PARENT_CHANGE
35b7b20@3f28dda	COMMENT_INSERT
35b7b20@3f28dda	STATEMENT_PARENT_CHANGE
35b7b20@3f28dda	STATEMENT_INSERT
35b7b20@3f28dda	STATEMENT_INSERT
35b7b20@3f28dda	STATEMENT_INSERT
35b7b20@3f28dda	ALTERNATIVE_PART_INSERT
35b7b20@3f28dda	ADDITIONAL_FUNCTIONALITY
35b7b20@3f28dda	ADDITIONAL_FUNCTIONALITY
38209b8@c997935	CONDITION_EXPRESSION_CHANGE
38209b8@c997935	CONDITION_EXPRESSION_CHANGE
38209b8@c997935	CONDITION_EXPRESSION_CHANGE
38209b8@c997935	CONDITION_EXPRESSION_CHANGE
38209b8@c997935	CONDITION_EXPRESSION_CHANGE
38209b8@c997935	STATEMENT_INSERT
38209b8@c997935	STATEMENT_INSERT
38209b8@c997935	CONDITION_EXPRESSION_CHANGE
38209b8@c997935	STATEMENT_UPDATE
4c64350@078b8d6	CONDITION_EXPRESSION_CHANGE
4c64350@078b8d6	CONDITION_EXPRESSION_CHANGE
4c64350@078b8d6	CONDITION_EXPRESSION_CHANGE
4c64350@078b8d6	STATEMENT_PARENT_CHANGE
4c64350@078b8d6	STATEMENT_PARENT_CHANGE
4c64350@078b8d6	STATEMENT_INSERT
4c64350@078b8d6	ALTERNATIVE_PART_INSERT
4c64350@078b8d6	STATEMENT_PARENT_CHANGE
4c64350@078b8d6	COMMENT_MOVE
4c64350@078b8d6	CONDITION_EXPRESSION_CHANGE
4c64350@078b8d6	STATEMENT_INSERT
4c64350@078b8d6	STATEMENT_INSERT
f1628ba@e07f437	DOC_UPDATE
f1628ba@e07f437	STATEMENT_INSERT
f1628ba@e07f437	STATEMENT_INSERT
f1628ba@e07f437	STATEMENT_INSERT
f1628ba@e07f437	STATEMENT_INSERT
f1628ba@e07f437	STATEMENT_INSERT
f1628ba@e07f437	STATEMENT_INSERT
f1628ba@e07f437	STATEMENT_INSERT
f1628ba@e07f437	STATEMENT_INSERT
f1628ba@e07f437	STATEMENT_INSERT
f1628ba@e07f437	STATEMENT_INSERT
f1628ba@e07f437	STATEMENT_INSERT
f1628ba@e07f437	STATEMENT_INSERT
f1628ba@e07f437	STATEMENT_INSERT
f1628ba@e07f437	STATEMENT_INSERT
f1628ba@e07f437	STATEMENT_INSERT
f1628ba@e07f437	STATEMENT_INSERT
f1628ba@e07f437	STATEMENT_INSERT
7a5f585@19a3592	CONDITION_EXPRESSION_CHANGE
7a5f585@19a3592	CONDITION_EXPRESSION_CHANGE
7a5f585@19a3592	CONDITION_EXPRESSION_CHANGE
7a5f585@19a3592	CONDITION_EXPRESSION_CHANGE
7a5f585@19a3592	CONDITION_EXPRESSION_CHANGE
7a5f585@19a3592	CONDITION_EXPRESSION_CHANGE
7a5f585@19a3592	CONDITION_EXPRESSION_CHANGE
7a5f585@19a3592	CONDITION_EXPRESSION_CHANGE
7a5f585@19a3592	CONDITION_EXPRESSION_CHANGE
7a5f585@19a3592	CONDITION_EXPRESSION_CHANGE
7a5f585@19a3592	CONDITION_EXPRESSION_CHANGE
7a5f585@19a3592	CONDITION_EXPRESSION_CHANGE
7a5f585@19a3592	STATEMENT_INSERT
7a5f585@19a3592	STATEMENT_INSERT
19a3592@a9f725e	STATEMENT_DELETE
19a3592@a9f725e	STATEMENT_INSERT
19a3592@a9f725e	CONDITION_EXPRESSION_CHANGE
19a3592@a9f725e	CONDITION_EXPRESSION_CHANGE
19a3592@a9f725e	STATEMENT_UPDATE
19a3592@a9f725e	STATEMENT_INSERT
19a3592@a9f725e	STATEMENT_INSERT
19a3592@a9f725e	CONDITION_EXPRESSION_CHANGE
19a3592@a9f725e	STATEMENT_UPDATE
19a3592@a9f725e	ALTERNATIVE_PART_INSERT
19a3592@a9f725e	STATEMENT_INSERT
19a3592@a9f725e	STATEMENT_INSERT
19a3592@a9f725e	STATEMENT_INSERT
19a3592@a9f725e	DOC_UPDATE
19a3592@a9f725e	ALTERNATIVE_PART_INSERT
19a3592@a9f725e	STATEMENT_INSERT
19a3592@a9f725e	STATEMENT_INSERT
19a3592@a9f725e	PARAMETER_INSERT
19a3592@a9f725e	STATEMENT_DELETE
19a3592@a9f725e	STATEMENT_ORDERING_CHANGE
19a3592@a9f725e	STATEMENT_ORDERING_CHANGE
19a3592@a9f725e	ALTERNATIVE_PART_DELETE
19a3592@a9f725e	STATEMENT_PARENT_CHANGE
19a3592@a9f725e	STATEMENT_PARENT_CHANGE
19a3592@a9f725e	STATEMENT_PARENT_CHANGE
19a3592@a9f725e	STATEMENT_PARENT_CHANGE
19a3592@a9f725e	STATEMENT_PARENT_CHANGE
19a3592@a9f725e	COMMENT_INSERT
19a3592@a9f725e	STATEMENT_PARENT_CHANGE
19a3592@a9f725e	STATEMENT_INSERT
19a3592@a9f725e	STATEMENT_INSERT
19a3592@a9f725e	STATEMENT_PARENT_CHANGE
19a3592@a9f725e	ALTERNATIVE_PART_INSERT
19a3592@a9f725e	STATEMENT_INSERT
19a3592@a9f725e	STATEMENT_INSERT
19a3592@a9f725e	COMMENT_INSERT
19a3592@a9f725e	STATEMENT_PARENT_CHANGE
19a3592@a9f725e	STATEMENT_PARENT_CHANGE
19a3592@a9f725e	CONDITION_EXPRESSION_CHANGE
19a3592@a9f725e	CONDITION_EXPRESSION_CHANGE
19a3592@a9f725e	STATEMENT_UPDATE
19a3592@a9f725e	STATEMENT_UPDATE
19a3592@a9f725e	CONDITION_EXPRESSION_CHANGE
19a3592@a9f725e	CONDITION_EXPRESSION_CHANGE
19a3592@a9f725e	ALTERNATIVE_PART_INSERT
19a3592@a9f725e	STATEMENT_PARENT_CHANGE
19a3592@a9f725e	STATEMENT_INSERT
a9f725e@a6a74e2	CONDITION_EXPRESSION_CHANGE
a9f725e@a6a74e2	CONDITION_EXPRESSION_CHANGE
a9f725e@a6a74e2	CONDITION_EXPRESSION_CHANGE
a9f725e@a6a74e2	ALTERNATIVE_PART_INSERT
a9f725e@a6a74e2	STATEMENT_INSERT
a6a74e2@ea343cf	CONDITION_EXPRESSION_CHANGE
a6a74e2@ea343cf	CONDITION_EXPRESSION_CHANGE
a6a74e2@ea343cf	STATEMENT_INSERT
a6a74e2@ea343cf	CONDITION_EXPRESSION_CHANGE
a6a74e2@ea343cf	STATEMENT_INSERT
a6a74e2@ea343cf	STATEMENT_INSERT
a6a74e2@ea343cf	CONDITION_EXPRESSION_CHANGE
a6a74e2@ea343cf	CONDITION_EXPRESSION_CHANGE
a6a74e2@ea343cf	ALTERNATIVE_PART_INSERT
a6a74e2@ea343cf	CONDITION_EXPRESSION_CHANGE
a6a74e2@ea343cf	CONDITION_EXPRESSION_CHANGE
a6a74e2@ea343cf	CONDITION_EXPRESSION_CHANGE
a6a74e2@ea343cf	CONDITION_EXPRESSION_CHANGE
a6a74e2@ea343cf	CONDITION_EXPRESSION_CHANGE
a6a74e2@ea343cf	CONDITION_EXPRESSION_CHANGE
a6a74e2@ea343cf	CONDITION_EXPRESSION_CHANGE
a6a74e2@ea343cf	CONDITION_EXPRESSION_CHANGE
a6a74e2@ea343cf	CONDITION_EXPRESSION_CHANGE
a6a74e2@ea343cf	CONDITION_EXPRESSION_CHANGE
a6a74e2@ea343cf	STATEMENT_INSERT
a6a74e2@ea343cf	STATEMENT_INSERT
a6a74e2@ea343cf	STATEMENT_INSERT
a6a74e2@ea343cf	CONDITION_EXPRESSION_CHANGE
a6a74e2@ea343cf	CONDITION_EXPRESSION_CHANGE
a6a74e2@ea343cf	STATEMENT_INSERT
a6a74e2@ea343cf	STATEMENT_ORDERING_CHANGE
a6a74e2@ea343cf	STATEMENT_ORDERING_CHANGE
a6a74e2@ea343cf	STATEMENT_ORDERING_CHANGE
a6a74e2@ea343cf	STATEMENT_INSERT
7605a21@68426ed	STATEMENT_DELETE
7605a21@68426ed	STATEMENT_DELETE
7605a21@68426ed	STATEMENT_INSERT
7605a21@68426ed	STATEMENT_DELETE
7605a21@68426ed	STATEMENT_INSERT
7605a21@68426ed	STATEMENT_DELETE
c8191ec@65b8a53	COMMENT_INSERT
c8191ec@65b8a53	STATEMENT_INSERT
c8191ec@65b8a53	STATEMENT_INSERT
c8191ec@65b8a53	STATEMENT_INSERT
c8191ec@65b8a53	STATEMENT_INSERT
c8191ec@65b8a53	COMMENT_INSERT
c8191ec@65b8a53	ALTERNATIVE_PART_INSERT
c8191ec@65b8a53	STATEMENT_INSERT
c8191ec@65b8a53	STATEMENT_INSERT
c8191ec@65b8a53	STATEMENT_INSERT
c8191ec@65b8a53	STATEMENT_INSERT
c8191ec@65b8a53	STATEMENT_INSERT
c8191ec@65b8a53	STATEMENT_INSERT
c8191ec@65b8a53	STATEMENT_INSERT
4e76089@02b782a	DOC_UPDATE
4e76089@02b782a	STATEMENT_INSERT
4e76089@02b782a	STATEMENT_INSERT
4e76089@02b782a	STATEMENT_INSERT
4e76089@02b782a	STATEMENT_INSERT
4e76089@02b782a	COMMENT_INSERT
4e76089@02b782a	ALTERNATIVE_PART_INSERT
4e76089@02b782a	STATEMENT_INSERT
4e76089@02b782a	STATEMENT_INSERT
4e76089@02b782a	STATEMENT_INSERT
4e76089@02b782a	STATEMENT_INSERT
4e76089@02b782a	STATEMENT_INSERT
4e76089@02b782a	STATEMENT_INSERT
4e76089@02b782a	STATEMENT_INSERT
3543a9c@398da5b	DOC_UPDATE
3543a9c@398da5b	STATEMENT_INSERT
6a3dcf6@e9b7e27	ADDITIONAL_OBJECT_STATE
6a3dcf6@e9b7e27	ADDITIONAL_OBJECT_STATE
6a3dcf6@e9b7e27	ADDITIONAL_OBJECT_STATE
6a3dcf6@e9b7e27	DECREASING_ACCESSIBILITY_CHANGE
6a3dcf6@e9b7e27	REMOVING_ATTRIBUTE_MODIFIABILITY
6a3dcf6@e9b7e27	STATEMENT_UPDATE
6a3dcf6@e9b7e27	STATEMENT_UPDATE
6a3dcf6@e9b7e27	STATEMENT_UPDATE
6a3dcf6@e9b7e27	STATEMENT_UPDATE
6a3dcf6@e9b7e27	STATEMENT_UPDATE
6a3dcf6@e9b7e27	STATEMENT_UPDATE
a9bb12b@cf49212	STATEMENT_INSERT
c4aa91e@610aaf6	INCREASING_ACCESSIBILITY_CHANGE
610aaf6@bd50ff6	ATTRIBUTE_RENAMING
610aaf6@bd50ff6	ATTRIBUTE_RENAMING
610aaf6@bd50ff6	ADDITIONAL_OBJECT_STATE
610aaf6@bd50ff6	ADDITIONAL_OBJECT_STATE
610aaf6@bd50ff6	STATEMENT_UPDATE
610aaf6@bd50ff6	STATEMENT_UPDATE
610aaf6@bd50ff6	COMMENT_INSERT
610aaf6@bd50ff6	STATEMENT_INSERT
610aaf6@bd50ff6	STATEMENT_INSERT
610aaf6@bd50ff6	STATEMENT_INSERT
610aaf6@bd50ff6	COMMENT_INSERT
610aaf6@bd50ff6	STATEMENT_INSERT
610aaf6@bd50ff6	STATEMENT_INSERT
610aaf6@bd50ff6	STATEMENT_INSERT
610aaf6@bd50ff6	STATEMENT_INSERT
610aaf6@bd50ff6	STATEMENT_INSERT
610aaf6@bd50ff6	STATEMENT_INSERT
610aaf6@bd50ff6	STATEMENT_INSERT
610aaf6@bd50ff6	STATEMENT_INSERT
610aaf6@bd50ff6	STATEMENT_INSERT
610aaf6@bd50ff6	STATEMENT_INSERT
610aaf6@bd50ff6	STATEMENT_INSERT
610aaf6@bd50ff6	STATEMENT_INSERT
610aaf6@bd50ff6	STATEMENT_INSERT
610aaf6@bd50ff6	STATEMENT_INSERT
610aaf6@bd50ff6	STATEMENT_INSERT
610aaf6@bd50ff6	ALTERNATIVE_PART_INSERT
610aaf6@bd50ff6	STATEMENT_INSERT
610aaf6@bd50ff6	STATEMENT_INSERT
610aaf6@bd50ff6	STATEMENT_INSERT
610aaf6@bd50ff6	STATEMENT_INSERT
610aaf6@bd50ff6	ADDITIONAL_FUNCTIONALITY
610aaf6@bd50ff6	METHOD_RENAMING
610aaf6@bd50ff6	STATEMENT_UPDATE
610aaf6@bd50ff6	METHOD_RENAMING
610aaf6@bd50ff6	STATEMENT_UPDATE
610aaf6@bd50ff6	METHOD_RENAMING
610aaf6@bd50ff6	STATEMENT_UPDATE
610aaf6@bd50ff6	METHOD_RENAMING
610aaf6@bd50ff6	STATEMENT_UPDATE
610aaf6@bd50ff6	ADDITIONAL_FUNCTIONALITY
610aaf6@bd50ff6	ADDITIONAL_FUNCTIONALITY
610aaf6@bd50ff6	ADDITIONAL_FUNCTIONALITY
610aaf6@bd50ff6	ADDITIONAL_FUNCTIONALITY
bd50ff6@78ab233	REMOVED_OBJECT_STATE
bd50ff6@78ab233	ADDITIONAL_OBJECT_STATE
bd50ff6@78ab233	REMOVED_OBJECT_STATE
bd50ff6@78ab233	ADDITIONAL_OBJECT_STATE
bd50ff6@78ab233	ADDITIONAL_OBJECT_STATE
bd50ff6@78ab233	ATTRIBUTE_TYPE_CHANGE
bd50ff6@78ab233	REMOVED_OBJECT_STATE
bd50ff6@78ab233	ADDITIONAL_OBJECT_STATE
bd50ff6@78ab233	STATEMENT_UPDATE
bd50ff6@78ab233	STATEMENT_ORDERING_CHANGE
bd50ff6@78ab233	STATEMENT_UPDATE
bd50ff6@78ab233	STATEMENT_UPDATE
bd50ff6@78ab233	STATEMENT_ORDERING_CHANGE
bd50ff6@78ab233	STATEMENT_ORDERING_CHANGE
bd50ff6@78ab233	COMMENT_INSERT
bd50ff6@78ab233	STATEMENT_INSERT
bd50ff6@78ab233	STATEMENT_ORDERING_CHANGE
bd50ff6@78ab233	STATEMENT_UPDATE
bd50ff6@78ab233	STATEMENT_UPDATE
bd50ff6@78ab233	STATEMENT_ORDERING_CHANGE
bd50ff6@78ab233	STATEMENT_UPDATE
bd50ff6@78ab233	STATEMENT_UPDATE
bd50ff6@78ab233	STATEMENT_ORDERING_CHANGE
bd50ff6@78ab233	STATEMENT_ORDERING_CHANGE
bd50ff6@78ab233	STATEMENT_INSERT
bd50ff6@78ab233	STATEMENT_INSERT
bd50ff6@78ab233	PARAMETER_TYPE_CHANGE
bd50ff6@78ab233	STATEMENT_ORDERING_CHANGE
bd50ff6@78ab233	STATEMENT_ORDERING_CHANGE
bd50ff6@78ab233	STATEMENT_PARENT_CHANGE
bd50ff6@78ab233	STATEMENT_PARENT_CHANGE
bd50ff6@78ab233	STATEMENT_UPDATE
bd50ff6@78ab233	STATEMENT_UPDATE
bd50ff6@78ab233	STATEMENT_UPDATE
bd50ff6@78ab233	STATEMENT_INSERT
bd50ff6@78ab233	STATEMENT_UPDATE
bd50ff6@78ab233	STATEMENT_PARENT_CHANGE
bd50ff6@78ab233	STATEMENT_UPDATE
bd50ff6@78ab233	STATEMENT_UPDATE
bd50ff6@78ab233	STATEMENT_PARENT_CHANGE
bd50ff6@78ab233	STATEMENT_ORDERING_CHANGE
bd50ff6@78ab233	STATEMENT_DELETE
bd50ff6@78ab233	STATEMENT_UPDATE
bd50ff6@78ab233	PARAMETER_TYPE_CHANGE
bd50ff6@78ab233	METHOD_RENAMING
bd50ff6@78ab233	STATEMENT_INSERT
bd50ff6@78ab233	STATEMENT_INSERT
bd50ff6@78ab233	PARAMETER_DELETE
bd50ff6@78ab233	STATEMENT_UPDATE
bd50ff6@78ab233	STATEMENT_INSERT
bd50ff6@78ab233	STATEMENT_INSERT
bd50ff6@78ab233	STATEMENT_INSERT
bd50ff6@78ab233	PARAMETER_DELETE
bd50ff6@78ab233	STATEMENT_UPDATE
bd50ff6@78ab233	ALTERNATIVE_PART_INSERT
bd50ff6@78ab233	STATEMENT_INSERT
bd50ff6@78ab233	METHOD_RENAMING
bd50ff6@78ab233	STATEMENT_UPDATE
bd50ff6@78ab233	ALTERNATIVE_PART_INSERT
bd50ff6@78ab233	STATEMENT_INSERT
bd50ff6@78ab233	STATEMENT_INSERT
bd50ff6@78ab233	ADDITIONAL_FUNCTIONALITY
bd50ff6@78ab233	PARAMETER_INSERT
bd50ff6@78ab233	PARAMETER_INSERT
bd50ff6@78ab233	ADDITIONAL_FUNCTIONALITY
ec6f4b4@c297601	PARENT_INTERFACE_INSERT
ec6f4b4@c297601	ADDITIONAL_FUNCTIONALITY
ec6f4b4@c297601	ADDITIONAL_FUNCTIONALITY
c297601@096d694	COMMENT_DELETE
c297601@096d694	STATEMENT_DELETE
c297601@096d694	COMMENT_DELETE
c297601@096d694	STATEMENT_DELETE
c297601@096d694	STATEMENT_INSERT
c297601@096d694	COMMENT_DELETE
c297601@096d694	STATEMENT_DELETE
c297601@096d694	COMMENT_DELETE
c297601@096d694	STATEMENT_DELETE
c297601@096d694	STATEMENT_DELETE
c297601@096d694	STATEMENT_DELETE
c297601@096d694	STATEMENT_DELETE
c297601@096d694	COMMENT_DELETE
c297601@096d694	STATEMENT_DELETE
c297601@096d694	STATEMENT_DELETE
c297601@096d694	ALTERNATIVE_PART_DELETE
c297601@096d694	STATEMENT_DELETE
c297601@096d694	ADDITIONAL_FUNCTIONALITY
c297601@096d694	COMMENT_DELETE
c297601@096d694	ALTERNATIVE_PART_DELETE
c297601@096d694	ALTERNATIVE_PART_DELETE
c297601@096d694	STATEMENT_DELETE
c297601@096d694	COMMENT_DELETE
c297601@096d694	STATEMENT_DELETE
c297601@096d694	STATEMENT_DELETE
7fd461a@7000424	STATEMENT_UPDATE
7fd461a@7000424	STATEMENT_INSERT
7fd461a@7000424	STATEMENT_UPDATE
7fd461a@7000424	STATEMENT_INSERT
7fd461a@7000424	STATEMENT_INSERT
7fd461a@7000424	STATEMENT_INSERT
7fd461a@7000424	STATEMENT_INSERT
7fd461a@7000424	STATEMENT_INSERT
7fd461a@7000424	STATEMENT_INSERT
7fd461a@7000424	STATEMENT_INSERT
7fd461a@7000424	STATEMENT_INSERT
7fd461a@7000424	STATEMENT_INSERT
7fd461a@7000424	STATEMENT_INSERT
7fd461a@7000424	STATEMENT_INSERT
7fd461a@7000424	STATEMENT_INSERT
7fd461a@7000424	STATEMENT_INSERT
7fd461a@7000424	STATEMENT_INSERT
7fd461a@7000424	STATEMENT_INSERT
7fd461a@7000424	STATEMENT_INSERT
7fd461a@7000424	STATEMENT_INSERT
7fd461a@7000424	STATEMENT_INSERT
7000424@107ab80	STATEMENT_UPDATE
7000424@107ab80	STATEMENT_UPDATE
7000424@107ab80	STATEMENT_UPDATE
7000424@107ab80	STATEMENT_INSERT
7000424@107ab80	STATEMENT_UPDATE
7000424@107ab80	STATEMENT_UPDATE
7000424@107ab80	STATEMENT_INSERT
7000424@107ab80	STATEMENT_INSERT
7000424@107ab80	STATEMENT_INSERT
7000424@107ab80	ALTERNATIVE_PART_INSERT
7000424@107ab80	STATEMENT_INSERT
7000424@107ab80	STATEMENT_UPDATE
7000424@107ab80	STATEMENT_INSERT
7000424@107ab80	STATEMENT_INSERT
7000424@107ab80	STATEMENT_INSERT
7000424@107ab80	STATEMENT_INSERT
7000424@107ab80	STATEMENT_UPDATE
7000424@107ab80	STATEMENT_UPDATE
7000424@107ab80	STATEMENT_INSERT
7000424@107ab80	STATEMENT_INSERT
7000424@107ab80	STATEMENT_INSERT
7000424@107ab80	STATEMENT_UPDATE
7000424@107ab80	STATEMENT_UPDATE
7000424@107ab80	STATEMENT_UPDATE
7000424@107ab80	STATEMENT_UPDATE
7000424@107ab80	STATEMENT_UPDATE
7000424@107ab80	STATEMENT_UPDATE
7000424@107ab80	STATEMENT_INSERT
7000424@107ab80	STATEMENT_UPDATE
7000424@107ab80	STATEMENT_UPDATE
7000424@107ab80	STATEMENT_INSERT
7000424@107ab80	STATEMENT_PARENT_CHANGE
7000424@107ab80	STATEMENT_INSERT
7000424@107ab80	STATEMENT_INSERT
7000424@107ab80	STATEMENT_PARENT_CHANGE
7000424@107ab80	STATEMENT_INSERT
7000424@107ab80	STATEMENT_PARENT_CHANGE
7000424@107ab80	STATEMENT_PARENT_CHANGE
7000424@107ab80	STATEMENT_UPDATE
7000424@107ab80	STATEMENT_UPDATE
7000424@107ab80	STATEMENT_PARENT_CHANGE
7000424@107ab80	ALTERNATIVE_PART_INSERT
7000424@107ab80	STATEMENT_INSERT
7000424@107ab80	STATEMENT_INSERT
7000424@107ab80	STATEMENT_INSERT
7000424@107ab80	STATEMENT_INSERT
7000424@107ab80	STATEMENT_INSERT
7000424@107ab80	ALTERNATIVE_PART_INSERT
7000424@107ab80	STATEMENT_INSERT
7000424@107ab80	STATEMENT_INSERT
7000424@107ab80	STATEMENT_INSERT
7000424@107ab80	STATEMENT_INSERT
7000424@107ab80	STATEMENT_INSERT
7000424@107ab80	STATEMENT_INSERT
7000424@107ab80	STATEMENT_INSERT
7000424@107ab80	STATEMENT_INSERT
7000424@107ab80	STATEMENT_INSERT
7000424@107ab80	STATEMENT_INSERT
7000424@107ab80	STATEMENT_INSERT
7000424@107ab80	STATEMENT_INSERT
7000424@107ab80	ADDITIONAL_FUNCTIONALITY
d98f6d9@c04d7a7	STATEMENT_UPDATE
d98f6d9@c04d7a7	CONDITION_EXPRESSION_CHANGE
d98f6d9@c04d7a7	CONDITION_EXPRESSION_CHANGE
d98f6d9@c04d7a7	STATEMENT_INSERT
d98f6d9@c04d7a7	ALTERNATIVE_PART_INSERT
d98f6d9@c04d7a7	STATEMENT_INSERT
d98f6d9@c04d7a7	STATEMENT_INSERT
e24e2b0@ec79ee2	STATEMENT_UPDATE
e24e2b0@ec79ee2	STATEMENT_UPDATE
e24e2b0@ec79ee2	STATEMENT_INSERT
e24e2b0@ec79ee2	STATEMENT_INSERT
e24e2b0@ec79ee2	STATEMENT_PARENT_CHANGE
e24e2b0@ec79ee2	STATEMENT_PARENT_CHANGE
e24e2b0@ec79ee2	STATEMENT_INSERT
e24e2b0@ec79ee2	STATEMENT_INSERT
e24e2b0@ec79ee2	STATEMENT_INSERT
e24e2b0@ec79ee2	ALTERNATIVE_PART_INSERT
