sid,revisions,refactor,bugfixes,authors,loc_added,max_added,ave_added,loc_deleted,max_deleted,ave_deleted,code_churn,max_churn,ave_churn,max_changeset,ave_changeset,age,weighted_age,label
531,0.09259259259259259,0.14285714285714285,0.125,0.5,0.03283302063789869,0.05963302752293578,0.04046242774566474,0.06904231625835189,0.07327586206896551,0.09841269841269841,0.2087912087912088,0.06153846153846154,0.1953271028037383,1.0,0.35190476190476194,0.927536231884058,0.9060479666319081,true
621,0.1111111111111111,0.14285714285714285,0.0,0.6666666666666666,0.055347091932457786,0.07110091743119266,0.05684007707129095,0.013363028953229399,0.008620689655172414,0.015873015873015872,0.2686202686202686,0.1076923076923077,0.23286604361370716,1.0,0.2265873015873016,0.7681159420289855,0.443647160707658,true
908,0.07407407407407407,0.0,0.08333333333333333,0.5,0.09099437148217636,0.1811926605504587,0.14017341040462428,0.0556792873051225,0.07758620689655173,0.0992063492063492,0.29181929181929184,0.2153846153846154,0.2757009345794392,0.719047619047619,0.1875,1.0,0.3090902249981188,true
180,0.12962962962962962,0.2857142857142857,0.041666666666666664,0.5,0.013133208255159476,0.011467889908256881,0.011560693641618497,0.0378619153674833,0.0603448275862069,0.03854875283446712,0.20024420024420025,0.05274725274725275,0.18958611481975968,1.0,0.2054421768707483,0.7101449275362319,0.444473409801877,true
919,0.14814814814814814,0.14285714285714285,0.125,0.5,0.19230769230769232,0.25,0.14812138728323698,0.111358574610245,0.08620689655172414,0.0992063492063492,0.39316239316239315,0.2549450549450549,0.2821261682242991,0.719047619047619,0.11160714285714286,1.0,0.44311910272387384,true
481,0.09259259259259259,0.0,0.08333333333333333,0.3333333333333333,0.058161350844277676,0.07339449541284404,0.07167630057803469,0.062360801781737196,0.08620689655172414,0.08888888888888888,0.2454212454212454,0.06813186813186813,0.2233644859813084,0.09047619047619047,0.04190476190476191,1.0,0.7002590063574285,true
246,0.037037037037037035,0.0,0.041666666666666664,0.16666666666666666,0.001876172607879925,0.0022935779816513763,0.005780346820809248,0.0066815144766146995,0.008620689655172414,0.023809523809523808,0.2026862026862027,0.041758241758241756,0.18925233644859812,1.0,0.8595238095238096,0.6376811594202898,0.47080291970802923,true
644,0.12962962962962962,0.14285714285714285,0.08333333333333333,0.5,0.03095684803001876,0.02522935779816514,0.027250206440957887,0.053452115812917596,0.08189655172413793,0.05442176870748299,0.2148962148962149,0.06373626373626373,0.19759679572763683,0.27380952380952384,0.05986394557823129,0.7246376811594203,0.24729042247290423,true
267,0.3333333333333333,0.2857142857142857,0.2916666666666667,0.8333333333333334,0.19699812382739212,0.12844036697247707,0.0674373795761079,0.3674832962138085,0.21120689655172414,0.1455026455026455,0.2588522588522589,0.15604395604395604,0.20327102803738317,0.719047619047619,0.08240740740740742,0.927536231884058,0.2361835245046924,true
904,0.037037037037037035,0.0,0.0,0.3333333333333333,0.029080675422138838,0.06192660550458716,0.08959537572254335,0.0022271714922048997,0.004310344827586207,0.007936507936507936,0.24053724053724054,0.1010989010989011,0.2616822429906542,0.02619047619047619,0.015476190476190477,0.21739130434782608,0.4008712032022604,true
690,0.018518518518518517,0.0,0.0,0.16666666666666666,9.380863039399625E-4,0.0022935779816513763,0.005780346820809248,0.0022271714922048997,0.004310344827586207,0.015873015873015872,0.2039072039072039,0.041758241758241756,0.19158878504672897,1.0,1.0,0.7681159420289855,0.5255474452554745,true
147,0.14814814814814814,0.0,0.16666666666666666,0.5,0.04409005628517824,0.03211009174311927,0.03395953757225433,0.21158129175946547,0.16379310344827586,0.1884920634920635,0.1452991452991453,0.05274725274725275,0.16355140186915887,0.719047619047619,0.1351190476190476,0.927536231884058,0.35362633949371025,true
241,0.05555555555555555,0.0,0.041666666666666664,0.3333333333333333,0.01594746716697936,0.022935779816513763,0.03275529865125241,0.031180400890868598,0.03879310344827586,0.07407407407407408,0.20757020757020758,0.046153846153846156,0.19626168224299065,1.0,0.5746031746031747,0.7681159420289855,0.6273078574495492,true
783,0.09259259259259259,0.0,0.08333333333333333,0.3333333333333333,0.13883677298311445,0.20871559633027523,0.17109826589595376,0.022271714922048998,0.021551724137931036,0.031746031746031744,0.3724053724053724,0.24175824175824176,0.32056074766355136,0.08571428571428572,0.039047619047619046,0.11594202898550725,0.1724699151706451,true
482,0.037037037037037035,0.0,0.041666666666666664,0.3333333333333333,0.0525328330206379,0.12614678899082568,0.16184971098265896,0.0022271714922048997,0.004310344827586207,0.007936507936507936,0.27106227106227104,0.16263736263736264,0.32009345794392524,1.0,0.5166666666666667,0.4927536231884058,0.8804092805005214,true
257,0.05555555555555555,0.0,0.041666666666666664,0.3333333333333333,0.00375234521575985,0.0045871559633027525,0.007707129094412331,0.008908685968819599,0.01293103448275862,0.021164021164021163,0.2039072039072039,0.04395604395604396,0.19158878504672897,1.0,0.5738095238095238,0.7681159420289855,0.36770072992700725,true
432,0.2222222222222222,0.14285714285714285,0.08333333333333333,0.6666666666666666,0.1651031894934334,0.0779816513761468,0.08477842003853564,0.13808463251670378,0.07758620689655173,0.08201058201058202,0.3431013431013431,0.1010989010989011,0.23598130841121495,1.0,0.18174603174603174,0.7246376811594203,0.6046159588586595,true
816,0.09259259259259259,0.14285714285714285,0.041666666666666664,0.5,0.06097560975609756,0.1353211009174312,0.07514450867052024,0.013363028953229399,0.017241379310344827,0.019047619047619046,0.27594627594627597,0.17142857142857143,0.2467289719626168,1.0,0.3576190476190476,0.3188405797101449,0.5418865805727119,true
143,0.037037037037037035,0.0,0.041666666666666664,0.3333333333333333,0.008442776735459663,0.016055045871559634,0.02601156069364162,0.035634743875278395,0.0603448275862069,0.12698412698412698,0.19536019536019536,0.041758241758241756,0.17523364485981308,0.719047619047619,0.3726190476190476,0.9855072463768116,0.3682076236820762,true
326,0.14814814814814814,0.14285714285714285,0.125,0.5,0.1397748592870544,0.24541284403669725,0.10765895953757225,0.0334075723830735,0.03017241379310345,0.02976190476190476,0.36752136752136755,0.27692307692307694,0.26985981308411217,0.05,0.02142857142857143,0.043478260869565216,0.08930583451721942,true
969,0.037037037037037035,0.14285714285714285,0.041666666666666664,0.3333333333333333,0.001876172607879925,0.0022935779816513763,0.005780346820809248,0.0066815144766146995,0.008620689655172414,0.023809523809523808,0.2026862026862027,0.041758241758241756,0.18925233644859812,1.0,0.5119047619047619,0.9710144927536232,0.7645985401459854,true
793,0.037037037037037035,0.0,0.041666666666666664,0.3333333333333333,0.001876172607879925,0.0022935779816513763,0.005780346820809248,0.004454342984409799,0.004310344827586207,0.015873015873015872,0.2039072039072039,0.041758241758241756,0.19158878504672897,1.0,0.5452380952380952,0.9130434782608695,0.4598540145985401,true
240,0.037037037037037035,0.0,0.041666666666666664,0.16666666666666666,0.005628517823639775,0.011467889908256881,0.017341040462427744,0.026726057906458798,0.03879310344827586,0.09523809523809523,0.19658119658119658,0.03736263736263736,0.17757009345794392,0.719047619047619,0.3619047619047619,0.9710144927536232,0.44099756690997555,true
618,0.09259259259259259,0.0,0.125,0.5,0.024390243902439025,0.03669724770642202,0.030057803468208095,0.031180400890868598,0.021551724137931036,0.04444444444444444,0.21855921855921856,0.07032967032967033,0.202803738317757,1.0,0.35904761904761906,1.0,0.4865244244806288,true
258,0.1111111111111111,0.0,0.08333333333333333,0.5,0.027204502814258912,0.03211009174311927,0.0279383429672447,0.015590200445434299,0.021551724137931036,0.01851851851851852,0.23076923076923078,0.07252747252747253,0.2087227414330218,0.719047619047619,0.17222222222222222,0.782608695652174,0.7483010319657688,true
751,0.12962962962962962,0.2857142857142857,0.125,0.5,0.0525328330206379,0.06651376146788991,0.046242774566473986,0.10690423162583519,0.09051724137931035,0.10884353741496598,0.21367521367521367,0.05934065934065934,0.19692923898531375,0.719047619047619,0.15068027210884352,0.6231884057971014,0.4202945776850886,true
130,0.07407407407407407,0.0,0.041666666666666664,0.3333333333333333,0.0075046904315197,0.006880733944954129,0.011560693641618497,0.024498886414253896,0.017241379310344827,0.04365079365079365,0.20024420024420025,0.041758241758241756,0.18808411214953272,1.0,0.46130952380952384,0.6956521739130435,0.30291970802919704,true
526,0.037037037037037035,0.0,0.041666666666666664,0.16666666666666666,0.0075046904315197,0.016055045871559634,0.023121387283236993,0.017817371937639197,0.03017241379310345,0.06349206349206349,0.2039072039072039,0.041758241758241756,0.19158878504672897,1.0,0.8595238095238096,0.7101449275362319,0.42974452554744524,true
801,0.018518518518518517,0.0,0.0,0.16666666666666666,0.1622889305816135,0.3967889908256881,1.0,0.0,0.0,0.0,0.41514041514041516,0.421978021978022,1.0,0.014285714285714285,0.014285714285714285,0.0,0.0072992700729927,true
740,0.0,0.0,0.0,0.0,0.0,0.0,0.0,0.0,0.0,0.0,0.2039072039072039,0.041758241758241756,0.19158878504672897,0.0,0.0,0.6666666666666666,0.0,true
857,0.018518518518518517,0.14285714285714285,0.0,0.16666666666666666,9.380863039399625E-4,0.0022935779816513763,0.005780346820809248,0.0022271714922048997,0.004310344827586207,0.015873015873015872,0.2039072039072039,0.041758241758241756,0.19158878504672897,0.014285714285714285,0.014285714285714285,1.0,0.2408759124087591,true
447,0.037037037037037035,0.0,0.041666666666666664,0.3333333333333333,0.001876172607879925,0.0022935779816513763,0.005780346820809248,0.004454342984409799,0.004310344827586207,0.015873015873015872,0.2039072039072039,0.041758241758241756,0.19158878504672897,0.27380952380952384,0.16666666666666666,0.782608695652174,0.3613138686131387,true
660,0.16666666666666666,0.0,0.125,0.5,0.0825515947467167,0.10091743119266056,0.0565189466923571,0.08240534521158129,0.04310344827586207,0.06525573192239859,0.2661782661782662,0.11868131868131868,0.21806853582554517,0.719047619047619,0.10873015873015872,0.6521739130434783,0.1446582614465826,true
181,0.018518518518518517,0.0,0.041666666666666664,0.16666666666666666,0.0028142589118198874,0.006880733944954129,0.017341040462427744,0.004454342984409799,0.008620689655172414,0.031746031746031744,0.20512820512820512,0.04395604395604396,0.19626168224299065,0.09047619047619047,0.09047619047619047,1.0,0.3941605839416058,true
892,0.037037037037037035,0.14285714285714285,0.0,0.16666666666666666,0.0028142589118198874,0.0045871559633027525,0.008670520231213872,0.0022271714922048997,0.004310344827586207,0.007936507936507936,0.20634920634920634,0.04395604395604396,0.19626168224299065,0.02619047619047619,0.023809523809523808,1.0,0.16423357664233573,true
91,0.05555555555555555,0.0,0.041666666666666664,0.3333333333333333,0.00375234521575985,0.0045871559633027525,0.007707129094412331,0.0022271714922048997,0.004310344827586207,0.005291005291005291,0.20757020757020758,0.046153846153846156,0.19626168224299065,1.0,0.3825396825396825,0.7101449275362319,0.2764598540145985,true
638,0.1111111111111111,0.14285714285714285,0.041666666666666664,0.5,0.11444652908067542,0.1926605504587156,0.11753371868978804,0.053452115812917596,0.04741379310344827,0.06349206349206349,0.3235653235653236,0.210989010989011,0.26791277258566976,1.0,0.3138888888888889,0.7536231884057971,0.9218918272107215,true
837,0.09259259259259259,0.14285714285714285,0.041666666666666664,0.5,0.01876172607879925,0.01834862385321101,0.023121387283236993,0.0467706013363029,0.05603448275862069,0.06666666666666667,0.2026862026862027,0.05054945054945055,0.19065420560747662,1.0,0.3971428571428572,0.8840579710144928,0.25985401459854013,true
105,0.1111111111111111,0.2857142857142857,0.08333333333333333,0.5,0.013133208255159476,0.011467889908256881,0.013487475915221581,0.0400890868596882,0.04310344827586207,0.047619047619047616,0.199023199023199,0.05054945054945055,0.1884735202492212,1.0,0.3404761904761905,0.6956521739130435,0.5099061522419187,true
971,0.07407407407407407,0.0,0.08333333333333333,0.5,0.051594746716697934,0.09403669724770643,0.07947976878612717,0.011135857461024499,0.008620689655172414,0.01984126984126984,0.26495726495726496,0.13186813186813187,0.25,0.27380952380952384,0.08273809523809524,0.43478260869565216,0.683808891838089,true
882,0.09259259259259259,0.14285714285714285,0.0,0.6666666666666666,0.010318949343339587,0.011467889908256881,0.012716763005780347,0.008908685968819599,0.008620689655172414,0.012698412698412698,0.21245421245421245,0.05274725274725275,0.19813084112149532,1.0,0.26761904761904765,0.7246376811594203,0.22130059721300596,true
204,0.3888888888888889,0.42857142857142855,0.4166666666666667,0.6666666666666666,0.19793621013133209,0.12844036697247707,0.05807872281860721,0.30734966592427615,0.1939655172413793,0.10430839002267574,0.29304029304029305,0.10329670329670329,0.207832665776591,1.0,0.10691609977324264,1.0,0.20707787041201095,true
195,0.09259259259259259,0.14285714285714285,0.041666666666666664,0.5,0.12195121951219512,0.22018348623853212,0.15028901734104047,0.017817371937639197,0.021551724137931036,0.025396825396825397,0.3528693528693529,0.25274725274725274,0.305607476635514,0.14047619047619048,0.05952380952380952,0.11594202898550725,0.17377877596855698,true
328,0.05555555555555555,0.14285714285714285,0.041666666666666664,0.16666666666666666,0.0028142589118198874,0.0045871559633027525,0.005780346820809248,0.013363028953229399,0.01293103448275862,0.031746031746031744,0.20024420024420025,0.046153846153846156,0.18691588785046728,0.09047619047619047,0.06746031746031746,0.9855072463768116,0.26277372262773724,true
570,0.07407407407407407,0.0,0.041666666666666664,0.3333333333333333,0.024390243902439025,0.03669724770642202,0.03757225433526012,0.013363028953229399,0.017241379310344827,0.023809523809523808,0.22832722832722832,0.07692307692307693,0.21495327102803738,1.0,0.4375,1.0,0.5025266704098821,true
484,0.16666666666666666,0.2857142857142857,0.08333333333333333,0.5,0.020637898686679174,0.011467889908256881,0.014129736673089276,0.053452115812917596,0.034482758620689655,0.042328042328042326,0.20146520146520147,0.05274725274725275,0.1905503634475597,1.0,0.2417989417989418,0.6956521739130435,0.4963503649635036,true
926,0.14814814814814814,0.5714285714285714,0.08333333333333333,0.5,0.07786116322701689,0.07339449541284404,0.05997109826589595,0.062360801781737196,0.07327586206896551,0.05555555555555555,0.27106227106227104,0.10329670329670329,0.22371495327102803,1.0,0.25357142857142856,0.5797101449275363,0.8512004221264621,true
30,0.14814814814814814,0.0,0.16666666666666666,0.5,0.11350844277673545,0.0963302752293578,0.08742774566473989,0.051224944320712694,0.034482758620689655,0.04563492063492063,0.3235653235653236,0.12087912087912088,0.2488317757009346,1.0,0.24107142857142858,0.7101449275362319,0.7552934789165711,true
637,0.12962962962962962,0.2857142857142857,0.125,0.5,0.0375234521575985,0.03211009174311927,0.03303055326176713,0.0935412026726058,0.06465517241379311,0.09523809523809523,0.20146520146520147,0.04395604395604396,0.19025367156208278,0.719047619047619,0.13843537414965987,1.0,0.34781021897810216,true
964,0.018518518518518517,0.14285714285714285,0.0,0.16666666666666666,0.0,0.0,0.0,0.0022271714922048997,0.004310344827586207,0.015873015873015872,0.2026862026862027,0.03956043956043956,0.18691588785046728,0.07857142857142857,0.07857142857142857,0.5797101449275363,0.0,true
634,0.2037037037037037,0.2857142857142857,0.16666666666666666,0.3333333333333333,0.3808630393996248,0.3440366972477064,0.21334734629532315,0.16703786191536749,0.09482758620689655,0.10822510822510822,0.608058608058608,0.37142857142857144,0.3322005097706032,1.0,0.16926406926406928,0.6376811594202898,0.818165474092985,true
922,0.09259259259259259,0.14285714285714285,0.125,0.3333333333333333,0.05722326454033771,0.11238532110091744,0.07052023121387282,0.017817371937639197,0.01293103448275862,0.025396825396825397,0.2686202686202686,0.14945054945054945,0.2411214953271028,0.06428571428571428,0.031428571428571424,0.2028985507246377,0.324099557257389,true
65,0.018518518518518517,0.0,0.0,0.16666666666666666,0.00375234521575985,0.009174311926605505,0.023121387283236993,0.015590200445434299,0.03017241379310345,0.1111111111111111,0.20024420024420025,0.035164835164835165,0.17757009345794392,0.10952380952380952,0.10952380952380952,0.6666666666666666,0.18613138686131386,true
245,0.037037037037037035,0.0,0.08333333333333333,0.3333333333333333,0.0075046904315197,0.016055045871559634,0.023121387283236993,0.008908685968819599,0.01293103448275862,0.031746031746031744,0.2087912087912088,0.05054945054945055,0.20093457943925233,0.27380952380952384,0.14285714285714285,0.6956521739130435,0.23175182481751821,true
781,0.018518518518518517,0.14285714285714285,0.0,0.16666666666666666,0.0,0.0,0.0,0.004454342984409799,0.008620689655172414,0.031746031746031744,0.20146520146520147,0.03736263736263736,0.1822429906542056,0.07857142857142857,0.07857142857142857,0.5797101449275363,0.0,true
763,0.2037037037037037,0.2857142857142857,0.20833333333333334,0.6666666666666666,0.0675422138836773,0.05733944954128441,0.03783499737256963,0.035634743875278395,0.017241379310344827,0.023088023088023088,0.27228327228327226,0.08791208791208792,0.21537807986406118,1.0,0.19285714285714287,0.7246376811594203,0.4223945660989456,true
730,0.05555555555555555,0.0,0.08333333333333333,0.3333333333333333,0.04409005628517824,0.07568807339449542,0.09055876685934489,0.042316258351893093,0.07327586206896551,0.10052910052910052,0.23809523809523808,0.11208791208791209,0.235202492211838,1.0,0.5738095238095238,0.8695652173913043,0.7771393073458611,true
936,0.07407407407407407,0.14285714285714285,0.041666666666666664,0.3333333333333333,0.08442776735459662,0.09174311926605505,0.13005780346820808,0.044543429844097995,0.05172413793103448,0.07936507936507936,0.2893772893772894,0.12527472527472527,0.2733644859813084,0.719047619047619,0.18928571428571428,0.9710144927536232,0.49833738848337383,true
517,0.1111111111111111,0.14285714285714285,0.125,0.5,0.02345215759849906,0.02522935779816514,0.024084778420038536,0.013363028953229399,0.008620689655172414,0.015873015873015872,0.2271062271062271,0.06593406593406594,0.20638629283489096,1.0,0.2968253968253968,0.5797101449275363,0.8382481751824817,true
388,0.24074074074074073,0.0,0.375,0.8333333333333334,0.19699812382739212,0.15137614678899083,0.09337483325922633,0.2828507795100223,0.1853448275862069,0.15506715506715507,0.3052503052503053,0.18461538461538463,0.22142343637670742,0.719047619047619,0.09065934065934067,0.927536231884058,0.4616266944734097,true
653,0.2037037037037037,0.2857142857142857,0.08333333333333333,0.5,0.055347091932457786,0.05045871559633028,0.03100367840252233,0.1291759465478842,0.10775862068965517,0.0836940836940837,0.20512820512820512,0.05934065934065934,0.19201359388275277,1.0,0.2067099567099567,0.7536231884057971,0.46399851540269693,true
279,0.05555555555555555,0.0,0.08333333333333333,0.5,0.013133208255159476,0.027522935779816515,0.026974951830443163,0.011135857461024499,0.017241379310344827,0.026455026455026457,0.2148962148962149,0.05934065934065934,0.205607476635514,0.27380952380952384,0.09761904761904762,0.6956521739130435,0.2554744525547445,true
309,0.05555555555555555,0.14285714285714285,0.041666666666666664,0.3333333333333333,0.043151969981238276,0.08027522935779817,0.08863198458574181,0.0,0.0,0.0,0.2600732600732601,0.11868131868131868,0.26323987538940813,0.016666666666666666,0.011111111111111112,0.043478260869565216,0.07108854331958107,true
347,0.07407407407407407,0.0,0.08333333333333333,0.5,0.009380863039399626,0.009174311926605505,0.014450867052023121,0.015590200445434299,0.01293103448275862,0.027777777777777776,0.20757020757020758,0.04395604395604396,0.19509345794392524,0.27380952380952384,0.08273809523809524,0.6956521739130435,0.6635036496350365,true
471,0.09259259259259259,0.14285714285714285,0.08333333333333333,0.6666666666666666,0.016885553470919325,0.034403669724770644,0.020809248554913295,0.022271714922048998,0.021551724137931036,0.031746031746031744,0.21367521367521367,0.06373626373626373,0.19906542056074766,0.719047619047619,0.15333333333333335,0.7681159420289855,0.47992700729927,true
712,0.07407407407407407,0.14285714285714285,0.0,0.5,0.05628517823639775,0.11697247706422019,0.08670520231213873,0.0022271714922048997,0.004310344827586207,0.003968253968253968,0.27594627594627597,0.15384615384615385,0.2605140186915888,0.14047619047619048,0.0875,0.15942028985507245,0.2607664233576642,true
477,0.2037037037037037,0.0,0.25,0.5,0.15853658536585366,0.20412844036697247,0.08880714661061481,0.21158129175946547,0.2543103448275862,0.1370851370851371,0.29426129426129427,0.1076923076923077,0.2230246389124894,1.0,0.18528138528138527,0.7101449275362319,0.70327819289077,true
498,0.09259259259259259,0.14285714285714285,0.041666666666666664,0.5,0.18292682926829268,0.21330275229357798,0.2254335260115607,0.21158129175946547,0.40086206896551724,0.30158730158730157,0.326007326007326,0.24615384615384617,0.2850467289719626,0.14047619047619048,0.08476190476190476,0.18840579710144928,0.3330151600224593,true
795,0.018518518518518517,0.0,0.0,0.16666666666666666,0.1303939962476548,0.31880733944954126,0.8034682080924855,0.0,0.0,0.0,0.37362637362637363,0.34725274725274724,0.8411214953271028,0.023809523809523808,0.023809523809523808,0.043478260869565216,0.09854014598540144,true
603,1.0,1.0,1.0,1.0,1.0,0.4793577981651376,0.11410832798116034,0.9220489977728286,0.27155172413793105,0.1216931216931217,1.0,0.3626373626373626,0.24800969193492559,1.0,0.05520282186948854,0.7681159420289855,0.5641288122594869,true
826,0.1111111111111111,0.0,0.125,0.5,0.04784240150093809,0.07568807339449542,0.049132947976878616,0.0378619153674833,0.034482758620689655,0.04497354497354498,0.2454212454212454,0.11428571428571428,0.21806853582554517,0.719047619047619,0.15714285714285714,1.0,0.24738800629740945,true
178,0.05555555555555555,0.0,0.041666666666666664,0.5,0.05347091932457786,0.12155963302752294,0.10982658959537572,0.004454342984409799,0.008620689655172414,0.010582010582010581,0.27106227106227104,0.15824175824175823,0.2772585669781931,0.01904761904761905,0.014285714285714285,0.15942028985507245,0.2705852221795364,true
529,0.07407407407407407,0.14285714285714285,0.0,0.5,0.008442776735459663,0.011467889908256881,0.01300578034682081,0.004454342984409799,0.004310344827586207,0.007936507936507936,0.21245421245421245,0.05274725274725275,0.19976635514018692,1.0,0.3327380952380952,0.7246376811594203,0.1630170316301703,true
592,0.16666666666666666,0.2857142857142857,0.08333333333333333,0.8333333333333334,0.06566604127579738,0.06192660550458716,0.0449582530507386,0.06904231625835189,0.04310344827586207,0.05467372134038801,0.2515262515262515,0.09230769230769231,0.21183800623052962,0.719047619047619,0.11984126984126985,1.0,0.2788842544316996,true
756,0.037037037037037035,0.0,0.0,0.3333333333333333,0.013133208255159476,0.027522935779816515,0.04046242774566474,0.06904231625835189,0.125,0.24603174603174602,0.18315018315018314,0.041758241758241756,0.15186915887850466,0.03333333333333333,0.02023809523809524,1.0,0.19447340980187694,true
125,0.1111111111111111,0.2857142857142857,0.08333333333333333,0.6666666666666666,0.08348968105065666,0.18577981651376146,0.08574181117533719,0.011135857461024499,0.008620689655172414,0.013227513227513229,0.3064713064713065,0.21978021978021978,0.2570093457943925,1.0,0.3138888888888889,0.4927536231884058,0.8324448454031002,true
915,0.24074074074074073,0.42857142857142855,0.16666666666666666,0.6666666666666666,0.10037523452157598,0.06880733944954129,0.0475767007558915,0.1714922048997773,0.09913793103448276,0.09401709401709402,0.24053724053724054,0.07472527472527472,0.202372393961179,1.0,0.1564102564102564,0.7101449275362319,0.6802305750733336,true
173,0.05555555555555555,0.0,0.041666666666666664,0.3333333333333333,0.0028142589118198874,0.0022935779816513763,0.005780346820809248,0.0066815144766146995,0.008620689655172414,0.015873015873015872,0.2039072039072039,0.04395604395604396,0.19158878504672897,1.0,0.6095238095238096,0.5797101449275363,0.3759124087591241,true
330,0.1111111111111111,0.0,0.125,0.6666666666666666,0.01876172607879925,0.013761467889908258,0.01926782273603083,0.0378619153674833,0.034482758620689655,0.04497354497354498,0.20757020757020758,0.05274725274725275,0.1939252336448598,0.719047619047619,0.1507936507936508,1.0,0.20273722627737226,true
317,0.07407407407407407,0.14285714285714285,0.0,0.5,0.010318949343339587,0.011467889908256881,0.015895953757225433,0.0066815144766146995,0.008620689655172414,0.011904761904761904,0.21367521367521367,0.05274725274725275,0.20093457943925233,1.0,0.3327380952380952,0.7681159420289855,0.16887856668878568,true
846,0.018518518518518517,0.0,0.0,0.16666666666666666,9.380863039399625E-4,0.0022935779816513763,0.005780346820809248,0.0022271714922048997,0.004310344827586207,0.015873015873015872,0.2039072039072039,0.041758241758241756,0.19158878504672897,1.0,1.0,0.782608695652174,0.5255474452554745,true
843,0.018518518518518517,0.0,0.0,0.16666666666666666,9.380863039399625E-4,0.0022935779816513763,0.005780346820809248,0.0022271714922048997,0.004310344827586207,0.015873015873015872,0.2039072039072039,0.041758241758241756,0.19158878504672897,1.0,1.0,0.782608695652174,0.5255474452554745,true
491,0.05555555555555555,0.0,0.041666666666666664,0.5,0.04971857410881801,0.10779816513761468,0.1021194605009634,0.0066815144766146995,0.008620689655172414,0.015873015873015872,0.26495726495726496,0.14285714285714285,0.2694704049844237,0.030952380952380953,0.023015873015873014,1.0,0.09124087591240874,true
380,0.07407407407407407,0.14285714285714285,0.0,0.5,0.009380863039399626,0.011467889908256881,0.014450867052023121,0.0066815144766146995,0.008620689655172414,0.011904761904761904,0.21245421245421245,0.05274725274725275,0.19976635514018692,1.0,0.3327380952380952,0.7681159420289855,0.16715328467153284,true
88,0.2037037037037037,0.14285714285714285,0.20833333333333334,0.6666666666666666,0.04596622889305816,0.045871559633027525,0.025748817656332103,0.0645879732739421,0.03017241379310345,0.04184704184704185,0.22832722832722832,0.08351648351648351,0.20008496176720478,1.0,0.1134199134199134,0.7681159420289855,0.6834500223447043,true
60,0.05555555555555555,0.0,0.041666666666666664,0.3333333333333333,0.005628517823639775,0.009174311926605505,0.011560693641618497,0.026726057906458798,0.03017241379310345,0.06349206349206349,0.19658119658119658,0.041758241758241756,0.1822429906542056,1.0,0.5841269841269842,0.8840579710144928,0.3978102189781021,true
849,0.05555555555555555,0.14285714285714285,0.0,0.3333333333333333,0.005628517823639775,0.009174311926605505,0.011560693641618497,0.011135857461024499,0.01293103448275862,0.026455026455026457,0.20512820512820512,0.04395604395604396,0.1931464174454829,1.0,0.3952380952380952,0.7101449275362319,0.7889294403892944,true
464,0.037037037037037035,0.0,0.041666666666666664,0.3333333333333333,0.001876172607879925,0.0022935779816513763,0.005780346820809248,0.004454342984409799,0.004310344827586207,0.015873015873015872,0.2039072039072039,0.041758241758241756,0.19158878504672897,1.0,0.5452380952380952,0.8840579710144928,0.4598540145985401,true
47,0.16666666666666666,0.7142857142857143,0.08333333333333333,0.5,0.03283302063789869,0.03211009174311927,0.0224791265253693,0.0467706013363029,0.05172413793103448,0.03703703703703704,0.221001221001221,0.07032967032967033,0.19885773624091382,1.0,0.22592592592592592,0.5797101449275363,0.7533889468196037,true
191,0.07407407407407407,0.14285714285714285,0.08333333333333333,0.5,0.07317073170731707,0.14908256880733944,0.11271676300578035,0.017817371937639197,0.02586206896551724,0.031746031746031744,0.2893772893772894,0.18461538461538463,0.2733644859813084,0.02619047619047619,0.018452380952380953,0.21739130434782608,0.3905109489051095,true
706,0.018518518518518517,0.14285714285714285,0.0,0.16666666666666666,0.0,0.0,0.0,0.0022271714922048997,0.004310344827586207,0.015873015873015872,0.2026862026862027,0.03956043956043956,0.18691588785046728,0.07857142857142857,0.07857142857142857,1.0,0.0,true
431,0.018518518518518517,0.0,0.0,0.16666666666666666,9.380863039399625E-4,0.0022935779816513763,0.005780346820809248,0.0022271714922048997,0.004310344827586207,0.015873015873015872,0.2039072039072039,0.041758241758241756,0.19158878504672897,1.0,1.0,0.855072463768116,0.5255474452554745,true
579,0.07407407407407407,0.0,0.041666666666666664,0.3333333333333333,0.07317073170731707,0.1559633027522936,0.11271676300578035,0.10244988864142539,0.1724137931034483,0.18253968253968253,0.24297924297924298,0.10329670329670329,0.22897196261682243,1.0,0.28154761904761905,0.7101449275362319,0.21729365524985958,true
863,0.2222222222222222,0.0,0.2916666666666667,0.5,0.24108818011257035,0.26146788990825687,0.12379576107899808,0.2717149220489978,0.21120689655172414,0.16137566137566137,0.36874236874236876,0.18461538461538463,0.2441588785046729,0.719047619047619,0.07103174603174603,0.9855072463768116,0.132835354596836,true
884,0.05555555555555555,0.14285714285714285,0.041666666666666664,0.5,0.1697936210131332,0.3555045871559633,0.348747591522158,0.0556792873051225,0.10344827586206896,0.1322751322751323,0.39438339438339437,0.3824175824175824,0.43457943925233644,0.04523809523809524,0.030158730158730156,0.21739130434782608,0.3993224986893576,true
96,0.09259259259259259,0.14285714285714285,0.0,0.6666666666666666,0.010318949343339587,0.013761467889908258,0.012716763005780347,0.0066815144766146995,0.004310344827586207,0.009523809523809523,0.21367521367521367,0.054945054945054944,0.19906542056074766,1.0,0.2719047619047619,0.7681159420289855,0.2236230922362309,true
302,0.09259259259259259,0.0,0.08333333333333333,0.5,0.009380863039399626,0.009174311926605505,0.011560693641618497,0.008908685968819599,0.004310344827586207,0.012698412698412698,0.21123321123321123,0.04835164835164835,0.197196261682243,1.0,0.3557142857142857,0.7101449275362319,0.34744525547445254,true
41,0.018518518518518517,0.0,0.041666666666666664,0.16666666666666666,9.380863039399625E-4,0.0022935779816513763,0.005780346820809248,0.0022271714922048997,0.004310344827586207,0.015873015873015872,0.2039072039072039,0.041758241758241756,0.19158878504672897,0.09047619047619047,0.09047619047619047,0.9710144927536232,0.3941605839416058,true
504,0.07407407407407407,0.0,0.08333333333333333,0.3333333333333333,0.04127579737335835,0.0389908256880734,0.06358381502890173,0.053452115812917596,0.04310344827586207,0.09523809523809523,0.22832722832722832,0.07032967032967033,0.21495327102803738,0.719047619047619,0.1880952380952381,0.9710144927536232,0.19533842070338417,true
316,0.07407407407407407,0.14285714285714285,0.08333333333333333,0.16666666666666666,0.017823639774859287,0.01834862385321101,0.02745664739884393,0.0467706013363029,0.04741379310344827,0.08333333333333333,0.20146520146520147,0.046153846153846156,0.18925233644859812,0.02142857142857143,0.018452380952380953,0.9855072463768116,0.20687668075297733,true
186,0.037037037037037035,0.0,0.041666666666666664,0.3333333333333333,0.029080675422138838,0.06651376146788991,0.08959537572254335,0.004454342984409799,0.008620689655172414,0.015873015873015872,0.23931623931623933,0.1054945054945055,0.25934579439252337,0.02142857142857143,0.015476190476190477,0.08695652173913043,0.16011302095596888,true
571,0.07407407407407407,0.0,0.08333333333333333,0.5,0.010318949343339587,0.009174311926605505,0.015895953757225433,0.013363028953229399,0.021551724137931036,0.023809523809523808,0.21001221001221002,0.05054945054945055,0.19742990654205608,1.0,0.45476190476190476,0.6956521739130435,0.252156602521566,true
802,0.07407407407407407,0.0,0.08333333333333333,0.3333333333333333,0.016885553470919325,0.022935779816513763,0.02601156069364162,0.015590200445434299,0.017241379310344827,0.027777777777777776,0.21733821733821734,0.06373626373626373,0.2044392523364486,0.719047619047619,0.2517857142857143,0.927536231884058,0.12956204379562045,true
962,0.1111111111111111,0.14285714285714285,0.041666666666666664,0.5,0.20637898686679174,0.44724770642201833,0.2119460500963391,0.028953229398663696,0.04310344827586207,0.03439153439153439,0.45665445665445664,0.4703296703296703,0.352803738317757,0.14047619047619048,0.06785714285714285,0.11594202898550725,0.19165560716655605,true
596,0.05555555555555555,0.0,0.08333333333333333,0.5,0.0075046904315197,0.011467889908256881,0.015414258188824663,0.004454342984409799,0.004310344827586207,0.010582010582010581,0.21123321123321123,0.05054945054945055,0.20093457943925233,1.0,0.35555555555555557,0.7101449275362319,0.739963503649635,true
445,0.07407407407407407,0.0,0.08333333333333333,0.5,0.040337711069418386,0.07339449541284404,0.06213872832369942,0.028953229398663696,0.04310344827586207,0.051587301587301584,0.24053724053724054,0.09010989010989011,0.2266355140186916,0.10952380952380952,0.05357142857142857,0.9710144927536232,0.13597012391784075,true
167,0.16666666666666666,0.2857142857142857,0.08333333333333333,0.5,0.02345215759849906,0.020642201834862386,0.016056518946692355,0.0467706013363029,0.034482758620689655,0.03703703703703704,0.2087912087912088,0.05274725274725275,0.1936656282450675,1.0,0.2357142857142857,0.7101449275362319,0.5416058394160583,true
607,0.37037037037037035,0.5714285714285714,0.25,0.6666666666666666,0.2270168855534709,0.13073394495412843,0.0699421965317919,0.14699331848552338,0.12931034482758622,0.052380952380952375,0.4188034188034188,0.16043956043956045,0.23271028037383176,0.719047619047619,0.05809523809523809,1.0,0.4142034143693069,true
716,0.09259259259259259,0.0,0.125,0.5,0.07223264540337711,0.0779816513761468,0.08901734104046242,0.12249443207126949,0.15948275862068967,0.1746031746031746,0.23076923076923078,0.07472527472527472,0.21214953271028036,0.719047619047619,0.15904761904761905,1.0,0.5626599677694568,true
427,0.037037037037037035,0.0,0.0,0.3333333333333333,0.054409005628517824,0.12155963302752294,0.1676300578034682,0.0,0.0,0.0,0.27472527472527475,0.15824175824175823,0.32710280373831774,0.08571428571428572,0.05,0.07246376811594203,0.13635791593254468,true
356,0.05555555555555555,0.14285714285714285,0.041666666666666664,0.3333333333333333,0.010318949343339587,0.013761467889908258,0.02119460500963391,0.022271714922048998,0.02586206896551724,0.052910052910052914,0.20512820512820512,0.04395604395604396,0.1931464174454829,0.719047619047619,0.25555555555555554,1.0,0.45587259455872586,true
412,0.1111111111111111,0.0,0.0,0.5,0.02345215759849906,0.01834862385321101,0.024084778420038536,0.022271714922048998,0.01293103448275862,0.026455026455026457,0.2222222222222222,0.05714285714285714,0.20327102803738317,1.0,0.18650793650793648,0.782608695652174,0.6147445255474452,true
122,0.16666666666666666,0.7142857142857143,0.08333333333333333,0.5,0.029080675422138838,0.03669724770642202,0.019910083493898525,0.0378619153674833,0.02586206896551724,0.029982363315696647,0.221001221001221,0.06813186813186813,0.19885773624091382,1.0,0.22592592592592592,0.5797101449275363,0.7585354367789028,true
308,0.18518518518518517,0.42857142857142855,0.08333333333333333,1.0,0.039399624765478425,0.03669724770642202,0.024277456647398846,0.031180400890868598,0.021551724137931036,0.02222222222222222,0.23809523809523808,0.06593406593406594,0.20467289719626167,1.0,0.21619047619047618,0.7101449275362319,0.5448383733055265,true
897,0.14814814814814814,0.0,0.16666666666666666,0.5,0.07223264540337711,0.08944954128440367,0.05563583815028902,0.1291759465478842,0.16810344827586207,0.11507936507936507,0.2271062271062271,0.07252747252747253,0.20268691588785046,1.0,0.2357142857142857,0.6231884057971014,0.45184377666129494,true
444,0.12962962962962962,0.0,0.08333333333333333,0.5,0.0600375234521576,0.0481651376146789,0.05284888521882741,0.0378619153674833,0.03879310344827586,0.03854875283446712,0.2612942612942613,0.08351648351648351,0.22296395193591456,1.0,0.26326530612244897,1.0,0.7253079379562042,true
475,0.037037037037037035,0.0,0.041666666666666664,0.3333333333333333,0.04971857410881801,0.0963302752293578,0.1531791907514451,0.024498886414253896,0.04741379310344827,0.0873015873015873,0.25518925518925517,0.13406593406593406,0.2897196261682243,0.04285714285714286,0.02857142857142857,0.11594202898550725,0.20286461919845752,true
4,0.3333333333333333,0.2857142857142857,0.25,0.6666666666666666,0.2270168855534709,0.1444954128440367,0.07771355170199101,0.22048997772828507,0.11637931034482758,0.0873015873015873,0.3785103785103785,0.12527472527472527,0.2287123572170301,1.0,0.11931216931216931,0.927536231884058,0.4460547746878204,true
465,0.09259259259259259,0.2857142857142857,0.041666666666666664,0.8333333333333334,0.020637898686679174,0.01834862385321101,0.025433526011560695,0.0200445434298441,0.02586206896551724,0.02857142857142857,0.21978021978021978,0.054945054945054944,0.20373831775700935,0.12380952380952381,0.04,1.0,0.32614465826144656,true
693,0.09259259259259259,0.0,0.08333333333333333,0.3333333333333333,0.06660412757973734,0.15137614678899083,0.08208092485549133,0.008908685968819599,0.01293103448275862,0.012698412698412698,0.2857142857142857,0.18681318681318682,0.2542056074766355,0.719047619047619,0.20523809523809525,0.5217391304347826,0.9048524724992286,true
132,0.16666666666666666,0.14285714285714285,0.20833333333333334,0.6666666666666666,0.08630393996247655,0.0871559633027523,0.059087989723827866,0.06904231625835189,0.05172413793103448,0.05467372134038801,0.2783882783882784,0.12087912087912088,0.2232606438213915,0.719047619047619,0.10343915343915344,1.0,0.7276658203744844,true
158,0.14814814814814814,0.14285714285714285,0.125,0.8333333333333334,0.04971857410881801,0.04128440366972477,0.03829479768786127,0.05790645879732739,0.03017241379310345,0.051587301587301584,0.23687423687423687,0.07692307692307693,0.20735981308411214,0.719047619047619,0.11071428571428571,1.0,0.5693430656934306,true
362,0.14814814814814814,0.14285714285714285,0.08333333333333333,0.6666666666666666,0.22420262664165103,0.286697247706422,0.1726878612716763,0.1759465478841871,0.1896551724137931,0.15674603174603174,0.3992673992673993,0.31648351648351647,0.2850467289719626,0.719047619047619,0.13660714285714284,0.5072463768115942,0.7852976208655285,true
720,0.09259259259259259,0.0,0.08333333333333333,0.5,0.10131332082551595,0.2018348623853211,0.12485549132947978,0.08463251670378619,0.09913793103448276,0.12063492063492062,0.2893772893772894,0.18461538461538463,0.2570093457943925,0.04047619047619048,0.01,1.0,0.1079007839956745,true
650,0.05555555555555555,0.0,0.125,0.3333333333333333,0.0028142589118198874,0.0045871559633027525,0.005780346820809248,0.0066815144766146995,0.004310344827586207,0.015873015873015872,0.2039072039072039,0.04395604395604396,0.19158878504672897,0.719047619047619,0.26666666666666666,1.0,0.043795620437956206,true
36,0.18518518518518517,0.0,0.16666666666666666,0.5,0.0647279549718574,0.045871559633027525,0.039884393063583816,0.11804008908685969,0.07327586206896551,0.08412698412698412,0.22344322344322345,0.07472527472527472,0.19906542056074766,0.719047619047619,0.08595238095238096,1.0,0.4705913466624352,true
33,0.07407407407407407,0.0,0.08333333333333333,0.5,0.029080675422138838,0.045871559633027525,0.044797687861271675,0.031180400890868598,0.04310344827586207,0.05555555555555555,0.22466422466422467,0.08571428571428572,0.21144859813084113,1.0,0.45595238095238094,0.782608695652174,0.7442900871203202,true
114,0.1111111111111111,0.0,0.16666666666666666,0.8333333333333334,0.02626641651031895,0.0389908256880734,0.026974951830443163,0.11581291759465479,0.1724137931034483,0.13756613756613756,0.1746031746031746,0.041758241758241756,0.17289719626168223,0.719047619047619,0.12738095238095237,1.0,0.7771115745568299,true
291,0.018518518518518517,0.0,0.0,0.16666666666666666,9.380863039399625E-4,0.0022935779816513763,0.005780346820809248,0.0022271714922048997,0.004310344827586207,0.015873015873015872,0.2039072039072039,0.041758241758241756,0.19158878504672897,1.0,1.0,0.7681159420289855,0.5255474452554745,true
142,0.07407407407407407,0.0,0.125,0.5,0.010318949343339587,0.01834862385321101,0.015895953757225433,0.011135857461024499,0.01293103448275862,0.01984126984126984,0.21123321123321123,0.05934065934065934,0.1985981308411215,0.719047619047619,0.2148809523809524,1.0,0.15527538155275383,true
161,0.1111111111111111,0.2857142857142857,0.041666666666666664,0.5,0.17917448405253283,0.20871559633027523,0.1840077071290944,0.20935412026726058,0.3922413793103448,0.24867724867724866,0.32234432234432236,0.24175824175824176,0.26713395638629284,0.14047619047619048,0.08373015873015872,0.18840579710144928,0.33280467764741845,true
524,0.09259259259259259,0.0,0.08333333333333333,0.5,0.025328330206378986,0.045871559633027525,0.031213872832369944,0.031180400890868598,0.017241379310344827,0.04444444444444444,0.21978021978021978,0.07692307692307693,0.20373831775700935,1.0,0.37666666666666665,0.6666666666666666,0.13625304136253039,true
192,0.037037037037037035,0.0,0.041666666666666664,0.16666666666666666,0.004690431519699813,0.009174311926605505,0.014450867052023121,0.011135857461024499,0.017241379310344827,0.03968253968253968,0.2039072039072039,0.041758241758241756,0.19158878504672897,1.0,0.8595238095238096,0.927536231884058,0.437956204379562,true
51,0.09259259259259259,0.14285714285714285,0.041666666666666664,0.6666666666666666,0.006566604127579738,0.006880733944954129,0.008092485549132947,0.0200445434298441,0.021551724137931036,0.02857142857142857,0.20146520146520147,0.041758241758241756,0.1897196261682243,1.0,0.3557142857142857,0.7536231884057971,0.4681960375391032,true
71,0.2037037037037037,0.2857142857142857,0.16666666666666666,0.8333333333333334,0.15572232645403378,0.08944954128440367,0.08723068838675775,0.044543429844097995,0.021551724137931036,0.02886002886002886,0.38217338217338215,0.12087912087912088,0.2536108751062022,0.719047619047619,0.07597402597402597,1.0,0.5358807492744702,true
324,0.18518518518518517,0.2857142857142857,0.16666666666666666,0.8333333333333334,0.14821763602251406,0.16972477064220184,0.09132947976878614,0.7238307349665924,1.0,0.5158730158730159,0.0,0.12527472527472527,0.11355140186915888,0.719047619047619,0.10595238095238095,0.8985507246376812,0.5817241060704056,true
664,0.018518518518518517,0.0,0.0,0.16666666666666666,9.380863039399625E-4,0.0022935779816513763,0.005780346820809248,0.0022271714922048997,0.004310344827586207,0.015873015873015872,0.2039072039072039,0.041758241758241756,0.19158878504672897,1.0,1.0,1.0,0.5255474452554745,true
791,0.16666666666666666,0.14285714285714285,0.16666666666666666,0.6666666666666666,0.18105065666041276,0.28211009174311924,0.12395632626846499,0.24498886414253898,0.19827586206896552,0.19400352733686066,0.3052503052503053,0.3120879120879121,0.23468328141225336,0.719047619047619,0.10502645502645504,0.9710144927536232,0.6851102454521385,true
581,0.1111111111111111,0.14285714285714285,0.08333333333333333,0.3333333333333333,0.038461538461538464,0.06192660550458716,0.0394990366088632,0.08685968819599109,0.1206896551724138,0.10317460317460317,0.20634920634920634,0.06153846153846154,0.1931464174454829,0.719047619047619,0.15674603174603174,0.9710144927536232,0.31208830336478544,true
86,0.09259259259259259,0.0,0.08333333333333333,0.5,0.14165103189493433,0.25688073394495414,0.1745664739884393,0.026726057906458798,0.03879310344827586,0.03809523809523809,0.37362637362637363,0.2879120879120879,0.3214953271028037,0.06428571428571428,0.03952380952380953,0.21739130434782608,0.37866776236283656,true
825,0.05555555555555555,0.0,0.041666666666666664,0.16666666666666666,0.3273921200750469,0.7339449541284404,0.6724470134874759,0.013363028953229399,0.02586206896551724,0.031746031746031744,0.6227106227106227,0.7450549450549451,0.7258566978193145,0.030952380952380953,0.012698412698412698,0.08695652173913043,0.14578671072720806,true
213,0.09259259259259259,0.0,0.16666666666666666,0.5,0.03377110694183865,0.05733944954128441,0.04161849710982659,0.013363028953229399,0.01293103448275862,0.019047619047619046,0.24053724053724054,0.0945054945054945,0.21962616822429906,0.04285714285714286,0.032857142857142856,1.0,0.2989659367396593,true
924,0.05555555555555555,0.0,0.0,0.3333333333333333,0.06566604127579738,0.15137614678899083,0.1348747591522158,0.0066815144766146995,0.008620689655172414,0.015873015873015872,0.2857142857142857,0.18681318681318682,0.29595015576323985,0.03333333333333333,0.023015873015873014,0.21739130434782608,0.39322210636079247,true
553,0.05555555555555555,0.0,0.08333333333333333,0.5,0.0075046904315197,0.013761467889908258,0.015414258188824663,0.004454342984409799,0.004310344827586207,0.010582010582010581,0.21123321123321123,0.05274725274725275,0.20093457943925233,0.27380952380952384,0.09761904761904762,0.6956521739130435,0.30474452554744524,true
8,0.07407407407407407,0.0,0.125,0.3333333333333333,0.1848030018761726,0.21330275229357798,0.2846820809248555,0.21380846325167038,0.40086206896551724,0.38095238095238093,0.32722832722832723,0.22857142857142856,0.30957943925233644,0.06428571428571428,0.025,0.2028985507246377,0.3473266886509318,true
838,0.018518518518518517,0.14285714285714285,0.0,0.16666666666666666,0.0150093808630394,0.03669724770642202,0.09248554913294797,0.031180400890868598,0.0603448275862069,0.2222222222222222,0.20634920634920634,0.046153846153846156,0.20093457943925233,0.04285714285714286,0.04285714285714286,0.6231884057971014,0.551094890510949,false
13,0.2777777777777778,0.2857142857142857,0.25,0.5,0.1397748592870544,0.0963302752293578,0.05741811175337187,0.34075723830734966,0.16379310344827586,0.16190476190476188,0.199023199023199,0.09010989010989011,0.19034267912772587,0.719047619047619,0.09031746031746031,0.6956521739130435,0.4263949443981777,false
299,0.09259259259259259,0.14285714285714285,0.0,0.3333333333333333,0.12288930581613508,0.25229357798165136,0.15144508670520232,0.0334075723830735,0.04741379310344827,0.047619047619047616,0.34554334554334554,0.2835164835164835,0.3,0.12380952380952381,0.05238095238095238,0.18840579710144928,0.32999944280381116,false
549,0.05555555555555555,0.0,0.0,0.16666666666666666,0.012195121951219513,0.016055045871559634,0.025048169556840076,0.0801781737193764,0.12931034482758622,0.19047619047619047,0.17582417582417584,0.041758241758241756,0.15576323987538943,0.27380952380952384,0.09761904761904762,0.6376811594202898,0.5364963503649635,false
177,0.18518518518518517,0.14285714285714285,0.16666666666666666,0.5,0.1397748592870544,0.1743119266055046,0.0861271676300578,0.10244988864142539,0.09913793103448276,0.073015873015873,0.32967032967032966,0.2087912087912088,0.2397196261682243,0.27380952380952384,0.06,0.2608695652173913,0.4030519766815265,false
149,0.037037037037037035,0.0,0.041666666666666664,0.16666666666666666,0.004690431519699813,0.009174311926605505,0.014450867052023121,0.013363028953229399,0.021551724137931036,0.047619047619047616,0.2026862026862027,0.041758241758241756,0.18925233644859812,1.0,0.5392857142857143,0.6811594202898551,0.43211678832116784,false
288,0.037037037037037035,0.0,0.0,0.3333333333333333,0.036585365853658534,0.0871559633027523,0.11271676300578035,0.0022271714922048997,0.004310344827586207,0.007936507936507936,0.2503052503052503,0.12527472527472527,0.2803738317757009,1.0,0.530952380952381,0.5507246376811594,0.9807224405764551,false
94,0.07407407407407407,0.0,0.08333333333333333,0.3333333333333333,0.006566604127579738,0.006880733944954129,0.010115606936416185,0.011135857461024499,0.017241379310344827,0.01984126984126984,0.20634920634920634,0.046153846153846156,0.1939252336448598,1.0,0.4666666666666667,0.6811594202898551,0.33628779979144946,false
855,0.018518518518518517,0.0,0.0,0.16666666666666666,9.380863039399625E-4,0.0022935779816513763,0.005780346820809248,0.0022271714922048997,0.004310344827586207,0.015873015873015872,0.2039072039072039,0.041758241758241756,0.19158878504672897,1.0,1.0,0.782608695652174,0.5255474452554745,false
934,0.018518518518518517,0.0,0.0,0.16666666666666666,9.380863039399625E-4,0.0022935779816513763,0.005780346820809248,0.0022271714922048997,0.004310344827586207,0.015873015873015872,0.2039072039072039,0.041758241758241756,0.19158878504672897,1.0,1.0,0.7101449275362319,0.5255474452554745,false
761,0.018518518518518517,0.0,0.0,0.16666666666666666,0.04221388367729831,0.10321100917431193,0.26011560693641617,0.0,0.0,0.0,0.2588522588522589,0.14065934065934066,0.40186915887850466,0.016666666666666666,0.016666666666666666,0.2608695652173913,0.46350364963503643,false
214,0.07407407407407407,0.0,0.08333333333333333,0.5,0.027204502814258912,0.05733944954128441,0.04190751445086705,0.0066815144766146995,0.008620689655172414,0.011904761904761904,0.23565323565323565,0.0967032967032967,0.2219626168224299,1.0,0.46904761904761905,0.5217391304347826,0.8538887490561289,false
550,0.05555555555555555,0.0,0.0,0.16666666666666666,0.05065666041275797,0.11926605504587157,0.10404624277456648,0.004454342984409799,0.004310344827586207,0.010582010582010581,0.2673992673992674,0.15604395604395604,0.27258566978193144,0.04047619047619048,0.03650793650793651,0.18840579710144928,0.3373884833738848,false
247,0.037037037037037035,0.0,0.041666666666666664,0.16666666666666666,0.0028142589118198874,0.0045871559633027525,0.008670520231213872,0.011135857461024499,0.017241379310344827,0.03968253968253968,0.20146520146520147,0.041758241758241756,0.18691588785046728,1.0,0.8595238095238096,0.6956521739130435,0.45255474452554734,false
521,0.018518518518518517,0.0,0.0,0.16666666666666666,0.0028142589118198874,0.006880733944954129,0.017341040462427744,0.0066815144766146995,0.01293103448275862,0.047619047619047616,0.2039072039072039,0.041758241758241756,0.19158878504672897,0.27380952380952384,0.27380952380952384,0.8260869565217391,0.4160583941605839,false
85,0.018518518518518517,0.0,0.0,0.16666666666666666,9.380863039399625E-4,0.0022935779816513763,0.005780346820809248,0.0022271714922048997,0.004310344827586207,0.015873015873015872,0.2039072039072039,0.041758241758241756,0.19158878504672897,1.0,1.0,1.0,0.5255474452554745,false
911,0.0,0.0,0.0,0.0,0.0,0.0,0.0,0.0,0.0,0.0,0.2039072039072039,0.041758241758241756,0.19158878504672897,0.0,0.0,0.8260869565217391,0.0,false
699,0.018518518518518517,0.0,0.0,0.16666666666666666,9.380863039399625E-4,0.0022935779816513763,0.005780346820809248,0.0022271714922048997,0.004310344827586207,0.015873015873015872,0.2039072039072039,0.041758241758241756,0.19158878504672897,1.0,1.0,0.8985507246376812,0.5255474452554745,false
541,0.12962962962962962,0.0,0.08333333333333333,0.5,0.1022514071294559,0.11467889908256881,0.09000825763831544,0.111358574610245,0.09482758620689655,0.11337868480725624,0.27594627594627597,0.10329670329670329,0.23097463284379174,0.27380952380952384,0.06394557823129252,1.0,0.4926672470367642,false
368,0.05555555555555555,0.14285714285714285,0.125,0.3333333333333333,0.10131332082551595,0.11697247706422019,0.20809248554913296,0.12694877505567928,0.21982758620689655,0.30158730158730157,0.2661782661782662,0.14945054945054945,0.27102803738317754,0.08333333333333333,0.05634920634920635,0.2318840579710145,0.3779399837793998,false
704,0.037037037037037035,0.0,0.0,0.3333333333333333,0.004690431519699813,0.009174311926605505,0.014450867052023121,0.0022271714922048997,0.004310344827586207,0.007936507936507936,0.2087912087912088,0.05054945054945055,0.20093457943925233,1.0,0.5154761904761904,0.927536231884058,0.145985401459854,false
131,0.0,0.0,0.0,0.0,0.0,0.0,0.0,0.0,0.0,0.0,0.2039072039072039,0.041758241758241756,0.19158878504672897,0.0,0.0,0.6231884057971014,0.0,false
537,0.018518518518518517,0.0,0.041666666666666664,0.16666666666666666,0.0150093808630394,0.03669724770642202,0.09248554913294797,0.042316258351893093,0.08189655172413793,0.30158730158730157,0.20024420024420025,0.035164835164835165,0.17757009345794392,0.719047619047619,0.719047619047619,0.6521739130434783,0.4160583941605839,false
865,0.037037037037037035,0.0,0.0,0.16666666666666666,0.001876172607879925,0.0022935779816513763,0.005780346820809248,0.0066815144766146995,0.008620689655172414,0.023809523809523808,0.2026862026862027,0.041758241758241756,0.18925233644859812,1.0,0.6369047619047619,0.6811594202898551,0.47080291970802923,false
488,0.0,0.0,0.0,0.0,0.0,0.0,0.0,0.0,0.0,0.0,0.2039072039072039,0.041758241758241756,0.19158878504672897,0.0,0.0,0.6666666666666666,0.0,false
707,0.018518518518518517,0.0,0.0,0.16666666666666666,9.380863039399625E-4,0.0022935779816513763,0.005780346820809248,0.0022271714922048997,0.004310344827586207,0.015873015873015872,0.2039072039072039,0.041758241758241756,0.19158878504672897,1.0,1.0,0.9130434782608695,0.5255474452554745,false
467,0.0,0.0,0.0,0.0,0.0,0.0,0.0,0.0,0.0,0.0,0.2039072039072039,0.041758241758241756,0.19158878504672897,0.0,0.0,0.6231884057971014,0.0,false
133,0.07407407407407407,0.0,0.08333333333333333,0.3333333333333333,0.0675422138836773,0.10550458715596331,0.10404624277456648,0.04899777282850779,0.05603448275862069,0.0873015873015873,0.26495726495726496,0.14285714285714285,0.25,0.719047619047619,0.20833333333333334,1.0,0.3225871857258718,false
675,0.4444444444444444,0.14285714285714285,0.08333333333333333,0.6666666666666666,0.12288930581613508,0.052752293577981654,0.03155105973025048,0.2561247216035635,0.125,0.07605820105820106,0.22344322344322345,0.06153846153846154,0.19470404984423675,0.11190476190476191,0.024603174603174606,0.6666666666666666,0.48487212347467534,false
864,0.018518518518518517,0.0,0.041666666666666664,0.16666666666666666,0.0,0.0,0.0,0.008908685968819599,0.017241379310344827,0.06349206349206349,0.199023199023199,0.03296703296703297,0.17289719626168223,0.0880952380952381,0.0880952380952381,0.927536231884058,0.0,false
441,0.018518518518518517,0.0,0.0,0.16666666666666666,0.020637898686679174,0.05045871559633028,0.12716763005780346,0.0,0.0,0.0,0.23076923076923078,0.09010989010989011,0.29439252336448596,0.04285714285714286,0.04285714285714286,0.5507246376811594,0.9854014598540145,false
115,0.018518518518518517,0.0,0.041666666666666664,0.16666666666666666,9.380863039399625E-4,0.0022935779816513763,0.005780346820809248,0.0022271714922048997,0.004310344827586207,0.015873015873015872,0.2039072039072039,0.041758241758241756,0.19158878504672897,0.27380952380952384,0.27380952380952384,0.927536231884058,0.5255474452554745,false
43,0.07407407407407407,0.0,0.08333333333333333,0.5,0.04221388367729831,0.09403669724770643,0.06502890173410404,0.12249443207126949,0.21120689655172414,0.21825396825396826,0.1916971916971917,0.041758241758241756,0.17990654205607476,1.0,0.4583333333333333,0.6521739130434783,0.45644768856447687,false
134,0.3148148148148148,0.42857142857142855,0.25,0.5,0.3133208255159475,0.19954128440366972,0.11356681400884054,0.44320712694877507,0.1853448275862069,0.18580765639589167,0.36874236874236876,0.1934065934065934,0.22869708631115995,0.719047619047619,0.07086834733893557,0.6956521739130435,0.2518466716202631,false
577,0.037037037037037035,0.0,0.0,0.3333333333333333,0.0028142589118198874,0.0045871559633027525,0.008670520231213872,0.0022271714922048997,0.004310344827586207,0.007936507936507936,0.20634920634920634,0.046153846153846156,0.19626168224299065,1.0,0.5154761904761904,0.7101449275362319,0.20924574209245744,false
691,0.018518518518518517,0.0,0.0,0.16666666666666666,0.009380863039399626,0.022935779816513763,0.057803468208092484,0.015590200445434299,0.03017241379310345,0.1111111111111111,0.20757020757020758,0.04835164835164835,0.205607476635514,0.27380952380952384,0.27380952380952384,0.9565217391304348,0.4160583941605839,false
383,0.12962962962962962,0.0,0.08333333333333333,0.3333333333333333,0.1622889305816135,0.23394495412844038,0.14285714285714285,0.0556792873051225,0.034482758620689655,0.05668934240362812,0.38461538461538464,0.26593406593406593,0.2903871829105474,0.04285714285714286,0.021768707482993196,0.11594202898550725,0.19146871440023625,false
514,0.07407407407407407,0.0,0.08333333333333333,0.3333333333333333,0.04878048780487805,0.0871559633027523,0.07514450867052024,0.026726057906458798,0.034482758620689655,0.047619047619047616,0.25274725274725274,0.1076923076923077,0.2383177570093458,1.0,0.32142857142857145,0.7536231884057971,0.5084222346996069,false
927,0.037037037037037035,0.0,0.0,0.16666666666666666,0.001876172607879925,0.0022935779816513763,0.005780346820809248,0.008908685968819599,0.01293103448275862,0.031746031746031744,0.20146520146520147,0.041758241758241756,0.18691588785046728,0.35,0.3119047619047619,0.6231884057971014,0.47080291970802923,false
748,0.07407407407407407,0.14285714285714285,0.041666666666666664,0.6666666666666666,0.020637898686679174,0.020642201834862386,0.031791907514450865,0.028953229398663696,0.03017241379310345,0.051587301587301584,0.2148962148962149,0.06153846153846154,0.20210280373831777,0.12380952380952381,0.052976190476190475,0.9710144927536232,0.12906436629064366,false
157,0.09259259259259259,0.14285714285714285,0.041666666666666664,0.5,0.04221388367729831,0.06651376146788991,0.05202312138728324,0.008908685968819599,0.008620689655172414,0.012698412698412698,0.25396825396825395,0.1054945054945055,0.22990654205607478,0.719047619047619,0.22476190476190477,0.463768115942029,0.6382806163828061,false
126,0.037037037037037035,0.0,0.041666666666666664,0.3333333333333333,0.001876172607879925,0.0022935779816513763,0.005780346820809248,0.008908685968819599,0.01293103448275862,0.031746031746031744,0.20146520146520147,0.041758241758241756,0.18691588785046728,1.0,0.5452380952380952,0.6231884057971014,0.4598540145985401,false
727,0.07407407407407407,0.14285714285714285,0.08333333333333333,0.5,0.005628517823639775,0.0045871559633027525,0.008670520231213872,0.008908685968819599,0.008620689655172414,0.015873015873015872,0.20634920634920634,0.046153846153846156,0.1939252336448598,1.0,0.4505952380952381,0.7681159420289855,0.45924574209245744,false
78,0.07407407407407407,0.0,0.0,0.3333333333333333,0.1848030018761726,0.3165137614678899,0.2846820809248555,0.13140311804008908,0.09051724137931035,0.23412698412698413,0.3724053724053724,0.34505494505494505,0.352803738317757,0.27380952380952384,0.07916666666666666,0.463768115942029,0.7604023861573233,false
955,0.018518518518518517,0.0,0.0,0.16666666666666666,0.005628517823639775,0.013761467889908258,0.03468208092485549,0.0066815144766146995,0.01293103448275862,0.047619047619047616,0.20757020757020758,0.04835164835164835,0.205607476635514,0.002380952380952381,0.002380952380952381,0.855072463768116,0.22627737226277372,false
473,0.1111111111111111,0.0,0.08333333333333333,0.6666666666666666,0.1200750469043152,0.17889908256880735,0.1233140655105973,0.1291759465478842,0.125,0.15343915343915343,0.2893772893772894,0.14945054945054945,0.24610591900311526,1.0,0.21944444444444444,0.7971014492753623,0.4532960766423357,false
110,0.0,0.0,0.0,0.0,0.0,0.0,0.0,0.0,0.0,0.0,0.2039072039072039,0.041758241758241756,0.19158878504672897,0.0,0.0,0.9710144927536232,0.0,false
66,0.09259259259259259,0.14285714285714285,0.08333333333333333,0.5,0.1397748592870544,0.24541284403669725,0.1722543352601156,0.08240534521158129,0.11637931034482758,0.11746031746031746,0.34065934065934067,0.27692307692307694,0.29626168224299065,1.0,0.35,0.4782608695652174,0.8311615147210111,false
67,0.07407407407407407,0.14285714285714285,0.041666666666666664,0.16666666666666666,0.08630393996247655,0.18577981651376146,0.1329479768786127,0.0200445434298441,0.03017241379310345,0.03571428571428571,0.3052503052503053,0.21978021978021978,0.2885514018691589,0.11190476190476191,0.05714285714285714,0.30434782608695654,0.5453824182799112,false
629,0.05555555555555555,0.0,0.08333333333333333,0.5,0.008442776735459663,0.013761467889908258,0.017341040462427744,0.008908685968819599,0.008620689655172414,0.021164021164021163,0.21001221001221002,0.05274725274725275,0.19937694704049844,0.27380952380952384,0.10793650793650794,1.0,0.8029197080291971,false
99,0.07407407407407407,0.14285714285714285,0.041666666666666664,0.5,0.012195121951219513,0.022935779816513763,0.01878612716763006,0.011135857461024499,0.008620689655172414,0.01984126984126984,0.21367521367521367,0.06153846153846154,0.20093457943925233,1.0,0.2714285714285714,0.927536231884058,0.38208871420550244,false
739,0.018518518518518517,0.0,0.0,0.16666666666666666,9.380863039399625E-4,0.0022935779816513763,0.005780346820809248,0.0022271714922048997,0.004310344827586207,0.015873015873015872,0.2039072039072039,0.041758241758241756,0.19158878504672897,1.0,1.0,0.8695652173913043,0.5255474452554745,false
741,0.018518518518518517,0.0,0.0,0.16666666666666666,0.004690431519699813,0.011467889908256881,0.028901734104046242,0.0022271714922048997,0.004310344827586207,0.015873015873015872,0.2087912087912088,0.05054945054945055,0.2102803738317757,0.011904761904761904,0.011904761904761904,0.6666666666666666,0.4306569343065693,false
237,0.037037037037037035,0.0,0.0,0.3333333333333333,0.0028142589118198874,0.0045871559633027525,0.008670520231213872,0.0022271714922048997,0.004310344827586207,0.007936507936507936,0.20634920634920634,0.046153846153846156,0.19626168224299065,1.0,0.5154761904761904,0.7101449275362319,0.20924574209245744,false
829,0.05555555555555555,0.0,0.08333333333333333,0.3333333333333333,0.06378986866791744,0.12614678899082568,0.13102119460500963,0.028953229398663696,0.05172413793103448,0.06878306878306878,0.27106227106227104,0.16263736263736264,0.2772585669781931,1.0,0.37142857142857144,0.5072463768115942,0.8030807213396307,false
692,0.018518518518518517,0.0,0.0,0.16666666666666666,9.380863039399625E-4,0.0022935779816513763,0.005780346820809248,0.0022271714922048997,0.004310344827586207,0.015873015873015872,0.2039072039072039,0.041758241758241756,0.19158878504672897,1.0,1.0,0.855072463768116,0.5255474452554745,false
270,0.1111111111111111,0.2857142857142857,0.041666666666666664,0.5,0.02626641651031895,0.020642201834862386,0.026974951830443163,0.12026726057906459,0.125,0.14285714285714285,0.17216117216117216,0.046153846153846156,0.17133956386292834,0.719047619047619,0.19007936507936507,0.6811594202898551,0.4447340980187695,false
953,0.05555555555555555,0.0,0.041666666666666664,0.3333333333333333,0.0150093808630394,0.01834862385321101,0.030828516377649325,0.026726057906458798,0.04741379310344827,0.06349206349206349,0.2087912087912088,0.05934065934065934,0.19781931464174457,1.0,0.426984126984127,0.5797101449275363,0.7239963503649633,false
717,0.05555555555555555,0.14285714285714285,0.041666666666666664,0.3333333333333333,0.0825515947467167,0.10091743119266056,0.16955684007707128,0.09799554565701558,0.1896551724137931,0.2328042328042328,0.2576312576312576,0.12967032967032968,0.2601246105919003,0.03333333333333333,0.025396825396825397,0.13043478260869565,0.196914399469144,false
332,0.1111111111111111,0.14285714285714285,0.041666666666666664,0.5,0.01125703564727955,0.011467889908256881,0.011560693641618497,0.015590200445434299,0.017241379310344827,0.01851851851851852,0.21001221001221002,0.05274725274725275,0.19548286604361373,1.0,0.3464285714285714,0.7246376811594203,0.27524330900243305,false
495,0.05555555555555555,0.0,0.041666666666666664,0.5,0.0225140712945591,0.04357798165137615,0.046242774566473986,0.008908685968819599,0.008620689655172414,0.021164021164021163,0.22832722832722832,0.08351648351648351,0.22274143302180685,0.11190476190476191,0.05238095238095238,0.5797101449275363,0.9552919708029197,false
428,0.1111111111111111,0.14285714285714285,0.041666666666666664,0.5,0.2870544090056285,0.3463302752293578,0.2947976878612717,0.028953229398663696,0.02586206896551724,0.03439153439153439,0.5616605616605617,0.37362637362637363,0.4197819314641745,1.0,0.1876984126984127,0.3188405797101449,0.4876795000238538,false
375,0.037037037037037035,0.0,0.0,0.3333333333333333,0.00375234521575985,0.006880733944954129,0.011560693641618497,0.0022271714922048997,0.004310344827586207,0.007936507936507936,0.20757020757020758,0.04835164835164835,0.1985981308411215,1.0,0.5023809523809524,0.7101449275362319,0.43248175182481746,false
249,0.07407407407407407,0.14285714285714285,0.0,0.3333333333333333,0.010318949343339587,0.013761467889908258,0.015895953757225433,0.013363028953229399,0.01293103448275862,0.023809523809523808,0.21001221001221002,0.04835164835164835,0.19742990654205608,0.03333333333333333,0.024404761904761905,0.9565217391304348,0.6443264764432647,false
123,0.1111111111111111,0.0,0.0,0.6666666666666666,0.09568480300187618,0.16972477064220184,0.09826589595375723,0.0757238307349666,0.07758620689655173,0.08994708994708996,0.2869352869352869,0.189010989010989,0.24454828660436137,0.06666666666666667,0.03888888888888889,0.5942028985507246,0.889795334192071,false
733,0.2037037037037037,0.14285714285714285,0.08333333333333333,0.6666666666666666,0.12851782363977485,0.231651376146789,0.0719915922228061,0.06904231625835189,0.04310344827586207,0.044733044733044736,0.3333333333333333,0.24175824175824176,0.23661852166525066,0.27380952380952384,0.0538961038961039,0.9855072463768116,0.8315573552133838,false
73,0.05555555555555555,0.0,0.0,0.3333333333333333,0.0028142589118198874,0.0022935779816513763,0.005780346820809248,0.0066815144766146995,0.004310344827586207,0.015873015873015872,0.2039072039072039,0.041758241758241756,0.19158878504672897,1.0,0.38095238095238093,0.8840579710144928,0.3029197080291971,false
415,0.037037037037037035,0.0,0.0,0.3333333333333333,0.001876172607879925,0.0022935779816513763,0.005780346820809248,0.0022271714922048997,0.004310344827586207,0.007936507936507936,0.20512820512820512,0.04395604395604396,0.1939252336448598,1.0,0.5547619047619048,0.9130434782608695,0.35583941605839414,false
547,0.14814814814814814,0.2857142857142857,0.125,0.5,0.150093808630394,0.24541284403669725,0.11560693641618497,0.16703786191536749,0.16810344827586207,0.1488095238095238,0.3076923076923077,0.27692307692307694,0.24123831775700935,0.719047619047619,0.14761904761904762,0.463768115942029,0.6406021897810218,false
876,0.14814814814814814,0.0,0.16666666666666666,0.5,0.11444652908067542,0.14220183486238533,0.08815028901734104,0.053452115812917596,0.03017241379310345,0.047619047619047616,0.3235653235653236,0.16263736263736264,0.2488317757009346,1.0,0.14136904761904762,0.7246376811594203,0.05576163695105897,false
315,0.07407407407407407,0.0,0.041666666666666664,0.3333333333333333,0.16604127579737335,0.19724770642201836,0.25578034682080925,0.0645879732739421,0.09913793103448276,0.11507936507936507,0.38461538461538464,0.18021978021978022,0.3644859813084112,0.07857142857142857,0.026785714285714284,0.11594202898550725,0.16060456101282522,false
207,0.037037037037037035,0.0,0.0,0.16666666666666666,0.001876172607879925,0.0022935779816513763,0.005780346820809248,0.0066815144766146995,0.008620689655172414,0.023809523809523808,0.2026862026862027,0.041758241758241756,0.18925233644859812,0.35,0.3119047619047619,0.6231884057971014,0.47080291970802923,false
76,0.09259259259259259,0.0,0.16666666666666666,0.3333333333333333,0.04596622889305816,0.09403669724770643,0.05664739884393064,0.062360801781737196,0.06465517241379311,0.08888888888888888,0.22954822954822954,0.0989010989010989,0.21121495327102804,1.0,0.3757142857142857,0.6956521739130435,0.38067927901087445,false
562,0.05555555555555555,0.0,0.041666666666666664,0.5,0.0075046904315197,0.011467889908256881,0.015414258188824663,0.004454342984409799,0.004310344827586207,0.010582010582010581,0.21123321123321123,0.05054945054945055,0.20093457943925233,1.0,0.34365079365079365,0.7246376811594203,0.3873175182481751,false
696,0.1111111111111111,0.0,0.16666666666666666,0.5,0.014071294559099437,0.016055045871559634,0.014450867052023121,0.035634743875278395,0.03017241379310345,0.042328042328042326,0.2026862026862027,0.041758241758241756,0.19080996884735205,1.0,0.319047619047619,0.782608695652174,0.394647201946472,false
408,0.018518518518518517,0.0,0.0,0.16666666666666666,0.0,0.0,0.0,0.004454342984409799,0.008620689655172414,0.031746031746031744,0.20146520146520147,0.03736263736263736,0.1822429906542056,0.002380952380952381,0.002380952380952381,0.9710144927536232,0.0,false
323,0.018518518518518517,0.0,0.0,0.16666666666666666,0.001876172607879925,0.0045871559633027525,0.011560693641618497,0.0,0.0,0.0,0.20634920634920634,0.046153846153846156,0.20093457943925233,0.02619047619047619,0.02619047619047619,0.9855072463768116,0.20072992700729925,false
561,0.018518518518518517,0.0,0.0,0.16666666666666666,9.380863039399625E-4,0.0022935779816513763,0.005780346820809248,0.0022271714922048997,0.004310344827586207,0.015873015873015872,0.2039072039072039,0.041758241758241756,0.19158878504672897,0.35,0.35,0.7101449275362319,0.5255474452554745,false
657,0.05555555555555555,0.0,0.08333333333333333,0.3333333333333333,0.004690431519699813,0.0045871559633027525,0.009633911368015415,0.008908685968819599,0.01293103448275862,0.021164021164021163,0.20512820512820512,0.046153846153846156,0.1931464174454829,0.719047619047619,0.3507936507936508,0.6811594202898551,0.3503649635036496,false
878,0.037037037037037035,0.0,0.041666666666666664,0.16666666666666666,0.0028142589118198874,0.0045871559633027525,0.008670520231213872,0.0066815144766146995,0.008620689655172414,0.023809523809523808,0.2039072039072039,0.041758241758241756,0.19158878504672897,1.0,0.8595238095238096,0.927536231884058,0.45255474452554734,false
886,0.0,0.0,0.0,0.0,0.0,0.0,0.0,0.0,0.0,0.0,0.2039072039072039,0.041758241758241756,0.19158878504672897,0.0,0.0,1.0,0.0,false
899,0.18518518518518517,0.2857142857142857,0.16666666666666666,0.3333333333333333,0.1529080675422139,0.1559633027522936,0.09421965317919076,0.2182628062360802,0.28879310344827586,0.15555555555555556,0.28327228327228327,0.1824175824175824,0.2219626168224299,1.0,0.11547619047619048,0.9130434782608695,0.289731763020017,false
53,0.037037037037037035,0.0,0.0,0.3333333333333333,0.05065666041275797,0.0963302752293578,0.15606936416184972,0.017817371937639197,0.034482758620689655,0.06349206349206349,0.2600732600732601,0.13406593406593406,0.29906542056074764,0.27380952380952384,0.1488095238095238,0.463768115942029,0.7424979724249796,false
648,0.018518518518518517,0.0,0.0,0.16666666666666666,9.380863039399625E-4,0.0022935779816513763,0.005780346820809248,0.0022271714922048997,0.004310344827586207,0.015873015873015872,0.2039072039072039,0.041758241758241756,0.19158878504672897,1.0,1.0,0.855072463768116,0.5255474452554745,false
719,0.018518518518518517,0.0,0.0,0.16666666666666666,9.380863039399625E-4,0.0022935779816513763,0.005780346820809248,0.0022271714922048997,0.004310344827586207,0.015873015873015872,0.2039072039072039,0.041758241758241756,0.19158878504672897,0.35,0.35,0.8695652173913043,0.5255474452554745,false
435,0.018518518518518517,0.0,0.0,0.16666666666666666,9.380863039399625E-4,0.0022935779816513763,0.005780346820809248,0.0,0.0,0.0,0.20512820512820512,0.04395604395604396,0.19626168224299065,0.002380952380952381,0.002380952380952381,0.7101449275362319,0.5875912408759124,false
613,0.05555555555555555,0.0,0.08333333333333333,0.3333333333333333,0.004690431519699813,0.006880733944954129,0.009633911368015415,0.013363028953229399,0.01293103448275862,0.031746031746031744,0.2026862026862027,0.041758241758241756,0.19003115264797507,0.719047619047619,0.342063492063492,0.927536231884058,0.39416058394160575,false
353,0.018518518518518517,0.0,0.0,0.16666666666666666,9.380863039399625E-4,0.0022935779816513763,0.005780346820809248,0.0022271714922048997,0.004310344827586207,0.015873015873015872,0.2039072039072039,0.041758241758241756,0.19158878504672897,1.0,1.0,0.7681159420289855,0.5255474452554745,false
318,0.037037037037037035,0.0,0.0,0.16666666666666666,0.004690431519699813,0.009174311926605505,0.014450867052023121,0.015590200445434299,0.02586206896551724,0.05555555555555555,0.20146520146520147,0.041758241758241756,0.18691588785046728,1.0,0.6369047619047619,0.6811594202898551,0.437956204379562,false
310,0.07407407407407407,0.14285714285714285,0.0,0.3333333333333333,0.016885553470919325,0.020642201834862386,0.02601156069364162,0.028953229398663696,0.03879310344827586,0.051587301587301584,0.21001221001221002,0.06153846153846154,0.19742990654205608,0.27380952380952384,0.10416666666666667,0.6376811594202898,0.48783454987834546,false
939,0.037037037037037035,0.14285714285714285,0.041666666666666664,0.3333333333333333,0.001876172607879925,0.0045871559633027525,0.005780346820809248,0.004454342984409799,0.004310344827586207,0.015873015873015872,0.2039072039072039,0.04395604395604396,0.19158878504672897,0.07857142857142857,0.05952380952380952,1.0,0.04744525547445255,false
724,0.018518518518518517,0.0,0.041666666666666664,0.16666666666666666,0.04127579737335835,0.10091743119266056,0.2543352601156069,0.0,0.0,0.0,0.2576312576312576,0.13846153846153847,0.397196261682243,0.002380952380952381,0.002380952380952381,0.014492753623188406,0.04744525547445256,false
734,0.018518518518518517,0.0,0.0,0.16666666666666666,0.005628517823639775,0.013761467889908258,0.03468208092485549,0.0,0.0,0.0,0.21123321123321123,0.054945054945054944,0.21962616822429906,0.011904761904761904,0.011904761904761904,0.7681159420289855,0.4306569343065693,false
540,0.0,0.0,0.0,0.0,0.0,0.0,0.0,0.0,0.0,0.0,0.2039072039072039,0.041758241758241756,0.19158878504672897,0.0,0.0,0.9130434782608695,0.0,false
189,0.12962962962962962,0.2857142857142857,0.08333333333333333,0.5,0.016885553470919325,0.011467889908256881,0.014863748967795212,0.060133630289532294,0.06465517241379311,0.061224489795918366,0.19291819291819293,0.05274725274725275,0.1855807743658211,1.0,0.2931972789115646,0.7681159420289855,0.49635036496350365,false
145,0.018518518518518517,0.0,0.041666666666666664,0.16666666666666666,9.380863039399625E-4,0.0022935779816513763,0.005780346820809248,0.0022271714922048997,0.004310344827586207,0.015873015873015872,0.2039072039072039,0.041758241758241756,0.19158878504672897,0.27380952380952384,0.27380952380952384,0.7391304347826086,0.5255474452554745,false
551,0.07407407407407407,0.0,0.08333333333333333,0.3333333333333333,0.04878048780487805,0.09862385321100918,0.07514450867052024,0.022271714922048998,0.03017241379310345,0.03968253968253968,0.25518925518925517,0.13626373626373625,0.24065420560747663,1.0,0.28273809523809523,0.5072463768115942,0.8132369455362156,false
538,0.037037037037037035,0.0,0.0,0.3333333333333333,0.009380863039399626,0.01834862385321101,0.028901734104046242,0.013363028953229399,0.017241379310344827,0.047619047619047616,0.2087912087912088,0.05054945054945055,0.20093457943925233,0.06190476190476191,0.04404761904761905,0.9855072463768116,0.46131386861313867,false
230,0.037037037037037035,0.0,0.041666666666666664,0.16666666666666666,0.005628517823639775,0.009174311926605505,0.017341040462427744,0.015590200445434299,0.017241379310344827,0.05555555555555555,0.2026862026862027,0.041758241758241756,0.18925233644859812,0.05,0.041666666666666664,0.6666666666666666,0.19343065693430658,false
457,0.0,0.0,0.0,0.0,0.0,0.0,0.0,0.0,0.0,0.0,0.2039072039072039,0.041758241758241756,0.19158878504672897,0.0,0.0,0.6231884057971014,0.0,false
101,0.018518518518518517,0.0,0.041666666666666664,0.16666666666666666,0.06660412757973734,0.1628440366972477,0.41040462427745666,0.0,0.0,0.0,0.2905982905982906,0.1978021978021978,0.5233644859813084,0.011904761904761904,0.011904761904761904,0.15942028985507245,0.30291970802919704,false
683,0.05555555555555555,0.0,0.0,0.3333333333333333,0.008442776735459663,0.011467889908256881,0.017341040462427744,0.008908685968819599,0.01293103448275862,0.021164021164021163,0.21001221001221002,0.05274725274725275,0.19937694704049844,0.35,0.14523809523809525,0.5942028985507246,0.678021086780211,false
228,0.037037037037037035,0.14285714285714285,0.041666666666666664,0.16666666666666666,0.03095684803001876,0.06880733944954129,0.0953757225433526,0.08463251670378619,0.13793103448275862,0.30158730158730157,0.1978021978021978,0.03736263736263736,0.17990654205607476,0.719047619047619,0.36666666666666664,0.6956521739130435,0.6051758460517583,false
322,0.037037037037037035,0.0,0.041666666666666664,0.3333333333333333,0.039399624765478425,0.06651376146788991,0.12138728323699421,0.0334075723830735,0.06465517241379311,0.11904761904761904,0.23687423687423687,0.1054945054945055,0.2546728971962617,0.11190476190476191,0.060714285714285714,0.4492753623188406,0.6767466110531802,false
92,0.05555555555555555,0.0,0.041666666666666664,0.3333333333333333,0.004690431519699813,0.006880733944954129,0.009633911368015415,0.011135857461024499,0.017241379310344827,0.026455026455026457,0.2039072039072039,0.04395604395604396,0.19158878504672897,1.0,0.6095238095238096,0.6521739130434783,0.39197080291970804,false
95,0.09259259259259259,0.0,0.125,0.5,0.055347091932457786,0.11238532110091744,0.06820809248554914,0.0200445434298441,0.021551724137931036,0.02857142857142857,0.26495726495726496,0.14945054945054945,0.2383177570093458,1.0,0.36904761904761907,0.4927536231884058,0.8248793764691327,false
916,0.037037037037037035,0.0,0.041666666666666664,0.16666666666666666,0.21669793621013134,0.5206422018348624,0.6676300578034682,0.008908685968819599,0.017241379310344827,0.031746031746031744,0.4810744810744811,0.5406593406593406,0.7219626168224299,0.04047619047619048,0.02976190476190476,0.14492753623188406,0.2736594305937371,false
490,0.037037037037037035,0.0,0.0,0.16666666666666666,0.009380863039399626,0.020642201834862386,0.028901734104046242,0.024498886414253896,0.04310344827586207,0.0873015873015873,0.2026862026862027,0.041758241758241756,0.18925233644859812,0.35,0.3119047619047619,0.5797101449275363,0.42700729927007297,false
898,0.07407407407407407,0.0,0.0,0.3333333333333333,0.054409005628517824,0.11697247706422019,0.0838150289017341,0.015590200445434299,0.017241379310344827,0.027777777777777776,0.2661782661782662,0.15384615384615385,0.25116822429906543,1.0,0.34404761904761905,0.5507246376811594,0.9127233828341302,false
606,0.05555555555555555,0.14285714285714285,0.041666666666666664,0.5,0.020637898686679174,0.022935779816513763,0.04238921001926782,0.0200445434298441,0.021551724137931036,0.047619047619047616,0.21978021978021978,0.05274725274725275,0.21183800623052962,0.12380952380952381,0.050793650793650794,0.8260869565217391,0.41439946914399467,false
661,0.0,0.0,0.0,0.0,0.0,0.0,0.0,0.0,0.0,0.0,0.2039072039072039,0.041758241758241756,0.19158878504672897,0.0,0.0,0.9855072463768116,0.0,false
530,0.05555555555555555,0.14285714285714285,0.041666666666666664,0.3333333333333333,0.014071294559099437,0.01834862385321101,0.028901734104046242,0.004454342984409799,0.004310344827586207,0.010582010582010581,0.21978021978021978,0.05934065934065934,0.21183800623052962,0.12380952380952381,0.06904761904761905,0.9130434782608695,0.3245742092457421,false
750,0.018518518518518517,0.0,0.0,0.16666666666666666,9.380863039399625E-4,0.0022935779816513763,0.005780346820809248,0.0,0.0,0.0,0.20512820512820512,0.04395604395604396,0.19626168224299065,0.03333333333333333,0.03333333333333333,0.9710144927536232,0.19343065693430656,false
895,0.018518518518518517,0.0,0.0,0.16666666666666666,9.380863039399625E-4,0.0022935779816513763,0.005780346820809248,0.0022271714922048997,0.004310344827586207,0.015873015873015872,0.2039072039072039,0.041758241758241756,0.19158878504672897,1.0,1.0,0.9130434782608695,0.5255474452554745,false
339,0.09259259259259259,0.0,0.125,0.5,0.12195121951219512,0.2408256880733945,0.15028901734104047,0.0066815144766146995,0.008620689655172414,0.009523809523809523,0.358974358974359,0.2725274725274725,0.3102803738317757,0.719047619047619,0.16904761904761906,0.2753623188405797,0.48284671532846707,false
400,0.09259259259259259,0.14285714285714285,0.08333333333333333,0.5,0.025328330206378986,0.052752293577981654,0.031213872832369944,0.0334075723830735,0.03879310344827586,0.047619047619047616,0.21855921855921856,0.07252747252747253,0.202803738317757,0.35,0.15904761904761905,0.6666666666666666,0.10259529602595295,false
823,0.14814814814814814,0.42857142857142855,0.125,0.5,0.038461538461538464,0.02522935779816514,0.029624277456647398,0.0757238307349666,0.10775862068965517,0.06746031746031746,0.21245421245421245,0.06153846153846154,0.19567757009345793,0.12380952380952381,0.03422619047619048,0.9130434782608695,0.26758055901726896,false
853,0.037037037037037035,0.14285714285714285,0.0,0.3333333333333333,0.010318949343339587,0.020642201834862386,0.031791907514450865,0.024498886414253896,0.03879310344827586,0.0873015873015873,0.2039072039072039,0.041758241758241756,0.19158878504672897,0.27380952380952384,0.1988095238095238,0.7971014492753623,0.2697412076974121,false
674,0.018518518518518517,0.0,0.0,0.16666666666666666,9.380863039399625E-4,0.0022935779816513763,0.005780346820809248,0.0022271714922048997,0.004310344827586207,0.015873015873015872,0.2039072039072039,0.041758241758241756,0.19158878504672897,1.0,1.0,0.8840579710144928,0.5255474452554745,false
807,0.018518518518518517,0.0,0.0,0.16666666666666666,9.380863039399625E-4,0.0022935779816513763,0.005780346820809248,0.0022271714922048997,0.004310344827586207,0.015873015873015872,0.2039072039072039,0.041758241758241756,0.19158878504672897,0.35,0.35,0.7101449275362319,0.5255474452554745,false
493,0.1111111111111111,0.0,0.08333333333333333,0.5,0.07223264540337711,0.11009174311926606,0.0741811175337187,0.08685968819599109,0.04310344827586207,0.10317460317460317,0.2503052503052503,0.12967032967032968,0.22118380062305298,0.27380952380952384,0.05634920634920635,0.8260869565217391,0.6527632950990615,false
219,0.037037037037037035,0.0,0.041666666666666664,0.16666666666666666,0.004690431519699813,0.009174311926605505,0.014450867052023121,0.013363028953229399,0.021551724137931036,0.047619047619047616,0.2026862026862027,0.041758241758241756,0.18925233644859812,1.0,0.5392857142857143,0.6811594202898551,0.43211678832116784,false
873,0.05555555555555555,0.0,0.041666666666666664,0.3333333333333333,0.14165103189493433,0.3348623853211009,0.29094412331406555,0.0200445434298441,0.034482758620689655,0.047619047619047616,0.3772893772893773,0.3626373626373626,0.412772585669782,1.0,0.36587301587301585,0.3188405797101449,0.5577415768356938,false
294,0.12962962962962962,0.2857142857142857,0.041666666666666664,0.5,0.01594746716697936,0.011467889908256881,0.01403798513625103,0.044543429844097995,0.0603448275862069,0.045351473922902494,0.20024420024420025,0.05274725274725275,0.18958611481975968,1.0,0.2054421768707483,0.7246376811594203,0.5431515671962215,false
139,0.09259259259259259,0.14285714285714285,0.041666666666666664,0.5,0.02626641651031895,0.045871559633027525,0.03236994219653179,0.053452115812917596,0.08620689655172414,0.07619047619047618,0.2087912087912088,0.04835164835164835,0.1953271028037383,0.719047619047619,0.2014285714285714,0.6956521739130435,0.42257559958289875,false
930,0.05555555555555555,0.0,0.0,0.3333333333333333,0.04409005628517824,0.09174311926605505,0.09055876685934489,0.09131403118040089,0.14655172413793102,0.21693121693121692,0.21123321123321123,0.054945054945054944,0.20093457943925233,1.0,0.4325396825396825,0.6376811594202898,0.4653672930579282,false
416,0.037037037037037035,0.0,0.0,0.3333333333333333,0.005628517823639775,0.011467889908256881,0.017341040462427744,0.013363028953229399,0.021551724137931036,0.047619047619047616,0.2039072039072039,0.041758241758241756,0.19158878504672897,1.0,0.5011904761904762,0.855072463768116,0.8144768856447688,false
887,0.018518518518518517,0.0,0.0,0.16666666666666666,0.005628517823639775,0.013761467889908258,0.03468208092485549,0.0,0.0,0.0,0.21123321123321123,0.054945054945054944,0.21962616822429906,0.011904761904761904,0.011904761904761904,0.5797101449275363,0.4306569343065693,false
303,0.07407407407407407,0.14285714285714285,0.041666666666666664,0.3333333333333333,0.029080675422138838,0.05504587155963303,0.044797687861271675,0.028953229398663696,0.034482758620689655,0.051587301587301584,0.2258852258852259,0.07692307692307693,0.21261682242990654,1.0,0.4648809523809524,0.7246376811594203,0.25241346833058625,false
937,0.018518518518518517,0.0,0.0,0.16666666666666666,9.380863039399625E-4,0.0022935779816513763,0.005780346820809248,0.0022271714922048997,0.004310344827586207,0.015873015873015872,0.2039072039072039,0.041758241758241756,0.19158878504672897,1.0,1.0,0.927536231884058,0.5255474452554745,false
217,0.037037037037037035,0.0,0.041666666666666664,0.16666666666666666,0.001876172607879925,0.0022935779816513763,0.005780346820809248,0.0066815144766146995,0.008620689655172414,0.023809523809523808,0.2026862026862027,0.041758241758241756,0.18925233644859812,0.35,0.21428571428571427,0.6231884057971014,0.4671532846715328,false
238,0.037037037037037035,0.0,0.0,0.16666666666666666,0.005628517823639775,0.011467889908256881,0.017341040462427744,0.008908685968819599,0.01293103448275862,0.031746031746031744,0.20634920634920634,0.046153846153846156,0.19626168224299065,0.35,0.3119047619047619,0.6231884057971014,0.43430656934306555,false
79,0.07407407407407407,0.0,0.041666666666666664,0.5,0.0600375234521576,0.12385321100917432,0.09248554913294797,0.0200445434298441,0.017241379310344827,0.03571428571428571,0.27106227106227104,0.16043956043956045,0.2558411214953271,0.05,0.017261904761904763,0.043478260869565216,0.08297217153284671,false
202,0.037037037037037035,0.0,0.041666666666666664,0.16666666666666666,0.07035647279549719,0.1628440366972477,0.21676300578034682,0.0022271714922048997,0.004310344827586207,0.007936507936507936,0.29426129426129427,0.1978021978021978,0.3644859813084112,0.05476190476190476,0.04404761904761905,0.2463768115942029,0.44350364963503647,false
503,0.037037037037037035,0.0,0.041666666666666664,0.16666666666666666,0.0028142589118198874,0.0045871559633027525,0.008670520231213872,0.008908685968819599,0.01293103448275862,0.031746031746031744,0.2026862026862027,0.041758241758241756,0.18925233644859812,0.35,0.21428571428571427,0.5797101449275363,0.44768856447688554,false
798,0.037037037037037035,0.0,0.0,0.3333333333333333,0.0028142589118198874,0.0045871559633027525,0.008670520231213872,0.0022271714922048997,0.004310344827586207,0.007936507936507936,0.20634920634920634,0.046153846153846156,0.19626168224299065,1.0,0.5154761904761904,0.7101449275362319,0.20924574209245744,false
156,0.1111111111111111,0.0,0.041666666666666664,0.5,0.0450281425891182,0.045871559633027525,0.046242774566473986,0.011135857461024499,0.008620689655172414,0.013227513227513229,0.2564102564102564,0.08571428571428572,0.2250778816199377,0.04285714285714286,0.02023809523809524,0.9855072463768116,0.284823600973236,false
627,0.018518518518518517,0.0,0.0,0.16666666666666666,9.380863039399625E-4,0.0022935779816513763,0.005780346820809248,0.0022271714922048997,0.004310344827586207,0.015873015873015872,0.2039072039072039,0.041758241758241756,0.19158878504672897,1.0,1.0,0.8695652173913043,0.5255474452554745,false
422,0.05555555555555555,0.0,0.08333333333333333,0.3333333333333333,0.0075046904315197,0.011467889908256881,0.015414258188824663,0.015590200445434299,0.02586206896551724,0.03703703703703704,0.20512820512820512,0.046153846153846156,0.1931464174454829,0.719047619047619,0.3507936507936508,0.6811594202898551,0.37499999999999994,false
44,0.018518518518518517,0.0,0.0,0.16666666666666666,9.380863039399625E-4,0.0022935779816513763,0.005780346820809248,0.0022271714922048997,0.004310344827586207,0.015873015873015872,0.2039072039072039,0.041758241758241756,0.19158878504672897,1.0,1.0,0.9710144927536232,0.5255474452554745,false
46,0.07407407407407407,0.14285714285714285,0.041666666666666664,0.3333333333333333,0.0150093808630394,0.016055045871559634,0.023121387283236993,0.022271714922048998,0.021551724137931036,0.03968253968253968,0.21123321123321123,0.05054945054945055,0.1985981308411215,1.0,0.4648809523809524,0.6811594202898551,0.29676094890510946,false
868,0.16666666666666666,0.14285714285714285,0.125,0.6666666666666666,0.0900562851782364,0.0779816513761468,0.06165703275529865,0.08685968819599109,0.09482758620689655,0.06878306878306878,0.27350427350427353,0.11648351648351649,0.22118380062305298,1.0,0.12037037037037038,0.9130434782608695,0.5644008515815085,false
586,0.018518518518518517,0.0,0.041666666666666664,0.16666666666666666,9.380863039399625E-4,0.0022935779816513763,0.005780346820809248,0.0022271714922048997,0.004310344827586207,0.015873015873015872,0.2039072039072039,0.041758241758241756,0.19158878504672897,0.27380952380952384,0.27380952380952384,0.9420289855072463,0.5255474452554745,false
449,0.05555555555555555,0.0,0.08333333333333333,0.3333333333333333,0.08348968105065666,0.18577981651376146,0.17148362235067438,0.022271714922048998,0.021551724137931036,0.052910052910052914,0.30036630036630035,0.2087912087912088,0.3146417445482866,1.0,0.36428571428571427,0.7246376811594203,0.4333223980972689,false
808,0.05555555555555555,0.14285714285714285,0.041666666666666664,0.16666666666666666,0.09099437148217636,0.19954128440366972,0.18689788053949905,0.0022271714922048997,0.004310344827586207,0.005291005291005291,0.32112332112332115,0.23296703296703297,0.3411214953271028,0.11190476190476191,0.05634920634920635,0.30434782608695654,0.549063134923621,false
