sid,cDel,oState,func,mDel,stmt,cond,else,label
51,0.11764705882352941,0.0,0.03968253968253968,0.0,0.06691449814126393,0.0,0.0,true
423,0.0,0.0,0.0,0.0,0.0,0.0,0.0,false
650,0.0,0.0,0.015873015873015872,0.0,0.0,0.0,0.0,true
923,0.0,0.03278688524590164,0.007936507936507936,0.025,0.0,0.0,0.0,false
0,0.0,0.0,0.007936507936507936,0.05,0.11895910780669144,0.0,0.0,false
721,0.0,0.13114754098360656,0.09523809523809523,0.05,0.05947955390334572,0.0,0.0,false
594,0.0,0.0,0.0,0.0,0.007434944237918215,0.0,0.0,false
1,0.0,0.0,0.0,0.0,0.0,0.0,0.0,false
178,0.0,0.0,0.0,0.0,0.0037174721189591076,0.0,0.0,true
52,0.17647058823529413,0.03278688524590164,0.023809523809523808,0.025,0.09293680297397769,0.028985507246376812,0.0,false
371,0.0,0.0,0.0,0.0,0.0,0.0,0.0,false
244,0.058823529411764705,0.0,0.0,0.0,0.0037174721189591076,0.0,0.0,false
424,0.11764705882352941,0.0,0.007936507936507936,0.0,0.0037174721189591076,0.0,0.0,false
544,0.0,0.0,0.0,0.0,0.0,0.0,0.0,false
309,0.0,0.2459016393442623,0.19047619047619047,0.125,0.026022304832713755,0.0,0.0,true
924,0.29411764705882354,0.01639344262295082,0.05555555555555555,0.05,0.0037174721189591076,0.0,0.0,true
595,0.23529411764705882,0.19672131147540983,0.12698412698412698,0.225,0.2788104089219331,0.13043478260869565,0.0,false
372,0.11764705882352941,0.03278688524590164,0.0,0.15,0.0,0.0,0.0,false
651,0.0,0.01639344262295082,0.0,0.4,0.055762081784386616,0.0,0.0,true
653,0.0,0.01639344262295082,0.06349206349206349,0.075,0.01858736059479554,0.0,0.0,false
652,0.0,0.0,0.0,0.0,0.0,0.0,0.0,true
373,0.0,0.0,0.0,0.0,0.0,0.0,0.0,false
545,0.0,0.04918032786885246,0.0,0.0,0.0,0.0,0.0,false
425,0.0,0.0,0.0,0.0,0.0,0.0,0.0,false
310,0.0,0.0,0.007936507936507936,0.0,0.0037174721189591076,0.0,0.0,false
311,0.0,0.0,0.0,0.0,0.0037174721189591076,0.0,0.0,false
312,0.058823529411764705,0.03278688524590164,0.007936507936507936,0.05,0.007434944237918215,0.0,0.0,true
790,0.0,0.0,0.0,0.0,0.0,0.0,0.0,false
426,0.0,0.0,0.0,0.0,0.0,0.0,0.0,false
53,0.0,0.0,0.0,0.0,0.0,0.0,0.0,false
313,0.0,0.0,0.0,0.0,0.0,0.0,0.0,false
179,0.0,0.03278688524590164,0.0,0.0,0.0037174721189591076,0.0,0.0,false
54,0.0,0.0,0.0,0.0,0.0,0.0,0.0,true
596,0.0,0.0,0.0,0.0,0.0,0.0,0.0,false
858,0.11764705882352941,0.01639344262295082,0.0,0.125,0.022304832713754646,0.0,0.0,false
792,0.0,0.0,0.0,0.0,0.0,0.0,0.0,false
791,0.0,0.0,0.015873015873015872,0.0,0.0,0.0,0.0,true
654,0.0,0.0,0.0,0.0,0.0,0.0,0.0,false
597,0.0,0.0,0.0,0.0,0.0,0.0,0.0,false
793,0.0,0.0,0.0,0.0,0.0,0.0,0.0,true
655,0.0,0.0,0.0,0.0,0.0,0.0,0.0,false
180,0.0,0.01639344262295082,0.015873015873015872,0.05,0.0,0.0,0.0,false
2,0.0,0.0,0.0,0.0,0.0,0.057971014492753624,0.0,false
484,0.0,0.0,0.0,0.0,0.0,0.0,0.0,true
656,0.0,0.0,0.0,0.0,0.0,0.0,0.0,false
374,0.0,0.0,0.0,0.0,0.0,0.0,0.0,false
314,0.0,0.0,0.0,0.0,0.0037174721189591076,0.0,0.0,false
546,0.0,0.0,0.0,0.0,0.0,0.0,0.0,true
118,0.0,0.0,0.0,0.0,0.0,0.0,0.0,false
598,0.0,0.0,0.0,0.0,0.0,0.0,0.0,false
245,0.0,0.0,0.0,0.0,0.0,0.0,0.0,false
246,0.0,0.0,0.007936507936507936,0.0,0.0,0.0,0.0,false
485,0.0,0.0,0.0,0.0,0.0,0.0,0.0,false
547,0.058823529411764705,0.04918032786885246,0.05555555555555555,0.0,0.03345724907063197,0.0,0.0,false
55,0.0,0.0,0.0,0.0,0.0,0.0,0.0,false
722,0.058823529411764705,0.01639344262295082,0.0,0.05,0.01858736059479554,0.0,0.0,true
723,0.0,0.0,0.0,0.0,0.0,0.0,0.0,false
427,0.0,0.0,0.007936507936507936,0.0,0.0037174721189591076,0.0,0.0,false
859,0.0,0.0,0.0,0.0,0.0,0.0,0.0,false
486,0.4117647058823529,0.04918032786885246,0.05555555555555555,0.0,0.15985130111524162,0.014492753623188406,0.0,false
56,0.0,0.01639344262295082,0.007936507936507936,0.0,0.048327137546468404,0.0,0.07142857142857142,false
925,0.0,0.0,0.0,0.0,0.0,0.0,0.0,false
3,0.058823529411764705,0.04918032786885246,0.015873015873015872,0.0,0.26394052044609667,0.10144927536231885,0.2857142857142857,false
724,0.0,0.0,0.0,0.0,0.0,0.0,0.0,false
725,0.0,0.01639344262295082,0.0,0.05,0.007434944237918215,0.014492753623188406,0.0,true
794,0.0,0.01639344262295082,0.015873015873015872,0.025,0.01486988847583643,0.0,0.0,false
795,0.0,0.19672131147540983,0.15079365079365079,0.0,0.2899628252788104,0.08695652173913043,0.2857142857142857,true
57,0.0,0.0,0.0,0.0,0.0,0.0,0.0,false
375,0.0,0.0,0.0,0.0,0.0,0.0,0.0,false
796,0.0,0.0,0.0,0.0,0.0,0.0,0.0,false
548,0.0,0.0,0.0,0.0,0.0,0.0,0.0,false
58,0.0,0.0,0.0,0.0,0.0,0.0,0.0,false
4,0.0,0.01639344262295082,0.05555555555555555,0.175,0.06319702602230483,0.10144927536231885,0.14285714285714285,true
726,0.0,0.0,0.0,0.0,0.01486988847583643,0.0,0.0,false
797,0.0,0.0,0.0,0.0,0.0,0.0,0.0,false
181,0.0,0.0,0.0,0.0,0.007434944237918215,0.0,0.0,true
315,0.0,0.0,0.0,0.0,0.01858736059479554,0.0,0.0,false
926,0.0,0.0,0.0,0.0,0.007434944237918215,0.0,0.0,true
316,0.11764705882352941,0.0,0.007936507936507936,0.0,0.0,0.0,0.0,true
927,0.0,0.0,0.0,0.0,0.0,0.0,0.0,false
119,0.0,0.0,0.0,0.0,0.0,0.0,0.0,false
487,0.0,0.0,0.0,0.0,0.0037174721189591076,0.0,0.0,false
798,0.0,0.0,0.0,0.0,0.0,0.0,0.0,false
428,0.0,0.0,0.0,0.0,0.0037174721189591076,0.0,0.0,false
599,0.0,0.0,0.0,0.0,0.0,0.0,0.0,false
728,0.0,0.0,0.0,0.0,0.07434944237918216,0.0,0.0,false
549,0.058823529411764705,0.03278688524590164,0.015873015873015872,0.0,0.055762081784386616,0.0,0.0,false
550,0.0,0.0,0.007936507936507936,0.1,0.01858736059479554,0.0,0.0,false
376,0.0,0.0,0.0,0.0,0.0,0.0,0.0,false
488,0.0,0.0,0.0,0.0,0.0,0.0,0.0,false
120,0.0,0.0,0.0,0.0,0.0,0.0,0.0,false
729,0.0,0.0,0.0,0.0,0.01486988847583643,0.0,0.0,false
799,0.0,0.0,0.0,0.0,0.011152416356877323,0.0,0.0,false
800,0.0,0.0,0.0,0.0,0.0,0.0,0.0,true
657,0.0,0.0,0.0,0.0,0.0,0.0,0.0,false
59,0.0,0.0,0.0,0.025,0.03345724907063197,0.0,0.0,false
247,0.0,0.0,0.0,0.0,0.0,0.0,0.0,true
60,0.0,0.0,0.0,0.0,0.0,0.0,0.0,false
801,0.0,0.0,0.0,0.0,0.13011152416356878,0.014492753623188406,0.0,true
377,0.0,0.0,0.0,0.1,0.0,0.0,0.0,false
802,0.0,0.03278688524590164,0.007936507936507936,0.0,0.1449814126394052,0.028985507246376812,0.0,true
803,0.0,0.03278688524590164,0.1349206349206349,0.15,0.01858736059479554,0.0,0.0,false
122,0.0,0.0,0.0,0.0,0.0037174721189591076,0.0,0.0,false
551,0.0,0.0,0.0,0.0,0.0,0.0,0.0,false
730,0.0,0.0,0.023809523809523808,0.0,0.0,0.0,0.0,true
61,0.0,0.0,0.0,0.0,0.0,0.0,0.0,false
123,0.0,0.0,0.0,0.0,0.02973977695167286,0.0,0.0,false
658,0.0,0.0,0.0,0.0,0.0,0.0,0.0,true
62,0.0,0.0,0.0,0.0,0.0,0.0,0.0,true
731,0.0,0.0,0.0,0.0,0.0,0.0,0.0,true
928,0.0,0.0,0.0,0.0,0.0,0.0,0.0,false
860,0.0,0.0,0.0,0.0,0.007434944237918215,0.0,0.0,true
552,0.0,0.01639344262295082,0.007936507936507936,0.0,0.026022304832713755,0.0,0.0,false
317,0.0,0.0,0.007936507936507936,0.0,0.0037174721189591076,0.0,0.0,false
861,0.0,0.0,0.0,0.0,0.0,0.0,0.0,false
929,0.0,0.0,0.0,0.0,0.0,0.0,0.0,false
600,0.0,0.0,0.0,0.0,0.0,0.0,0.0,false
862,0.0,0.0,0.0,0.0,0.0037174721189591076,0.0,0.0,false
732,0.0,0.0,0.0,0.0,0.0,0.0,0.0,false
248,0.0,0.0,0.0,0.0,0.0,0.0,0.0,true
930,0.0,0.0,0.0,0.0,0.03717472118959108,0.0,0.0,false
378,0.0,0.0,0.0,0.0,0.0,0.0,0.0,false
6,0.0,0.0,0.0,0.0,0.0,0.0,0.0,false
318,0.0,0.0,0.0,0.0,0.0,0.0,0.0,false
804,0.0,0.0,0.0,0.0,0.0,0.0,0.0,false
124,0.0,0.03278688524590164,0.05555555555555555,0.1,0.048327137546468404,0.0,0.0,false
125,0.0,0.0,0.007936507936507936,0.0,0.0037174721189591076,0.0,0.0,true
63,0.0,0.0,0.0,0.0,0.0,0.0,0.0,false
182,0.0,0.0,0.0,0.0,0.0,0.0,0.0,false
64,0.0,0.0,0.007936507936507936,0.0,0.0,0.0,0.0,true
7,0.0,0.0,0.0,0.0,0.0,0.0,0.0,true
430,0.0,0.0,0.0,0.0,0.0,0.0,0.0,false
863,0.11764705882352941,0.01639344262295082,0.07142857142857142,0.125,0.2899628252788104,0.014492753623188406,0.21428571428571427,true
319,0.0,0.0,0.0,0.0,0.0,0.0,0.0,false
489,0.0,0.0,0.0,0.0,0.0,0.0,0.0,false
659,0.0,0.0,0.0,0.0,0.0,0.0,0.0,false
660,0.0,0.0,0.007936507936507936,0.0,0.022304832713754646,0.0,0.0,true
126,0.0,0.0,0.0,0.0,0.0,0.0,0.0,true
183,0.0,0.0,0.007936507936507936,0.0,0.0037174721189591076,0.0,0.0,false
65,0.17647058823529413,0.06557377049180328,0.0873015873015873,0.025,0.09665427509293681,0.0,0.0,false
127,0.0,0.0,0.0,0.0,0.0,0.0,0.0,false
553,0.0,0.0,0.0,0.0,0.01858736059479554,0.0,0.0,false
128,0.0,0.03278688524590164,0.0,0.0,0.0,0.0,0.0,false
129,0.0,0.0,0.0,0.0,0.0,0.0,0.0,false
320,1.0,0.0,0.0,0.0,0.0,0.0,0.0,false
379,0.0,0.0,0.0,0.0,0.0,0.0,0.0,false
130,0.23529411764705882,0.09836065573770492,0.15873015873015872,0.075,0.05204460966542751,0.028985507246376812,0.0,false
661,0.0,0.0,0.0,0.0,0.048327137546468404,0.0,0.0,false
931,0.0,0.0,0.047619047619047616,0.0,0.23048327137546468,0.0,0.5714285714285714,false
806,0.0,0.0,0.0,0.0,0.0,0.0,0.0,false
249,0.0,0.06557377049180328,0.0,0.0,0.0,0.0,0.0,false
807,0.0,0.0,0.015873015873015872,0.0,0.0,0.0,0.0,false
250,0.0,0.01639344262295082,0.0,0.025,0.01858736059479554,0.0,0.0,false
733,0.0,0.0,0.015873015873015872,0.0,0.04460966542750929,0.014492753623188406,0.07142857142857142,false
380,0.0,0.01639344262295082,0.023809523809523808,0.0,0.01858736059479554,0.0,0.0,false
381,0.0,0.01639344262295082,0.031746031746031744,0.0,0.07063197026022305,0.0,0.0,false
490,0.0,0.0,0.0,0.0,0.0,0.0,0.0,false
864,0.0,0.0,0.0,0.0,0.0,0.0,0.0,false
808,0.0,0.0,0.0,0.0,0.0,0.0,0.0,false
251,0.058823529411764705,0.0,0.0,0.0,0.0,0.0,0.0,false
184,0.0,0.0,0.0,0.0,0.0,0.0,0.0,false
8,0.058823529411764705,0.0,0.031746031746031744,0.05,0.17843866171003717,0.028985507246376812,0.07142857142857142,true
382,0.0,0.0,0.015873015873015872,0.0,0.0,0.0,0.0,true
601,0.0,0.0,0.007936507936507936,0.0,0.0,0.0,0.0,false
491,0.0,0.0,0.023809523809523808,0.0,0.022304832713754646,0.0,0.0,true
131,0.0,0.0,0.007936507936507936,0.0,0.0,0.0,0.0,false
602,0.0,0.0,0.0,0.0,0.0,0.0,0.0,false
734,0.0,0.0,0.0,0.0,0.0,0.0,0.0,false
185,0.0,0.0,0.015873015873015872,0.0,0.0,0.0,0.0,false
603,0.11764705882352941,0.04918032786885246,0.3333333333333333,1.0,0.43866171003717475,0.0,0.0,true
252,0.0,0.0,0.0,0.0,0.0,0.0,0.0,true
735,0.0,0.0,0.0,0.0,0.0,0.0,0.0,true
186,0.0,0.0,0.0,0.0,0.0,0.0,0.0,true
132,0.0,0.0,0.015873015873015872,0.025,0.055762081784386616,0.0,0.07142857142857142,true
253,0.0,0.04918032786885246,0.09523809523809523,0.15,0.18587360594795538,0.0,0.14285714285714285,false
321,0.0,0.0,0.0,0.0,0.0,0.0,0.0,false
604,0.0,0.0,0.023809523809523808,0.0,0.0,0.0,0.0,false
133,0.0,0.0,0.0,0.0,0.0,0.0,0.0,true
66,0.0,0.0,0.0,0.0,0.0,0.0,0.0,false
492,0.0,0.0,0.0,0.0,0.0,0.0,0.0,false
605,0.0,0.01639344262295082,0.015873015873015872,0.0,0.0037174721189591076,0.0,0.0,false
606,0.0,0.0,0.023809523809523808,0.0,0.026022304832713755,0.014492753623188406,0.0,false
67,0.0,0.0,0.0,0.0,0.0037174721189591076,0.0,0.0,false
662,0.0,0.0,0.0,0.0,0.0,0.0,0.0,true
431,0.0,0.0,0.0,0.125,0.01486988847583643,0.0,0.0,true
187,0.0,0.0,0.0,0.0,0.0,0.0,0.0,false
736,0.0,0.0,0.0,0.0,0.0,0.0,0.0,false
493,0.11764705882352941,0.21311475409836064,0.2777777777777778,0.375,0.7955390334572491,0.2753623188405797,0.42857142857142855,false
932,0.17647058823529413,0.04918032786885246,0.03968253968253968,0.025,0.01486988847583643,0.0,0.0,false
811,0.0,0.01639344262295082,0.0,0.025,0.0,0.0,0.0,true
322,0.0,0.0,0.0,0.0,0.0,0.0,0.0,false
134,0.0,0.0,0.015873015873015872,0.0,0.007434944237918215,0.028985507246376812,0.0,true
188,0.0,0.0,0.0,0.0,0.0,0.0,0.0,true
9,0.058823529411764705,0.0,0.0,0.0,0.007434944237918215,0.0,0.0,false
189,0.058823529411764705,0.06557377049180328,0.11904761904761904,0.0,0.0,0.014492753623188406,0.0,false
254,0.058823529411764705,0.0,0.007936507936507936,0.0,0.07806691449814127,0.0,0.14285714285714285,false
323,0.0,0.0,0.0,0.0,0.0,0.0,0.0,true
190,0.0,0.0,0.0,0.0,0.04460966542750929,0.0,0.0,false
865,0.0,0.0,0.0,0.0,0.0,0.0,0.0,false
663,0.0,0.0,0.0,0.0,0.0,0.0,0.0,false
383,0.0,0.01639344262295082,0.015873015873015872,0.0,0.01486988847583643,0.0,0.0,false
866,0.0,0.01639344262295082,0.015873015873015872,0.0,0.08550185873605948,0.043478260869565216,0.07142857142857142,false
255,0.0,0.0,0.0,0.0,0.0037174721189591076,0.0,0.0,false
812,0.0,0.0,0.031746031746031744,0.0,0.007434944237918215,0.0,0.0,false
10,0.0,0.0,0.0,0.0,0.0,0.0,0.0,false
256,0.0,0.0,0.0,0.0,0.0,0.0,0.0,false
384,0.0,0.0,0.0,0.0,0.0,0.0,0.0,false
432,0.058823529411764705,0.11475409836065574,0.19047619047619047,0.15,0.17472118959107807,0.07246376811594203,0.0,false
68,0.0,0.0,0.007936507936507936,0.025,0.0,0.0,0.0,false
737,0.0,0.0,0.0,0.0,0.0,0.0,0.0,false
933,0.0,0.0,0.0,0.0,0.03717472118959108,0.0,0.0,true
494,0.0,0.0,0.0,0.0,0.0,0.0,0.0,false
738,0.0,0.0,0.0,0.0,0.0,0.0,0.0,false
324,0.0,0.0,0.0,0.0,0.0,0.0,0.0,false
191,0.11764705882352941,0.0,0.023809523809523808,0.0,0.01858736059479554,0.0,0.0,true
385,0.0,0.0,0.0,0.0,0.0,0.0,0.0,true
386,0.0,0.0,0.0,0.0,0.0,0.0,0.0,false
135,0.0,0.0,0.015873015873015872,0.0,0.055762081784386616,0.0,0.0,false
555,0.0,0.0,0.0,0.0,0.0,0.0,0.0,false
739,0.0,0.0,0.0,0.0,0.0,0.0,0.0,false
433,0.0,0.0,0.0,0.0,0.0,0.0,0.0,false
556,0.0,0.0,0.0,0.0,0.0,0.0,0.0,false
867,0.0,0.0,0.0,0.0,0.0,0.0,0.0,false
69,0.058823529411764705,0.01639344262295082,0.023809523809523808,0.0,0.06319702602230483,0.0,0.07142857142857142,false
325,0.0,0.03278688524590164,0.0,0.075,0.011152416356877323,0.0,0.0,false
664,0.11764705882352941,0.01639344262295082,0.023809523809523808,0.125,0.07063197026022305,0.0,0.0,true
740,0.29411764705882354,0.29508196721311475,0.07142857142857142,0.1,0.18587360594795538,0.0,0.14285714285714285,true
387,0.23529411764705882,0.0,0.007936507936507936,0.075,0.0,0.0,0.0,false
813,0.0,0.01639344262295082,0.031746031746031744,0.0,0.026022304832713755,0.028985507246376812,0.0,true
388,0.17647058823529413,0.22950819672131148,0.2619047619047619,0.2,0.6914498141263941,1.0,0.2857142857142857,true
934,0.0,0.0,0.0,0.0,0.0,0.0,0.0,false
607,0.0,0.0,0.14285714285714285,0.0,0.27137546468401486,0.18840579710144928,1.0,true
495,0.0,0.01639344262295082,0.023809523809523808,0.0,0.011152416356877323,0.0,0.0,false
814,0.0,0.0,0.007936507936507936,0.0,0.0,0.0,0.0,false
496,0.0,0.0,0.0,0.05,0.0,0.0,0.0,false
557,0.0,0.0,0.0,0.0,0.0,0.0,0.0,false
434,0.0,0.0,0.0,0.0,0.0,0.0,0.0,false
608,0.0,0.0,0.0,0.0,0.0,0.0,0.0,true
741,0.0,0.0,0.0,0.0,0.0,0.0,0.0,false
257,0.0,0.0,0.0,0.0,0.0,0.0,0.0,false
70,0.0,0.03278688524590164,0.015873015873015872,0.0,0.20074349442379183,0.057971014492753624,0.2857142857142857,false
192,0.0,0.0,0.031746031746031744,0.0,0.07434944237918216,0.0,0.0,true
868,0.0,0.0,0.0,0.0,0.01486988847583643,0.0,0.0,false
609,0.0,0.0,0.0,0.0,0.0,0.0,0.0,false
936,0.11764705882352941,0.01639344262295082,0.10317460317460317,0.1,0.10037174721189591,0.0,0.0,true
665,0.0,0.0,0.0,0.0,0.011152416356877323,0.0,0.0,true
610,0.0,0.0,0.0,0.0,0.0,0.0,0.0,false
71,0.11764705882352941,0.03278688524590164,0.06349206349206349,0.0,0.05204460966542751,0.014492753623188406,0.07142857142857142,true
937,0.11764705882352941,0.0,0.0,0.05,0.0,0.0,0.0,false
869,0.0,0.0,0.0,0.0,0.0,0.0,0.0,false
72,0.0,0.0,0.0,0.0,0.0,0.0,0.0,false
558,0.11764705882352941,0.26229508196721313,0.29365079365079366,0.05,0.040892193308550186,0.014492753623188406,0.14285714285714285,false
193,0.0,0.0,0.0,0.0,0.0,0.0,0.0,false
73,0.0,0.0,0.0,0.0,0.0,0.0,0.0,false
435,0.0,0.0,0.0,0.0,0.011152416356877323,0.0,0.0,true
436,0.0,0.0,0.0,0.0,0.0,0.0,0.0,false
194,0.058823529411764705,0.0,0.03968253968253968,0.0,0.0,0.0,0.0,false
74,0.0,0.0,0.0,0.075,0.01486988847583643,0.0,0.0,false
870,0.0,0.0,0.0,0.0,0.0,0.0,0.0,false
195,0.0,0.0,0.007936507936507936,0.0,0.0,0.0,0.0,true
12,0.0,0.0,0.0,0.0,0.0,0.0,0.0,true
666,0.0,0.0,0.0,0.0,0.0,0.0,0.0,false
497,0.0,0.0,0.0,0.0,0.0,0.0,0.0,false
611,0.0,0.0,0.0,0.0,0.0,0.0,0.0,false
196,0.0,0.0,0.0,0.0,0.0,0.0,0.0,false
326,0.0,0.09836065573770492,0.10317460317460317,0.0,0.31970260223048325,0.043478260869565216,0.07142857142857142,false
559,0.0,0.0,0.0,0.0,0.0,0.0,0.0,false
258,0.0,0.0,0.007936507936507936,0.025,0.022304832713754646,0.0,0.0,false
742,0.0,0.0,0.031746031746031744,0.0,0.0,0.0,0.0,false
743,0.0,0.0,0.0,0.0,0.0,0.0,0.0,false
327,0.11764705882352941,0.03278688524590164,0.0,0.15,0.0,0.0,0.0,false
744,0.0,0.0,0.0,0.0,0.01486988847583643,0.0,0.0,false
667,0.0,0.0,0.0,0.0,0.0037174721189591076,0.0,0.0,false
75,0.11764705882352941,0.0,0.015873015873015872,0.0,0.007434944237918215,0.0,0.0,false
76,0.0,0.01639344262295082,0.0,0.0,0.02973977695167286,0.0,0.0,true
745,0.0,0.0,0.0,0.0,0.0,0.0,0.0,false
197,0.0,0.0,0.0,0.0,0.0,0.0,0.0,false
816,0.0,0.0,0.0,0.0,0.0,0.0,0.0,false
259,0.0,0.01639344262295082,0.06349206349206349,0.0,0.4275092936802974,0.028985507246376812,0.07142857142857142,false
817,0.0,0.0,0.0,0.0,0.0,0.0,0.0,false
746,0.0,0.0,0.0,0.0,0.0,0.0,0.0,false
260,0.0,0.0,0.0,0.0,0.0,0.0,0.0,false
668,0.0,0.01639344262295082,0.0,0.05,0.007434944237918215,0.0,0.0,false
669,0.0,0.0,0.0,0.0,0.0,0.0,0.0,true
818,0.0,0.11475409836065574,0.1111111111111111,0.025,0.01858736059479554,0.0,0.0,false
13,0.0,0.03278688524590164,0.023809523809523808,0.0,0.16728624535315986,0.0,0.14285714285714285,true
871,0.0,0.0,0.0,0.0,0.0,0.0,0.0,false
560,0.0,0.0,0.015873015873015872,0.0,0.007434944237918215,0.0,0.0,false
261,0.23529411764705882,0.0,0.07142857142857142,0.1,0.02973977695167286,0.0,0.0,false
136,0.058823529411764705,0.06557377049180328,0.09523809523809523,0.025,0.007434944237918215,0.0,0.0,false
819,0.0,0.0,0.0,0.0,0.0,0.0,0.0,false
198,0.0,0.0,0.0,0.0,0.0,0.0,0.0,false
77,0.0,0.0,0.0,0.0,0.0,0.0,0.0,true
262,0.0,0.0,0.0,0.0,0.0,0.0,0.0,false
14,0.0,0.01639344262295082,0.015873015873015872,0.0,0.007434944237918215,0.0,0.0,false
612,0.0,0.01639344262295082,0.0,0.05,0.0,0.0,0.0,false
15,0.0,0.0,0.0,0.0,0.0,0.0,0.0,false
561,0.0,0.0,0.0,0.0,0.0,0.0,0.0,false
199,0.0,0.0,0.0,0.0,0.0,0.0,0.0,false
872,0.0,0.0,0.0,0.05,0.0037174721189591076,0.0,0.0,false
200,0.0,0.0,0.0,0.0,0.0,0.0,0.0,false
670,0.0,0.0,0.0,0.0,0.01486988847583643,0.0,0.0,true
137,0.0,0.0,0.0,0.0,0.0,0.0,0.0,false
201,0.0,0.0,0.0,0.0,0.0,0.0,0.0,false
138,0.0,0.0,0.0,0.0,0.0,0.0,0.0,false
263,0.0,0.0,0.0,0.0,0.0,0.0,0.0,false
498,0.0,0.01639344262295082,0.023809523809523808,0.0,0.03717472118959108,0.0,0.07142857142857142,false
747,0.0,0.01639344262295082,0.031746031746031744,0.0,0.007434944237918215,0.0,0.0,false
671,0.0,0.0,0.0,0.0,0.0,0.0,0.0,false
202,0.0,0.0,0.0,0.0,0.0037174721189591076,0.028985507246376812,0.0,false
264,0.0,0.0,0.0,0.0,0.0,0.0,0.0,false
437,0.0,0.0,0.0,0.0,0.0,0.0,0.0,false
938,0.0,0.0,0.0,0.0,0.0,0.0,0.0,false
203,0.0,0.0,0.0,0.0,0.0,0.0,0.0,true
204,0.0,0.06557377049180328,0.11904761904761904,0.0,0.32342007434944237,0.014492753623188406,0.07142857142857142,true
672,0.0,0.0,0.0,0.0,0.0,0.0,0.0,false
328,0.0,0.01639344262295082,0.0,0.025,0.007434944237918215,0.0,0.0,true
613,0.0,0.0,0.0,0.0,0.0,0.0,0.0,false
748,0.058823529411764705,0.04918032786885246,0.07142857142857142,0.05,0.06319702602230483,0.0,0.07142857142857142,false
265,0.17647058823529413,0.06557377049180328,0.1111111111111111,0.15,0.06691449814126393,0.0,0.07142857142857142,false
139,0.0,0.0,0.015873015873015872,0.0,0.026022304832713755,0.014492753623188406,0.0,true
266,0.0,0.0,0.0,0.0,0.0,0.0,0.0,false
939,0.0,0.0,0.0,0.0,0.0,0.0,0.0,true
750,0.0,0.0,0.0,0.0,0.0,0.0,0.0,false
751,0.0,0.03278688524590164,0.023809523809523808,0.125,0.0037174721189591076,0.0,0.0,false
267,0.0,0.4426229508196721,0.36507936507936506,0.375,0.17100371747211895,0.0,0.0,true
562,0.0,0.0,0.0,0.0,0.0,0.0,0.0,true
499,0.0,0.0,0.0,0.0,0.0,0.0,0.0,false
873,0.0,0.0,0.0,0.0,0.0,0.0,0.0,false
205,0.11764705882352941,0.0,0.0,0.05,0.0,0.0,0.0,false
16,0.0,0.0,0.0,0.0,0.0,0.0,0.0,false
140,0.0,0.0,0.0,0.0,0.0,0.0,0.0,false
268,0.0,0.0,0.0,0.0,0.0,0.0,0.0,false
17,0.0,0.0,0.0,0.0,0.0,0.0,0.0,false
438,0.0,0.0,0.0,0.0,0.0,0.0,0.0,false
500,0.0,0.0,0.0,0.0,0.0,0.0,0.0,false
206,0.0,0.0,0.0,0.0,0.0,0.014492753623188406,0.0,true
78,0.0,0.0,0.0,0.0,0.0,0.0,0.0,false
329,0.0,0.01639344262295082,0.015873015873015872,0.0,0.0,0.0,0.0,false
563,0.0,0.0,0.0,0.0,0.0,0.0,0.0,false
141,0.0,0.0,0.0,0.0,0.0,0.0,0.0,false
142,0.0,0.0,0.007936507936507936,0.0,0.0,0.0,0.0,true
143,0.0,0.01639344262295082,0.007936507936507936,0.0,0.007434944237918215,0.028985507246376812,0.0,true
940,0.0,0.0,0.0,0.0,0.0,0.0,0.0,false
269,0.058823529411764705,0.0,0.0,0.025,0.0,0.0,0.0,false
439,0.0,0.0,0.0,0.0,0.0,0.0,0.0,false
330,0.11764705882352941,0.0,0.1111111111111111,0.0,0.0,0.0,0.0,true
440,0.0,0.0,0.0,0.0,0.0,0.0,0.0,false
441,0.0,0.0,0.0,0.0,0.0,0.0,0.0,false
501,0.0,0.0,0.0,0.0,0.0,0.0,0.0,false
331,0.0,0.0,0.0,0.0,0.0,0.0,0.0,true
941,0.0,0.0,0.0,0.0,0.0,0.0,0.0,false
207,0.0,0.0,0.0,0.0,0.0,0.0,0.0,false
18,0.0,0.0,0.0,0.0,0.0037174721189591076,0.0,0.0,false
502,0.0,0.0,0.0,0.0,0.0,0.0,0.0,false
942,0.0,0.0,0.0,0.0,0.0,0.0,0.0,false
332,0.0,0.0,0.0,0.0,0.01858736059479554,0.0,0.0,false
333,0.0,0.03278688524590164,0.06349206349206349,0.0,0.483271375464684,0.08695652173913043,0.07142857142857142,false
564,0.0,0.0,0.0,0.0,0.0,0.0,0.0,false
820,0.0,0.04918032786885246,0.03968253968253968,0.0,0.08550185873605948,0.014492753623188406,0.07142857142857142,false
752,0.0,0.0,0.0,0.0,0.0,0.0,0.0,false
389,0.0,0.0,0.0,0.0,0.0,0.0,0.0,false
503,0.0,0.0,0.0,0.0,0.0,0.0,0.0,false
390,0.0,0.0,0.0,0.0,0.0,0.0,0.0,true
391,0.11764705882352941,0.03278688524590164,0.07936507936507936,0.0,0.03345724907063197,0.0,0.0,false
614,0.0,0.0,0.0,0.0,0.0,0.0,0.0,true
674,0.0,0.0,0.0,0.0,0.0,0.0,0.0,false
79,0.0,0.0,0.0,0.0,0.0,0.0,0.0,false
615,0.0,0.0,0.0,0.0,0.0,0.0,0.0,false
80,0.0,0.0,0.0,0.0,0.0,0.0,0.0,true
144,0.0,0.0,0.0,0.0,0.0,0.0,0.0,false
208,0.0,0.0,0.0,0.0,0.0,0.0,0.0,false
874,0.0,0.0,0.0,0.0,0.0,0.0,0.0,false
875,0.0,0.01639344262295082,0.0,0.0,0.0,0.0,0.0,false
616,0.0,0.0,0.0,0.0,0.04460966542750929,0.0,0.07142857142857142,false
876,0.058823529411764705,0.03278688524590164,0.07142857142857142,0.0,0.02973977695167286,0.0,0.0,false
81,0.0,0.0,0.0,0.0,0.0,0.0,0.0,false
504,0.0,0.0,0.015873015873015872,0.05,0.048327137546468404,0.0,0.0,false
270,0.11764705882352941,0.0,0.015873015873015872,0.0,0.0037174721189591076,0.0,0.0,false
392,0.0,0.0,0.0,0.0,0.0,0.0,0.0,false
334,0.0,0.0,0.0,0.0,0.0,0.0,0.0,false
877,0.0,0.0,0.0,0.0,0.01486988847583643,0.0,0.0,false
83,0.0,0.0,0.0,0.0,0.022304832713754646,0.0,0.0,false
675,0.0,0.0,0.0,0.0,0.04460966542750929,0.0,0.07142857142857142,false
617,0.0,0.0,0.0,0.0,0.0,0.0,0.0,false
335,0.0,0.0,0.0,0.0,0.0,0.0,0.0,false
618,0.0,0.0,0.031746031746031744,0.0,0.03717472118959108,0.0,0.0,true
84,0.0,0.0,0.0,0.0,0.011152416356877323,0.0,0.0,false
619,0.0,0.0,0.0,0.0,0.0,0.0,0.0,false
620,0.058823529411764705,0.04918032786885246,0.031746031746031744,0.15,0.19330855018587362,0.0,0.0,false
271,0.0,0.0,0.047619047619047616,0.0,0.24535315985130113,0.0,0.35714285714285715,false
19,0.0,0.0,0.0,0.1,0.007434944237918215,0.0,0.0,false
20,0.4117647058823529,0.11475409836065574,0.047619047619047616,0.025,0.1970260223048327,0.0,0.07142857142857142,false
505,0.0,0.01639344262295082,0.007936507936507936,0.0,0.011152416356877323,0.0,0.0,false
676,0.0,0.0,0.0,0.0,0.0,0.0,0.0,false
677,0.0,0.0,0.007936507936507936,0.0,0.02973977695167286,0.0,0.0,false
444,0.0,0.0,0.06349206349206349,0.325,0.275092936802974,0.0,0.0,true
85,0.0,0.0,0.0,0.0,0.0,0.0,0.0,false
943,0.0,0.0,0.0,0.0,0.0,0.0,0.0,false
272,0.058823529411764705,0.01639344262295082,0.0,0.075,0.0,0.0,0.0,false
393,0.0,0.0,0.0,0.0,0.011152416356877323,0.0,0.0,false
944,0.0,0.0,0.0,0.0,0.0,0.0,0.0,false
209,0.0,0.0,0.0,0.025,0.0,0.0,0.0,false
394,0.0,0.0,0.0,0.0,0.0,0.0,0.0,false
753,0.0,0.0,0.0,0.0,0.0,0.0,0.0,false
395,0.0,0.0,0.007936507936507936,0.0,0.007434944237918215,0.0,0.0,false
621,0.0,0.08196721311475409,0.07936507936507936,0.15,0.06691449814126393,0.028985507246376812,0.0,false
21,0.11764705882352941,0.03278688524590164,0.047619047619047616,0.0,0.0,0.0,0.0,false
754,0.058823529411764705,0.0,0.023809523809523808,0.0,0.01486988847583643,0.0,0.0,false
273,0.0,0.0,0.0,0.0,0.0,0.0,0.0,false
622,0.0,0.0,0.0,0.0,0.0,0.0,0.0,true
565,0.0,0.0,0.0,0.0,0.0,0.0,0.0,false
878,0.0,0.0,0.0,0.0,0.0037174721189591076,0.0,0.0,false
506,0.0,0.0,0.0,0.0,0.01486988847583643,0.0,0.0,false
145,0.0,0.0,0.0,0.0,0.0,0.0,0.0,true
755,0.0,0.0,0.0,0.0,0.0,0.0,0.0,true
821,0.0,0.0,0.0,0.0,0.0,0.0,0.0,false
945,0.0,0.0,0.0,0.0,0.0,0.0,0.0,false
623,0.0,0.03278688524590164,0.015873015873015872,0.0,0.026022304832713755,0.0,0.0,false
396,0.0,0.0,0.0,0.0,0.0,0.0,0.0,false
86,0.0,0.0,0.0,0.0,0.007434944237918215,0.0,0.0,false
22,0.0,0.0,0.0,0.0,0.0,0.0,0.0,false
397,0.0,0.0,0.0,0.0,0.0,0.0,0.0,false
398,0.0,0.0,0.0,0.0,0.0037174721189591076,0.0,0.0,true
507,0.0,0.0,0.015873015873015872,0.025,0.0,0.0,0.0,false
756,0.0,0.03278688524590164,0.0,0.0,0.03345724907063197,0.043478260869565216,0.0,true
210,0.0,0.0,0.0,0.0,0.007434944237918215,0.0,0.0,false
336,0.0,0.13114754098360656,0.12698412698412698,0.025,0.1449814126394052,0.057971014492753624,0.07142857142857142,false
337,0.0,0.03278688524590164,0.015873015873015872,0.025,0.01486988847583643,0.0,0.0,false
566,0.0,0.04918032786885246,0.873015873015873,0.05,0.11524163568773234,0.0,0.14285714285714285,false
567,0.0,0.0,0.0,0.0,0.0,0.0,0.0,false
87,0.0,0.0,0.0,0.0,0.0,0.0,0.0,false
678,0.0,0.0,0.0,0.0,0.0,0.0,0.0,false
274,0.0,0.0,0.0,0.0,0.0,0.0,0.0,false
275,0.0,0.0,0.0,0.0,0.0,0.0,0.0,false
946,0.0,0.0,0.0,0.0,0.0,0.0,0.0,false
880,0.0,0.0,0.015873015873015872,0.1,0.01486988847583643,0.0,0.0,false
881,0.0,0.0,0.0,0.075,0.007434944237918215,0.0,0.0,false
568,0.058823529411764705,0.03278688524590164,0.0,0.15,0.011152416356877323,0.0,0.0,true
882,0.0,0.01639344262295082,0.023809523809523808,0.05,0.03717472118959108,0.028985507246376812,0.0,false
88,0.0,0.01639344262295082,0.0,0.025,0.0037174721189591076,0.0,0.0,false
23,0.0,0.0,0.0,0.1,0.01486988847583643,0.0,0.0,false
624,0.0,0.0,0.0,0.0,0.0,0.0,0.0,false
508,0.0,0.0,0.0,0.0,0.0,0.0,0.0,false
625,0.0,0.04918032786885246,0.05555555555555555,0.0,0.09293680297397769,0.13043478260869565,0.14285714285714285,false
445,0.0,0.0,0.015873015873015872,0.0,0.10780669144981413,0.0,0.0,false
679,0.0,0.0,0.007936507936507936,0.0,0.0,0.0,0.0,false
509,0.0,0.0,0.0,0.0,0.0037174721189591076,0.0,0.0,false
883,0.0,0.0,0.0,0.0,0.0,0.0,0.0,true
338,0.0,0.0,0.0,0.0,0.011152416356877323,0.0,0.07142857142857142,false
89,0.0,0.0,0.007936507936507936,0.025,0.0,0.0,0.0,false
884,0.0,0.01639344262295082,0.007936507936507936,0.0,0.03345724907063197,0.0,0.0,true
146,0.0,0.0,0.0,0.0,0.0,0.0,0.0,false
569,0.0,0.0,0.0,0.0,0.0,0.0,0.0,true
680,0.0,0.01639344262295082,0.007936507936507936,0.075,0.03717472118959108,0.014492753623188406,0.0,false
510,0.058823529411764705,0.04918032786885246,0.06349206349206349,0.075,0.02973977695167286,0.0,0.0,false
211,0.0,0.0,0.0,0.0,0.0,0.0,0.0,false
511,0.23529411764705882,0.19672131147540983,0.29365079365079366,0.4,1.0,0.30434782608695654,0.5714285714285714,false
822,0.0,0.0,0.0,0.0,0.0,0.0,0.0,false
276,0.0,0.0,0.0,0.025,0.0,0.0,0.0,false
339,0.0,0.0,0.0,0.0,0.0,0.0,0.0,true
885,0.0,0.0,0.0,0.0,0.007434944237918215,0.0,0.0,true
570,0.0,0.0,0.007936507936507936,0.0,0.007434944237918215,0.0,0.0,true
626,0.0,0.01639344262295082,0.0,0.0,0.11524163568773234,0.07246376811594203,0.21428571428571427,false
512,0.058823529411764705,0.06557377049180328,0.007936507936507936,0.0,0.11152416356877323,0.043478260869565216,0.21428571428571427,false
340,0.058823529411764705,0.04918032786885246,0.12698412698412698,0.3,0.07806691449814127,0.0,0.0,false
886,0.0,0.0,0.0,0.05,0.0,0.0,0.0,false
571,0.0,0.0,0.007936507936507936,0.025,0.011152416356877323,0.0,0.0,true
757,0.0,0.0,0.0,0.0,0.0,0.0,0.0,false
147,0.058823529411764705,0.0,0.047619047619047616,0.075,0.2825278810408922,0.0,0.42857142857142855,false
758,0.0,0.22950819672131148,0.15873015873015872,0.075,0.055762081784386616,0.0,0.0,false
446,0.0,0.0,0.0,0.0,0.0,0.0,0.0,false
513,0.0,0.0,0.0,0.0,0.0,0.0,0.0,false
823,0.0,0.0,0.015873015873015872,0.025,0.01858736059479554,0.0,0.0,false
681,0.0,0.04918032786885246,0.03968253968253968,0.0,0.01858736059479554,0.0,0.0,true
399,0.0,0.0,0.0,0.0,0.0,0.0,0.0,false
400,0.058823529411764705,0.01639344262295082,0.015873015873015872,0.05,0.01858736059479554,0.014492753623188406,0.0,false
213,0.0,0.01639344262295082,0.06349206349206349,0.025,0.007434944237918215,0.0,0.0,true
214,0.0,0.0,0.0,0.0,0.0,0.0,0.0,false
759,0.0,0.03278688524590164,0.007936507936507936,0.025,0.07063197026022305,0.0,0.0,false
341,0.058823529411764705,0.0,0.0,0.0,0.026022304832713755,0.0,0.0,false
572,0.0,0.0,0.0,0.0,0.0,0.0,0.0,false
447,0.0,0.0,0.007936507936507936,0.0,0.0037174721189591076,0.0,0.0,false
514,0.0,0.0,0.0,0.0,0.0,0.0,0.0,false
448,0.058823529411764705,0.01639344262295082,0.0,0.1,0.01486988847583643,0.0,0.0,true
947,0.0,0.0,0.0,0.0,0.007434944237918215,0.0,0.0,true
148,0.0,0.0,0.0,0.0,0.0,0.0,0.0,false
627,0.0,0.0,0.0,0.0,0.0037174721189591076,0.0,0.0,false
760,0.0,0.0,0.007936507936507936,0.0,0.048327137546468404,0.0,0.0,false
761,0.0,0.0,0.0,0.0,0.0,0.0,0.0,false
628,0.0,0.01639344262295082,0.0,0.0,0.048327137546468404,0.057971014492753624,0.07142857142857142,false
401,0.0,0.06557377049180328,0.0,0.025,0.03717472118959108,0.0,0.0,true
149,0.0,0.0,0.0,0.0,0.0,0.0,0.0,false
824,0.0,0.01639344262295082,0.0,0.075,0.0,0.0,0.0,true
278,0.0,0.0,0.0,0.075,0.01858736059479554,0.0,0.0,false
948,0.0,0.0,0.0,0.0,0.0,0.0,0.0,false
762,0.0,0.0,0.0,0.0,0.0,0.0,0.0,true
402,0.0,0.0,0.0,0.0,0.0,0.0,0.0,true
825,0.11764705882352941,0.04918032786885246,0.1111111111111111,0.675,0.08178438661710037,0.08695652173913043,0.14285714285714285,true
150,0.0,0.0,0.0,0.0,0.0,0.0,0.0,false
279,0.0,0.03278688524590164,0.03968253968253968,0.075,0.08550185873605948,0.0,0.0,false
682,0.0,0.0,0.0,0.0,0.0,0.0,0.0,false
763,0.0,0.06557377049180328,0.031746031746031744,0.175,0.05204460966542751,0.057971014492753624,0.14285714285714285,false
515,0.0,0.0,0.0,0.0,0.0,0.0,0.0,false
764,0.0,0.0,0.0,0.0,0.0,0.0,0.0,false
516,0.0,0.0,0.0,0.0,0.0,0.0,0.0,false
949,0.0,0.0,0.0,0.025,0.011152416356877323,0.0,0.0,false
826,0.0,0.01639344262295082,0.031746031746031744,0.025,0.03717472118959108,0.0,0.07142857142857142,true
403,0.0,0.0,0.0,0.0,0.0,0.0,0.0,false
765,0.0,0.0,0.0,0.0,0.011152416356877323,0.0,0.0,false
573,0.0,0.0,0.0,0.0,0.0,0.0,0.0,false
24,0.0,0.0,0.0,0.0,0.0,0.0,0.0,false
766,0.0,0.0,0.0,0.05,0.0,0.0,0.0,false
91,0.0,0.0,0.0,0.0,0.0,0.0,0.0,false
887,0.0,0.0,0.0,0.0,0.0,0.0,0.0,false
683,0.11764705882352941,0.01639344262295082,0.015873015873015872,0.0,0.007434944237918215,0.0,0.0,false
92,0.0,0.0,0.007936507936507936,0.0,0.0,0.0,0.0,false
517,0.0,0.01639344262295082,0.015873015873015872,0.0,0.022304832713754646,0.014492753623188406,0.14285714285714285,true
684,0.0,0.0,0.0,0.0,0.0,0.0,0.0,false
25,0.0,0.0,0.0,0.0,0.0,0.0,0.0,false
215,0.0,0.0,0.0,0.0,0.02973977695167286,0.0,0.0,false
449,0.0,0.0,0.0,0.0,0.0,0.0,0.0,false
342,0.0,0.0,0.0,0.0,0.0,0.0,0.0,false
281,0.0,0.0,0.0,0.0,0.0,0.0,0.0,false
216,0.0,0.0,0.0,0.0,0.0,0.0,0.0,false
450,0.0,0.0,0.015873015873015872,0.0,0.01486988847583643,0.028985507246376812,0.0,false
629,0.0,0.0,0.007936507936507936,0.05,0.01486988847583643,0.0,0.0,false
685,0.0,0.0,0.0,0.025,0.007434944237918215,0.0,0.0,false
151,0.0,0.0,0.0,0.0,0.0,0.0,0.0,false
686,0.0,0.01639344262295082,0.0,0.05,0.0,0.0,0.0,true
950,0.0,0.0,0.0,0.0,0.0,0.0,0.0,false
343,0.0,0.0,0.0,0.0,0.0,0.0,0.0,false
404,0.0,0.0,0.0,0.0,0.0,0.0,0.0,false
405,0.0,0.0,0.0,0.025,0.0,0.0,0.0,false
888,0.0,0.0,0.0,0.0,0.0,0.0,0.0,false
282,0.0,0.0,0.0,0.0,0.0037174721189591076,0.0,0.0,false
687,0.0,0.0,0.0,0.0,0.0,0.0,0.0,false
217,0.0,0.0,0.0,0.0,0.026022304832713755,0.0,0.0,false
518,0.0,0.0,0.007936507936507936,0.0,0.0,0.0,0.0,true
218,0.0,0.0,0.015873015873015872,0.0,0.022304832713754646,0.0,0.0,false
828,0.0,0.0,0.0,0.0,0.0,0.0,0.0,false
951,0.0,0.0,0.0,0.0,0.0,0.0,0.0,false
519,0.058823529411764705,0.13114754098360656,0.10317460317460317,0.075,0.09293680297397769,0.043478260869565216,0.2857142857142857,false
219,0.0,0.0,0.0,0.0,0.0,0.0,0.0,false
152,0.0,0.01639344262295082,0.0,0.025,0.0,0.0,0.0,true
406,0.0,0.0,0.007936507936507936,0.0,0.0,0.0,0.0,false
688,0.0,0.0,0.007936507936507936,0.0,0.0,0.0,0.0,false
153,0.0,0.0,0.0,0.0,0.0,0.0,0.0,false
574,0.0,0.01639344262295082,0.023809523809523808,0.0,0.0,0.0,0.0,false
630,0.0,0.0,0.0,0.0,0.0,0.0,0.0,false
26,0.0,0.0,0.0,0.0,0.0,0.014492753623188406,0.0,false
952,0.0,0.0,0.0,0.0,0.0,0.0,0.0,false
631,0.0,0.0,0.0,0.0,0.0,0.0,0.0,false
220,0.0,0.0,0.0,0.0,0.05204460966542751,0.014492753623188406,0.07142857142857142,false
221,0.0,0.0,0.0,0.0,0.0,0.0,0.0,true
520,0.0,0.0,0.0,0.0,0.0,0.0,0.0,false
344,0.0,0.0,0.0,0.0,0.0,0.0,0.0,false
283,0.0,0.0,0.0,0.025,0.0037174721189591076,0.014492753623188406,0.0,false
521,0.058823529411764705,0.01639344262295082,0.09523809523809523,0.0,0.08921933085501858,0.0,0.0,false
889,0.0,0.0,0.0,0.0,0.0,0.0,0.0,false
154,0.0,0.0,0.0,0.0,0.0,0.0,0.0,false
689,0.0,0.0,0.0,0.0,0.0,0.0,0.0,false
222,0.0,0.0,0.0,0.0,0.0,0.0,0.0,false
770,0.0,0.0,0.0,0.0,0.0,0.0,0.0,false
829,0.0,0.0,0.0,0.0,0.0,0.0,0.0,false
522,0.0,0.0,0.0,0.0,0.0,0.0,0.0,false
575,0.0,0.0,0.0,0.0,0.0,0.0,0.0,false
690,0.0,0.0,0.0,0.0,0.01486988847583643,0.0,0.0,true
452,0.0,0.0,0.0,0.0,0.0,0.0,0.0,false
345,0.0,0.0,0.007936507936507936,0.0,0.0,0.0,0.0,false
453,0.0,0.01639344262295082,0.015873015873015872,0.025,0.09665427509293681,0.014492753623188406,0.14285714285714285,false
346,0.0,0.0,0.0,0.0,0.0,0.0,0.0,false
27,0.0,0.0,0.0,0.0,0.0,0.0,0.0,false
953,0.0,0.01639344262295082,0.015873015873015872,0.0,0.01858736059479554,0.0,0.0,false
576,0.0,0.0,0.0,0.0,0.0,0.014492753623188406,0.0,false
523,0.0,0.0,0.0,0.0,0.0037174721189591076,0.0,0.0,false
691,0.11764705882352941,0.01639344262295082,0.007936507936507936,0.0,0.01858736059479554,0.0,0.0,false
155,0.0,0.0,0.0,0.0,0.011152416356877323,0.0,0.0,false
347,0.0,0.03278688524590164,0.031746031746031744,0.0,0.11895910780669144,0.0,0.21428571428571427,false
890,0.058823529411764705,0.01639344262295082,0.007936507936507936,0.05,0.026022304832713755,0.0,0.07142857142857142,false
156,0.058823529411764705,0.01639344262295082,0.09523809523809523,0.0,0.022304832713754646,0.0,0.0,false
692,0.0,0.0,0.0,0.075,0.0,0.0,0.0,false
223,0.0,0.0,0.0,0.0,0.0,0.0,0.0,false
632,0.0,0.0,0.0,0.0,0.0,0.0,0.0,false
693,0.058823529411764705,0.0,0.0,0.025,0.0,0.0,0.0,false
284,0.058823529411764705,0.03278688524590164,0.007936507936507936,0.025,0.03717472118959108,0.0,0.0,false
348,0.23529411764705882,0.04918032786885246,0.007936507936507936,0.15,0.0037174721189591076,0.0,0.0,true
577,0.0,0.0,0.0,0.0,0.0,0.0,0.0,false
633,0.0,0.0,0.0,0.0,0.040892193308550186,0.0,0.0,false
93,0.0,0.0,0.0,0.0,0.0,0.0,0.0,false
224,0.0,0.0,0.0,0.0,0.0,0.0,0.0,false
634,0.0,0.0,0.023809523809523808,0.0,0.0,0.0,0.0,true
94,0.0,0.0,0.0,0.0,0.0,0.0,0.0,true
28,0.0,0.0,0.0,0.0,0.0,0.0,0.0,false
831,0.0,0.0,0.0,0.0,0.0,0.0,0.0,true
454,0.0,0.0,0.007936507936507936,0.0,0.0,0.0,0.0,false
349,0.0,0.01639344262295082,0.015873015873015872,0.0,0.022304832713754646,0.0,0.0,true
694,0.11764705882352941,0.01639344262295082,0.0,0.0,0.03717472118959108,0.028985507246376812,0.0,false
578,0.0,0.0,0.0,0.0,0.0,0.0,0.0,false
285,0.0,0.0,0.0,0.0,0.0,0.0,0.0,false
635,0.23529411764705882,0.0,0.007936507936507936,0.15,0.0,0.0,0.0,false
891,0.0,0.0,0.0,0.0,0.0,0.0,0.0,true
95,0.0,0.0,0.0,0.0,0.0,0.0,0.0,false
29,0.0,0.0,0.007936507936507936,0.025,0.08550185873605948,0.028985507246376812,0.21428571428571427,false
407,0.0,0.0,0.0,0.0,0.0,0.0,0.0,false
96,0.0,0.0,0.007936507936507936,0.0,0.0037174721189591076,0.0,0.0,false
30,0.0,0.0,0.03968253968253968,0.025,0.04460966542750929,0.028985507246376812,0.07142857142857142,true
157,0.0,0.0,0.0,0.0,0.0,0.0,0.0,false
97,0.0,0.0,0.0,0.0,0.0,0.0,0.0,false
408,0.0,0.01639344262295082,0.015873015873015872,0.0,0.07434944237918216,0.0,0.0,false
286,0.0,0.0,0.031746031746031744,0.0,0.01858736059479554,0.0,0.0,false
771,0.0,0.0,0.0,0.0,0.0,0.0,0.0,false
98,0.35294117647058826,0.26229508196721313,0.3253968253968254,0.025,0.1524163568773234,0.014492753623188406,0.0,false
99,0.0,0.0,0.0,0.0,0.0,0.0,0.0,false
892,0.0,0.0,0.0,0.0,0.0,0.0,0.0,false
350,0.0,0.0,0.0,0.0,0.0,0.0,0.0,false
287,0.0,0.0,0.0,0.65,0.05947955390334572,0.0,0.0,false
351,0.0,0.0,0.0,0.0,0.0,0.0,0.0,false
288,0.0,0.0,0.0,0.0,0.0,0.0,0.0,false
289,0.0,0.01639344262295082,0.03968253968253968,0.0,0.011152416356877323,0.0,0.0,false
695,0.058823529411764705,0.01639344262295082,0.03968253968253968,0.0,0.026022304832713755,0.0,0.0,false
100,0.0,0.0,0.0,0.0,0.0,0.0,0.0,false
772,0.0,0.04918032786885246,0.015873015873015872,0.05,0.15985130111524162,0.028985507246376812,0.0,false
31,0.0,0.0,0.0,0.0,0.0,0.0,0.0,false
101,0.0,0.0,0.0,0.0,0.0,0.0,0.0,false
524,0.11764705882352941,0.03278688524590164,0.047619047619047616,0.0,0.011152416356877323,0.014492753623188406,0.0,true
955,0.0,0.01639344262295082,0.0,0.1,0.055762081784386616,0.014492753623188406,0.0,true
893,0.0,0.0,0.0,0.0,0.0,0.0,0.0,false
457,0.0,0.0,0.0,0.0,0.0,0.0,0.0,false
456,0.0,0.0,0.0,0.0,0.055762081784386616,0.17391304347826086,0.14285714285714285,true
352,0.0,0.03278688524590164,0.031746031746031744,0.025,0.03345724907063197,0.0,0.0,false
773,0.0,0.0,0.0,0.0,0.0,0.0,0.0,true
832,0.0,0.0,0.007936507936507936,0.025,0.0037174721189591076,0.0,0.0,false
290,0.0,0.0,0.0,0.0,0.0037174721189591076,0.0,0.0,false
636,0.0,0.0,0.0,0.0,0.0,0.0,0.0,false
102,0.0,0.0,0.0,0.0,0.0,0.0,0.0,true
353,0.0,0.0,0.0,0.0,0.0,0.0,0.0,false
894,0.0,0.0,0.0,0.0,0.0,0.0,0.0,true
696,0.0,0.0,0.0,0.0,0.0,0.0,0.0,false
774,0.058823529411764705,0.06557377049180328,0.05555555555555555,0.0,0.11524163568773234,0.014492753623188406,0.07142857142857142,false
291,0.0,0.0,0.0,0.0,0.0,0.0,0.0,false
775,0.058823529411764705,0.01639344262295082,0.0,0.0,0.0,0.0,0.0,false
956,0.0,0.0,0.0,0.0,0.0,0.0,0.0,true
32,0.0,0.0,0.015873015873015872,0.0,0.0,0.0,0.0,false
895,0.0,0.0,0.0,0.0,0.0,0.0,0.0,false
776,0.058823529411764705,0.03278688524590164,0.023809523809523808,0.0,0.06691449814126393,0.014492753623188406,0.07142857142857142,false
637,0.0,0.0,0.015873015873015872,0.025,0.40892193308550184,0.043478260869565216,0.21428571428571427,false
33,0.0,0.0,0.007936507936507936,0.075,0.01486988847583643,0.0,0.0,true
409,0.0,0.01639344262295082,0.0,0.0,0.16728624535315986,0.0,0.0,false
777,0.0,0.0,0.0,0.0,0.0037174721189591076,0.0,0.0,false
579,0.0,0.0,0.0873015873015873,0.55,0.0,0.0,0.0,true
354,0.0,0.0,0.0,0.0,0.0,0.0,0.0,false
957,0.0,0.0,0.0,0.0,0.0,0.0,0.0,false
778,0.0,0.0,0.0,0.0,0.0,0.028985507246376812,0.0,true
958,0.0,0.0,0.0,0.0,0.0,0.0,0.0,false
697,0.0,0.0,0.007936507936507936,0.025,0.011152416356877323,0.0,0.0,false
458,0.0,0.0,0.0,0.0,0.04460966542750929,0.0,0.0,false
580,0.0,0.0,0.0,0.0,0.0,0.0,0.0,false
698,0.0,0.01639344262295082,0.0,0.05,0.02973977695167286,0.014492753623188406,0.0,false
896,0.0,0.0,0.0,0.0,0.0037174721189591076,0.014492753623188406,0.0,true
410,0.0,0.01639344262295082,0.0,0.05,0.0037174721189591076,0.0,0.0,false
225,0.0,0.0,0.0,0.0,0.0,0.0,0.0,false
158,0.0,0.03278688524590164,0.03968253968253968,0.1,0.05204460966542751,0.0,0.0,true
459,0.0,0.0,0.0,0.025,0.0037174721189591076,0.0,0.0,false
525,0.11764705882352941,0.0,0.023809523809523808,0.0,0.06691449814126393,0.043478260869565216,0.0,false
460,0.0,0.0,0.03968253968253968,0.025,0.20817843866171004,0.057971014492753624,0.0,true
34,0.0,0.0,0.0,0.0,0.0,0.0,0.0,false
897,0.0,0.0,0.0,0.0,0.06691449814126393,0.2608695652173913,0.07142857142857142,false
959,0.0,0.03278688524590164,0.031746031746031744,0.0,0.0,0.0,0.0,false
103,0.0,0.0,0.0,0.0,0.01486988847583643,0.0,0.0,false
292,0.0,0.0,0.0,0.0,0.0,0.0,0.0,false
699,0.0,0.0,0.0,0.0,0.0,0.0,0.0,false
779,0.29411764705882354,0.08196721311475409,0.03968253968253968,0.025,0.06319702602230483,0.0,0.14285714285714285,false
960,0.0,0.0,0.0,0.0,0.0,0.0,0.0,true
461,0.058823529411764705,0.01639344262295082,0.015873015873015872,0.0,0.1412639405204461,0.0,0.0,false
159,0.0,0.0,0.0,0.0,0.0,0.0,0.0,false
160,0.0,0.0,0.0,0.0,0.0,0.0,0.0,false
35,0.0,0.0,0.0,0.0,0.05947955390334572,0.043478260869565216,0.0,false
581,0.11764705882352941,0.0,0.047619047619047616,0.0,0.20074349442379183,0.08695652173913043,0.5714285714285714,true
227,0.0,0.0,0.0,0.0,0.0,0.0,0.0,false
462,0.0,0.0,0.007936507936507936,0.0,0.0,0.0,0.0,false
293,0.0,0.0,0.007936507936507936,0.0,0.011152416356877323,0.0,0.0,false
898,0.0,0.0,0.0,0.0,0.0,0.0,0.0,false
36,0.17647058823529413,0.08196721311475409,0.07936507936507936,0.125,0.2825278810408922,0.057971014492753624,0.14285714285714285,true
104,0.058823529411764705,0.03278688524590164,0.007936507936507936,0.0,0.13382899628252787,0.0,0.2857142857142857,false
355,0.17647058823529413,0.5081967213114754,0.5952380952380952,0.25,0.2379182156133829,0.028985507246376812,0.0,false
526,0.0,0.0,0.023809523809523808,0.2,0.055762081784386616,0.0,0.0,false
228,0.0,0.0,0.0,0.0,0.0,0.0,0.0,false
411,0.0,0.0,0.0,0.0,0.0,0.0,0.0,true
412,0.11764705882352941,0.08196721311475409,0.05555555555555555,0.075,0.14869888475836432,0.028985507246376812,0.0,true
780,0.0,0.04918032786885246,0.07142857142857142,0.1,0.4944237918215613,0.10144927536231885,0.5,false
582,0.0,0.0,0.0,0.0,0.0,0.0,0.0,false
527,0.0,0.0,0.007936507936507936,0.0,0.01486988847583643,0.0,0.0,false
899,0.11764705882352941,0.01639344262295082,0.07142857142857142,0.075,0.13382899628252787,0.014492753623188406,0.42857142857142855,false
900,0.0,0.0,0.0,0.0,0.0,0.0,0.0,false
37,0.0,0.06557377049180328,0.031746031746031744,0.225,0.04460966542750929,0.0,0.0,false
413,0.0,0.0,0.0,0.0,0.0,0.0,0.0,false
38,0.0,0.0,0.0,0.0,0.0,0.0,0.0,false
781,0.0,0.0,0.0,0.0,0.0037174721189591076,0.0,0.0,true
463,0.0,0.0,0.0,0.0,0.0,0.0,0.0,false
39,0.058823529411764705,0.36065573770491804,0.2857142857142857,0.225,0.137546468401487,0.028985507246376812,0.21428571428571427,false
833,0.0,0.0,0.047619047619047616,0.0,0.03345724907063197,0.0,0.0,true
528,0.0,0.06557377049180328,0.06349206349206349,0.0,0.07806691449814127,0.0,0.0,false
40,0.0,0.0,0.0,0.0,0.0,0.0,0.0,false
901,0.0,0.0,0.0,0.0,0.0,0.0,0.0,false
294,0.0,0.01639344262295082,0.007936507936507936,0.05,0.007434944237918215,0.0,0.0,false
902,0.0,0.0,0.0,0.0,0.0,0.0,0.0,false
834,0.17647058823529413,0.06557377049180328,0.015873015873015872,0.0,0.2936802973977695,0.0,0.07142857142857142,false
638,0.0,0.0,0.0,0.0,0.0037174721189591076,0.0,0.0,false
105,0.0,0.14754098360655737,0.21428571428571427,0.25,0.07063197026022305,0.0,0.0,false
356,0.0,0.03278688524590164,0.007936507936507936,0.025,0.055762081784386616,0.0,0.0,false
229,0.0,0.0,0.0,0.0,0.0,0.0,0.0,false
295,0.0,0.0,0.0,0.0,0.0,0.0,0.0,false
835,0.0,0.03278688524590164,0.0,0.075,0.0,0.0,0.0,false
639,0.0,0.0,0.0,0.0,0.0,0.0,0.0,true
41,0.0,0.0,0.0,0.0,0.007434944237918215,0.0,0.0,true
529,0.11764705882352941,0.03278688524590164,0.023809523809523808,0.15,0.03717472118959108,0.014492753623188406,0.0,false
583,0.0,0.0,0.0,0.0,0.0037174721189591076,0.014492753623188406,0.0,false
903,0.0,0.0,0.0,0.0,0.0,0.0,0.0,false
296,0.0,0.0,0.0,0.0,0.0,0.0,0.0,false
161,0.0,0.0,0.015873015873015872,0.025,0.03717472118959108,0.0,0.0,false
782,0.0,0.0,0.0,0.0,0.007434944237918215,0.0,0.0,false
230,0.0,0.0,0.007936507936507936,0.0,0.0,0.0,0.0,false
231,0.0,0.0,0.0,0.0,0.0,0.0,0.0,false
836,0.0,0.0,0.0,0.0,0.0,0.0,0.0,false
702,0.0,0.0,0.0,0.0,0.0,0.0,0.0,false
162,0.0,0.0,0.023809523809523808,0.0,0.0037174721189591076,0.0,0.0,false
297,0.0,0.0,0.0,0.0,0.0,0.0,0.0,false
837,0.058823529411764705,0.01639344262295082,0.023809523809523808,0.075,0.04460966542750929,0.0,0.0,false
904,0.0,0.0,0.0,0.0,0.0,0.0,0.0,false
905,0.0,0.0,0.0,0.0,0.0,0.0,0.0,false
906,0.0,0.0,0.0,0.0,0.0,0.0,0.0,false
838,0.0,0.0,0.0,0.0,0.09665427509293681,0.0,0.0,false
907,0.0,0.0,0.0,0.0,0.0,0.014492753623188406,0.0,true
163,0.0,0.0,0.0,0.0,0.0,0.0,0.0,false
298,0.0,0.0,0.0,0.0,0.0,0.0,0.0,false
839,0.0,0.11475409836065574,0.06349206349206349,0.0,0.011152416356877323,0.0,0.0,false
783,0.0,0.0,0.015873015873015872,0.025,0.040892193308550186,0.0,0.0,false
464,0.0,0.0,0.0,0.025,0.0037174721189591076,0.0,0.0,false
584,0.0,0.0,0.0,0.1,0.007434944237918215,0.0,0.0,false
703,0.0,0.0,0.0,0.0,0.0,0.0,0.0,false
530,0.0,0.0,0.03968253968253968,0.025,0.026022304832713755,0.0,0.0,false
299,0.11764705882352941,0.06557377049180328,0.031746031746031744,0.0,0.02973977695167286,0.0,0.0,false
961,0.0,0.0,0.0,0.0,0.0,0.0,0.0,false
465,0.0,0.0,0.03968253968253968,0.075,0.0,0.0,0.0,true
466,0.0,0.0,0.007936507936507936,0.0,0.0,0.0,0.0,false
704,0.0,0.0,0.0,0.0,0.0,0.0,0.0,false
640,0.0,0.0,0.0,0.0,0.0,0.0,0.0,false
467,0.0,0.0,0.0,0.0,0.0,0.0,0.0,false
300,0.11764705882352941,0.0,0.031746031746031744,0.025,0.11524163568773234,0.0,0.0,true
106,0.0,0.0,0.007936507936507936,0.0,0.0,0.0,0.0,false
414,0.0,0.0,0.0,0.0,0.0,0.0,0.0,false
840,0.0,0.0,0.0,0.0,0.0,0.0,0.0,false
107,0.0,0.0,0.0,0.1,0.007434944237918215,0.0,0.0,false
357,0.0,0.0,0.0,0.0,0.0,0.0,0.0,true
358,0.11764705882352941,0.01639344262295082,0.05555555555555555,0.025,0.01858736059479554,0.0,0.0,false
468,0.0,0.03278688524590164,0.047619047619047616,0.05,0.040892193308550186,0.028985507246376812,0.0,false
531,0.058823529411764705,0.01639344262295082,0.007936507936507936,0.1,0.022304832713754646,0.014492753623188406,0.0,false
301,0.0,0.0,0.05555555555555555,0.0,0.0037174721189591076,0.0,0.0,true
908,0.0,0.0,0.0,0.0,0.01486988847583643,0.0,0.0,true
784,0.0,0.0,0.0,0.0,0.0,0.0,0.0,false
359,0.0,0.0,0.0,0.0,0.0,0.0,0.0,true
962,0.0,0.03278688524590164,0.007936507936507936,0.0,0.007434944237918215,0.0,0.0,true
108,0.058823529411764705,1.0,1.0,0.475,0.2899628252788104,0.043478260869565216,0.21428571428571427,false
841,0.0,0.0,0.05555555555555555,0.025,0.01858736059479554,0.0,0.0,false
641,0.0,0.0,0.0,0.0,0.0,0.0,0.0,false
469,0.0,0.0,0.0,0.0,0.0,0.0,0.0,false
532,0.0,0.0,0.0,0.0,0.0,0.0,0.0,false
232,0.0,0.0,0.0,0.0,0.0,0.0,0.0,true
470,0.0,0.0,0.0,0.0,0.0,0.0,0.0,false
705,0.0,0.01639344262295082,0.0,0.025,0.0,0.014492753623188406,0.0,false
842,0.0,0.0,0.0,0.0,0.0,0.0,0.0,false
910,0.0,0.0,0.0,0.0,0.01486988847583643,0.0,0.0,false
642,0.0,0.03278688524590164,0.031746031746031744,0.0,0.17100371747211895,0.2753623188405797,0.21428571428571427,false
585,0.0,0.0,0.0,0.0,0.0,0.0,0.0,false
360,0.0,0.0,0.007936507936507936,0.025,0.2342007434944238,0.014492753623188406,0.07142857142857142,true
533,0.0,0.0,0.0,0.0,0.0,0.0,0.0,false
785,0.0,0.0,0.0,0.0,0.0,0.0,0.0,false
415,0.0,0.0,0.0,0.0,0.0,0.0,0.0,false
643,0.0,0.0,0.0,0.075,0.011152416356877323,0.014492753623188406,0.0,false
164,0.0,0.0,0.0,0.0,0.0037174721189591076,0.0,0.0,false
586,0.0,0.04918032786885246,0.0,0.125,0.01486988847583643,0.014492753623188406,0.0,true
302,0.0,0.04918032786885246,0.05555555555555555,0.075,0.06319702602230483,0.0,0.0,true
706,0.0,0.0,0.0,0.0,0.03345724907063197,0.028985507246376812,0.0,true
233,0.0,0.0,0.0,0.0,0.0,0.0,0.0,false
234,0.0,0.0,0.0,0.0,0.0,0.0,0.0,false
416,0.0,0.0,0.0,0.0,0.01486988847583643,0.0,0.0,false
235,0.0,0.01639344262295082,0.007936507936507936,0.0,0.03345724907063197,0.014492753623188406,0.0,false
963,0.0,0.0,0.0,0.0,0.0,0.0,0.0,true
43,0.0,0.0,0.0,0.0,0.0,0.0,0.0,false
964,0.0,0.0,0.007936507936507936,0.0,0.02973977695167286,0.0,0.0,true
303,0.0,0.0,0.007936507936507936,0.0,0.0037174721189591076,0.0,0.0,false
165,0.6470588235294118,0.3442622950819672,0.3253968253968254,0.55,0.5464684014869888,0.028985507246376812,0.35714285714285715,false
965,0.0,0.0,0.0,0.0,0.0,0.0,0.0,false
911,0.0,0.0,0.0,0.0,0.0,0.0,0.0,false
109,0.0,0.0,0.0,0.0,0.0,0.0,0.0,false
471,0.0,0.03278688524590164,0.0,0.0,0.09665427509293681,0.08695652173913043,0.07142857142857142,true
535,0.0,0.0,0.0,0.0,0.0,0.0,0.0,false
472,0.0,0.01639344262295082,0.0,0.025,0.011152416356877323,0.028985507246376812,0.0,false
966,0.0,0.03278688524590164,0.0,0.025,0.0,0.0,0.0,false
967,0.0,0.0,0.0,0.0,0.0,0.0,0.0,false
166,0.0,0.0,0.0,0.0,0.0,0.0,0.0,false
417,0.0,0.0,0.0,0.0,0.0,0.0,0.0,false
44,0.0,0.0,0.007936507936507936,0.0,0.0,0.0,0.0,false
912,0.0,0.0,0.0,0.0,0.0,0.0,0.0,false
913,0.0,0.0,0.0,0.0,0.0,0.0,0.0,false
786,0.0,0.0,0.007936507936507936,0.0,0.007434944237918215,0.0,0.0,false
914,0.0,0.0,0.0,0.0,0.0,0.0,0.0,false
236,0.0,0.0,0.0,0.0,0.0037174721189591076,0.0,0.0,false
45,0.0,0.0,0.0,0.0,0.0,0.0,0.0,false
707,0.0,0.0,0.0,0.0,0.0,0.0,0.0,false
361,0.0,0.0,0.0,0.05,0.026022304832713755,0.0,0.0,false
587,0.0,0.0,0.0,0.0,0.0,0.0,0.0,false
536,0.0,0.01639344262295082,0.0,0.025,0.0037174721189591076,0.0,0.0,false
110,0.0,0.0,0.0,0.0,0.0,0.0,0.0,false
473,0.0,0.04918032786885246,0.023809523809523808,0.0,0.42379182156133827,0.08695652173913043,0.35714285714285715,false
787,0.0,0.01639344262295082,0.0,0.05,0.01858736059479554,0.0,0.0,false
968,0.11764705882352941,0.0,0.0,0.0,0.0,0.0,0.0,false
843,0.0,0.01639344262295082,0.0,0.025,0.0,0.0,0.0,true
474,0.0,0.0,0.0,0.0,0.0,0.0,0.0,true
475,0.058823529411764705,0.0,0.015873015873015872,0.0,0.05204460966542751,0.0,0.07142857142857142,true
237,0.0,0.0,0.0,0.0,0.0,0.0,0.0,false
708,0.0,0.0,0.0,0.0,0.0,0.0,0.0,true
476,0.0,0.0,0.0,0.0,0.0,0.0,0.0,false
709,0.0,0.0,0.0,0.0,0.0,0.0,0.0,true
167,0.0,0.0,0.031746031746031744,0.0,0.0037174721189591076,0.0,0.0,false
844,0.0,0.03278688524590164,0.09523809523809523,0.0,0.007434944237918215,0.0,0.0,false
362,0.058823529411764705,0.03278688524590164,0.05555555555555555,0.1,0.05204460966542751,0.014492753623188406,0.14285714285714285,false
46,0.058823529411764705,0.0,0.0,0.0,0.007434944237918215,0.0,0.0,true
168,0.0,0.0,0.0,0.05,0.0,0.0,0.0,false
47,0.0,0.0,0.0,0.0,0.0037174721189591076,0.0,0.0,false
915,0.0,0.03278688524590164,0.023809523809523808,0.0,0.10408921933085502,0.028985507246376812,0.14285714285714285,true
969,0.0,0.0,0.007936507936507936,0.0,0.026022304832713755,0.028985507246376812,0.0,false
169,0.0,0.0,0.015873015873015872,0.0,0.007434944237918215,0.0,0.0,false
916,0.0,0.0,0.0,0.0,0.07806691449814127,0.0,0.0,false
588,0.0,0.0,0.0,0.0,0.0,0.0,0.0,false
845,0.0,0.03278688524590164,0.031746031746031744,0.0,0.0,0.0,0.0,false
710,0.0,0.0,0.0,0.0,0.0,0.0,0.0,false
238,0.0,0.0,0.0,0.0,0.0037174721189591076,0.0,0.0,false
239,0.0,0.0,0.0,0.0,0.0,0.0,0.0,false
537,0.0,0.0,0.0,0.0,0.0,0.0,0.0,false
711,0.0,0.0,0.0,0.0,0.0,0.0,0.0,false
363,0.0,0.0,0.0,0.0,0.0,0.0,0.0,false
846,0.058823529411764705,0.11475409836065574,0.03968253968253968,0.0,0.08178438661710037,0.028985507246376812,0.07142857142857142,true
644,0.0,0.0,0.0,0.0,0.01486988847583643,0.0,0.0,false
48,0.0,0.0,0.0,0.0,0.0,0.0,0.0,false
364,0.0,0.0,0.0,0.0,0.0,0.0,0.0,false
49,0.0,0.0,0.0,0.0,0.0,0.0,0.0,false
365,0.0,0.0,0.0,0.0,0.0,0.0,0.0,false
304,0.0,0.0,0.0,0.0,0.0,0.0,0.0,false
538,0.0,0.0,0.0,0.0,0.0,0.0,0.0,false
539,0.0,0.0,0.0,0.0,0.0,0.0,0.0,true
418,0.0,0.0,0.0,0.0,0.0,0.0,0.0,true
305,0.0,0.0,0.0,0.0,0.0,0.0,0.0,false
477,0.0,0.03278688524590164,0.023809523809523808,0.025,0.26394052044609667,0.08695652173913043,0.35714285714285715,true
170,0.0,0.0,0.0,0.0,0.0,0.0,0.0,false
847,0.0,0.0,0.0,0.0,0.0037174721189591076,0.0,0.0,false
366,0.0,0.0,0.0,0.0,0.0,0.0,0.0,false
645,0.0,0.0,0.0,0.0,0.0037174721189591076,0.0,0.0,false
589,0.0,0.0,0.0,0.0,0.0037174721189591076,0.0,0.0,false
848,0.23529411764705882,0.06557377049180328,0.047619047619047616,0.05,0.08550185873605948,0.0,0.0,false
646,0.058823529411764705,0.01639344262295082,0.023809523809523808,0.0,0.007434944237918215,0.07246376811594203,0.0,false
240,0.11764705882352941,0.0,0.0,0.0,0.01486988847583643,0.0,0.0,false
788,0.0,0.0,0.0,0.0,0.0,0.0,0.0,false
171,0.058823529411764705,0.13114754098360656,0.10317460317460317,0.025,0.022304832713754646,0.0,0.0,false
241,0.0,0.0,0.0,0.0,0.0,0.0,0.0,true
306,0.0,0.0,0.0,0.0,0.0,0.0,0.0,false
647,0.0,0.0,0.0,0.0,0.007434944237918215,0.0,0.0,false
419,0.0,0.0,0.0,0.0,0.0,0.0,0.0,true
970,0.0,0.0,0.0,0.0,0.0,0.0,0.0,false
789,0.0,0.0,0.0,0.0,0.0,0.0,0.0,false
917,0.0,0.0,0.0,0.0,0.0,0.0,0.0,false
112,0.0,0.0,0.0,0.0,0.007434944237918215,0.0,0.0,false
918,0.0,0.0,0.007936507936507936,0.0,0.0,0.0,0.0,false
478,0.0,0.0,0.007936507936507936,0.0,0.0037174721189591076,0.0,0.0,true
113,0.0,0.0,0.023809523809523808,0.0,0.07063197026022305,0.028985507246376812,0.0,false
919,0.058823529411764705,0.03278688524590164,0.03968253968253968,0.125,0.20817843866171004,0.043478260869565216,0.21428571428571427,true
648,0.0,0.0,0.0,0.075,0.011152416356877323,0.0,0.14285714285714285,false
479,0.0,0.03278688524590164,0.007936507936507936,0.025,0.07063197026022305,0.0,0.0,false
712,0.0,0.0,0.007936507936507936,0.0,0.0037174721189591076,0.0,0.0,false
540,0.058823529411764705,0.01639344262295082,0.007936507936507936,0.0,0.011152416356877323,0.0,0.0,false
114,0.0,0.0,0.007936507936507936,0.0,0.03717472118959108,0.043478260869565216,0.0,true
307,0.0,0.0,0.0,0.0,0.0,0.0,0.0,false
420,0.0,0.0,0.0,0.0,0.026022304832713755,0.014492753623188406,0.0,false
971,0.0,0.0,0.007936507936507936,0.0,0.0,0.0,0.0,false
480,0.0,0.0,0.0,0.0,0.0,0.0,0.0,false
172,0.0,0.0,0.007936507936507936,0.0,0.007434944237918215,0.0,0.0,false
849,0.0,0.01639344262295082,0.0,0.025,0.04460966542750929,0.0,0.07142857142857142,true
367,0.0,0.0,0.0,0.0,0.0,0.0,0.0,true
649,0.0,0.0,0.0,0.0,0.0,0.0,0.0,false
590,0.0,0.0,0.007936507936507936,0.0,0.0,0.0,0.0,false
850,0.0,0.01639344262295082,0.0,0.0,0.01858736059479554,0.0,0.0,false
713,0.0,0.0,0.0,0.0,0.0,0.0,0.0,false
851,0.0,0.0,0.0,0.0,0.0,0.0,0.0,false
173,0.0,0.0,0.0,0.0,0.040892193308550186,0.0,0.0,false
50,0.0,0.0,0.0,0.0,0.0,0.0,0.0,true
920,0.0,0.0,0.0,0.0,0.0,0.0,0.0,false
591,0.0,0.0,0.0,0.0,0.0,0.0,0.0,false
852,0.0,0.0,0.0,0.0,0.022304832713754646,0.0,0.0,false
115,0.0,0.0,0.0,0.0,0.0,0.0,0.0,false
174,0.0,0.0,0.0,0.0,0.0,0.0,0.0,false
481,0.0,0.04918032786885246,0.015873015873015872,0.0,0.0,0.0,0.0,true
853,0.0,0.0,0.0,0.025,0.03345724907063197,0.0,0.0,false
175,0.0,0.0,0.0,0.025,0.007434944237918215,0.0,0.0,false
714,0.0,0.0,0.0,0.0,0.0,0.0,0.0,false
921,0.23529411764705882,0.0,0.007936507936507936,0.0,0.048327137546468404,0.014492753623188406,0.0,false
308,0.0,0.01639344262295082,0.007936507936507936,0.05,0.007434944237918215,0.0,0.0,false
715,0.0,0.0,0.007936507936507936,0.0,0.0,0.0,0.0,false
421,0.0,0.0,0.0,0.0,0.0,0.0,0.0,false
854,0.0,0.0,0.0,0.0,0.0,0.0,0.0,false
716,0.0,0.03278688524590164,0.023809523809523808,0.125,0.09665427509293681,0.014492753623188406,0.14285714285714285,true
717,0.0,0.0,0.0,0.0,0.0,0.0,0.0,false
718,0.11764705882352941,0.03278688524590164,0.031746031746031744,0.0,0.040892193308550186,0.0,0.07142857142857142,false
719,0.0,0.0,0.0,0.0,0.0,0.0,0.0,false
242,0.0,0.0,0.0,0.0,0.0,0.0,0.0,false
541,0.0,0.0,0.0,0.0,0.12267657992565056,0.028985507246376812,0.0,false
592,0.11764705882352941,0.0,0.047619047619047616,0.15,0.026022304832713755,0.0,0.0,true
116,0.0,0.0,0.0,0.0,0.0,0.0,0.0,false
368,0.0,0.0,0.0,0.0,0.0,0.0,0.0,false
542,0.0,0.0,0.007936507936507936,0.0,0.01486988847583643,0.0,0.0,true
922,0.0,0.0,0.0,0.0,0.026022304832713755,0.0,0.0,false
176,0.0,0.0,0.0,0.0,0.0,0.0,0.0,false
369,0.0,0.0,0.0,0.0,0.0,0.0,0.0,true
720,0.17647058823529413,0.04918032786885246,0.07142857142857142,0.075,0.048327137546468404,0.0,0.0,true
593,0.11764705882352941,0.01639344262295082,0.0,0.025,0.0037174721189591076,0.0,0.0,false
543,0.0,0.0,0.0,0.0,0.0,0.0,0.0,false
482,0.0,0.0,0.031746031746031744,0.0,0.0,0.0,0.0,false
422,0.0,0.0,0.0,0.0,0.0,0.0,0.0,false
855,0.0,0.0,0.0,0.0,0.0,0.0,0.0,false
177,0.0,0.0,0.0,0.0,0.0037174721189591076,0.0,0.0,false
856,0.0,0.0,0.0,0.0,0.0,0.0,0.0,false
483,0.0,0.0,0.0,0.0,0.0,0.0,0.0,false
117,0.0,0.0,0.0,0.0,0.0,0.0,0.0,false
243,0.0,0.0,0.0,0.0,0.0,0.0,0.0,false
370,0.0,0.0,0.0,0.0,0.0,0.0,0.0,false
