camel(1.4->1.6),RH-LR,0.378082191780822
camel(1.4->1.6),RH-LR,0.3883495145631068
camel(1.4->1.6),RH-LR,0.39999999999999997
camel(1.4->1.6),RH-LR,0.36799999999999994
camel(1.4->1.6),RH-LR,0.3563218390804598
camel(1.4->1.6),RH-LR,0.359882005899705
camel(1.4->1.6),RH-LR,0.3782608695652173
camel(1.4->1.6),RH-LR,0.37426900584795325
camel(1.4->1.6),RH-LR,0.380952380952381
camel(1.4->1.6),RH-LR,0.3918918918918919
camel(1.4->1.6),RH-LR,0.37467018469656993
camel(1.4->1.6),RH-LR,0.3837471783295711
camel(1.4->1.6),RH-LR,0.38725490196078427
camel(1.4->1.6),RH-LR,0.39999999999999997
camel(1.4->1.6),RH-LR,0.37075718015665793
camel(1.4->1.6),RH-LR,0.37659033078880405
camel(1.4->1.6),RH-LR,0.3817204301075269
camel(1.4->1.6),RH-LR,0.37163814180929094
camel(1.4->1.6),RH-LR,0.4080717488789238
camel(1.4->1.6),RH-LR,0.38219895287958106
camel(1.4->1.6),RH-NB,0.3248407643312102
camel(1.4->1.6),RH-NB,0.3397435897435897
camel(1.4->1.6),RH-NB,0.3448275862068965
camel(1.4->1.6),RH-NB,0.3217665615141956
camel(1.4->1.6),RH-NB,0.3333333333333333
camel(1.4->1.6),RH-NB,0.3696969696969697
camel(1.4->1.6),RH-NB,0.33125
camel(1.4->1.6),RH-NB,0.34969325153374237
camel(1.4->1.6),RH-NB,0.32797427652733113
camel(1.4->1.6),RH-NB,0.3234323432343234
camel(1.4->1.6),RH-NB,0.3439490445859873
camel(1.4->1.6),RH-NB,0.36363636363636365
camel(1.4->1.6),RH-NB,0.3255813953488372
camel(1.4->1.6),RH-NB,0.32679738562091504
camel(1.4->1.6),RH-NB,0.3397435897435897
camel(1.4->1.6),RH-NB,0.34674922600619196
camel(1.4->1.6),RH-NB,0.3375
camel(1.4->1.6),RH-NB,0.3363914373088685
camel(1.4->1.6),RH-NB,0.3323262839879154
camel(1.4->1.6),RH-NB,0.35649546827794565
camel(1.4->1.6),RH-ADT,0.26133333333333336
camel(1.4->1.6),RH-ADT,0.13333333333333333
camel(1.4->1.6),RH-ADT,0.2545454545454545
camel(1.4->1.6),RH-ADT,0.13157894736842107
camel(1.4->1.6),RH-ADT,0.18122977346278318
camel(1.4->1.6),RH-ADT,0.24598930481283424
camel(1.4->1.6),RH-ADT,0.13617021276595745
camel(1.4->1.6),RH-ADT,0.06730769230769229
camel(1.4->1.6),RH-ADT,0.14754098360655737
camel(1.4->1.6),RH-ADT,0.14225941422594143
camel(1.4->1.6),RH-ADT,0.16597510373443985
camel(1.4->1.6),RH-ADT,0.13274336283185842
camel(1.4->1.6),RH-ADT,0.10619469026548671
camel(1.4->1.6),RH-ADT,0.1440677966101695
camel(1.4->1.6),RH-ADT,0.1741935483870968
camel(1.4->1.6),RH-ADT,0.2109375
camel(1.4->1.6),RH-ADT,0.28965517241379307
camel(1.4->1.6),RH-ADT,0.12612612612612611
camel(1.4->1.6),RH-ADT,0.14634146341463414
camel(1.4->1.6),RH-ADT,0.17054263565891473
camel(1.4->1.6),RH-RF,0.14285714285714285
camel(1.4->1.6),RH-RF,0.11555555555555555
camel(1.4->1.6),RH-RF,0.12727272727272723
camel(1.4->1.6),RH-RF,0.12037037037037038
camel(1.4->1.6),RH-RF,0.14222222222222222
camel(1.4->1.6),RH-RF,0.13513513513513514
camel(1.4->1.6),RH-RF,0.12444444444444444
camel(1.4->1.6),RH-RF,0.13452914798206278
camel(1.4->1.6),RH-RF,0.1461187214611872
camel(1.4->1.6),RH-RF,0.14847161572052403
camel(1.4->1.6),RH-RF,0.13574660633484162
camel(1.4->1.6),RH-RF,0.14345991561181434
camel(1.4->1.6),RH-RF,0.1222707423580786
camel(1.4->1.6),RH-RF,0.16
camel(1.4->1.6),RH-RF,0.14414414414414414
camel(1.4->1.6),RH-RF,0.13274336283185842
camel(1.4->1.6),RH-RF,0.1459227467811159
camel(1.4->1.6),RH-RF,0.23140495867768593
camel(1.4->1.6),RH-RF,0.1382488479262673
camel(1.4->1.6),RH-RF,0.13215859030837004
camel(1.4->1.6),MO-LR,0.3405511811023622
camel(1.4->1.6),MO-LR,0.3421052631578947
camel(1.4->1.6),MO-LR,0.3386046511627907
camel(1.4->1.6),MO-LR,0.33611442193087004
camel(1.4->1.6),MO-LR,0.3491577335375191
camel(1.4->1.6),MO-LR,0.36243822075782534
camel(1.4->1.6),MO-LR,0.3420158550396376
camel(1.4->1.6),MO-LR,0.3491124260355029
camel(1.4->1.6),MO-LR,0.3392670157068063
camel(1.4->1.6),MO-LR,0.3431372549019608
camel(1.4->1.6),MO-LR,0.35416666666666663
camel(1.4->1.6),MO-LR,0.33540372670807456
camel(1.4->1.6),MO-LR,0.337468982630273
camel(1.4->1.6),MO-LR,0.3391812865497076
camel(1.4->1.6),MO-LR,0.328159645232816
camel(1.4->1.6),MO-LR,0.3503649635036496
camel(1.4->1.6),MO-LR,0.3373493975903615
camel(1.4->1.6),MO-LR,0.35548686244204014
camel(1.4->1.6),MO-LR,0.3466666666666667
camel(1.4->1.6),MO-LR,0.33958333333333335
camel(1.4->1.6),MO-NB,0.3691148775894538
camel(1.4->1.6),MO-NB,0.3724696356275304
camel(1.4->1.6),MO-NB,0.3586429725363489
camel(1.4->1.6),MO-NB,0.35610766045548653
camel(1.4->1.6),MO-NB,0.36550308008213556
camel(1.4->1.6),MO-NB,0.35546875000000006
camel(1.4->1.6),MO-NB,0.36024844720496896
camel(1.4->1.6),MO-NB,0.38684719535783363
camel(1.4->1.6),MO-NB,0.3474387527839644
camel(1.4->1.6),MO-NB,0.37407407407407406
camel(1.4->1.6),MO-NB,0.3673469387755102
camel(1.4->1.6),MO-NB,0.34745762711864403
camel(1.4->1.6),MO-NB,0.365904365904366
camel(1.4->1.6),MO-NB,0.3887775551102204
camel(1.4->1.6),MO-NB,0.38095238095238093
camel(1.4->1.6),MO-NB,0.38165137614678907
camel(1.4->1.6),MO-NB,0.3675889328063241
camel(1.4->1.6),MO-NB,0.3647294589178357
camel(1.4->1.6),MO-NB,0.38061041292639136
camel(1.4->1.6),MO-NB,0.381679389312977
camel(1.4->1.6),MO-ADT,0.3274021352313167
camel(1.4->1.6),MO-ADT,0.347972972972973
camel(1.4->1.6),MO-ADT,0.35864978902953587
camel(1.4->1.6),MO-ADT,0.31407942238267145
camel(1.4->1.6),MO-ADT,0.3592233009708738
camel(1.4->1.6),MO-ADT,0.27586206896551724
camel(1.4->1.6),MO-ADT,0.31150442477876106
camel(1.4->1.6),MO-ADT,0.3055555555555555
camel(1.4->1.6),MO-ADT,0.3186180422264875
camel(1.4->1.6),MO-ADT,0.33521657250470804
camel(1.4->1.6),MO-ADT,0.26697892271662765
camel(1.4->1.6),MO-ADT,0.36149312377210213
camel(1.4->1.6),MO-ADT,0.32481751824817523
camel(1.4->1.6),MO-ADT,0.35490605427974947
camel(1.4->1.6),MO-ADT,0.3165467625899281
camel(1.4->1.6),MO-ADT,0.3327495621716287
camel(1.4->1.6),MO-ADT,0.36296296296296293
camel(1.4->1.6),MO-ADT,0.3211009174311927
camel(1.4->1.6),MO-ADT,0.31578947368421056
camel(1.4->1.6),MO-ADT,0.3416370106761566
camel(1.4->1.6),MO-RF,0.33098591549295775
camel(1.4->1.6),MO-RF,0.3893805309734514
camel(1.4->1.6),MO-RF,0.35497835497835506
camel(1.4->1.6),MO-RF,0.3629191321499014
camel(1.4->1.6),MO-RF,0.3586744639376218
camel(1.4->1.6),MO-RF,0.34068136272545096
camel(1.4->1.6),MO-RF,0.3622047244094488
camel(1.4->1.6),MO-RF,0.3383084577114428
camel(1.4->1.6),MO-RF,0.3582766439909297
camel(1.4->1.6),MO-RF,0.3629191321499014
camel(1.4->1.6),MO-RF,0.390057361376673
camel(1.4->1.6),MO-RF,0.3914893617021277
camel(1.4->1.6),MO-RF,0.32706766917293234
camel(1.4->1.6),MO-RF,0.3663157894736842
camel(1.4->1.6),MO-RF,0.3709090909090909
camel(1.4->1.6),MO-RF,0.385809312638581
camel(1.4->1.6),MO-RF,0.3358778625954199
camel(1.4->1.6),MO-RF,0.3562231759656652
camel(1.4->1.6),MO-RF,0.35647279549718575
camel(1.4->1.6),MO-RF,0.34538152610441764
camel(1.4->1.6),SCC-LR,0.2649842271293375
camel(1.4->1.6),SCC-LR,0.2458471760797342
camel(1.4->1.6),SCC-LR,0.29946524064171126
camel(1.4->1.6),SCC-LR,0.24503311258278146
camel(1.4->1.6),SCC-LR,0.23899371069182393
camel(1.4->1.6),SCC-LR,0.2892156862745098
camel(1.4->1.6),SCC-LR,0.3002680965147453
camel(1.4->1.6),SCC-LR,0.27129337539432175
camel(1.4->1.6),SCC-LR,0.28834355828220865
camel(1.4->1.6),SCC-LR,0.26666666666666666
camel(1.4->1.6),SCC-LR,0.27683615819209045
camel(1.4->1.6),SCC-LR,0.24844720496894412
camel(1.4->1.6),SCC-LR,0.2214983713355049
camel(1.4->1.6),SCC-LR,0.2994350282485876
camel(1.4->1.6),SCC-LR,0.2636655948553055
camel(1.4->1.6),SCC-LR,0.3146067415730337
camel(1.4->1.6),SCC-LR,0.28484848484848485
camel(1.4->1.6),SCC-LR,0.29591836734693877
camel(1.4->1.6),SCC-LR,0.3004926108374384
camel(1.4->1.6),SCC-LR,0.28048780487804875
camel(1.4->1.6),SCC-NB,0.1818181818181818
camel(1.4->1.6),SCC-NB,0.2105263157894737
camel(1.4->1.6),SCC-NB,0.17692307692307693
camel(1.4->1.6),SCC-NB,0.20512820512820512
camel(1.4->1.6),SCC-NB,0.13877551020408166
camel(1.4->1.6),SCC-NB,0.19475655430711608
camel(1.4->1.6),SCC-NB,0.20149253731343286
camel(1.4->1.6),SCC-NB,0.17692307692307693
camel(1.4->1.6),SCC-NB,0.2206405693950178
camel(1.4->1.6),SCC-NB,0.13061224489795917
camel(1.4->1.6),SCC-NB,0.17624521072796934
camel(1.4->1.6),SCC-NB,0.10300429184549355
camel(1.4->1.6),SCC-NB,0.08658008658008659
camel(1.4->1.6),SCC-NB,0.22939068100358423
camel(1.4->1.6),SCC-NB,0.09917355371900827
camel(1.4->1.6),SCC-NB,0.21897810218978103
camel(1.4->1.6),SCC-NB,0.144
camel(1.4->1.6),SCC-NB,0.15748031496062995
camel(1.4->1.6),SCC-NB,0.254071661237785
camel(1.4->1.6),SCC-NB,0.1803921568627451
camel(1.4->1.6),SCC-ADT,0.3339317773788151
camel(1.4->1.6),SCC-ADT,0.30444964871194385
camel(1.4->1.6),SCC-ADT,0.3623693379790941
camel(1.4->1.6),SCC-ADT,0.3203125
camel(1.4->1.6),SCC-ADT,0.3517241379310345
camel(1.4->1.6),SCC-ADT,0.329938900203666
camel(1.4->1.6),SCC-ADT,0.35564053537284895
camel(1.4->1.6),SCC-ADT,0.36614173228346464
camel(1.4->1.6),SCC-ADT,0.33989266547406083
camel(1.4->1.6),SCC-ADT,0.35845896147403683
camel(1.4->1.6),SCC-ADT,0.3466135458167331
camel(1.4->1.6),SCC-ADT,0.34517766497461927
camel(1.4->1.6),SCC-ADT,0.3433133732534931
camel(1.4->1.6),SCC-ADT,0.35272045028142585
camel(1.4->1.6),SCC-ADT,0.3217821782178218
camel(1.4->1.6),SCC-ADT,0.3358778625954199
camel(1.4->1.6),SCC-ADT,0.3116279069767442
camel(1.4->1.6),SCC-ADT,0.3550724637681159
camel(1.4->1.6),SCC-ADT,0.35272045028142585
camel(1.4->1.6),SCC-ADT,0.3365695792880259
camel(1.4->1.6),SCC-RF,0.31372549019607837
camel(1.4->1.6),SCC-RF,0.35214446952595935
camel(1.4->1.6),SCC-RF,0.28110599078341014
camel(1.4->1.6),SCC-RF,0.32510288065843623
camel(1.4->1.6),SCC-RF,0.33826638477801274
camel(1.4->1.6),SCC-RF,0.3380855397148676
camel(1.4->1.6),SCC-RF,0.3120879120879121
camel(1.4->1.6),SCC-RF,0.3037383177570093
camel(1.4->1.6),SCC-RF,0.32710280373831774
camel(1.4->1.6),SCC-RF,0.3211382113821138
camel(1.4->1.6),SCC-RF,0.30022075055187636
camel(1.4->1.6),SCC-RF,0.3146067415730337
camel(1.4->1.6),SCC-RF,0.3146067415730337
camel(1.4->1.6),SCC-RF,0.3141592920353982
camel(1.4->1.6),SCC-RF,0.3246753246753247
camel(1.4->1.6),SCC-RF,0.3103448275862069
camel(1.4->1.6),SCC-RF,0.3134657836644592
camel(1.4->1.6),SCC-RF,0.35047619047619044
camel(1.4->1.6),SCC-RF,0.33890214797136037
camel(1.4->1.6),SCC-RF,0.27586206896551724
