sid,COMM,ADEV,DDEV,ADD,DEL,OWN,MINOR,SCTR,NADEV,NADDEV,NCOMM,NSCTR,OEXP,EXP,label
124,0.02608695652173913,1.0,1.0,6.842285323297981E-4,8.557980316645272E-4,1.0,0.0,0.011695579074651463,0.9999999999999989,0.9999999999999989,0.35573888091822087,0.31649848693772503,1.0,1.0,true
126,0.4434782608695652,1.0,1.0,0.22733492986657544,0.2051775780915704,1.0,0.0,0.16586116574586265,0.9828850855745708,0.9828850855745708,0.5551314926352202,0.49391414814595236,1.0,1.0,true
140,1.0,1.0,1.0,1.0,1.0,1.0,0.0,1.0,0.9870892018779329,0.9870892018779329,0.4226640329783585,0.3168030463018961,1.0,1.0,true
145,0.034782608695652174,1.0,1.0,0.02582962709544988,0.02160890029952931,1.0,0.0,0.077767775235838,0.9615384615384615,0.9615384615384615,0.5424484052532833,0.4938981802140226,1.0,1.0,true
159,0.043478260869565216,1.0,1.0,0.0059869996578857335,0.014548566538296961,1.0,0.0,0.016981763219810292,0.9999999999999998,0.9999999999999998,0.29268292682926816,0.26946182220893994,1.0,1.0,true
224,0.10434782608695652,1.0,1.0,0.06927813889839206,0.02374839537869063,1.0,0.0,0.06495128548418805,0.980392156862744,0.980392156862744,0.5286944045911051,0.45302087342778385,1.0,1.0,true
191,0.17391304347826086,1.0,1.0,0.05473828258638385,0.030594779632006845,1.0,0.0,0.13533177758610085,0.9906976744186031,0.9906976744186031,0.43638684061259203,0.3825090668746279,1.0,1.0,true
262,0.05217391304347826,1.0,1.0,0.023092712966130687,0.019255455712451863,1.0,0.0,0.0626519380244139,0.9999999999999987,0.9999999999999987,0.32141016832703556,0.2849453299271768,1.0,1.0,true
109,0.1826086956521739,1.0,1.0,0.028224426958604172,0.027599486521181,1.0,0.0,0.07670151539553743,0.9811320754716973,0.9811320754716973,0.5132305568338704,0.4403249712079575,1.0,1.0,true
286,0.06086956521739131,1.0,1.0,0.010605542251111872,0.024390243902439025,1.0,0.0,0.027436102571985203,0.9999999999999986,0.9999999999999986,0.36884700665188486,0.32441086456762386,1.0,1.0,true
52,0.043478260869565216,1.0,1.0,0.03198768388641807,0.01904150620453573,1.0,0.0,0.07941318748803432,0.9999999999999998,0.9999999999999998,0.49882739212007526,0.4256643398312577,1.0,1.0,true
317,0.0,0.0,1.0,0.0,0.0,0.0,0.0,0.0,0.0,0.0,0.0,0.0,0.0,0.0,true
218,0.02608695652173913,1.0,1.0,0.00786862812179268,0.0036371416345742404,1.0,0.0,0.024894637082954512,0.9999999999999996,0.9999999999999996,0.46995565410199575,0.40077944254060316,1.0,1.0,true
318,0.02608695652173913,1.0,1.0,0.009237085186452275,0.009627727856225931,1.0,0.0,0.018103697165096275,0.6249999999999996,0.6249999999999996,0.5556402439024392,0.5258291260017635,1.0,1.0,true
259,0.043478260869565216,1.0,1.0,0.031303455354088267,0.011125374411638854,1.0,0.0,0.09886788925831713,0.9999999999999984,0.9999999999999984,0.4032833020637898,0.3809071293080089,1.0,1.0,true
184,0.0782608695652174,1.0,1.0,0.03386931235032501,0.02139495079161318,1.0,0.0,0.04894896020841302,0.9887005649717491,0.9887005649717491,0.4066763125258376,0.3639713798255875,1.0,1.0,true
171,0.30434782608695654,1.0,1.0,0.16626753335614095,0.10611895592640137,1.0,0.0,0.2085504443174668,0.9931818181818177,0.9931818181818177,0.44929323725055437,0.3857946564051623,1.0,1.0,true
178,0.0,0.0,1.0,0.0,0.0,0.0,0.0,0.0,0.0,0.0,0.0,0.0,0.0,0.0,true
172,0.06956521739130435,1.0,1.0,0.04926445432774547,0.002995293110825845,1.0,0.0,0.039976086973730965,0.9874999999999989,0.9874999999999989,0.5460365853658535,0.4536673590001004,1.0,1.0,true
40,0.23478260869565218,1.0,1.0,0.167807047553883,0.19127086007702182,1.0,0.0,0.08665842992627913,0.9855072463768116,0.9855072463768116,0.46162513255567317,0.4051870458517112,1.0,1.0,true
56,0.11304347826086956,1.0,1.0,0.0376325692781389,0.029525032092426188,1.0,0.0,0.0759324853767247,0.9896373056994822,0.9896373056994822,0.36130418299001665,0.3164787572483624,1.0,1.0,true
272,0.02608695652173913,1.0,1.0,0.004789599726308587,0.007060333761232349,1.0,0.0,0.025644853363627783,1.0,1.0,0.2953599048185604,0.2666674348463072,1.0,1.0,true
127,0.043478260869565216,1.0,1.0,0.004618542593226137,0.012836970474967908,1.0,0.0,0.014984027015142327,0.9999999999999998,0.9999999999999998,0.3612804878048781,0.3136247767839376,1.0,1.0,true
289,0.1826086956521739,1.0,1.0,0.1322271638727335,0.08493795464270432,1.0,0.0,0.185969616115091,0.9939759036144571,0.9939759036144571,0.48916397296503106,0.4270904037096923,1.0,1.0,true
68,0.06956521739130435,1.0,1.0,0.005644885391720835,0.005134788189987163,1.0,0.0,0.06447272635614922,0.9784946236559127,0.9784946236559127,0.39594807238394986,0.34588356140680504,1.0,1.0,true
138,0.06086956521739131,1.0,1.0,0.024632227163872734,0.0036371416345742404,1.0,0.0,0.018074462750430845,0.9999999999999996,0.9999999999999996,0.5723577235772357,0.49967218479282693,1.0,1.0,true
306,0.017391304347826087,1.0,1.0,0.008894970920287376,0.0040650406504065045,1.0,0.0,0.014459811844219437,0.9999999999999993,0.9999999999999993,0.2618140243902439,0.21978193695498005,1.0,1.0,true
319,0.008695652173913044,1.0,1.0,0.0020526855969893944,0.0012836970474967907,1.0,0.0,0.02665141553662133,0.9999999999999992,0.9999999999999992,0.375,0.3232295019341198,1.0,1.0,true
79,0.02608695652173913,1.0,1.0,0.008210742387957578,0.0036371416345742404,1.0,0.0,0.04459154475177612,0.9999999999999998,0.9999999999999998,0.44131097560975624,0.35458049822500814,1.0,1.0,true
114,0.12173913043478261,1.0,1.0,0.07543619568936025,0.06161745827984596,1.0,0.0,0.09396595541088755,0.9807692307692288,0.9807692307692288,0.32704033771106955,0.3031861586942407,1.0,1.0,true
116,0.034782608695652174,1.0,1.0,0.027711255559356825,0.0,1.0,0.0,0.02397192562156658,0.9999999999999988,0.9999999999999988,0.3357592446892211,0.3036769989779819,1.0,1.0,true
35,0.017391304347826087,1.0,1.0,3.4211426616489907E-4,4.278990158322636E-4,1.0,0.0,0.002719616958931964,0.9583333333333323,0.9583333333333323,0.39100609756097565,0.35136509214224537,1.0,1.0,true
173,0.034782608695652174,1.0,1.0,0.013171399247348614,0.014120667522464698,1.0,0.0,0.03146675599039936,0.9999999999999996,0.9999999999999996,0.2881662149954834,0.2640880209560906,1.0,1.0,true
261,0.02608695652173913,1.0,1.0,0.006671228190215532,0.010911424903722721,1.0,0.0,0.0683162839944284,0.9999999999999989,0.9999999999999989,0.5321507760532153,0.4389870162922816,1.0,1.0,true
291,0.5565217391304348,1.0,1.0,0.22254533014026684,0.15703893881044073,1.0,0.0,0.5460178787518304,0.9951219512195119,0.9951219512195119,0.4131766805472934,0.35655221311941176,1.0,1.0,true
36,0.23478260869565218,1.0,1.0,0.289941840574752,0.16581086863500213,1.0,0.0,0.12757210299186938,0.9814814814814815,0.9814814814814815,0.6571815718157178,0.564817684951362,1.0,1.0,true
204,0.0782608695652174,1.0,1.0,0.022750598699965787,0.00834403080872914,1.0,0.0,0.04952394371038322,0.9885057471264355,0.9885057471264355,0.5086206896551727,0.4326387397063059,1.0,1.0,true
57,0.22608695652173913,1.0,1.0,0.16763599042080055,0.07081728712023963,1.0,0.0,0.08219137688252004,0.9945945945945933,0.9945945945945933,0.6386618325642714,0.5723525234370884,1.0,1.0,true
312,0.06086956521739131,1.0,1.0,0.07800205268559698,0.01540436456996149,1.0,0.0,0.055098733969317304,0.9999999999999989,0.9999999999999989,0.594217151848938,0.5307030592437356,1.0,1.0,true
1,0.043478260869565216,1.0,1.0,0.02959288402326377,0.0040650406504065045,1.0,0.0,0.022173809040684233,1.0,1.0,0.3955326032852167,0.35106563210258623,1.0,1.0,true
102,0.02608695652173913,1.0,1.0,0.016763599042080055,0.014120667522464698,1.0,0.0,0.10073941409305585,0.9999999999999996,0.9999999999999996,0.48742378048780505,0.4265066650449928,1.0,1.0,true
250,0.017391304347826087,1.0,1.0,0.00735545672254533,0.009199828840393666,1.0,0.0,0.012087016528131617,0.7999999999999995,0.7999999999999995,0.980487804878049,0.8341957209130167,1.0,1.0,true
29,0.26956521739130435,1.0,1.0,0.31235032500855286,0.17715019255455713,1.0,0.0,0.11966291430096174,0.9799999999999998,0.9799999999999998,0.4914878048780487,0.43253079157487406,1.0,1.0,true
167,0.22608695652173913,1.0,1.0,0.06346219637358878,0.03209242618741977,1.0,0.0,0.15312865180139792,0.9919678714859443,0.9919678714859443,0.48787834263884794,0.4312098017908078,1.0,1.0,true
133,0.017391304347826087,1.0,1.0,0.002223742730071844,0.005562687205819427,1.0,0.0,0.015977844527342102,0.9999999999999986,0.9999999999999986,0.3260228166797798,0.29240456016381067,1.0,1.0,true
310,0.02608695652173913,1.0,1.0,0.014197742045843311,0.011553273427471117,1.0,0.0,0.03557970841040479,0.9999999999999992,0.9999999999999992,0.6909005628517826,0.5894512349352945,1.0,1.0,true
5,0.2,1.0,1.0,0.06962025316455696,0.05220367993153616,1.0,0.0,0.09340264762005938,0.9913043478260849,0.9913043478260849,0.4776776246023328,0.4177322304277203,1.0,1.0,true
269,0.09565217391304348,1.0,1.0,0.05935682517960999,0.012409071459135643,1.0,0.0,0.03637256827629439,0.9864864864864854,0.9864864864864854,0.6684245220830589,0.5196150975981962,1.0,1.0,true
134,0.24347826086956523,1.0,1.0,0.0925419089976052,0.08536585365853659,1.0,0.0,0.20659382076174443,0.9907407407407414,0.9907407407407414,0.44698509485094867,0.3799869400310024,1.0,1.0,true
309,0.008695652173913044,1.0,1.0,0.005473828258638385,0.00599058622165169,1.0,0.0,0.023684270865692025,0.9999999999999992,0.9999999999999992,0.05121951219512196,0.22801724215351962,1.0,1.0,true
217,0.05217391304347826,1.0,1.0,0.017618884707492302,0.001069747539580659,1.0,0.0,0.012537005505543564,0.9821428571428569,0.9821428571428569,0.32926829268292684,0.2653676752209198,1.0,1.0,true
311,0.02608695652173913,1.0,1.0,0.0011973999315771468,0.004278990158322636,1.0,0.0,0.0037522091525751425,0.9999999999999996,0.9999999999999996,0.24958660603555186,0.23354190906051475,1.0,1.0,true
150,0.08695652173913043,1.0,1.0,0.023092712966130687,0.01690201112537441,1.0,0.0,0.05860245513077804,0.9882352941176455,0.9882352941176455,0.49282639885222373,0.450782063779871,1.0,1.0,true
66,0.02608695652173913,1.0,1.0,0.012145056448853917,2.139495079161318E-4,1.0,0.0,0.010537778228784678,0.9999999999999998,0.9999999999999998,0.45193687230989943,0.38783741233124663,1.0,1.0,true
9,0.05217391304347826,1.0,1.0,0.019842627437564146,0.013906718014548566,1.0,0.0,0.04791424471167271,0.9999999999999993,0.9999999999999993,0.5390503373118838,0.46321047451604375,1.0,1.0,true
123,0.20869565217391303,1.0,1.0,0.18114950393431406,0.10804450149764655,1.0,0.0,0.15159445094318635,0.9897260273972605,0.9897260273972605,0.4164717674574003,0.35696950388888143,1.0,1.0,true
2,0.14782608695652175,1.0,1.0,0.08706808073896681,0.05220367993153616,1.0,0.0,0.12338097139226865,0.9888888888888874,0.9888888888888874,0.45182926829268333,0.4039814255550446,1.0,1.0,true
10,0.11304347826086956,1.0,1.0,0.02565856996236743,0.022250748823277707,1.0,0.0,0.05042083939629433,0.9913043478260852,0.9913043478260852,0.47831389183457057,0.4239922128012575,1.0,1.0,true
202,0.017391304347826087,1.0,1.0,5.131713992473486E-4,0.004278990158322636,1.0,0.0,0.0020862056969798517,0.9999999999999988,0.9999999999999988,0.1471198754540737,0.14105463370130195,1.0,1.0,true
47,0.02608695652173913,1.0,1.0,0.008723913787204926,0.004492939666238768,1.0,0.0,0.042498189897434265,0.9999999999999996,0.9999999999999996,0.39146341463414647,0.3563190737499822,1.0,1.0,true
221,0.14782608695652175,1.0,1.0,0.08244953814574067,0.10804450149764655,1.0,0.0,0.07054591341921375,0.9873949579831918,0.9873949579831918,0.4668477146956346,0.3971553738263788,1.0,1.0,true
225,0.06086956521739131,1.0,1.0,0.028053369825521726,0.03594351732991014,1.0,0.0,0.047456533036361735,0.9904761904761894,0.9904761904761894,0.45783972125435535,0.3886699791714449,1.0,1.0,true
166,0.2782608695652174,1.0,1.0,0.08929182346903866,0.05348737697903295,1.0,0.0,0.10007606666909578,0.9927797833935023,0.9927797833935023,0.5151008188782251,0.4624317890896806,1.0,1.0,true
240,0.06086956521739131,1.0,1.0,0.02702702702702703,0.026529738981600343,1.0,0.0,0.02547791530838511,0.9904761904761894,0.9904761904761894,0.45783972125435535,0.39205679621771167,1.0,1.0,true
157,0.06086956521739131,1.0,1.0,0.009579199452617175,0.007274283269148481,1.0,0.0,0.04158694144738531,0.9999999999999991,0.9999999999999991,0.45289142407553123,0.3848687465909056,1.0,1.0,true
268,0.05217391304347826,1.0,1.0,0.004618542593226137,0.008557980316645272,1.0,0.0,0.0687238103062062,0.990196078431371,0.990196078431371,0.3967001434720233,0.3575360919305087,1.0,1.0,true
188,0.008695652173913044,1.0,1.0,0.005644885391720835,0.002995293110825845,1.0,0.0,0.04590734125671067,0.9999999999999991,0.9999999999999991,0.721254355400697,0.6530979447506071,1.0,1.0,true
84,0.19130434782608696,1.0,1.0,0.12795073554567227,0.06974753958065896,1.0,0.0,0.13529798221863326,0.9736842105263158,0.9736842105263158,0.5715982028241336,0.4546965538781711,1.0,1.0,true
158,0.6521739130434783,1.0,1.0,0.596647280191584,0.7190842961061189,1.0,0.0,0.5519739853506377,0.9849108367626876,0.9849108367626876,0.4702147947405401,0.40089780940859626,1.0,1.0,true
198,0.02608695652173913,1.0,1.0,0.0027369141293191925,0.002139495079161318,1.0,0.0,0.04378024797038111,0.9999999999999998,0.9999999999999998,0.35574454428754815,0.3161498379548969,1.0,1.0,true
93,0.008695652173913044,1.0,1.0,0.00735545672254533,0.0,1.0,0.0,0.006818440560564469,0.9999999999999993,0.9999999999999993,1.0,1.0,1.0,1.0,true
53,0.034782608695652174,1.0,1.0,0.0189873417721519,0.023320496362858364,1.0,0.0,0.08245726248850402,0.9999999999999991,0.9999999999999991,0.33204692806421743,0.2816416100055586,1.0,1.0,true
232,0.3391304347826087,1.0,1.0,0.25367772836127267,0.12023962344886607,1.0,0.0,0.13964867936518094,0.9914163090128739,0.9914163090128739,0.649900554799539,0.5722876528758043,1.0,1.0,true
99,0.14782608695652175,1.0,1.0,0.09887102292165584,0.06675224646983312,1.0,0.0,0.1978161682954645,0.989528795811516,0.989528795811516,0.4941897586515132,0.4438377506315179,1.0,1.0,true
209,0.06956521739130435,1.0,1.0,0.05439616832021895,0.03487376979032948,1.0,0.0,0.1269819683671951,0.9999999999999988,0.9999999999999988,0.44035208497246275,0.3783838137682051,1.0,1.0,true
215,0.043478260869565216,1.0,1.0,0.04515908313376668,0.037441163885323064,1.0,0.0,0.14589027574573818,0.9999999999999987,0.9999999999999987,0.11919748229740364,0.16621611164455768,1.0,1.0,false
234,0.02608695652173913,1.0,1.0,0.009750256585699623,0.003209242618741977,1.0,0.0,0.026673550844013943,0.9787234042553186,0.9787234042553186,0.3981577581733265,0.3502748528229144,1.0,1.0,false
156,0.008695652173913044,1.0,1.0,0.0035921997947314403,0.0023534445870774497,1.0,0.0,0.015794454810837494,0.9999999999999996,0.9999999999999996,0.4420731707317075,0.43716092381003374,1.0,1.0,false
107,0.034782608695652174,1.0,1.0,0.009408142319534725,0.004492939666238768,1.0,0.0,0.011293428787604698,0.9999999999999989,0.9999999999999989,0.30381760339342523,0.269473015095556,1.0,1.0,false
92,0.008695652173913044,1.0,1.0,0.0017105713308244953,8.557980316645272E-4,1.0,0.0,0.0065174231416840755,0.9999999999999991,0.9999999999999991,0.02613240418118467,0.13060087889627342,1.0,1.0,false
147,0.0,0.0,1.0,0.0,0.0,0.0,0.0,0.0,0.0,0.0,0.0,0.0,0.0,0.0,false
182,0.0,0.0,1.0,0.0,0.0,0.0,0.0,0.0,0.0,0.0,0.0,0.0,0.0,0.0,false
305,0.0,0.0,1.0,0.0,0.0,0.0,0.0,0.0,0.0,0.0,0.0,0.0,0.0,0.0,false
72,0.017391304347826087,1.0,1.0,5.131713992473486E-4,0.0023534445870774497,1.0,0.0,0.0020862056969798517,0.9999999999999988,0.9999999999999988,0.1471198754540737,0.14105463370130195,1.0,1.0,false
247,0.008695652173913044,1.0,1.0,0.0017105713308244953,6.418485237483953E-4,1.0,0.0,0.011437813467413262,0.9999999999999996,0.9999999999999996,0.5072062084257208,0.43855092525441985,1.0,1.0,false
213,0.008695652173913044,1.0,1.0,0.004789599726308587,0.0,1.0,0.0,0.005231768553749834,0.9999999999999991,0.9999999999999991,0.041811846689895474,0.12644956411765834,1.0,1.0,false
148,0.034782608695652174,1.0,1.0,0.029079712624016422,2.139495079161318E-4,1.0,0.0,0.023537598019131464,0.9807692307692305,0.9807692307692305,0.45028142589118203,0.4031516691424899,1.0,1.0,false
153,0.0,0.0,1.0,0.0,0.0,0.0,0.0,0.0,0.0,0.0,0.0,0.0,0.0,0.0,false
285,0.0,0.0,1.0,0.0,0.0,0.0,0.0,0.0,0.0,0.0,0.0,0.0,0.0,0.0,false
88,0.0,0.0,1.0,0.0,0.0,0.0,0.0,0.0,0.0,0.0,0.0,0.0,0.0,0.0,false
282,0.0,0.0,1.0,0.0,0.0,0.0,0.0,0.0,0.0,0.0,0.0,0.0,0.0,0.0,false
303,0.02608695652173913,1.0,1.0,0.0189873417721519,0.02011125374411639,1.0,0.0,0.02467861067769323,0.9999999999999992,0.9999999999999992,0.4559364933271976,0.40729433285863453,1.0,1.0,false
128,0.0,0.0,1.0,0.0,0.0,0.0,0.0,0.0,0.0,0.0,0.0,0.0,0.0,0.0,false
302,0.0,0.0,1.0,0.0,0.0,0.0,0.0,0.0,0.0,0.0,0.0,0.0,0.0,0.0,false
174,0.008695652173913044,1.0,1.0,0.0,2.139495079161318E-4,0.0,0.0,9.777456079662313E-4,0.9999999999999991,0.9999999999999991,0.041811846689895474,0.1278542667901417,0.0,1.0,false
137,0.0,0.0,1.0,0.0,0.0,0.0,0.0,0.0,0.0,0.0,0.0,0.0,0.0,0.0,false
320,0.0,0.0,1.0,0.0,0.0,0.0,0.0,0.0,0.0,0.0,0.0,0.0,0.0,0.0,false
295,0.008695652173913044,1.0,1.0,0.004618542593226137,0.0034231921266581087,1.0,0.0,0.027429135687559638,0.9999999999999993,0.9999999999999993,0.5228658536585367,0.43143060216981544,1.0,1.0,false
256,0.017391304347826087,1.0,1.0,0.0011973999315771468,0.004492939666238768,1.0,0.0,0.007240944036662204,0.944444444444444,0.944444444444444,0.5035569105691058,0.4154375177185941,1.0,1.0,false
22,0.008695652173913044,1.0,1.0,0.0023947998631542937,0.001069747539580659,1.0,0.0,0.009570357233441566,0.9999999999999991,0.9999999999999991,0.02613240418118467,0.1295927826231074,1.0,1.0,false
94,0.0,0.0,1.0,0.0,0.0,0.0,0.0,0.0,0.0,0.0,0.0,0.0,0.0,0.0,false
237,0.0,0.0,1.0,0.0,0.0,0.0,0.0,0.0,0.0,0.0,0.0,0.0,0.0,0.0,false
192,0.0,0.0,1.0,0.0,0.0,0.0,0.0,0.0,0.0,0.0,0.0,0.0,0.0,0.0,false
27,0.0,0.0,1.0,0.0,0.0,0.0,0.0,0.0,0.0,0.0,0.0,0.0,0.0,0.0,false
87,0.017391304347826087,1.0,1.0,8.552856654122477E-4,2.139495079161318E-4,1.0,0.0,0.018834517651273374,0.9999999999999992,0.9999999999999992,0.04656319290465632,0.19478061620492734,1.0,1.0,false
28,0.0,0.0,1.0,0.0,0.0,0.0,0.0,0.0,0.0,0.0,0.0,0.0,0.0,0.0,false
151,0.0,0.0,1.0,0.0,0.0,0.0,0.0,0.0,0.0,0.0,0.0,0.0,0.0,0.0,false
267,0.02608695652173913,1.0,1.0,0.0023947998631542937,0.00834403080872914,1.0,0.0,0.007855517525597275,0.9855072463768109,0.9855072463768109,0.2335630965005303,0.21643278049950723,1.0,1.0,false
190,0.02608695652173913,1.0,1.0,0.00376325692781389,0.0036371416345742404,1.0,0.0,0.014716821849482798,0.999999999999999,0.999999999999999,0.5769817073170733,0.5439374649820078,1.0,1.0,false
16,0.0,0.0,1.0,0.0,0.0,0.0,0.0,0.0,0.0,0.0,0.0,0.0,0.0,0.0,false
168,0.017391304347826087,1.0,1.0,0.009579199452617175,0.008985879332477536,1.0,0.0,0.061371220361923357,0.9249999999999998,0.9249999999999998,0.3535060975609755,0.3334867882739495,1.0,1.0,false
21,0.0,0.0,1.0,0.0,0.0,0.0,0.0,0.0,0.0,0.0,0.0,0.0,0.0,0.0,false
62,0.017391304347826087,1.0,1.0,0.0023947998631542937,4.278990158322636E-4,1.0,0.0,0.09822443676206492,0.9999999999999991,0.9999999999999991,0.0477200424178155,0.18218761941088935,1.0,1.0,false
278,0.0,0.0,1.0,0.0,0.0,0.0,0.0,0.0,0.0,0.0,0.0,0.0,0.0,0.0,false
108,0.043478260869565216,1.0,1.0,0.024461170030790284,0.025246041934103552,1.0,0.0,0.07518727869622313,1.0,1.0,0.2568292682926829,0.23406149057382936,1.0,1.0,false
220,0.0,0.0,1.0,0.0,0.0,0.0,0.0,0.0,0.0,0.0,0.0,0.0,0.0,0.0,false
270,0.017391304347826087,1.0,1.0,0.0059869996578857335,0.0019255455712451862,1.0,0.0,0.019569293379754372,0.9599999999999995,0.9599999999999995,0.4441463414634146,0.38503483576873176,1.0,1.0,false
257,0.0,0.0,1.0,0.0,0.0,0.0,0.0,0.0,0.0,0.0,0.0,0.0,0.0,0.0,false
146,0.02608695652173913,1.0,1.0,0.027198084160109475,6.418485237483953E-4,1.0,0.0,0.025578667300828528,0.9999999999999996,0.9999999999999996,0.45028142589118203,0.38137826383667806,1.0,1.0,false
119,0.02608695652173913,1.0,1.0,8.552856654122477E-4,0.0034231921266581087,1.0,0.0,0.021816173204560523,0.999999999999999,0.999999999999999,0.1753774680603949,0.1593312018435199,1.0,1.0,false
43,0.0,0.0,1.0,0.0,0.0,0.0,0.0,0.0,0.0,0.0,0.0,0.0,0.0,0.0,false
314,0.008695652173913044,1.0,1.0,3.4211426616489907E-4,2.139495079161318E-4,1.0,0.0,0.0012885641466092452,0.9999999999999992,0.9999999999999992,0.4810975609756099,0.26259691930998036,1.0,1.0,false
26,0.0,0.0,1.0,0.0,0.0,0.0,0.0,0.0,0.0,0.0,0.0,0.0,0.0,0.0,false
313,0.0,0.0,1.0,0.0,0.0,0.0,0.0,0.0,0.0,0.0,0.0,0.0,0.0,0.0,false
77,0.008695652173913044,1.0,1.0,0.0027369141293191925,8.557980316645272E-4,1.0,0.0,0.09879193443787877,0.9999999999999992,0.9999999999999992,0.05121951219512196,0.21644345173412663,1.0,1.0,false
45,0.008695652173913044,1.0,1.0,0.2175846732808758,0.2616602481814292,1.0,0.0,0.6799505414749611,0.9999999999999992,0.9999999999999992,0.05121951219512196,0.12688923584763567,1.0,1.0,false
76,0.0,0.0,1.0,0.0,0.0,0.0,0.0,0.0,0.0,0.0,0.0,0.0,0.0,0.0,false
46,0.1391304347826087,1.0,1.0,0.12760862127950737,0.1367137355584082,1.0,0.0,0.09293687512289098,0.9927007299270061,0.9927007299270061,0.4971069966174114,0.44190403186172283,1.0,1.0,false
152,0.043478260869565216,1.0,1.0,0.006329113924050633,0.00834403080872914,1.0,0.0,0.03243628137158145,0.9666666666666669,0.9666666666666669,0.45365853658536587,0.3921020777566186,1.0,1.0,false
139,0.043478260869565216,1.0,1.0,0.017960998973657202,0.0023534445870774497,1.0,0.0,0.01343808346494642,0.9591836734693873,0.9591836734693873,0.6380039820806371,0.5041170969562792,1.0,1.0,false
23,0.034782608695652174,1.0,1.0,0.035066712281902154,0.016046213093709884,1.0,0.0,0.0662267578740412,0.9885057471264355,0.9885057471264355,0.44407064760302795,0.37714514367971963,1.0,1.0,false
187,0.0,0.0,1.0,0.0,0.0,0.0,0.0,0.0,0.0,0.0,0.0,0.0,0.0,0.0,false
251,0.0,0.0,1.0,0.0,0.0,0.0,0.0,0.0,0.0,0.0,0.0,0.0,0.0,0.0,false
165,0.0,0.0,1.0,0.0,0.0,0.0,0.0,0.0,0.0,0.0,0.0,0.0,0.0,0.0,false
219,0.0,0.0,0.0,0.0,0.0,0.0,0.0,0.0,0.0,0.0,0.0,0.0,0.0,0.0,false
183,0.0,0.0,1.0,0.0,0.0,0.0,0.0,0.0,0.0,0.0,0.0,0.0,0.0,0.0,false
81,0.0,0.0,1.0,0.0,0.0,0.0,0.0,0.0,0.0,0.0,0.0,0.0,0.0,0.0,false
83,0.008695652173913044,1.0,1.0,0.026171741361614778,0.0,1.0,0.0,0.0242670078073237,0.9999999999999996,0.9999999999999996,0.5259146341463415,0.434935294650951,1.0,1.0,false
12,0.02608695652173913,1.0,1.0,0.003079028395484092,0.0036371416345742404,1.0,0.0,0.006490451350384332,0.999999999999999,0.999999999999999,0.1753774680603949,0.16101808213860902,1.0,1.0,false
11,0.008695652173913044,1.0,1.0,0.006158056790968184,0.0014976465554129225,1.0,0.0,0.013640519725130492,0.9999999999999993,0.9999999999999993,0.6013719512195123,0.5249766590436793,1.0,1.0,false
273,0.017391304347826087,1.0,1.0,0.0027369141293191925,0.001069747539580659,1.0,0.0,0.07134467512581297,0.9999999999999993,0.9999999999999993,0.02515243902439025,0.16577920749420863,1.0,1.0,false
296,0.0,0.0,1.0,0.0,0.0,0.0,0.0,0.0,0.0,0.0,0.0,0.0,0.0,0.0,false
294,0.05217391304347826,1.0,1.0,0.006500171057133082,0.0019255455712451862,1.0,0.0,0.01790239115030574,0.9999999999999987,0.9999999999999987,0.4064258911819891,0.3703125296413239,1.0,1.0,false
85,0.0,0.0,1.0,0.0,0.0,0.0,0.0,0.0,0.0,0.0,0.0,0.0,0.0,0.0,false
185,0.05217391304347826,1.0,1.0,0.016763599042080055,0.002139495079161318,1.0,0.0,0.012696272121062828,0.9607843137254898,0.9607843137254898,0.6793400286944049,0.5548550142853786,1.0,1.0,false
223,0.034782608695652174,1.0,1.0,0.006671228190215532,0.10119811724433034,1.0,0.0,0.07219452329469447,0.9795918367346939,0.9795918367346939,0.28708312593330015,0.24671915233246203,1.0,1.0,false
300,0.05217391304347826,1.0,1.0,0.026000684228532328,0.02396234488660676,1.0,0.0,0.06612684963859292,0.9931034482758624,0.9931034482758624,0.32586206896551717,0.28708139870206595,1.0,1.0,false
186,0.043478260869565216,1.0,1.0,0.01847417037290455,0.02396234488660676,1.0,0.0,0.05327126326228825,0.9999999999999996,0.9999999999999996,0.3341169556273876,0.28195475273968706,1.0,1.0,false
67,0.0,0.0,1.0,0.0,0.0,0.0,0.0,0.0,0.0,0.0,0.0,0.0,0.0,0.0,false
41,0.17391304347826086,1.0,1.0,0.0383167978104687,0.05391527599486521,1.0,0.0,0.08691065213551778,0.9817351598173503,0.9817351598173503,0.4889742733043769,0.4381664862781596,1.0,1.0,false
