sid,COMM,ADEV,DDEV,ADD,DEL,OWN,MINOR,SCTR,NADEV,NADDEV,NCOMM,NSCTR,OEXP,EXP,label
224,0.045454545454545456,0.14285714285714285,0.0,0.009405074365704287,0.006919457514530861,1.0,0.0,0.03916909593598976,0.2136752136752138,0.44230769230769224,0.14926739926739924,0.10853361997766847,0.8435616438356165,0.8435616438356165,true
227,0.045454545454545456,0.14285714285714285,0.3333333333333333,0.04461942257217848,0.057293108220315525,1.0,0.0,0.07840003894721358,0.2166666666666667,0.4249999999999999,0.1255952380952381,0.07893736308222472,0.8435616438356165,0.8435616438356165,true
0,0.06818181818181818,0.14285714285714285,0.0,0.014435695538057743,0.010517575422086908,1.0,0.0,0.04357016652408577,0.2114695340501791,0.4596774193548385,0.15437788018433177,0.12442058321530343,0.8435616438356165,0.8435616438356165,true
110,0.045454545454545456,0.14285714285714285,0.3333333333333333,0.005468066491688539,0.006919457514530861,1.0,0.0,0.013082111247449969,0.21666666666666673,0.4249999999999999,0.1255952380952381,0.08169558337966532,0.8435616438356165,0.8435616438356165,true
3,0.0,0.0,0.0,0.0,0.0,0.0,0.0,0.0,0.0,0.0,0.0,0.0,0.0,0.0,true
353,0.0,0.0,0.16666666666666666,0.0,0.0,0.0,0.0,0.0,0.0,0.0,0.0,0.0,0.0,0.0,true
231,0.022727272727272728,0.14285714285714285,0.5,6.561679790026247E-4,2.767783005812344E-4,1.0,0.0,0.022563040525135258,0.19999999999999998,0.5,0.20000000000000004,0.21206788907075405,0.8435616438356165,0.8435616438356165,true
356,0.0,0.0,0.0,0.0,0.0,0.0,0.0,0.0,0.0,0.0,0.0,0.0,0.0,0.0,true
118,0.0,0.0,0.16666666666666666,0.0,0.0,0.0,0.0,0.0,0.0,0.0,0.0,0.0,0.0,0.0,true
359,0.022727272727272728,0.14285714285714285,0.3333333333333333,0.00699912510936133,0.0,1.0,0.0,0.024987711726457876,0.2222222222222222,0.5,0.047619047619047616,0.014966258374390824,0.010547945205479452,0.010547945205479452,true
361,0.0,0.0,0.3333333333333333,0.0,0.0,0.0,0.0,0.0,0.0,0.0,0.0,0.0,0.0,0.0,true
242,0.0,0.0,0.16666666666666666,0.0,0.0,0.0,0.0,0.0,0.0,0.0,0.0,0.0,0.0,0.0,true
128,0.0,0.0,0.16666666666666666,0.0,0.0,0.0,0.0,0.0,0.0,0.0,0.0,0.0,0.0,0.0,true
250,0.045454545454545456,0.14285714285714285,0.0,0.005905511811023622,0.00941046221976197,1.0,0.0,0.02870026948804126,0.3472222222222222,0.28125,0.2113095238095238,0.16597505032295404,0.7523287671232877,0.7523287671232877,true
251,0.0,0.0,0.3333333333333333,0.0,0.0,0.0,0.0,0.0,0.0,0.0,0.0,0.0,0.0,0.0,true
16,0.06818181818181818,0.2857142857142857,0.16666666666666666,0.05489938757655293,0.0019374481040686411,0.9960159362549801,0.3333333333333333,0.05192488889556994,0.4567901234567901,0.4351851851851851,0.29232804232804227,0.34667153110923804,1.0,0.9184561197115605,true
372,0.022727272727272728,0.14285714285714285,0.3333333333333333,6.561679790026247E-4,2.767783005812344E-4,1.0,0.0,0.022186390868659495,0.19999999999999998,0.5166666666666667,0.20000000000000004,0.21213150913734838,0.8435616438356165,0.8435616438356165,true
18,0.11363636363636363,0.7142857142857143,0.8333333333333334,0.004155730533683289,0.0019374481040686411,0.3157894736842105,0.0,0.03255269397981826,0.5486111111111112,0.5520833333333334,0.43154761904761907,0.43767470603330616,0.19506849315068492,0.1862438297216402,true
374,0.0,0.0,0.16666666666666666,0.0,0.0,0.0,0.0,0.0,0.0,0.0,0.0,0.0,0.0,0.0,true
20,0.045454545454545456,0.14285714285714285,0.0,0.02121609798775153,2.767783005812344E-4,1.0,0.0,0.021667719144393673,0.4634920634920634,0.44285714285714267,0.29659863945578224,0.353314579904363,1.0,1.0,true
377,0.09090909090909091,0.2857142857142857,1.0,8.748906386701663E-4,0.0011071132023249377,0.75,0.0,0.001490844939068512,0.0,0.0,0.0,0.0,0.7523287671232877,0.22125302083954668,true
264,0.0,0.0,0.0,0.0,0.0,0.0,0.0,0.0,0.0,0.0,0.0,0.0,0.0,0.0,true
26,0.0,0.0,0.16666666666666666,0.0,0.0,0.0,0.0,0.0,0.0,0.0,0.0,0.0,0.0,0.0,true
149,0.11363636363636363,0.14285714285714285,0.5,0.0026246719160104987,0.0019374481040686411,1.0,0.0,0.36956791548047857,0.46913580246913583,0.4305555555555554,0.29100529100529093,0.33632979767302495,1.0,1.0,true
381,0.1590909090909091,0.14285714285714285,0.6666666666666666,0.023403324584426947,0.02048159424301135,1.0,0.0,0.11285593133698103,0.2190016103059579,0.4371980676328504,0.1642512077294687,0.1432773879437572,0.8435616438356165,0.8435616438356165,true
269,0.022727272727272728,0.14285714285714285,0.6666666666666666,0.0013123359580052493,5.535566011624688E-4,1.0,0.0,0.002600089422831391,0.0,0.0,0.0,0.0,1.0,1.0,true
385,0.022727272727272728,0.14285714285714285,0.16666666666666666,0.006780402449693788,0.0022142264046498754,1.0,0.0,0.044192465190763974,0.271604938271605,0.4259259259259259,0.058201058201058205,0.12708018671055743,0.8435616438356165,0.8435616438356165,true
153,0.022727272727272728,0.14285714285714285,0.3333333333333333,0.002405949256342957,0.0,1.0,0.0,0.003651809386328532,1.0,0.9166666666666666,0.8809523809523809,1.0,0.7523287671232877,0.7523287671232877,true
387,0.045454545454545456,0.14285714285714285,0.0,0.045275590551181105,0.0013838915029061722,1.0,0.0,0.04359859258784426,0.4634920634920634,0.44285714285714267,0.2965986394557823,0.3511978062395673,1.0,1.0,true
277,0.06818181818181818,0.14285714285714285,0.0,0.7906824146981627,0.0022142264046498754,1.0,0.0,0.7800949852432397,0.4691358024691357,0.44444444444444436,0.29232804232804227,0.2783406724081429,1.0,1.0,true
392,0.0,0.0,0.16666666666666666,0.0,0.0,0.0,0.0,0.0,0.0,0.0,0.0,0.0,0.0,0.0,true
395,0.11363636363636363,0.42857142857142855,0.3333333333333333,0.18503937007874016,0.07279269305286465,0.9905437352245863,0.6666666666666666,0.128103299671434,0.43243243243243235,0.41441441441441446,0.2805662805662806,0.3624815468570109,1.0,0.38003989665154214,true
279,0.18181818181818182,0.42857142857142855,0.8333333333333334,0.01268591426071741,0.00498200941046222,0.8448275862068966,0.0,0.5429752917333502,0.5079365079365079,0.5297619047619048,0.3843537414965986,0.4011085758732492,0.8435616438356165,0.38003989665154214,true
283,0.09090909090909091,0.14285714285714285,0.8333333333333334,0.005905511811023622,0.0019374481040686411,1.0,0.0,0.4063962590015766,0.5555555555555556,1.0,0.16666666666666666,0.8156249424329963,0.8435616438356165,0.8435616438356165,true
160,0.0,0.0,0.0,0.0,0.0,0.0,0.0,0.0,0.0,0.0,0.0,0.0,0.0,0.0,true
286,0.0,0.0,0.3333333333333333,0.0,0.0,0.0,0.0,0.0,0.0,0.0,0.0,0.0,0.0,0.0,true
161,0.045454545454545456,0.2857142857142857,0.5,0.006342957130358705,0.008026570716855799,0.9655172413793104,0.3333333333333333,0.3817275330215203,0.2469135802469136,0.38888888888888884,0.052910052910052914,0.06373218287933204,0.8435616438356165,0.010749715790034767,true
164,0.022727272727272728,0.14285714285714285,0.3333333333333333,0.0015310586176727908,0.0019374481040686411,1.0,0.0,0.10039137772266711,0.691358024691358,0.7962962962962963,0.5449735449735449,0.5615218656046325,0.06506849315068493,0.06506849315068493,true
399,0.09090909090909091,0.42857142857142855,0.5,0.0037182852143482063,0.0011071132023249377,0.5882352941176471,0.0,0.005232222885661479,0.64367816091954,0.5862068965517241,0.5320197044334977,0.48948589604321735,1.0,0.24250607581688377,true
166,0.0,0.0,0.3333333333333333,0.0,0.0,0.0,0.0,0.0,0.0,0.0,0.0,0.0,0.0,0.0,true
287,0.06818181818181818,0.14285714285714285,0.3333333333333333,0.0037182852143482063,0.0033213396069748133,1.0,0.0,0.01918238190360834,0.2127659574468086,0.4219858156028367,0.1317122593718338,0.09099196810546802,0.8435616438356165,0.8435616438356165,true
169,0.09090909090909091,0.42857142857142855,0.6666666666666666,0.006780402449693788,0.0011071132023249377,0.6451612903225806,0.0,0.016567842378980888,0.6436781609195402,0.5632183908045977,0.5320197044334976,0.4868449240448824,1.0,0.24250607581688377,true
54,0.13636363636363635,0.2857142857142857,0.16666666666666666,0.024059492563429572,0.00941046221976197,0.9272727272727272,0.0,0.09146788581593204,0.21188630490956084,0.4457364341085271,0.1362126245847177,0.0984446173744991,0.8435616438356165,0.2606667548137188,true
405,0.06818181818181818,0.14285714285714285,0.8333333333333334,0.0021872265966754157,0.005535566011624689,1.0,0.0,0.6823547413763664,0.5555555555555556,1.0,0.19047619047619047,0.5825635719511532,0.8435616438356165,0.8435616438356165,true
175,0.022727272727272728,0.14285714285714285,0.3333333333333333,0.0010936132983377078,2.767783005812344E-4,1.0,0.0,0.003220593157212231,0.19999999999999998,0.5166666666666666,0.20000000000000004,0.21533503074601418,0.8435616438356165,0.8435616438356165,true
176,0.0,0.0,0.16666666666666666,0.0,0.0,0.0,0.0,0.0,0.0,0.0,0.0,0.0,0.0,0.0,true
292,0.045454545454545456,0.2857142857142857,0.3333333333333333,0.001968503937007874,0.0013838915029061722,0.6666666666666666,0.0,0.09582427901594828,0.0,0.0,0.0,0.0,0.8435616438356165,0.7966402522464849,true
177,0.0,0.0,0.5,0.0,0.0,0.0,0.0,0.0,0.0,0.0,0.0,0.0,0.0,0.0,true
297,0.045454545454545456,0.14285714285714285,0.0,0.03871391076115486,0.0013838915029061722,1.0,0.0,0.03199138081386445,0.4634920634920634,0.44285714285714267,0.2965986394557823,0.3523181373685677,1.0,1.0,true
301,0.18181818181818182,0.2857142857142857,0.16666666666666666,0.0831146106736658,0.08220315527262663,0.9131578947368421,0.0,0.08598938312515658,0.6068376068376068,0.49358974358974356,0.5146520146520146,0.42068306607677464,0.7523287671232877,0.4060713931758663,true
67,0.022727272727272728,0.14285714285714285,0.0,0.03521434820647419,0.0,1.0,0.0,0.03464410572473975,0.0,0.0,0.0,0.0,0.06506849315068493,0.06506849315068493,true
306,0.75,0.7142857142857143,0.6666666666666666,1.0,1.0,0.7769028871391076,1.0,0.9006657423318793,0.5763888888888888,0.546875,0.45535714285714285,0.40594902758847257,0.7523287671232877,0.39024601143293963,true
75,0.022727272727272728,0.14285714285714285,0.3333333333333333,0.005468066491688539,0.0,1.0,0.0,0.012547540731433394,0.2222222222222222,0.5,0.047619047619047616,0.025472633377537853,0.010547945205479452,0.010547945205479452,true
76,0.11363636363636363,0.14285714285714285,0.6666666666666666,0.03608923884514436,0.0337669526709106,1.0,0.0,0.23104543967532273,0.20317460317460292,0.395238095238095,0.14489795918367332,0.10713973996260505,0.8435616438356165,0.8435616438356165,true
78,0.09090909090909091,0.5714285714285714,0.8333333333333334,0.0168416447944007,0.0016606698034874066,0.7272727272727273,0.3333333333333333,0.2833935541712642,0.4700854700854702,0.4935897435897438,0.3791208791208791,0.43871986875485813,0.8435616438356165,0.6107034927869446,true
309,0.022727272727272728,0.14285714285714285,0.3333333333333333,2.1872265966754156E-4,2.767783005812344E-4,1.0,0.0,0.0014908449390685118,0.271604938271605,0.40740740740740744,0.058201058201058205,0.13509435371456271,0.8435616438356165,0.8435616438356165,true
200,1.0,1.0,1.0,0.6539807524059492,0.6443398837531138,0.474247491638796,1.0,1.0,0.5477308294209702,0.5399061032863849,0.36150234741784043,0.3747470335259734,0.19506849315068492,0.28211042626635285,true
204,0.0,0.0,0.3333333333333333,0.0,0.0,0.0,0.0,0.0,0.0,0.0,0.0,0.0,0.0,0.0,true
92,0.045454545454545456,0.14285714285714285,0.0,0.005249343832020997,0.017713811237199003,1.0,0.0,0.03378652085742655,0.3472222222222222,0.28125,0.2113095238095238,0.16543809966258524,0.7523287671232877,0.7523287671232877,true
437,0.022727272727272728,0.14285714285714285,0.3333333333333333,0.004374453193350831,0.0,1.0,0.0,0.005173396630632087,0.2222222222222222,0.5,0.047619047619047616,0.031700483724711515,0.010547945205479452,0.010547945205479452,true
441,0.0,0.0,0.0,0.0,0.0,0.0,0.0,0.0,0.0,0.0,0.0,0.0,0.0,0.0,true
329,0.0,0.0,0.0,0.0,0.0,0.0,0.0,0.0,0.0,0.0,0.0,0.0,0.0,0.0,true
331,0.0,0.0,0.16666666666666666,0.0,0.0,0.0,0.0,0.0,0.0,0.0,0.0,0.0,0.0,0.0,true
445,0.022727272727272728,0.14285714285714285,0.0,0.0017497812773403325,0.011347910323830611,1.0,0.0,0.025265794685723198,0.3472222222222222,0.28125,0.21428571428571427,0.16633762452135578,0.7523287671232877,0.7523287671232877,true
446,0.0,0.0,0.3333333333333333,0.0,0.0,0.0,0.0,0.0,0.0,0.0,0.0,0.0,0.0,0.0,true
447,0.0,0.0,0.3333333333333333,0.0,0.0,0.0,0.0,0.0,0.0,0.0,0.0,0.0,0.0,0.0,true
105,0.022727272727272728,0.14285714285714285,0.0,0.017497812773403325,0.04511486299474121,1.0,0.0,0.040802222609780274,0.3472222222222222,0.28125,0.21428571428571427,0.16469745878283024,0.7523287671232877,0.7523287671232877,true
344,0.022727272727272728,0.14285714285714285,0.3333333333333333,2.1872265966754156E-4,2.767783005812344E-4,1.0,0.0,0.001490844939068512,0.22222222222222243,0.5032051282051277,0.04945054945054948,0.005601719166280308,0.8435616438356165,0.8435616438356165,false
225,0.0,0.0,0.16666666666666666,0.0,0.0,0.0,0.0,0.0,0.0,0.0,0.0,0.0,0.0,0.0,false
345,0.0,0.0,0.16666666666666666,0.0,0.0,0.0,0.0,0.0,0.0,0.0,0.0,0.0,0.0,0.0,false
346,0.0,0.0,0.0,0.0,0.0,0.0,0.0,0.0,0.0,0.0,0.0,0.0,0.0,0.0,false
347,0.0,0.0,0.3333333333333333,0.0,0.0,0.0,0.0,0.0,0.0,0.0,0.0,0.0,0.0,0.0,false
226,0.09090909090909091,0.2857142857142857,0.16666666666666666,0.06058617672790901,0.05203432050927207,0.6678700361010831,0.0,0.06213063688040139,0.3703703703703704,0.29365079365079366,0.20634920634920628,0.14914645857904135,0.7523287671232877,0.24616769956830747,false
348,0.0,0.0,0.16666666666666666,0.0,0.0,0.0,0.0,0.0,0.0,0.0,0.0,0.0,0.0,0.0,false
107,0.0,0.0,0.0,0.0,0.0,0.0,0.0,0.0,0.0,0.0,0.0,0.0,0.0,0.0,false
108,0.0,0.0,0.0,0.0,0.0,0.0,0.0,0.0,0.0,0.0,0.0,0.0,0.0,0.0,false
1,0.0,0.0,0.0,0.0,0.0,0.0,0.0,0.0,0.0,0.0,0.0,0.0,0.0,0.0,false
228,0.0,0.0,0.3333333333333333,0.0,0.0,0.0,0.0,0.0,0.0,0.0,0.0,0.0,0.0,0.0,false
2,0.0,0.0,0.0,0.0,0.0,0.0,0.0,0.0,0.0,0.0,0.0,0.0,0.0,0.0,false
109,0.022727272727272728,0.14285714285714285,0.3333333333333333,2.1872265966754156E-4,2.767783005812344E-4,1.0,0.0,0.001490844939068512,0.22222222222222243,0.5032051282051277,0.04945054945054948,0.005601719166280308,0.8435616438356165,0.8435616438356165,false
349,0.0,0.0,0.0,0.0,0.0,0.0,0.0,0.0,0.0,0.0,0.0,0.0,0.0,0.0,false
111,0.0,0.0,0.16666666666666666,0.0,0.0,0.0,0.0,0.0,0.0,0.0,0.0,0.0,0.0,0.0,false
112,0.022727272727272728,0.14285714285714285,0.3333333333333333,2.1872265966754156E-4,2.767783005812344E-4,1.0,0.0,0.001490844939068512,0.22222222222222243,0.5032051282051277,0.04945054945054948,0.005601719166280308,0.8435616438356165,0.8435616438356165,false
350,0.022727272727272728,0.14285714285714285,0.5,2.1872265966754156E-4,2.767783005812344E-4,1.0,0.0,0.001490844939068512,0.22222222222222243,0.4999999999999995,0.04945054945054948,0.005601719166280308,0.8435616438356165,0.8435616438356165,false
351,0.022727272727272728,0.14285714285714285,0.3333333333333333,2.1872265966754156E-4,2.767783005812344E-4,1.0,0.0,0.001490844939068512,0.22222222222222243,0.5032051282051277,0.04945054945054948,0.005601719166280308,0.8435616438356165,0.8435616438356165,false
352,0.022727272727272728,0.14285714285714285,0.0,4.374453193350831E-4,0.0022142264046498754,1.0,0.0,0.015969474528885495,0.3472222222222222,0.28125,0.21428571428571427,0.1673190280904477,0.7523287671232877,0.7523287671232877,false
230,0.022727272727272728,0.14285714285714285,0.3333333333333333,2.1872265966754156E-4,2.767783005812344E-4,1.0,0.0,0.0014908449390685118,0.271604938271605,0.40740740740740744,0.058201058201058205,0.13509435371456271,0.8435616438356165,0.8435616438356165,false
113,0.0,0.0,0.0,0.0,0.0,0.0,0.0,0.0,0.0,0.0,0.0,0.0,0.0,0.0,false
4,0.0,0.0,0.0,0.0,0.0,0.0,0.0,0.0,0.0,0.0,0.0,0.0,0.0,0.0,false
232,0.045454545454545456,0.14285714285714285,0.16666666666666666,0.014435695538057743,0.015776363133130362,1.0,0.0,0.029490565497609356,0.2166666666666667,0.42916666666666653,0.1255952380952381,0.08100269349236751,0.8435616438356165,0.8435616438356165,false
5,0.022727272727272728,0.14285714285714285,0.0,0.026027996500437446,0.03598117907556048,1.0,0.0,0.03798683660209584,0.3472222222222222,0.28125,0.21428571428571427,0.16499467637319912,0.7523287671232877,0.7523287671232877,false
354,0.0,0.0,0.16666666666666666,0.0,0.0,0.0,0.0,0.0,0.0,0.0,0.0,0.0,0.0,0.0,false
114,0.022727272727272728,0.14285714285714285,0.3333333333333333,2.1872265966754156E-4,2.767783005812344E-4,1.0,0.0,0.001490844939068512,0.22222222222222243,0.5032051282051277,0.04945054945054948,0.005601719166280308,0.8435616438356165,0.8435616438356165,false
233,0.0,0.0,0.0,0.0,0.0,0.0,0.0,0.0,0.0,0.0,0.0,0.0,0.0,0.0,false
355,0.0,0.0,0.3333333333333333,0.0,0.0,0.0,0.0,0.0,0.0,0.0,0.0,0.0,0.0,0.0,false
115,0.0,0.0,0.3333333333333333,0.0,0.0,0.0,0.0,0.0,0.0,0.0,0.0,0.0,0.0,0.0,false
6,0.0,0.0,0.16666666666666666,0.0,0.0,0.0,0.0,0.0,0.0,0.0,0.0,0.0,0.0,0.0,false
116,0.022727272727272728,0.14285714285714285,0.16666666666666666,0.017497812773403325,0.05203432050927207,1.0,0.0,0.051967885828633216,0.3472222222222222,0.2708333333333333,0.21428571428571427,0.16351871046635777,0.7523287671232877,0.7523287671232877,false
117,0.0,0.0,0.16666666666666666,0.0,0.0,0.0,0.0,0.0,0.0,0.0,0.0,0.0,0.0,0.0,false
234,0.0,0.0,0.0,0.0,0.0,0.0,0.0,0.0,0.0,0.0,0.0,0.0,0.0,0.0,false
119,0.0,0.0,0.0,0.0,0.0,0.0,0.0,0.0,0.0,0.0,0.0,0.0,0.0,0.0,false
7,0.022727272727272728,0.14285714285714285,0.3333333333333333,2.1872265966754156E-4,2.767783005812344E-4,1.0,0.0,0.001490844939068512,0.22222222222222243,0.5032051282051277,0.04945054945054948,0.005601719166280308,0.8435616438356165,0.8435616438356165,false
235,0.09090909090909091,0.14285714285714285,0.3333333333333333,0.0015310586176727908,0.0019374481040686411,1.0,0.0,0.2494698915848931,0.0,0.0,0.0,0.0,0.7523287671232877,0.7523287671232877,false
8,0.0,0.0,0.0,0.0,0.0,0.0,0.0,0.0,0.0,0.0,0.0,0.0,0.0,0.0,false
120,0.022727272727272728,0.14285714285714285,0.16666666666666666,2.1872265966754156E-4,2.767783005812344E-4,1.0,0.0,0.001490844939068512,0.271604938271605,0.4259259259259259,0.058201058201058205,0.13509435371456271,0.8435616438356165,0.8435616438356165,false
357,0.022727272727272728,0.14285714285714285,0.6666666666666666,0.01859142607174103,0.00249100470523111,1.0,0.0,0.020441435930019312,0.0,0.0,0.0,0.0,0.8435616438356165,0.8435616438356165,false
358,0.0,0.0,0.16666666666666666,0.0,0.0,0.0,0.0,0.0,0.0,0.0,0.0,0.0,0.0,0.0,false
236,0.0,0.0,0.0,0.0,0.0,0.0,0.0,0.0,0.0,0.0,0.0,0.0,0.0,0.0,false
9,0.022727272727272728,0.14285714285714285,0.3333333333333333,2.1872265966754156E-4,2.767783005812344E-4,1.0,0.0,0.001490844939068512,0.22222222222222243,0.5032051282051277,0.04945054945054948,0.005601719166280308,0.8435616438356165,0.8435616438356165,false
122,0.022727272727272728,0.14285714285714285,0.3333333333333333,2.1872265966754156E-4,2.767783005812344E-4,1.0,0.0,0.001490844939068512,0.22222222222222243,0.5032051282051277,0.04945054945054948,0.005601719166280308,0.8435616438356165,0.8435616438356165,false
237,0.045454545454545456,0.14285714285714285,0.3333333333333333,0.0030621172353455816,0.0038748962081372822,1.0,0.0,0.006926147472787841,0.2166666666666667,0.4249999999999999,0.1255952380952381,0.08195553504732428,0.8435616438356165,0.8435616438356165,false
238,0.022727272727272728,0.14285714285714285,0.3333333333333333,2.1872265966754156E-4,2.767783005812344E-4,1.0,0.0,0.001490844939068512,0.22222222222222243,0.5032051282051277,0.04945054945054948,0.005601719166280308,0.8435616438356165,0.8435616438356165,false
360,0.022727272727272728,0.14285714285714285,0.3333333333333333,2.1872265966754156E-4,2.767783005812344E-4,1.0,0.0,0.001490844939068512,0.22222222222222243,0.5032051282051277,0.04945054945054948,0.005601719166280308,0.8435616438356165,0.8435616438356165,false
123,0.0,0.0,0.16666666666666666,0.0,0.0,0.0,0.0,0.0,0.0,0.0,0.0,0.0,0.0,0.0,false
239,0.0,0.0,0.0,0.0,0.0,0.0,0.0,0.0,0.0,0.0,0.0,0.0,0.0,0.0,false
124,0.045454545454545456,0.14285714285714285,0.3333333333333333,0.0017497812773403325,2.767783005812344E-4,1.0,0.0,0.03777093240359859,0.222222222222222,0.49999999999999956,0.05643738977072306,0.012555166900775495,0.8435616438356165,0.8435616438356165,false
240,0.022727272727272728,0.14285714285714285,0.5,8.748906386701663E-4,0.0011071132023249377,1.0,0.0,0.14715791931974753,0.691358024691358,0.7777777777777777,0.5449735449735449,0.5527448011197342,0.06506849315068493,0.06506849315068493,false
241,0.0,0.0,0.16666666666666666,0.0,0.0,0.0,0.0,0.0,0.0,0.0,0.0,0.0,0.0,0.0,false
125,0.0,0.0,0.5,0.0,0.0,0.0,0.0,0.0,0.0,0.0,0.0,0.0,0.0,0.0,false
126,0.0,0.0,0.0,0.0,0.0,0.0,0.0,0.0,0.0,0.0,0.0,0.0,0.0,0.0,false
10,0.0,0.0,0.16666666666666666,0.0,0.0,0.0,0.0,0.0,0.0,0.0,0.0,0.0,0.0,0.0,false
11,0.022727272727272728,0.14285714285714285,0.16666666666666666,4.374453193350831E-4,5.535566011624688E-4,1.0,0.0,0.0068724555973361245,0.2127659574468086,0.4255319148936168,0.1337386018237082,0.09143436710767824,0.8435616438356165,0.8435616438356165,false
127,0.022727272727272728,0.14285714285714285,0.3333333333333333,2.1872265966754156E-4,2.767783005812344E-4,1.0,0.0,0.001490844939068512,0.22222222222222243,0.5032051282051277,0.04945054945054948,0.005601719166280308,0.8435616438356165,0.8435616438356165,false
364,0.0,0.0,0.3333333333333333,0.0,0.0,0.0,0.0,0.0,0.0,0.0,0.0,0.0,0.0,0.0,false
363,0.022727272727272728,0.14285714285714285,0.0,0.007217847769028871,0.0,1.0,0.0,0.007097841620275403,0.1388888888888889,0.22916666666666666,0.13095238095238096,0.13924657399320264,0.8435616438356165,0.8435616438356165,false
365,0.0,0.0,0.0,0.0,0.0,0.0,0.0,0.0,0.0,0.0,0.0,0.0,0.0,0.0,false
12,0.0,0.0,0.16666666666666666,0.0,0.0,0.0,0.0,0.0,0.0,0.0,0.0,0.0,0.0,0.0,false
243,0.0,0.0,0.0,0.0,0.0,0.0,0.0,0.0,0.0,0.0,0.0,0.0,0.0,0.0,false
13,0.045454545454545456,0.14285714285714285,0.16666666666666666,0.011811023622047244,0.0077497924162745644,1.0,0.0,0.0250611801490935,0.21666666666666673,0.42916666666666653,0.1255952380952381,0.08118973587114015,0.8435616438356165,0.8435616438356165,false
244,0.0,0.0,0.0,0.0,0.0,0.0,0.0,0.0,0.0,0.0,0.0,0.0,0.0,0.0,false
366,0.022727272727272728,0.14285714285714285,0.3333333333333333,2.1872265966754156E-4,2.767783005812344E-4,1.0,0.0,0.001490844939068512,0.22222222222222243,0.5032051282051277,0.04945054945054948,0.005601719166280308,0.8435616438356165,0.8435616438356165,false
245,0.0,0.0,0.16666666666666666,0.0,0.0,0.0,0.0,0.0,0.0,0.0,0.0,0.0,0.0,0.0,false
129,0.0,0.0,0.3333333333333333,0.0,0.0,0.0,0.0,0.0,0.0,0.0,0.0,0.0,0.0,0.0,false
14,0.0,0.0,0.0,0.0,0.0,0.0,0.0,0.0,0.0,0.0,0.0,0.0,0.0,0.0,false
246,0.0,0.0,0.16666666666666666,0.0,0.0,0.0,0.0,0.0,0.0,0.0,0.0,0.0,0.0,0.0,false
130,0.0,0.0,0.16666666666666666,0.0,0.0,0.0,0.0,0.0,0.0,0.0,0.0,0.0,0.0,0.0,false
247,0.0,0.0,0.16666666666666666,0.0,0.0,0.0,0.0,0.0,0.0,0.0,0.0,0.0,0.0,0.0,false
248,0.0,0.0,0.0,0.0,0.0,0.0,0.0,0.0,0.0,0.0,0.0,0.0,0.0,0.0,false
249,0.0,0.0,0.16666666666666666,0.0,0.0,0.0,0.0,0.0,0.0,0.0,0.0,0.0,0.0,0.0,false
131,0.06818181818181818,0.2857142857142857,0.3333333333333333,0.01968503937007874,0.00498200941046222,0.9666666666666667,0.3333333333333333,0.21600862531626908,0.4222222222222223,0.4083333333333334,0.22857142857142856,0.2654245953440108,1.0,0.4681645887845222,false
15,0.022727272727272728,0.14285714285714285,0.5,0.0010936132983377078,0.0013838915029061722,1.0,0.0,0.02427937093137658,0.691358024691358,0.7777777777777777,0.5449735449735449,0.5758064367717222,0.06506849315068493,0.06506849315068493,false
367,0.0,0.0,0.0,0.0,0.0,0.0,0.0,0.0,0.0,0.0,0.0,0.0,0.0,0.0,false
132,0.0,0.0,0.16666666666666666,0.0,0.0,0.0,0.0,0.0,0.0,0.0,0.0,0.0,0.0,0.0,false
133,0.045454545454545456,0.14285714285714285,0.16666666666666666,0.021872265966754154,0.0071962358151120955,1.0,0.0,0.029439452806162458,0.21666666666666673,0.42916666666666653,0.1255952380952381,0.08100485185941882,0.8435616438356165,0.8435616438356165,false
252,0.022727272727272728,0.14285714285714285,0.3333333333333333,2.1872265966754156E-4,2.767783005812344E-4,1.0,0.0,0.001490844939068512,0.22222222222222243,0.5032051282051277,0.04945054945054948,0.005601719166280308,0.8435616438356165,0.8435616438356165,false
368,0.0,0.0,0.16666666666666666,0.0,0.0,0.0,0.0,0.0,0.0,0.0,0.0,0.0,0.0,0.0,false
134,0.045454545454545456,0.14285714285714285,0.3333333333333333,0.001968503937007874,0.00249100470523111,1.0,0.0,0.007005913796998824,0.21666666666666673,0.4249999999999999,0.1255952380952381,0.08195216670570295,0.8435616438356165,0.8435616438356165,false
135,0.0,0.0,0.16666666666666666,0.0,0.0,0.0,0.0,0.0,0.0,0.0,0.0,0.0,0.0,0.0,false
369,0.0,0.0,0.0,0.0,0.0,0.0,0.0,0.0,0.0,0.0,0.0,0.0,0.0,0.0,false
253,0.0,0.0,0.3333333333333333,0.0,0.0,0.0,0.0,0.0,0.0,0.0,0.0,0.0,0.0,0.0,false
370,0.0,0.0,0.0,0.0,0.0,0.0,0.0,0.0,0.0,0.0,0.0,0.0,0.0,0.0,false
371,0.0,0.0,0.3333333333333333,0.0,0.0,0.0,0.0,0.0,0.0,0.0,0.0,0.0,0.0,0.0,false
136,0.045454545454545456,0.14285714285714285,0.16666666666666666,0.014873140857392825,0.03985607528369776,1.0,0.0,0.03886720592731201,0.3472222222222222,0.2708333333333333,0.2113095238095238,0.1649017366310958,0.7523287671232877,0.7523287671232877,false
137,0.022727272727272728,0.14285714285714285,0.3333333333333333,2.1872265966754156E-4,2.767783005812344E-4,1.0,0.0,0.001490844939068512,0.22222222222222243,0.5032051282051277,0.04945054945054948,0.005601719166280308,0.8435616438356165,0.8435616438356165,false
254,0.045454545454545456,0.14285714285714285,0.3333333333333333,0.012248468941382326,0.015499584832549129,1.0,0.0,0.032777962682843,0.2166666666666667,0.4249999999999999,0.1255952380952381,0.08086387454998253,0.8435616438356165,0.8435616438356165,false
373,0.0,0.0,0.0,0.0,0.0,0.0,0.0,0.0,0.0,0.0,0.0,0.0,0.0,0.0,false
138,0.0,0.0,0.0,0.0,0.0,0.0,0.0,0.0,0.0,0.0,0.0,0.0,0.0,0.0,false
139,0.022727272727272728,0.14285714285714285,0.16666666666666666,0.0028433945756780404,0.0,1.0,0.0,0.020823681841432823,0.4444444444444444,0.4117647058823528,0.24649859943977584,0.305071644368948,1.0,1.0,false
17,0.13636363636363635,0.14285714285714285,0.5,0.01268591426071741,0.00941046221976197,1.0,0.0,0.3160661548966589,0.2199074074074074,0.4375,0.14037698412698413,0.08930915261370151,0.8435616438356165,0.8435616438356165,false
19,0.0,0.0,0.0,0.0,0.0,0.0,0.0,0.0,0.0,0.0,0.0,0.0,0.0,0.0,false
140,0.0,0.0,0.16666666666666666,0.0,0.0,0.0,0.0,0.0,0.0,0.0,0.0,0.0,0.0,0.0,false
141,0.0,0.0,0.16666666666666666,0.0,0.0,0.0,0.0,0.0,0.0,0.0,0.0,0.0,0.0,0.0,false
255,0.0,0.0,0.16666666666666666,0.0,0.0,0.0,0.0,0.0,0.0,0.0,0.0,0.0,0.0,0.0,false
256,0.045454545454545456,0.14285714285714285,0.3333333333333333,0.00699912510936133,0.009687240520343206,1.0,0.0,0.01578805129384863,0.2166666666666667,0.4249999999999999,0.1255952380952381,0.08158131798542408,0.8435616438356165,0.8435616438356165,false
142,0.0,0.0,0.16666666666666666,0.0,0.0,0.0,0.0,0.0,0.0,0.0,0.0,0.0,0.0,0.0,false
375,0.0,0.0,0.0,0.0,0.0,0.0,0.0,0.0,0.0,0.0,0.0,0.0,0.0,0.0,false
376,0.0,0.0,0.0,0.0,0.0,0.0,0.0,0.0,0.0,0.0,0.0,0.0,0.0,0.0,false
143,0.0,0.0,0.16666666666666666,0.0,0.0,0.0,0.0,0.0,0.0,0.0,0.0,0.0,0.0,0.0,false
257,0.022727272727272728,0.14285714285714285,0.3333333333333333,2.1872265966754156E-4,2.767783005812344E-4,1.0,0.0,0.001490844939068512,0.22222222222222243,0.5032051282051277,0.04945054945054948,0.005601719166280308,0.8435616438356165,0.8435616438356165,false
258,0.0,0.0,0.0,0.0,0.0,0.0,0.0,0.0,0.0,0.0,0.0,0.0,0.0,0.0,false
144,0.0,0.0,0.0,0.0,0.0,0.0,0.0,0.0,0.0,0.0,0.0,0.0,0.0,0.0,false
259,0.0,0.0,0.16666666666666666,0.0,0.0,0.0,0.0,0.0,0.0,0.0,0.0,0.0,0.0,0.0,false
21,0.0,0.0,0.16666666666666666,0.0,0.0,0.0,0.0,0.0,0.0,0.0,0.0,0.0,0.0,0.0,false
260,0.022727272727272728,0.14285714285714285,0.3333333333333333,2.1872265966754156E-4,2.767783005812344E-4,1.0,0.0,0.001490844939068512,0.22222222222222243,0.5032051282051277,0.04945054945054948,0.005601719166280308,0.8435616438356165,0.8435616438356165,false
261,0.0,0.0,0.0,0.0,0.0,0.0,0.0,0.0,0.0,0.0,0.0,0.0,0.0,0.0,false
378,0.0,0.0,0.0,0.0,0.0,0.0,0.0,0.0,0.0,0.0,0.0,0.0,0.0,0.0,false
262,0.0,0.0,0.16666666666666666,0.0,0.0,0.0,0.0,0.0,0.0,0.0,0.0,0.0,0.0,0.0,false
22,0.0,0.0,0.16666666666666666,0.0,0.0,0.0,0.0,0.0,0.0,0.0,0.0,0.0,0.0,0.0,false
145,0.0,0.0,0.0,0.0,0.0,0.0,0.0,0.0,0.0,0.0,0.0,0.0,0.0,0.0,false
146,0.0,0.0,0.16666666666666666,0.0,0.0,0.0,0.0,0.0,0.0,0.0,0.0,0.0,0.0,0.0,false
23,0.0,0.0,0.3333333333333333,0.0,0.0,0.0,0.0,0.0,0.0,0.0,0.0,0.0,0.0,0.0,false
263,0.0,0.0,0.0,0.0,0.0,0.0,0.0,0.0,0.0,0.0,0.0,0.0,0.0,0.0,false
24,0.0,0.0,0.0,0.0,0.0,0.0,0.0,0.0,0.0,0.0,0.0,0.0,0.0,0.0,false
265,0.0,0.0,0.0,0.0,0.0,0.0,0.0,0.0,0.0,0.0,0.0,0.0,0.0,0.0,false
147,0.045454545454545456,0.14285714285714285,0.3333333333333333,0.003937007874015748,0.00498200941046222,1.0,0.0,0.00995522801428058,0.21666666666666673,0.4249999999999999,0.1255952380952381,0.0818276242006953,0.8435616438356165,0.8435616438356165,false
25,0.022727272727272728,0.14285714285714285,0.3333333333333333,2.1872265966754156E-4,2.767783005812344E-4,1.0,0.0,0.001490844939068512,0.22222222222222243,0.5032051282051277,0.04945054945054948,0.005601719166280308,0.8435616438356165,0.8435616438356165,false
148,0.022727272727272728,0.14285714285714285,0.3333333333333333,2.1872265966754156E-4,2.767783005812344E-4,1.0,0.0,0.001490844939068512,0.22222222222222243,0.5032051282051277,0.04945054945054948,0.005601719166280308,0.8435616438356165,0.8435616438356165,false
379,0.022727272727272728,0.14285714285714285,0.3333333333333333,2.1872265966754156E-4,2.767783005812344E-4,1.0,0.0,0.001490844939068512,0.22222222222222243,0.5032051282051277,0.04945054945054948,0.005601719166280308,0.8435616438356165,0.8435616438356165,false
266,0.045454545454545456,0.14285714285714285,0.3333333333333333,0.010498687664041995,0.012455023526155549,1.0,0.0,0.020721677661466886,0.2166666666666667,0.4249999999999999,0.1255952380952381,0.08137298271107639,0.8435616438356165,0.8435616438356165,false
267,0.022727272727272728,0.14285714285714285,0.3333333333333333,2.1872265966754156E-4,2.767783005812344E-4,1.0,0.0,0.001490844939068512,0.22222222222222243,0.5032051282051277,0.04945054945054948,0.005601719166280308,0.8435616438356165,0.8435616438356165,false
150,0.0,0.0,0.16666666666666666,0.0,0.0,0.0,0.0,0.0,0.0,0.0,0.0,0.0,0.0,0.0,false
268,0.0,0.0,0.3333333333333333,0.0,0.0,0.0,0.0,0.0,0.0,0.0,0.0,0.0,0.0,0.0,false
380,0.022727272727272728,0.14285714285714285,0.5,8.748906386701663E-4,0.0011071132023249377,1.0,0.0,0.08249794435343938,0.6913580246913581,0.7777777777777777,0.5449735449735449,0.5648800745543348,0.06506849315068493,0.06506849315068493,false
27,0.0,0.0,0.16666666666666666,0.0,0.0,0.0,0.0,0.0,0.0,0.0,0.0,0.0,0.0,0.0,false
151,0.0,0.0,0.0,0.0,0.0,0.0,0.0,0.0,0.0,0.0,0.0,0.0,0.0,0.0,false
152,0.0,0.0,0.0,0.0,0.0,0.0,0.0,0.0,0.0,0.0,0.0,0.0,0.0,0.0,false
270,0.0,0.0,0.0,0.0,0.0,0.0,0.0,0.0,0.0,0.0,0.0,0.0,0.0,0.0,false
382,0.022727272727272728,0.14285714285714285,0.3333333333333333,2.1872265966754156E-4,2.767783005812344E-4,1.0,0.0,0.001490844939068512,0.22222222222222243,0.5032051282051277,0.04945054945054948,0.005601719166280308,0.8435616438356165,0.8435616438356165,false
271,0.0,0.0,0.0,0.0,0.0,0.0,0.0,0.0,0.0,0.0,0.0,0.0,0.0,0.0,false
28,0.045454545454545456,0.14285714285714285,0.16666666666666666,0.0032808398950131233,2.767783005812344E-4,1.0,0.0,0.019614595605337518,0.21666666666666673,0.42916666666666653,0.1255952380952381,0.08141973214581327,0.8435616438356165,0.8435616438356165,false
272,0.0,0.0,0.16666666666666666,0.0,0.0,0.0,0.0,0.0,0.0,0.0,0.0,0.0,0.0,0.0,false
29,0.022727272727272728,0.14285714285714285,0.3333333333333333,2.1872265966754156E-4,2.767783005812344E-4,1.0,0.0,0.001490844939068512,0.22222222222222243,0.5032051282051277,0.04945054945054948,0.005601719166280308,0.8435616438356165,0.8435616438356165,false
383,0.0,0.0,0.16666666666666666,0.0,0.0,0.0,0.0,0.0,0.0,0.0,0.0,0.0,0.0,0.0,false
384,0.0,0.0,0.16666666666666666,0.0,0.0,0.0,0.0,0.0,0.0,0.0,0.0,0.0,0.0,0.0,false
30,0.0,0.0,0.3333333333333333,0.0,0.0,0.0,0.0,0.0,0.0,0.0,0.0,0.0,0.0,0.0,false
31,0.0,0.0,0.0,0.0,0.0,0.0,0.0,0.0,0.0,0.0,0.0,0.0,0.0,0.0,false
386,0.0,0.0,0.0,0.0,0.0,0.0,0.0,0.0,0.0,0.0,0.0,0.0,0.0,0.0,false
32,0.0,0.0,0.16666666666666666,0.0,0.0,0.0,0.0,0.0,0.0,0.0,0.0,0.0,0.0,0.0,false
154,0.022727272727272728,0.14285714285714285,0.3333333333333333,2.1872265966754156E-4,2.767783005812344E-4,1.0,0.0,0.001490844939068512,0.22222222222222243,0.5032051282051277,0.04945054945054948,0.005601719166280308,0.8435616438356165,0.8435616438356165,false
33,0.045454545454545456,0.2857142857142857,0.16666666666666666,0.004155730533683289,8.303349017437033E-4,0.5263157894736842,0.0,0.039395869719594794,0.8888888888888888,0.7708333333333334,1.0,0.8831639091787131,0.7523287671232877,0.4060713931758663,false
388,0.045454545454545456,0.14285714285714285,0.16666666666666666,0.0026246719160104987,0.0019374481040686411,1.0,0.0,0.007310622724045102,0.2166666666666667,0.42916666666666653,0.1255952380952381,0.08193929957447285,0.8435616438356165,0.8435616438356165,false
35,0.0,0.0,0.0,0.0,0.0,0.0,0.0,0.0,0.0,0.0,0.0,0.0,0.0,0.0,false
273,0.0,0.0,0.0,0.0,0.0,0.0,0.0,0.0,0.0,0.0,0.0,0.0,0.0,0.0,false
155,0.0,0.0,0.16666666666666666,0.0,0.0,0.0,0.0,0.0,0.0,0.0,0.0,0.0,0.0,0.0,false
389,0.022727272727272728,0.14285714285714285,0.3333333333333333,2.1872265966754156E-4,2.767783005812344E-4,1.0,0.0,0.001490844939068512,0.22222222222222243,0.5032051282051277,0.04945054945054948,0.005601719166280308,0.8435616438356165,0.8435616438356165,false
36,0.0,0.0,0.0,0.0,0.0,0.0,0.0,0.0,0.0,0.0,0.0,0.0,0.0,0.0,false
390,0.0,0.0,0.16666666666666666,0.0,0.0,0.0,0.0,0.0,0.0,0.0,0.0,0.0,0.0,0.0,false
274,0.022727272727272728,0.14285714285714285,0.3333333333333333,2.1872265966754156E-4,2.767783005812344E-4,1.0,0.0,0.001490844939068512,0.22222222222222243,0.5032051282051277,0.04945054945054948,0.005601719166280308,0.8435616438356165,0.8435616438356165,false
275,0.0,0.0,0.16666666666666666,0.0,0.0,0.0,0.0,0.0,0.0,0.0,0.0,0.0,0.0,0.0,false
156,0.0,0.0,0.0,0.0,0.0,0.0,0.0,0.0,0.0,0.0,0.0,0.0,0.0,0.0,false
157,0.0,0.0,0.16666666666666666,0.0,0.0,0.0,0.0,0.0,0.0,0.0,0.0,0.0,0.0,0.0,false
276,0.045454545454545456,0.14285714285714285,0.3333333333333333,0.0017497812773403325,0.0022142264046498754,1.0,0.0,0.004262116029958533,0.2166666666666667,0.4249999999999999,0.1255952380952381,0.08206803074119269,0.8435616438356165,0.8435616438356165,false
158,0.0,0.0,0.0,0.0,0.0,0.0,0.0,0.0,0.0,0.0,0.0,0.0,0.0,0.0,false
37,0.0,0.0,0.16666666666666666,0.0,0.0,0.0,0.0,0.0,0.0,0.0,0.0,0.0,0.0,0.0,false
391,0.0,0.0,0.16666666666666666,0.0,0.0,0.0,0.0,0.0,0.0,0.0,0.0,0.0,0.0,0.0,false
393,0.0,0.0,0.3333333333333333,0.0,0.0,0.0,0.0,0.0,0.0,0.0,0.0,0.0,0.0,0.0,false
394,0.0,0.0,0.0,0.0,0.0,0.0,0.0,0.0,0.0,0.0,0.0,0.0,0.0,0.0,false
278,0.0,0.0,0.16666666666666666,0.0,0.0,0.0,0.0,0.0,0.0,0.0,0.0,0.0,0.0,0.0,false
38,0.0,0.0,0.16666666666666666,0.0,0.0,0.0,0.0,0.0,0.0,0.0,0.0,0.0,0.0,0.0,false
39,0.0,0.0,0.16666666666666666,0.0,0.0,0.0,0.0,0.0,0.0,0.0,0.0,0.0,0.0,0.0,false
40,0.0,0.0,0.0,0.0,0.0,0.0,0.0,0.0,0.0,0.0,0.0,0.0,0.0,0.0,false
159,0.0,0.0,0.0,0.0,0.0,0.0,0.0,0.0,0.0,0.0,0.0,0.0,0.0,0.0,false
280,0.022727272727272728,0.14285714285714285,0.16666666666666666,2.1872265966754156E-4,2.767783005812344E-4,1.0,0.0,0.0014908449390685118,0.0,0.0,0.0,0.0,0.8435616438356165,0.8435616438356165,false
281,0.0,0.0,0.0,0.0,0.0,0.0,0.0,0.0,0.0,0.0,0.0,0.0,0.0,0.0,false
41,0.0,0.0,0.16666666666666666,0.0,0.0,0.0,0.0,0.0,0.0,0.0,0.0,0.0,0.0,0.0,false
282,0.0,0.0,0.0,0.0,0.0,0.0,0.0,0.0,0.0,0.0,0.0,0.0,0.0,0.0,false
43,0.3181818181818182,0.14285714285714285,0.16666666666666666,0.2622484689413823,0.1713257680597841,1.0,0.0,0.3327205459529806,0.20202020202020207,0.39393939393939365,0.1108225108225108,0.07838155513366472,0.8435616438356165,0.8435616438356165,false
44,0.0,0.0,0.16666666666666666,0.0,0.0,0.0,0.0,0.0,0.0,0.0,0.0,0.0,0.0,0.0,false
396,0.0,0.0,0.16666666666666666,0.0,0.0,0.0,0.0,0.0,0.0,0.0,0.0,0.0,0.0,0.0,false
45,0.045454545454545456,0.14285714285714285,0.16666666666666666,0.005249343832020997,0.0066426792139496265,1.0,0.0,0.010458639736950904,0.2166666666666667,0.42916666666666653,0.1255952380952381,0.08180636632433062,0.8435616438356165,0.8435616438356165,false
46,0.0,0.0,0.3333333333333333,0.0,0.0,0.0,0.0,0.0,0.0,0.0,0.0,0.0,0.0,0.0,false
284,0.0,0.0,0.0,0.0,0.0,0.0,0.0,0.0,0.0,0.0,0.0,0.0,0.0,0.0,false
285,0.045454545454545456,0.14285714285714285,0.3333333333333333,0.006342957130358705,0.0077497924162745644,1.0,0.0,0.010314954521026666,0.2166666666666667,0.4249999999999999,0.1255952380952381,0.08181243380829653,0.8435616438356165,0.8435616438356165,false
397,0.022727272727272728,0.14285714285714285,0.3333333333333333,2.1872265966754156E-4,2.767783005812344E-4,1.0,0.0,0.001490844939068512,0.22222222222222243,0.5032051282051277,0.04945054945054948,0.005601719166280308,0.8435616438356165,0.8435616438356165,false
47,0.045454545454545456,0.14285714285714285,0.0,0.022965879265091863,0.0013838915029061722,1.0,0.0,0.022186646701593957,0.4634920634920634,0.44285714285714267,0.29659863945578224,0.3532644928802483,1.0,1.0,false
162,0.11363636363636363,0.2857142857142857,0.16666666666666666,0.10454943132108487,0.021588707445336287,0.6694560669456067,0.0,0.07621814459898142,0.36666666666666675,0.2916666666666667,0.2,0.14943001573004233,0.7523287671232877,0.24616769956830747,false
48,0.045454545454545456,0.14285714285714285,0.0,0.022965879265091863,0.0013838915029061722,1.0,0.0,0.022186646701593957,0.4634920634920634,0.44285714285714267,0.29659863945578224,0.3532644928802483,1.0,1.0,false
163,0.0,0.0,0.3333333333333333,0.0,0.0,0.0,0.0,0.0,0.0,0.0,0.0,0.0,0.0,0.0,false
398,0.0,0.0,0.16666666666666666,0.0,0.0,0.0,0.0,0.0,0.0,0.0,0.0,0.0,0.0,0.0,false
165,0.045454545454545456,0.14285714285714285,0.16666666666666666,0.019247594050743656,0.021588707445336287,1.0,0.0,0.03506726503174021,0.21666666666666673,0.42916666666666653,0.1255952380952381,0.0807672027719872,0.8435616438356165,0.8435616438356165,false
49,0.045454545454545456,0.14285714285714285,0.3333333333333333,0.004593175853018373,0.003044561306393579,1.0,0.0,0.2946366080360389,0.0,0.0,0.0,0.0,0.7523287671232877,0.7523287671232877,false
167,0.0,0.0,0.16666666666666666,0.0,0.0,0.0,0.0,0.0,0.0,0.0,0.0,0.0,0.0,0.0,false
400,0.022727272727272728,0.14285714285714285,0.3333333333333333,2.1872265966754156E-4,2.767783005812344E-4,1.0,0.0,0.001490844939068512,0.22222222222222243,0.5032051282051277,0.04945054945054948,0.005601719166280308,0.8435616438356165,0.8435616438356165,false
401,0.0,0.0,0.0,0.0,0.0,0.0,0.0,0.0,0.0,0.0,0.0,0.0,0.0,0.0,false
50,0.0,0.0,0.0,0.0,0.0,0.0,0.0,0.0,0.0,0.0,0.0,0.0,0.0,0.0,false
168,0.0,0.0,0.0,0.0,0.0,0.0,0.0,0.0,0.0,0.0,0.0,0.0,0.0,0.0,false
170,0.0,0.0,0.0,0.0,0.0,0.0,0.0,0.0,0.0,0.0,0.0,0.0,0.0,0.0,false
171,0.0,0.0,0.0,0.0,0.0,0.0,0.0,0.0,0.0,0.0,0.0,0.0,0.0,0.0,false
288,0.0,0.0,0.0,0.0,0.0,0.0,0.0,0.0,0.0,0.0,0.0,0.0,0.0,0.0,false
172,0.0,0.0,0.0,0.0,0.0,0.0,0.0,0.0,0.0,0.0,0.0,0.0,0.0,0.0,false
289,0.022727272727272728,0.14285714285714285,0.3333333333333333,2.1872265966754156E-4,2.767783005812344E-4,1.0,0.0,0.001490844939068512,0.22222222222222243,0.5032051282051277,0.04945054945054948,0.005601719166280308,0.8435616438356165,0.8435616438356165,false
51,0.0,0.0,0.0,0.0,0.0,0.0,0.0,0.0,0.0,0.0,0.0,0.0,0.0,0.0,false
402,0.0,0.0,0.0,0.0,0.0,0.0,0.0,0.0,0.0,0.0,0.0,0.0,0.0,0.0,false
52,0.0,0.0,0.16666666666666666,0.0,0.0,0.0,0.0,0.0,0.0,0.0,0.0,0.0,0.0,0.0,false
173,0.0,0.0,0.16666666666666666,0.0,0.0,0.0,0.0,0.0,0.0,0.0,0.0,0.0,0.0,0.0,false
174,0.0,0.0,0.16666666666666666,0.0,0.0,0.0,0.0,0.0,0.0,0.0,0.0,0.0,0.0,0.0,false
290,0.022727272727272728,0.14285714285714285,0.0,0.08727034120734908,0.0,1.0,0.0,0.0858585181016705,0.1388888888888889,0.22916666666666666,0.13095238095238096,0.12261719641177635,0.8435616438356165,0.8435616438356165,false
53,0.022727272727272728,0.14285714285714285,0.16666666666666666,8.748906386701663E-4,0.0011071132023249377,1.0,0.0,0.023196270825570228,0.2127659574468086,0.4255319148936168,0.1337386018237082,0.09084771537723245,0.8435616438356165,0.8435616438356165,false
291,0.0,0.0,0.3333333333333333,0.0,0.0,0.0,0.0,0.0,0.0,0.0,0.0,0.0,0.0,0.0,false
403,0.0,0.0,0.0,0.0,0.0,0.0,0.0,0.0,0.0,0.0,0.0,0.0,0.0,0.0,false
404,0.09090909090909091,0.2857142857142857,0.16666666666666666,0.043963254593175856,0.05175754220869084,0.7910447761194029,0.0,0.06027356756741529,0.36666666666666675,0.29166666666666674,0.20476190476190476,0.15212322156502964,0.7523287671232877,0.24616769956830747,false
406,0.0,0.0,0.0,0.0,0.0,0.0,0.0,0.0,0.0,0.0,0.0,0.0,0.0,0.0,false
407,0.0,0.0,0.0,0.0,0.0,0.0,0.0,0.0,0.0,0.0,0.0,0.0,0.0,0.0,false
55,0.022727272727272728,0.14285714285714285,0.3333333333333333,2.1872265966754156E-4,2.767783005812344E-4,1.0,0.0,0.001490844939068512,0.22222222222222243,0.5032051282051277,0.04945054945054948,0.005601719166280308,0.8435616438356165,0.8435616438356165,false
293,0.0,0.0,0.16666666666666666,0.0,0.0,0.0,0.0,0.0,0.0,0.0,0.0,0.0,0.0,0.0,false
178,0.022727272727272728,0.14285714285714285,0.3333333333333333,2.1872265966754156E-4,2.767783005812344E-4,1.0,0.0,0.001490844939068512,0.22222222222222243,0.5032051282051277,0.04945054945054948,0.005601719166280308,0.8435616438356165,0.8435616438356165,false
408,0.0,0.0,0.0,0.0,0.0,0.0,0.0,0.0,0.0,0.0,0.0,0.0,0.0,0.0,false
409,0.0,0.0,0.16666666666666666,0.0,0.0,0.0,0.0,0.0,0.0,0.0,0.0,0.0,0.0,0.0,false
410,0.0,0.0,0.16666666666666666,0.0,0.0,0.0,0.0,0.0,0.0,0.0,0.0,0.0,0.0,0.0,false
56,0.0,0.0,0.0,0.0,0.0,0.0,0.0,0.0,0.0,0.0,0.0,0.0,0.0,0.0,false
294,0.0,0.0,0.0,0.0,0.0,0.0,0.0,0.0,0.0,0.0,0.0,0.0,0.0,0.0,false
57,0.0,0.0,0.16666666666666666,0.0,0.0,0.0,0.0,0.0,0.0,0.0,0.0,0.0,0.0,0.0,false
58,0.0,0.0,0.16666666666666666,0.0,0.0,0.0,0.0,0.0,0.0,0.0,0.0,0.0,0.0,0.0,false
411,0.0,0.0,0.0,0.0,0.0,0.0,0.0,0.0,0.0,0.0,0.0,0.0,0.0,0.0,false
59,0.0,0.0,0.16666666666666666,0.0,0.0,0.0,0.0,0.0,0.0,0.0,0.0,0.0,0.0,0.0,false
179,0.022727272727272728,0.14285714285714285,0.0,0.0,5.535566011624688E-4,0.0,0.0,0.0013264890063399463,0.0,0.0,0.0,0.0,0.0,0.7523287671232877,false
295,0.0,0.0,0.0,0.0,0.0,0.0,0.0,0.0,0.0,0.0,0.0,0.0,0.0,0.0,false
60,0.06818181818181818,0.14285714285714285,0.5,0.0021872265966754157,0.003044561306393579,1.0,0.0,0.05916746314070005,0.21666666666666673,0.42083333333333317,0.12440476190476189,0.07974950888705531,0.8435616438356165,0.8435616438356165,false
296,0.0,0.0,0.3333333333333333,0.0,0.0,0.0,0.0,0.0,0.0,0.0,0.0,0.0,0.0,0.0,false
61,0.022727272727272728,0.14285714285714285,0.3333333333333333,2.1872265966754156E-4,2.767783005812344E-4,1.0,0.0,0.001490844939068512,0.22222222222222243,0.5032051282051277,0.04945054945054948,0.005601719166280308,0.8435616438356165,0.8435616438356165,false
180,0.0,0.0,0.0,0.0,0.0,0.0,0.0,0.0,0.0,0.0,0.0,0.0,0.0,0.0,false
181,0.0,0.0,0.16666666666666666,0.0,0.0,0.0,0.0,0.0,0.0,0.0,0.0,0.0,0.0,0.0,false
62,0.045454545454545456,0.14285714285714285,0.3333333333333333,0.0017497812773403325,2.767783005812344E-4,1.0,0.0,0.06013877967906095,0.222222222222222,0.49999999999999956,0.05643738977072306,0.011155847136255765,0.8435616438356165,0.8435616438356165,false
412,0.022727272727272728,0.14285714285714285,0.16666666666666666,0.01531058617672791,0.005535566011624689,1.0,0.0,0.03998582620476411,0.2222222222222222,0.16666666666666666,0.047619047619047616,0.0386116415518522,1.0,1.0,false
298,0.18181818181818182,0.42857142857142855,0.5,0.048118985126859144,0.02684749515637974,0.5136363636363637,0.3333333333333333,0.2602280907165116,0.5486111111111112,0.5625,0.45089285714285715,0.4734273165720403,0.2191780821917808,0.24250607581688377,false
299,0.022727272727272728,0.14285714285714285,0.0,0.01837270341207349,0.0,1.0,0.0,0.018078095808590346,0.4444444444444444,0.4215686274509802,0.24649859943977587,0.30534444330939364,1.0,1.0,false
182,0.0,0.0,0.0,0.0,0.0,0.0,0.0,0.0,0.0,0.0,0.0,0.0,0.0,0.0,false
300,0.0,0.0,0.3333333333333333,0.0,0.0,0.0,0.0,0.0,0.0,0.0,0.0,0.0,0.0,0.0,false
63,0.045454545454545456,0.14285714285714285,0.16666666666666666,0.010498687664041995,0.013285358427899253,1.0,0.0,0.02127459756950524,0.21666666666666673,0.42916666666666653,0.1255952380952381,0.08134963422212524,0.8435616438356165,0.8435616438356165,false
183,0.022727272727272728,0.14285714285714285,0.3333333333333333,0.0,0.0016606698034874066,0.0,0.0,0.001326489006339946,0.0,0.0,0.0,0.0,0.0,0.2191780821917808,false
64,0.0,0.0,0.0,0.0,0.0,0.0,0.0,0.0,0.0,0.0,0.0,0.0,0.0,0.0,false
184,0.0,0.0,0.16666666666666666,0.0,0.0,0.0,0.0,0.0,0.0,0.0,0.0,0.0,0.0,0.0,false
65,0.0,0.0,0.0,0.0,0.0,0.0,0.0,0.0,0.0,0.0,0.0,0.0,0.0,0.0,false
302,0.022727272727272728,0.14285714285714285,0.3333333333333333,2.1872265966754156E-4,2.767783005812344E-4,1.0,0.0,0.001490844939068512,0.22222222222222243,0.5032051282051277,0.04945054945054948,0.005601719166280308,0.8435616438356165,0.8435616438356165,false
303,0.0,0.0,0.0,0.0,0.0,0.0,0.0,0.0,0.0,0.0,0.0,0.0,0.0,0.0,false
185,0.0,0.0,0.16666666666666666,0.0,0.0,0.0,0.0,0.0,0.0,0.0,0.0,0.0,0.0,0.0,false
186,0.0,0.0,0.16666666666666666,0.0,0.0,0.0,0.0,0.0,0.0,0.0,0.0,0.0,0.0,0.0,false
187,0.022727272727272728,0.14285714285714285,0.3333333333333333,2.1872265966754156E-4,2.767783005812344E-4,1.0,0.0,0.001490844939068512,0.22222222222222243,0.5032051282051277,0.04945054945054948,0.005601719166280308,0.8435616438356165,0.8435616438356165,false
66,0.0,0.0,0.0,0.0,0.0,0.0,0.0,0.0,0.0,0.0,0.0,0.0,0.0,0.0,false
188,0.022727272727272728,0.14285714285714285,0.3333333333333333,2.1872265966754156E-4,2.767783005812344E-4,1.0,0.0,0.001490844939068512,0.22222222222222243,0.5032051282051277,0.04945054945054948,0.005601719166280308,0.8435616438356165,0.8435616438356165,false
189,0.022727272727272728,0.14285714285714285,0.3333333333333333,2.1872265966754156E-4,2.767783005812344E-4,1.0,0.0,0.001490844939068512,0.22222222222222243,0.5032051282051277,0.04945054945054948,0.005601719166280308,0.8435616438356165,0.8435616438356165,false
413,0.045454545454545456,0.14285714285714285,0.16666666666666666,0.011373578302712161,0.011071132023249377,1.0,0.0,0.017840029155544685,0.2166666666666667,0.42916666666666653,0.1255952380952381,0.08149466785448232,0.8435616438356165,0.8435616438356165,false
414,0.045454545454545456,0.14285714285714285,0.16666666666666666,0.01115485564304462,0.010517575422086908,1.0,0.0,0.02213187032121908,0.2166666666666667,0.42916666666666653,0.1255952380952381,0.08131343363849544,0.8435616438356165,0.8435616438356165,false
190,0.0,0.0,0.0,0.0,0.0,0.0,0.0,0.0,0.0,0.0,0.0,0.0,0.0,0.0,false
304,0.022727272727272728,0.14285714285714285,0.0,0.033027121609798774,0.0,1.0,0.0,0.03249221214944348,0.48148148148148145,0.46296296296296297,0.34920634920634913,0.3979407949322862,1.0,1.0,false
68,0.0,0.0,0.3333333333333333,0.0,0.0,0.0,0.0,0.0,0.0,0.0,0.0,0.0,0.0,0.0,false
191,0.022727272727272728,0.14285714285714285,0.16666666666666666,0.008311461067366578,0.024079712150567395,1.0,0.0,0.014038452912719138,0.271604938271605,0.4259259259259259,0.058201058201058205,0.13273944012559577,0.8435616438356165,0.8435616438356165,false
69,0.0,0.0,0.16666666666666666,0.0,0.0,0.0,0.0,0.0,0.0,0.0,0.0,0.0,0.0,0.0,false
305,0.0,0.0,0.0,0.0,0.0,0.0,0.0,0.0,0.0,0.0,0.0,0.0,0.0,0.0,false
70,0.0,0.0,0.0,0.0,0.0,0.0,0.0,0.0,0.0,0.0,0.0,0.0,0.0,0.0,false
415,0.045454545454545456,0.14285714285714285,0.3333333333333333,0.01399825021872266,0.016053141433711598,1.0,0.0,0.02144000062910548,0.2166666666666667,0.4249999999999998,0.1255952380952381,0.08134264964541996,0.8435616438356165,0.8435616438356165,false
71,0.0,0.0,0.0,0.0,0.0,0.0,0.0,0.0,0.0,0.0,0.0,0.0,0.0,0.0,false
416,0.022727272727272728,0.14285714285714285,0.3333333333333333,2.1872265966754156E-4,2.767783005812344E-4,1.0,0.0,0.001490844939068512,0.22222222222222243,0.5032051282051277,0.04945054945054948,0.005601719166280308,0.8435616438356165,0.8435616438356165,false
307,0.0,0.0,0.16666666666666666,0.0,0.0,0.0,0.0,0.0,0.0,0.0,0.0,0.0,0.0,0.0,false
417,0.0,0.0,0.3333333333333333,0.0,0.0,0.0,0.0,0.0,0.0,0.0,0.0,0.0,0.0,0.0,false
192,0.022727272727272728,0.14285714285714285,0.3333333333333333,2.1872265966754156E-4,2.767783005812344E-4,1.0,0.0,0.001490844939068512,0.22222222222222243,0.5032051282051277,0.04945054945054948,0.005601719166280308,0.8435616438356165,0.8435616438356165,false
418,0.0,0.0,0.0,0.0,0.0,0.0,0.0,0.0,0.0,0.0,0.0,0.0,0.0,0.0,false
193,0.0,0.0,0.16666666666666666,0.0,0.0,0.0,0.0,0.0,0.0,0.0,0.0,0.0,0.0,0.0,false
194,0.022727272727272728,0.14285714285714285,0.0,0.02668416447944007,0.0,1.0,0.0,0.026254325421849325,0.271604938271605,0.4444444444444445,0.058201058201058205,0.1304467860808369,0.8435616438356165,0.8435616438356165,false
73,0.045454545454545456,0.14285714285714285,0.3333333333333333,0.045275590551181105,0.04677553279822862,1.0,0.0,0.08375169410808347,0.21666666666666673,0.4249999999999999,0.1255952380952381,0.0787113754489755,0.8435616438356165,0.8435616438356165,false
74,0.0,0.0,0.0,0.0,0.0,0.0,0.0,0.0,0.0,0.0,0.0,0.0,0.0,0.0,false
419,0.0,0.0,0.0,0.0,0.0,0.0,0.0,0.0,0.0,0.0,0.0,0.0,0.0,0.0,false
72,0.045454545454545456,0.14285714285714285,0.3333333333333333,0.016404199475065617,0.008026570716855799,1.0,0.0,0.02348525569773485,0.21666666666666673,0.4249999999999999,0.1255952380952381,0.08125628340199492,0.8435616438356165,0.8435616438356165,false
420,0.045454545454545456,0.14285714285714285,0.16666666666666666,0.0017497812773403325,0.0013838915029061722,1.0,0.0,0.06392133502522594,0.2127659574468086,0.4255319148936169,0.132725430597771,0.08938412190651483,0.8435616438356165,0.8435616438356165,false
308,0.0,0.0,0.0,0.0,0.0,0.0,0.0,0.0,0.0,0.0,0.0,0.0,0.0,0.0,false
77,0.0,0.0,0.3333333333333333,0.0,0.0,0.0,0.0,0.0,0.0,0.0,0.0,0.0,0.0,0.0,false
195,0.0,0.0,0.16666666666666666,0.0,0.0,0.0,0.0,0.0,0.0,0.0,0.0,0.0,0.0,0.0,false
196,0.045454545454545456,0.14285714285714285,0.3333333333333333,0.0030621172353455816,0.0038748962081372822,1.0,0.0,0.007144417074601494,0.21666666666666673,0.4249999999999999,0.1255952380952381,0.08194631804263296,0.8435616438356165,0.8435616438356165,false
197,0.06818181818181818,0.42857142857142855,0.3333333333333333,0.08508311461067367,0.018544146138942705,0.7532133676092545,0.3333333333333333,0.06549262793500182,0.6913580246913581,0.5925925925925927,0.43915343915343913,0.26194842713337985,0.2191780821917808,0.2460307955801832,false
421,0.045454545454545456,0.2857142857142857,0.6666666666666666,0.006561679790026247,0.0019374481040686411,0.8,0.0,0.2134057779300331,0.24691358024691365,0.3703703703703704,0.05291005291005292,0.09532252178823789,0.8435616438356165,0.2606667548137188,false
79,0.022727272727272728,0.14285714285714285,0.16666666666666666,8.748906386701663E-4,0.0016606698034874066,1.0,0.0,0.002173261280595517,0.4444444444444444,0.49999999999999994,0.19047619047619047,0.27105067799962984,1.0,1.0,false
80,0.0,0.0,0.0,0.0,0.0,0.0,0.0,0.0,0.0,0.0,0.0,0.0,0.0,0.0,false
198,0.045454545454545456,0.14285714285714285,0.3333333333333333,0.012904636920384951,0.016606698034874065,1.0,0.0,0.030004655326032442,0.21666666666666673,0.4249999999999999,0.1255952380952381,0.08098098470506516,0.8435616438356165,0.8435616438356165,false
81,0.0,0.0,0.3333333333333333,0.0,0.0,0.0,0.0,0.0,0.0,0.0,0.0,0.0,0.0,0.0,false
422,0.045454545454545456,0.14285714285714285,0.3333333333333333,0.031933508311461065,0.0417935233877664,1.0,0.0,0.0646457361308889,0.2166666666666667,0.4249999999999998,0.1255952380952381,0.07951817448486921,0.8435616438356165,0.8435616438356165,false
199,0.0,0.0,0.0,0.0,0.0,0.0,0.0,0.0,0.0,0.0,0.0,0.0,0.0,0.0,false
82,0.022727272727272728,0.14285714285714285,0.0,0.004374453193350831,0.0027677830058123443,1.0,0.0,0.02285923656635883,0.2222222222222222,0.3333333333333333,0.047619047619047616,0.0675402428288066,1.0,1.0,false
201,0.0,0.0,0.0,0.0,0.0,0.0,0.0,0.0,0.0,0.0,0.0,0.0,0.0,0.0,false
423,0.0,0.0,0.0,0.0,0.0,0.0,0.0,0.0,0.0,0.0,0.0,0.0,0.0,0.0,false
83,0.022727272727272728,0.14285714285714285,0.0,0.03543307086614173,0.0,1.0,0.0,0.034861287215835327,0.271604938271605,0.4444444444444445,0.058201058201058205,0.12883144622236023,0.8435616438356165,0.8435616438356165,false
310,0.022727272727272728,0.14285714285714285,0.0,0.00853018372703412,0.0,1.0,0.0,0.008389453102415529,0.1388888888888889,0.22916666666666666,0.13095238095238096,0.13897386563181513,0.8435616438356165,0.8435616438356165,false
84,0.0,0.0,0.16666666666666666,0.0,0.0,0.0,0.0,0.0,0.0,0.0,0.0,0.0,0.0,0.0,false
202,0.18181818181818182,0.14285714285714285,0.5,0.25240594925634297,0.06365900913368391,1.0,0.0,0.2368211210840996,0.21578099838969386,0.4444444444444445,0.16494133885438234,0.12816812850042697,0.8435616438356165,0.8435616438356165,false
424,0.06818181818181818,0.14285714285714285,0.5,0.006780402449693788,0.005535566011624689,1.0,0.0,0.09374890740857751,0.2127659574468086,0.41843971631205656,0.1317122593718338,0.0883121668084551,0.8435616438356165,0.8435616438356165,false
311,0.022727272727272728,0.14285714285714285,0.3333333333333333,2.1872265966754156E-4,2.767783005812344E-4,1.0,0.0,0.001490844939068512,0.22222222222222243,0.5032051282051277,0.04945054945054948,0.005601719166280308,0.8435616438356165,0.8435616438356165,false
203,0.0,0.0,0.0,0.0,0.0,0.0,0.0,0.0,0.0,0.0,0.0,0.0,0.0,0.0,false
312,0.0,0.0,0.0,0.0,0.0,0.0,0.0,0.0,0.0,0.0,0.0,0.0,0.0,0.0,false
85,0.0,0.0,0.3333333333333333,0.0,0.0,0.0,0.0,0.0,0.0,0.0,0.0,0.0,0.0,0.0,false
313,0.0,0.0,0.16666666666666666,0.0,0.0,0.0,0.0,0.0,0.0,0.0,0.0,0.0,0.0,0.0,false
425,0.022727272727272728,0.14285714285714285,0.16666666666666666,0.0017497812773403325,0.0,1.0,0.0,0.0030279203850874375,0.48148148148148157,0.45370370370370366,0.34920634920634913,0.40070569885703733,1.0,1.0,false
205,0.0,0.0,0.0,0.0,0.0,0.0,0.0,0.0,0.0,0.0,0.0,0.0,0.0,0.0,false
314,0.0,0.0,0.16666666666666666,0.0,0.0,0.0,0.0,0.0,0.0,0.0,0.0,0.0,0.0,0.0,false
426,0.0,0.0,0.16666666666666666,0.0,0.0,0.0,0.0,0.0,0.0,0.0,0.0,0.0,0.0,0.0,false
207,0.0,0.0,0.0,0.0,0.0,0.0,0.0,0.0,0.0,0.0,0.0,0.0,0.0,0.0,false
206,0.0,0.0,0.16666666666666666,0.0,0.0,0.0,0.0,0.0,0.0,0.0,0.0,0.0,0.0,0.0,false
86,0.0,0.0,0.16666666666666666,0.0,0.0,0.0,0.0,0.0,0.0,0.0,0.0,0.0,0.0,0.0,false
87,0.022727272727272728,0.14285714285714285,0.16666666666666666,2.1872265966754156E-4,2.767783005812344E-4,1.0,0.0,0.001490844939068512,0.0,0.0,0.0,0.0,0.7523287671232877,0.7523287671232877,false
88,0.045454545454545456,0.14285714285714285,0.3333333333333333,0.0032808398950131233,0.004151674508718516,1.0,0.0,0.010945625673867794,0.21666666666666673,0.4249999999999999,0.1255952380952381,0.08178580206972128,0.8435616438356165,0.8435616438356165,false
427,0.022727272727272728,0.14285714285714285,0.3333333333333333,2.1872265966754156E-4,2.767783005812344E-4,1.0,0.0,0.001490844939068512,0.22222222222222243,0.5032051282051277,0.04945054945054948,0.005601719166280308,0.8435616438356165,0.8435616438356165,false
89,0.022727272727272728,0.14285714285714285,0.3333333333333333,2.1872265966754156E-4,2.767783005812344E-4,1.0,0.0,0.001490844939068512,0.22222222222222243,0.5032051282051277,0.04945054945054948,0.005601719166280308,0.8435616438356165,0.8435616438356165,false
315,0.0,0.0,0.16666666666666666,0.0,0.0,0.0,0.0,0.0,0.0,0.0,0.0,0.0,0.0,0.0,false
208,0.0,0.0,0.0,0.0,0.0,0.0,0.0,0.0,0.0,0.0,0.0,0.0,0.0,0.0,false
209,0.022727272727272728,0.14285714285714285,0.3333333333333333,0.0010936132983377078,2.767783005812344E-4,1.0,0.0,0.0034563818002154795,0.0,0.0,0.0,0.0,0.7523287671232877,0.7523287671232877,false
316,0.022727272727272728,0.14285714285714285,0.3333333333333333,2.1872265966754156E-4,2.767783005812344E-4,1.0,0.0,0.001490844939068512,0.22222222222222243,0.5032051282051277,0.04945054945054948,0.005601719166280308,0.8435616438356165,0.8435616438356165,false
317,0.0,0.0,0.16666666666666666,0.0,0.0,0.0,0.0,0.0,0.0,0.0,0.0,0.0,0.0,0.0,false
210,0.022727272727272728,0.14285714285714285,0.3333333333333333,2.1872265966754156E-4,2.767783005812344E-4,1.0,0.0,0.001490844939068512,0.22222222222222243,0.5032051282051277,0.04945054945054948,0.005601719166280308,0.8435616438356165,0.8435616438356165,false
428,0.0,0.0,0.0,0.0,0.0,0.0,0.0,0.0,0.0,0.0,0.0,0.0,0.0,0.0,false
318,0.0,0.0,0.3333333333333333,0.0,0.0,0.0,0.0,0.0,0.0,0.0,0.0,0.0,0.0,0.0,false
320,0.022727272727272728,0.14285714285714285,0.3333333333333333,4.374453193350831E-4,2.767783005812344E-4,1.0,0.0,0.002173261280595517,0.8444444444444446,0.7333333333333334,0.8,0.7545031697565788,0.2191780821917808,0.2191780821917808,false
319,0.0,0.0,0.16666666666666666,0.0,0.0,0.0,0.0,0.0,0.0,0.0,0.0,0.0,0.0,0.0,false
430,0.022727272727272728,0.14285714285714285,0.0,0.04046369203849519,0.05590921671740935,1.0,0.0,0.054980455002654104,0.3472222222222222,0.28125,0.21428571428571427,0.16320067643895328,0.7523287671232877,0.7523287671232877,false
321,0.022727272727272728,0.14285714285714285,0.16666666666666666,6.561679790026247E-4,0.0,1.0,0.0,0.009986064755678249,0.8444444444444446,0.7666666666666666,0.8,0.7518638413046487,0.2191780821917808,0.2191780821917808,false
90,0.0,0.0,0.0,0.0,0.0,0.0,0.0,0.0,0.0,0.0,0.0,0.0,0.0,0.0,false
431,0.0,0.0,0.3333333333333333,0.0,0.0,0.0,0.0,0.0,0.0,0.0,0.0,0.0,0.0,0.0,false
91,0.0,0.0,0.0,0.0,0.0,0.0,0.0,0.0,0.0,0.0,0.0,0.0,0.0,0.0,false
211,0.0,0.0,0.3333333333333333,0.0,0.0,0.0,0.0,0.0,0.0,0.0,0.0,0.0,0.0,0.0,false
322,0.022727272727272728,0.14285714285714285,0.5,2.1872265966754156E-4,2.767783005812344E-4,1.0,0.0,0.001490844939068512,0.0,0.0,0.0,0.0,0.7523287671232877,0.7523287671232877,false
432,0.022727272727272728,0.14285714285714285,0.16666666666666666,0.007655293088363955,0.0,1.0,0.0,0.008389453102415526,0.4444444444444444,0.41176470588235276,0.24649859943977587,0.3063070980697927,1.0,1.0,false
433,0.022727272727272728,0.14285714285714285,0.16666666666666666,0.004374453193350831,0.0,1.0,0.0,0.005173396630632086,0.4444444444444444,0.5,0.19047619047619047,0.26936149719655306,1.0,1.0,false
212,0.0,0.0,0.16666666666666666,0.0,0.0,0.0,0.0,0.0,0.0,0.0,0.0,0.0,0.0,0.0,false
434,0.045454545454545456,0.14285714285714285,0.3333333333333333,0.0013123359580052493,8.303349017437033E-4,1.0,0.0,0.084665955051397,0.19999999999999998,0.5166666666666667,0.19523809523809527,0.20157805723384034,0.8435616438356165,0.8435616438356165,false
213,0.0,0.0,0.0,0.0,0.0,0.0,0.0,0.0,0.0,0.0,0.0,0.0,0.0,0.0,false
93,0.0,0.0,0.16666666666666666,0.0,0.0,0.0,0.0,0.0,0.0,0.0,0.0,0.0,0.0,0.0,false
435,0.022727272727272728,0.14285714285714285,0.3333333333333333,2.1872265966754156E-4,2.767783005812344E-4,1.0,0.0,0.001490844939068512,0.22222222222222243,0.5032051282051277,0.04945054945054948,0.005601719166280308,0.8435616438356165,0.8435616438356165,false
94,0.0,0.0,0.0,0.0,0.0,0.0,0.0,0.0,0.0,0.0,0.0,0.0,0.0,0.0,false
323,0.0,0.0,0.3333333333333333,0.0,0.0,0.0,0.0,0.0,0.0,0.0,0.0,0.0,0.0,0.0,false
436,0.0,0.0,0.0,0.0,0.0,0.0,0.0,0.0,0.0,0.0,0.0,0.0,0.0,0.0,false
95,0.045454545454545456,0.2857142857142857,0.3333333333333333,4.374453193350831E-4,0.0,0.5,0.0,0.001581279849169485,0.7692307692307694,0.8205128205128204,0.684981684981685,0.6513725548258148,0.2191780821917808,0.11942188886412804,false
324,0.0,0.0,0.0,0.0,0.0,0.0,0.0,0.0,0.0,0.0,0.0,0.0,0.0,0.0,false
214,0.0,0.0,0.0,0.0,0.0,0.0,0.0,0.0,0.0,0.0,0.0,0.0,0.0,0.0,false
96,0.022727272727272728,0.14285714285714285,0.3333333333333333,2.1872265966754156E-4,2.767783005812344E-4,1.0,0.0,0.001490844939068512,0.22222222222222243,0.5032051282051277,0.04945054945054948,0.005601719166280308,0.8435616438356165,0.8435616438356165,false
438,0.0,0.0,0.5,0.0,0.0,0.0,0.0,0.0,0.0,0.0,0.0,0.0,0.0,0.0,false
325,0.0,0.0,0.0,0.0,0.0,0.0,0.0,0.0,0.0,0.0,0.0,0.0,0.0,0.0,false
439,0.0,0.0,0.0,0.0,0.0,0.0,0.0,0.0,0.0,0.0,0.0,0.0,0.0,0.0,false
326,0.0,0.0,0.0,0.0,0.0,0.0,0.0,0.0,0.0,0.0,0.0,0.0,0.0,0.0,false
440,0.0,0.0,0.16666666666666666,0.0,0.0,0.0,0.0,0.0,0.0,0.0,0.0,0.0,0.0,0.0,false
327,0.0,0.0,0.0,0.0,0.0,0.0,0.0,0.0,0.0,0.0,0.0,0.0,0.0,0.0,false
97,0.0,0.0,0.0,0.0,0.0,0.0,0.0,0.0,0.0,0.0,0.0,0.0,0.0,0.0,false
215,0.022727272727272728,0.14285714285714285,0.3333333333333333,2.1872265966754156E-4,2.767783005812344E-4,1.0,0.0,0.001490844939068512,0.22222222222222243,0.5032051282051277,0.04945054945054948,0.005601719166280308,0.8435616438356165,0.8435616438356165,false
98,0.0,0.0,0.0,0.0,0.0,0.0,0.0,0.0,0.0,0.0,0.0,0.0,0.0,0.0,false
328,0.022727272727272728,0.14285714285714285,0.16666666666666666,2.1872265966754156E-4,2.767783005812344E-4,1.0,0.0,0.001490844939068512,0.1388888888888889,0.20833333333333334,0.13095238095238096,0.14043042447640183,0.8435616438356165,0.8435616438356165,false
442,0.045454545454545456,0.14285714285714285,0.3333333333333333,0.004593175853018373,0.005535566011624689,1.0,0.0,0.007964891643350859,0.2166666666666667,0.4249999999999998,0.1255952380952381,0.08191167135850268,0.8435616438356165,0.8435616438356165,false
330,0.0,0.0,0.3333333333333333,0.0,0.0,0.0,0.0,0.0,0.0,0.0,0.0,0.0,0.0,0.0,false
332,0.045454545454545456,0.14285714285714285,0.16666666666666666,0.002405949256342957,0.0011071132023249377,1.0,0.0,0.0063112994748402325,0.2166666666666667,0.42916666666666653,0.1255952380952381,0.08198149861180806,0.8435616438356165,0.8435616438356165,false
216,0.11363636363636363,0.2857142857142857,0.16666666666666666,0.052930883639545054,0.042623858289510104,0.768595041322314,0.0,0.056766625166031134,0.3703703703703704,0.29365079365079366,0.19954648526077096,0.15044079812779576,0.7523287671232877,0.24616769956830747,false
99,0.022727272727272728,0.14285714285714285,0.16666666666666666,8.748906386701663E-4,2.767783005812344E-4,1.0,0.0,0.002357232822795722,0.271604938271605,0.4259259259259259,0.058201058201058205,0.13493175151938816,0.8435616438356165,0.8435616438356165,false
217,0.045454545454545456,0.14285714285714285,0.0,0.019028871391076115,0.0,1.0,0.0,0.018639329427111922,0.4634920634920634,0.44285714285714267,0.29659863945578224,0.35360688087526637,1.0,1.0,false
218,0.022727272727272728,0.14285714285714285,0.0,2.1872265966754156E-4,5.535566011624688E-4,1.0,0.0,0.003960943410213571,0.3472222222222222,0.28125,0.21428571428571427,0.16858675715964808,0.7523287671232877,0.7523287671232877,false
443,0.022727272727272728,0.14285714285714285,0.0,0.015091863517060367,0.021035150844173817,1.0,0.0,0.026562971457176978,0.3472222222222222,0.28125,0.21428571428571427,0.16620068281842704,0.7523287671232877,0.7523287671232877,false
219,0.022727272727272728,0.14285714285714285,0.3333333333333333,2.1872265966754156E-4,2.767783005812344E-4,1.0,0.0,0.001490844939068512,0.22222222222222243,0.5032051282051277,0.04945054945054948,0.005601719166280308,0.8435616438356165,0.8435616438356165,false
444,0.0,0.0,0.0,0.0,0.0,0.0,0.0,0.0,0.0,0.0,0.0,0.0,0.0,0.0,false
220,0.0,0.0,0.0,0.0,0.0,0.0,0.0,0.0,0.0,0.0,0.0,0.0,0.0,0.0,false
333,0.0,0.0,0.16666666666666666,0.0,0.0,0.0,0.0,0.0,0.0,0.0,0.0,0.0,0.0,0.0,false
334,0.0,0.0,0.0,0.0,0.0,0.0,0.0,0.0,0.0,0.0,0.0,0.0,0.0,0.0,false
335,0.022727272727272728,0.14285714285714285,0.3333333333333333,2.1872265966754156E-4,2.767783005812344E-4,1.0,0.0,0.001490844939068512,0.22222222222222243,0.5032051282051277,0.04945054945054948,0.005601719166280308,0.8435616438356165,0.8435616438356165,false
100,0.0,0.0,0.16666666666666666,0.0,0.0,0.0,0.0,0.0,0.0,0.0,0.0,0.0,0.0,0.0,false
101,0.0,0.0,0.16666666666666666,0.0,0.0,0.0,0.0,0.0,0.0,0.0,0.0,0.0,0.0,0.0,false
102,0.0,0.0,0.0,0.0,0.0,0.0,0.0,0.0,0.0,0.0,0.0,0.0,0.0,0.0,false
449,0.0,0.0,0.0,0.0,0.0,0.0,0.0,0.0,0.0,0.0,0.0,0.0,0.0,0.0,false
336,0.022727272727272728,0.14285714285714285,0.3333333333333333,2.1872265966754156E-4,2.767783005812344E-4,1.0,0.0,0.001490844939068512,0.22222222222222243,0.5032051282051277,0.04945054945054948,0.005601719166280308,0.8435616438356165,0.8435616438356165,false
221,0.022727272727272728,0.14285714285714285,0.3333333333333333,2.1872265966754156E-4,2.767783005812344E-4,1.0,0.0,0.001490844939068512,0.22222222222222243,0.5032051282051277,0.04945054945054948,0.005601719166280308,0.8435616438356165,0.8435616438356165,false
103,0.0,0.0,0.3333333333333333,0.0,0.0,0.0,0.0,0.0,0.0,0.0,0.0,0.0,0.0,0.0,false
337,0.0,0.0,0.3333333333333333,0.0,0.0,0.0,0.0,0.0,0.0,0.0,0.0,0.0,0.0,0.0,false
104,0.0,0.0,0.0,0.0,0.0,0.0,0.0,0.0,0.0,0.0,0.0,0.0,0.0,0.0,false
338,0.022727272727272728,0.14285714285714285,0.3333333333333333,2.1872265966754156E-4,2.767783005812344E-4,1.0,0.0,0.001490844939068512,0.22222222222222243,0.5032051282051277,0.04945054945054948,0.005601719166280308,0.8435616438356165,0.8435616438356165,false
339,0.0,0.0,0.16666666666666666,0.0,0.0,0.0,0.0,0.0,0.0,0.0,0.0,0.0,0.0,0.0,false
340,0.0,0.0,0.0,0.0,0.0,0.0,0.0,0.0,0.0,0.0,0.0,0.0,0.0,0.0,false
450,0.20454545454545456,0.14285714285714285,0.16666666666666666,0.08967629046369203,0.07334624965402713,1.0,0.0,0.20507302512570189,0.2179072276159654,0.45792880258899665,0.14008321775312066,0.10742269618315756,0.8435616438356165,0.8435616438356165,false
451,0.0,0.0,0.3333333333333333,0.0,0.0,0.0,0.0,0.0,0.0,0.0,0.0,0.0,0.0,0.0,false
106,0.045454545454545456,0.14285714285714285,0.0,0.022747156605424323,2.767783005812344E-4,1.0,0.0,0.022010964178225248,0.4634920634920634,0.44285714285714267,0.29659863945578224,0.353281449803546,1.0,1.0,false
341,0.0,0.0,0.16666666666666666,0.0,0.0,0.0,0.0,0.0,0.0,0.0,0.0,0.0,0.0,0.0,false
452,0.0,0.0,0.3333333333333333,0.0,0.0,0.0,0.0,0.0,0.0,0.0,0.0,0.0,0.0,0.0,false
222,0.045454545454545456,0.14285714285714285,0.3333333333333333,6.561679790026247E-4,8.303349017437033E-4,1.0,0.0,0.003574920577578,0.2127659574468086,0.4219858156028367,0.132725430597771,0.09155287522593976,0.8435616438356165,0.8435616438356165,false
342,0.0,0.0,0.3333333333333333,0.0,0.0,0.0,0.0,0.0,0.0,0.0,0.0,0.0,0.0,0.0,false
343,0.0,0.0,0.0,0.0,0.0,0.0,0.0,0.0,0.0,0.0,0.0,0.0,0.0,0.0,false
223,0.022727272727272728,0.14285714285714285,0.6666666666666666,2.1872265966754156E-4,2.767783005812344E-4,1.0,0.0,0.001490844939068512,0.0,0.0,0.0,0.0,0.2191780821917808,0.2191780821917808,false
