poi(1.5->2.5),RH-LR,0.7689463955637708
poi(1.5->2.5),RH-LR,0.7569573283858999
poi(1.5->2.5),RH-LR,0.7494356659142212
poi(1.5->2.5),RH-LR,0.7556390977443609
poi(1.5->2.5),RH-LR,0.7250859106529209
poi(1.5->2.5),RH-LR,0.7414448669201521
poi(1.5->2.5),RH-LR,0.7262135922330097
poi(1.5->2.5),RH-LR,0.7188940092165899
poi(1.5->2.5),RH-LR,0.6585956416464891
poi(1.5->2.5),RH-LR,0.6106870229007635
poi(1.5->2.5),RH-LR,0.7488789237668161
poi(1.5->2.5),RH-LR,0.7780219780219781
poi(1.5->2.5),RH-LR,0.7380497131931166
poi(1.5->2.5),RH-LR,0.679245283018868
poi(1.5->2.5),RH-LR,0.7390476190476191
poi(1.5->2.5),RH-LR,0.7547169811320754
poi(1.5->2.5),RH-LR,0.5306122448979592
poi(1.5->2.5),RH-LR,0.7599243856332701
poi(1.5->2.5),RH-LR,0.6886792452830188
poi(1.5->2.5),RH-LR,0.679245283018868
poi(1.5->2.5),RH-NB,0.7891373801916932
poi(1.5->2.5),RH-NB,0.7852564102564102
poi(1.5->2.5),RH-NB,0.7374749498997996
poi(1.5->2.5),RH-NB,0.7819063004846527
poi(1.5->2.5),RH-NB,0.7819063004846527
poi(1.5->2.5),RH-NB,0.35694050991501414
poi(1.5->2.5),RH-NB,0.7910685805422648
poi(1.5->2.5),RH-NB,0.7891373801916932
poi(1.5->2.5),RH-NB,0.7891373801916932
poi(1.5->2.5),RH-NB,0.7302231237322515
poi(1.5->2.5),RH-NB,0.7884615384615385
poi(1.5->2.5),RH-NB,0.7872
poi(1.5->2.5),RH-NB,0.7884615384615385
poi(1.5->2.5),RH-NB,0.5787037037037038
poi(1.5->2.5),RH-NB,0.7838709677419354
poi(1.5->2.5),RH-NB,0.694560669456067
poi(1.5->2.5),RH-NB,0.7904000000000001
poi(1.5->2.5),RH-NB,0.7891373801916932
poi(1.5->2.5),RH-NB,0.7891373801916932
poi(1.5->2.5),RH-NB,0.6623655913978496
poi(1.5->2.5),RH-ADT,0.6214099216710184
poi(1.5->2.5),RH-ADT,0.48396501457725943
poi(1.5->2.5),RH-ADT,0.008
poi(1.5->2.5),RH-ADT,0.5371428571428571
poi(1.5->2.5),RH-ADT,0.3833865814696486
poi(1.5->2.5),RH-ADT,0.5344827586206896
poi(1.5->2.5),RH-ADT,0.5824175824175825
poi(1.5->2.5),RH-ADT,0.0
poi(1.5->2.5),RH-ADT,0.3583061889250815
poi(1.5->2.5),RH-ADT,0.48502994011976047
poi(1.5->2.5),RH-ADT,0.3937007874015748
poi(1.5->2.5),RH-ADT,0.7839643652561247
poi(1.5->2.5),RH-ADT,0.6898263027295285
poi(1.5->2.5),RH-ADT,0.5244956772334294
poi(1.5->2.5),RH-ADT,0.29333333333333333
poi(1.5->2.5),RH-ADT,0.5344827586206896
poi(1.5->2.5),RH-ADT,0.0
poi(1.5->2.5),RH-ADT,0.0
poi(1.5->2.5),RH-ADT,0.5166666666666667
poi(1.5->2.5),RH-ADT,0.48502994011976047
poi(1.5->2.5),RH-RF,0.7136150234741784
poi(1.5->2.5),RH-RF,0.7757847533632287
poi(1.5->2.5),RH-RF,0.8050847457627119
poi(1.5->2.5),RH-RF,0.7370892018779344
poi(1.5->2.5),RH-RF,0.782608695652174
poi(1.5->2.5),RH-RF,0.7562642369020501
poi(1.5->2.5),RH-RF,0.7792207792207793
poi(1.5->2.5),RH-RF,0.7032418952618453
poi(1.5->2.5),RH-RF,0.775599128540305
poi(1.5->2.5),RH-RF,0.8076923076923078
poi(1.5->2.5),RH-RF,0.8042105263157894
poi(1.5->2.5),RH-RF,0.7999999999999999
poi(1.5->2.5),RH-RF,0.7453703703703703
poi(1.5->2.5),RH-RF,0.5325779036827195
poi(1.5->2.5),RH-RF,0.8025751072961373
poi(1.5->2.5),RH-RF,0.7528344671201813
poi(1.5->2.5),RH-RF,0.730310262529833
poi(1.5->2.5),RH-RF,0.6717171717171717
poi(1.5->2.5),RH-RF,0.8100208768267224
poi(1.5->2.5),RH-RF,0.6765432098765433
poi(1.5->2.5),MO-LR,0.7734627831715211
poi(1.5->2.5),MO-LR,0.7694805194805194
poi(1.5->2.5),MO-LR,0.7654723127035832
poi(1.5->2.5),MO-LR,0.7694805194805194
poi(1.5->2.5),MO-LR,0.7734627831715211
poi(1.5->2.5),MO-LR,0.7694805194805194
poi(1.5->2.5),MO-LR,0.7734627831715211
poi(1.5->2.5),MO-LR,0.7714748784440842
poi(1.5->2.5),MO-LR,0.7714748784440842
poi(1.5->2.5),MO-LR,0.7734627831715211
poi(1.5->2.5),MO-LR,0.7707317073170732
poi(1.5->2.5),MO-LR,0.767479674796748
poi(1.5->2.5),MO-LR,0.7520798668885192
poi(1.5->2.5),MO-LR,0.7714748784440842
poi(1.5->2.5),MO-LR,0.7714748784440842
poi(1.5->2.5),MO-LR,0.7694805194805194
poi(1.5->2.5),MO-LR,0.767479674796748
poi(1.5->2.5),MO-LR,0.7714748784440842
poi(1.5->2.5),MO-LR,0.7714748784440842
poi(1.5->2.5),MO-LR,0.7694805194805194
poi(1.5->2.5),MO-NB,0.5242718446601943
poi(1.5->2.5),MO-NB,0.5964125560538117
poi(1.5->2.5),MO-NB,0.5323741007194245
poi(1.5->2.5),MO-NB,0.5406698564593301
poi(1.5->2.5),MO-NB,0.5170731707317073
poi(1.5->2.5),MO-NB,0.5707656612529002
poi(1.5->2.5),MO-NB,0.5954545454545455
poi(1.5->2.5),MO-NB,0.5358851674641149
poi(1.5->2.5),MO-NB,0.5371702637889688
poi(1.5->2.5),MO-NB,0.4708860759493671
poi(1.5->2.5),MO-NB,0.5301204819277109
poi(1.5->2.5),MO-NB,0.5368171021377672
poi(1.5->2.5),MO-NB,0.5518867924528301
poi(1.5->2.5),MO-NB,0.5371702637889688
poi(1.5->2.5),MO-NB,0.5265700483091788
poi(1.5->2.5),MO-NB,0.5371702637889688
poi(1.5->2.5),MO-NB,0.5240384615384616
poi(1.5->2.5),MO-NB,0.41688654353562
poi(1.5->2.5),MO-NB,0.501240694789082
poi(1.5->2.5),MO-NB,0.5700934579439253
poi(1.5->2.5),MO-ADT,0.654911838790932
poi(1.5->2.5),MO-ADT,0.8153564899451554
poi(1.5->2.5),MO-ADT,0.7552182163187856
poi(1.5->2.5),MO-ADT,0.5842105263157895
poi(1.5->2.5),MO-ADT,0.44247787610619466
poi(1.5->2.5),MO-ADT,0.5222222222222223
poi(1.5->2.5),MO-ADT,0.7195357833655706
poi(1.5->2.5),MO-ADT,0.5736434108527132
poi(1.5->2.5),MO-ADT,0.5290023201856148
poi(1.5->2.5),MO-ADT,0.34674922600619196
poi(1.5->2.5),MO-ADT,0.6052631578947368
poi(1.5->2.5),MO-ADT,0.761437908496732
poi(1.5->2.5),MO-ADT,0.7898550724637682
poi(1.5->2.5),MO-ADT,0.8195329087048832
poi(1.5->2.5),MO-ADT,0.7212475633528266
poi(1.5->2.5),MO-ADT,0.6775510204081633
poi(1.5->2.5),MO-ADT,0.7173396674584323
poi(1.5->2.5),MO-ADT,0.5558583106267031
poi(1.5->2.5),MO-ADT,0.5429864253393665
poi(1.5->2.5),MO-ADT,0.3974763406940063
poi(1.5->2.5),MO-RF,0.6370757180156658
poi(1.5->2.5),MO-RF,0.576923076923077
poi(1.5->2.5),MO-RF,0.6510416666666666
poi(1.5->2.5),MO-RF,0.6351706036745406
poi(1.5->2.5),MO-RF,0.6385224274406333
poi(1.5->2.5),MO-RF,0.7397260273972602
poi(1.5->2.5),MO-RF,0.6282722513089006
poi(1.5->2.5),MO-RF,0.6373056994818652
poi(1.5->2.5),MO-RF,0.6568627450980392
poi(1.5->2.5),MO-RF,0.6426735218508998
poi(1.5->2.5),MO-RF,0.684596577017115
poi(1.5->2.5),MO-RF,0.6763990267639901
poi(1.5->2.5),MO-RF,0.6893203883495146
poi(1.5->2.5),MO-RF,0.6716791979949875
poi(1.5->2.5),MO-RF,0.6633416458852868
poi(1.5->2.5),MO-RF,0.7156862745098039
poi(1.5->2.5),MO-RF,0.6446700507614213
poi(1.5->2.5),MO-RF,0.6861313868613139
poi(1.5->2.5),MO-RF,0.6058981233243967
poi(1.5->2.5),MO-RF,0.6516290726817042
poi(1.5->2.5),SCC-LR,0.60752688172043
poi(1.5->2.5),SCC-LR,0.654639175257732
poi(1.5->2.5),SCC-LR,0.6751269035532994
poi(1.5->2.5),SCC-LR,0.6818181818181818
poi(1.5->2.5),SCC-LR,0.7535545023696684
poi(1.5->2.5),SCC-LR,0.6835443037974683
poi(1.5->2.5),SCC-LR,0.6091644204851752
poi(1.5->2.5),SCC-LR,0.5907859078590786
poi(1.5->2.5),SCC-LR,0.698019801980198
poi(1.5->2.5),SCC-LR,0.631578947368421
poi(1.5->2.5),SCC-LR,0.5611111111111111
poi(1.5->2.5),SCC-LR,0.6784810126582279
poi(1.5->2.5),SCC-LR,0.6563307493540051
poi(1.5->2.5),SCC-LR,0.5530726256983239
poi(1.5->2.5),SCC-LR,0.6751269035532994
poi(1.5->2.5),SCC-LR,0.6784810126582279
poi(1.5->2.5),SCC-LR,0.5310734463276836
poi(1.5->2.5),SCC-LR,0.6279683377308707
poi(1.5->2.5),SCC-LR,0.631578947368421
poi(1.5->2.5),SCC-LR,0.5459610027855153
poi(1.5->2.5),SCC-NB,0.3178807947019867
poi(1.5->2.5),SCC-NB,0.3355263157894737
poi(1.5->2.5),SCC-NB,0.37820512820512825
poi(1.5->2.5),SCC-NB,0.5272206303724928
poi(1.5->2.5),SCC-NB,0.33003300330033003
poi(1.5->2.5),SCC-NB,0.3464052287581699
poi(1.5->2.5),SCC-NB,0.3366336633663367
poi(1.5->2.5),SCC-NB,0.3234323432343234
poi(1.5->2.5),SCC-NB,0.37060702875399365
poi(1.5->2.5),SCC-NB,0.3821656050955414
poi(1.5->2.5),SCC-NB,0.3665594855305466
poi(1.5->2.5),SCC-NB,0.3717948717948718
poi(1.5->2.5),SCC-NB,0.3821656050955414
poi(1.5->2.5),SCC-NB,0.3924050632911393
poi(1.5->2.5),SCC-NB,0.5229885057471265
poi(1.5->2.5),SCC-NB,0.36129032258064514
poi(1.5->2.5),SCC-NB,0.3452768729641694
poi(1.5->2.5),SCC-NB,0.5214899713467048
poi(1.5->2.5),SCC-NB,0.37579617834394907
poi(1.5->2.5),SCC-NB,0.46060606060606063
poi(1.5->2.5),SCC-ADT,0.6476683937823834
poi(1.5->2.5),SCC-ADT,0.5869565217391305
poi(1.5->2.5),SCC-ADT,0.4403669724770643
poi(1.5->2.5),SCC-ADT,0.5619834710743802
poi(1.5->2.5),SCC-ADT,0.5227272727272727
poi(1.5->2.5),SCC-ADT,0.5227272727272727
poi(1.5->2.5),SCC-ADT,0.5227272727272727
poi(1.5->2.5),SCC-ADT,0.6476683937823834
poi(1.5->2.5),SCC-ADT,0.5869565217391305
poi(1.5->2.5),SCC-ADT,0.5227272727272727
poi(1.5->2.5),SCC-ADT,0.5227272727272727
poi(1.5->2.5),SCC-ADT,0.5227272727272727
poi(1.5->2.5),SCC-ADT,0.12121212121212122
poi(1.5->2.5),SCC-ADT,0.3824451410658307
poi(1.5->2.5),SCC-ADT,0.5227272727272727
poi(1.5->2.5),SCC-ADT,0.5869565217391305
poi(1.5->2.5),SCC-ADT,0.5869565217391305
poi(1.5->2.5),SCC-ADT,0.5227272727272727
poi(1.5->2.5),SCC-ADT,0.5227272727272727
poi(1.5->2.5),SCC-ADT,0.7368421052631579
poi(1.5->2.5),SCC-RF,0.6318537859007833
poi(1.5->2.5),SCC-RF,0.5989304812834224
poi(1.5->2.5),SCC-RF,0.6356589147286822
poi(1.5->2.5),SCC-RF,0.6282722513089006
poi(1.5->2.5),SCC-RF,0.5449438202247191
poi(1.5->2.5),SCC-RF,0.6547314578005116
poi(1.5->2.5),SCC-RF,0.6547314578005116
poi(1.5->2.5),SCC-RF,0.6194225721784776
poi(1.5->2.5),SCC-RF,0.5913978494623656
poi(1.5->2.5),SCC-RF,0.5869565217391305
poi(1.5->2.5),SCC-RF,0.6230366492146597
poi(1.5->2.5),SCC-RF,0.6426735218508998
poi(1.5->2.5),SCC-RF,0.5698630136986301
poi(1.5->2.5),SCC-RF,0.6632911392405063
poi(1.5->2.5),SCC-RF,0.6105263157894737
poi(1.5->2.5),SCC-RF,0.6478149100257069
poi(1.5->2.5),SCC-RF,0.5967741935483871
poi(1.5->2.5),SCC-RF,0.6649746192893402
poi(1.5->2.5),SCC-RF,0.6321243523316062
poi(1.5->2.5),SCC-RF,0.6117021276595744
