51	1	[0, 0, 1, 0]	[0, 0, 0, 0]	[1, 0, 0, 0]	[0, 0, 0, 0]	[0, 1, 0, 0]
423	0
650	1	[1, 0, 0, 0]	[1, 0, 0, 0]	[1, 0, 0, 0]
0	0	[1, 0, 0, 0]	[1, 0, 0, 0]	[1, 0, 0, 0]	[0, 1, 0, 0]
923	0	[0, 0, 0, 0]	[0, 0, 1, 0]	[1, 0, 0, 0]
721	0
594	0	[0, 0, 0, 0]	[1, 0, 0, 0]	[0, 1, 0, 0]	[1, 0, 0, 0]	[0, 0, 1, 0]
857	1	[0, 1, 1, 0]
52	0	[0, 1, 0, 0]	[0, 0, 0, 0]	[0, 1, 0, 0]	[1, 0, 0, 0]	[0, 1, 0, 0]	[1, 0, 0, 0]
178	1	[0, 0, 0, 0]	[1, 0, 0, 0]	[0, 1, 0, 0]
371	0
244	0	[0, 0, 0, 0]	[0, 0, 0, 0]
424	0	[0, 0, 0, 0]
544	0	[1, 0, 0, 0]	[0, 0, 0, 0]	[1, 0, 0, 0]
924	1	[0, 0, 0, 0]	[0, 1, 0, 0]	[0, 1, 0, 0]
309	1	[0, 1, 1, 0]	[1, 1, 0, 1]	[0, 0, 0, 0]
595	0	[0, 0, 0, 0]	[1, 0, 0, 1]	[0, 0, 0, 0]
372	0	[0, 0, 0, 0]
651	0	[0, 0, 1, 0]	[1, 1, 0, 0]	[0, 1, 0, 0]
652	0	[0, 0, 0, 0]	[1, 0, 0, 0]	[0, 0, 1, 0]	[0, 1, 0, 0]
653	1	[0, 0, 0, 0]	[1, 1, 0, 0]	[0, 0, 1, 0]	[0, 0, 0, 0]	[0, 0, 0, 0]	[1, 0, 0, 0]	[0, 0, 1, 0]	[0, 1, 0, 0]	[0, 0, 0, 0]	[0, 0, 0, 0]	[0, 0, 0, 0]
373	0	[0, 1, 0, 0]	[1, 0, 0, 0]	[0, 0, 1, 0]
310	0	[0, 1, 0, 0]	[0, 0, 0, 0]	[0, 0, 0, 0]	[0, 1, 1, 0]
312	0	[0, 0, 1, 0]	[0, 0, 0, 0]	[1, 0, 0, 0]	[0, 1, 1, 0]	[0, 1, 0, 0]
790	0
53	0	[0, 0, 0, 0]	[0, 0, 0, 0]
426	0	[0, 0, 0, 0]	[0, 0, 0, 0]	[0, 1, 1, 0]	[1, 0, 0, 0]
179	0	[0, 1, 0, 1]	[0, 1, 0, 0]	[0, 0, 0, 0]	[1, 0, 0, 0]	[0, 0, 1, 1]
313	0
596	1	[1, 0, 0, 0]	[0, 0, 0, 0]	[1, 1, 0, 0]
858	0	[0, 0, 1, 0]	[1, 0, 0, 0]
792	0	[0, 0, 0, 0]
791	1	[1, 0, 0, 1]	[0, 1, 0, 0]	[1, 0, 0, 0]	[0, 1, 0, 0]	[0, 0, 0, 0]	[1, 1, 0, 0]	[1, 0, 0, 0]	[0, 0, 1, 0]	[0, 0, 0, 0]
597	0
793	1	[0, 0, 0, 0]	[1, 1, 0, 0]
655	0	[0, 0, 0, 0]	[1, 1, 0, 0]	[0, 1, 0, 0]	[1, 0, 0, 0]
180	1	[0, 1, 0, 0]	[1, 1, 0, 0]	[0, 0, 1, 0]	[0, 0, 0, 0]	[0, 0, 1, 0]	[0, 1, 0, 0]	[0, 0, 0, 0]
2	0	[1, 0, 1, 0]	[0, 0, 0, 0]	[1, 0, 0, 0]
484	1	[0, 1, 0, 0]	[1, 1, 0, 0]	[0, 0, 1, 0]	[0, 0, 0, 0]	[0, 0, 0, 0]	[1, 0, 0, 0]	[0, 0, 1, 0]	[0, 1, 0, 0]	[0, 0, 0, 0]
656	0	[1, 1, 0, 0]
374	0	[0, 0, 0, 0]
314	0	[0, 0, 0, 0]	[0, 0, 0, 0]
546	0	[1, 0, 0, 0]
118	0	[0, 1, 0, 0]	[0, 0, 0, 0]
598	0
245	1	[1, 0, 0, 0]	[1, 0, 0, 0]
246	1	[0, 0, 0, 0]	[1, 0, 0, 0]
485	0	[1, 0, 0, 0]
55	0	[0, 0, 0, 0]
547	0	[0, 1, 0, 1]	[0, 1, 0, 0]	[0, 0, 0, 0]	[1, 0, 0, 0]	[0, 0, 1, 1]	[1, 0, 0, 0]	[0, 1, 1, 1]	[1, 1, 0, 0]
427	1	[0, 0, 0, 0]	[0, 0, 0, 0]
859	0	[0, 0, 0, 0]	[1, 1, 0, 1]	[1, 0, 0, 0]	[0, 1, 0, 0]
486	0	[1, 0, 0, 0]	[0, 0, 0, 0]	[0, 1, 0, 0]	[0, 0, 0, 0]
56	0	[0, 0, 0, 0]	[0, 0, 1, 0]
925	0	[0, 0, 0, 0]	[1, 0, 0, 0]	[0, 0, 0, 0]
724	0	[1, 1, 0, 0]
794	0	[0, 0, 0, 0]	[0, 1, 1, 0]
795	1	[0, 0, 0, 0]
57	0
375	0	[0, 0, 0, 0]	[0, 1, 0, 0]
796	0	[0, 0, 0, 0]
548	0	[0, 0, 0, 0]	[0, 1, 0, 0]
58	0	[0, 0, 0, 0]	[1, 0, 0, 0]
4	1	[0, 0, 1, 0]	[0, 0, 0, 0]	[0, 1, 0, 0]	[0, 1, 0, 0]	[0, 0, 0, 0]	[0, 0, 0, 0]	[0, 1, 0, 1]	[0, 1, 0, 0]	[1, 0, 0, 0]	[1, 0, 0, 0]	[0, 0, 0, 0]	[0, 1, 0, 0]	[0, 1, 0, 0]	[0, 1, 1, 0]	[1, 1, 0, 0]	[1, 0, 0, 0]	[1, 0, 0, 0]	[1, 0, 0, 0]
726	0	[1, 0, 0, 0]	[0, 0, 0, 0]	[1, 0, 0, 0]
797	0	[0, 1, 0, 0]
315	0	[0, 1, 0, 0]	[0, 1, 0, 0]	[0, 0, 0, 0]	[1, 1, 0, 0]
181	1	[1, 1, 0, 0]
926	1	[0, 0, 1, 0]	[1, 0, 1, 0]	[0, 0, 1, 0]	[0, 1, 0, 0]	[0, 0, 0, 0]	[1, 0, 0, 0]	[0, 0, 1, 0]	[0, 1, 0, 0]
316	1	[1, 1, 0, 0]	[0, 0, 0, 0]	[1, 1, 0, 0]	[0, 0, 1, 0]
927	0	[0, 0, 0, 0]	[0, 0, 0, 0]
119	0	[1, 0, 0, 0]	[0, 1, 0, 1]	[1, 0, 0, 0]
798	0	[0, 0, 0, 0]	[0, 1, 0, 0]
487	0	[0, 0, 0, 0]	[0, 0, 0, 0]
428	0	[0, 1, 0, 0]	[0, 0, 0, 0]	[0, 0, 0, 0]	[0, 0, 0, 0]	[0, 1, 1, 0]	[1, 0, 0, 0]
727	0	[1, 0, 1, 0]	[0, 0, 0, 0]	[1, 0, 0, 0]	[0, 1, 0, 0]
599	0	[0, 1, 0, 0]
728	0	[0, 1, 0, 0]	[0, 0, 0, 0]	[0, 1, 1, 1]	[0, 1, 0, 1]	[1, 0, 0, 0]	[0, 0, 0, 0]
549	0	[0, 1, 0, 0]	[0, 0, 0, 0]	[0, 0, 0, 0]
550	0	[0, 1, 0, 0]	[0, 0, 0, 0]	[0, 0, 0, 0]
488	0
120	0	[0, 1, 0, 0]	[0, 0, 0, 0]	[1, 0, 0, 0]
799	0	[0, 1, 0, 0]	[0, 0, 0, 0]	[1, 0, 0, 0]
800	0	[0, 0, 0, 0]
657	0	[1, 0, 0, 0]	[1, 0, 0, 0]	[0, 1, 0, 0]
59	0	[0, 0, 0, 0]	[0, 0, 0, 0]	[0, 0, 0, 0]	[1, 0, 0, 0]
247	0	[0, 0, 0, 0]	[1, 0, 0, 0]
60	1	[0, 0, 0, 0]	[1, 0, 0, 0]	[0, 1, 0, 0]
121	0	[0, 1, 0, 1]	[1, 0, 0, 0]
801	1	[0, 0, 0, 0]
377	0
802	1	[1, 0, 0, 0]	[1, 0, 0, 0]	[0, 1, 0, 0]	[0, 1, 0, 0]
803	0	[0, 1, 0, 0]	[0, 0, 0, 0]	[1, 0, 0, 0]	[0, 1, 1, 0]	[0, 0, 0, 0]	[1, 0, 0, 0]	[0, 0, 0, 0]	[0, 0, 0, 0]	[0, 0, 0, 0]
122	1	[1, 0, 1, 0]	[0, 0, 1, 0]	[0, 1, 0, 0]	[0, 1, 1, 0]	[0, 1, 1, 0]	[0, 0, 0, 0]	[1, 0, 0, 0]	[0, 0, 1, 0]	[0, 0, 0, 0]
551	0	[1, 0, 0, 0]	[0, 0, 0, 0]	[0, 1, 0, 1]	[1, 0, 0, 0]
730	1	[1, 1, 0, 1]	[0, 0, 0, 0]	[1, 0, 0, 0]
61	0	[0, 0, 0, 0]	[0, 0, 1, 0]
123	0	[0, 1, 0, 0]	[0, 0, 0, 0]	[0, 0, 0, 0]	[0, 0, 0, 0]	[0, 0, 0, 0]	[0, 0, 0, 0]
62	0	[0, 0, 0, 0]	[0, 1, 0, 0]	[1, 1, 0, 0]
731	0	[1, 0, 0, 0]	[1, 0, 0, 0]
928	0	[0, 0, 0, 0]	[0, 0, 0, 0]	[1, 0, 0, 0]
860	0	[1, 0, 0, 0]	[1, 0, 0, 0]
317	1	[0, 0, 0, 0]	[0, 0, 1, 0]	[0, 1, 0, 0]	[0, 0, 0, 0]
552	0	[0, 1, 0, 0]	[0, 0, 1, 0]
861	0	[0, 0, 0, 0]	[1, 0, 0, 0]
929	0	[0, 0, 0, 0]	[0, 1, 0, 0]
600	0	[0, 1, 0, 0]	[0, 0, 0, 0]	[0, 0, 0, 0]
862	0	[0, 1, 0, 0]	[0, 0, 0, 0]	[1, 0, 0, 0]
248	0	[0, 0, 0, 0]	[1, 0, 0, 0]	[0, 1, 0, 0]
732	0
930	0	[0, 0, 0, 0]	[0, 0, 0, 0]	[0, 0, 0, 0]
378	0	[0, 0, 0, 0]
6	0	[0, 1, 1, 0]	[0, 1, 0, 1]	[1, 0, 0, 0]	[0, 1, 1, 1]	[0, 0, 0, 0]	[1, 0, 0, 0]	[0, 0, 0, 0]
318	0	[0, 0, 0, 0]	[0, 0, 0, 0]
124	0	[1, 0, 0, 1]	[0, 0, 1, 0]	[0, 1, 0, 0]	[0, 0, 0, 0]	[1, 0, 0, 0]	[0, 1, 1, 0]
125	1	[0, 1, 1, 1]	[0, 0, 0, 0]	[1, 0, 0, 0]	[1, 1, 0, 0]	[0, 0, 1, 0]	[0, 1, 0, 0]
182	0	[0, 1, 0, 1]	[1, 0, 0, 0]
7	0	[0, 0, 0, 0]	[1, 0, 0, 0]
863	1	[1, 0, 0, 0]	[1, 1, 0, 0]	[0, 0, 0, 0]	[0, 1, 0, 0]	[1, 0, 0, 1]	[1, 0, 0, 0]	[1, 0, 0, 0]	[1, 0, 0, 0]	[0, 1, 0, 0]	[0, 1, 0, 0]	[1, 0, 0, 0]	[0, 0, 0, 0]
430	0	[0, 1, 0, 0]	[0, 0, 0, 0]	[1, 0, 1, 0]	[1, 0, 0, 0]	[0, 0, 0, 0]	[0, 0, 0, 0]	[1, 1, 0, 1]
319	0
489	0	[0, 1, 1, 0]	[0, 0, 0, 0]	[1, 0, 0, 0]	[1, 0, 0, 0]
660	1	[1, 0, 0, 0]	[0, 0, 0, 0]	[0, 1, 0, 0]	[0, 0, 0, 0]	[0, 1, 0, 0]	[0, 1, 0, 0]	[0, 0, 0, 0]	[1, 1, 0, 0]	[1, 1, 0, 1]
126	0	[0, 0, 0, 0]	[1, 1, 0, 0]
183	0	[0, 1, 0, 0]
65	1	[0, 1, 0, 0]
553	1	[1, 0, 0, 0]	[1, 0, 0, 0]	[0, 1, 0, 0]
127	0	[0, 1, 0, 0]	[1, 0, 0, 0]
129	0	[0, 0, 0, 0]	[1, 0, 0, 0]	[0, 1, 0, 0]	[0, 0, 0, 0]	[0, 0, 0, 0]
320	0
379	0	[0, 1, 0, 0]	[0, 0, 0, 0]	[1, 0, 0, 0]
130	1	[0, 0, 0, 0]	[1, 0, 0, 0]	[0, 1, 0, 0]	[0, 0, 0, 0]
661	0
931	0	[0, 1, 0, 0]	[0, 0, 0, 0]	[0, 0, 0, 0]	[0, 0, 0, 0]	[0, 0, 0, 0]	[0, 0, 0, 0]	[1, 0, 0, 0]	[0, 0, 0, 0]	[0, 0, 0, 0]	[0, 0, 0, 0]
805	0	[0, 0, 0, 0]	[0, 0, 0, 0]
807	0	[0, 0, 0, 0]
249	0	[0, 0, 0, 0]	[0, 1, 0, 0]	[0, 0, 0, 0]	[0, 0, 1, 0]
733	0	[0, 1, 0, 0]	[0, 0, 0, 0]	[1, 1, 0, 1]	[0, 0, 0, 0]	[0, 0, 0, 0]	[0, 0, 0, 0]	[0, 0, 0, 0]	[1, 0, 0, 0]	[0, 0, 0, 0]	[0, 1, 1, 0]	[0, 1, 0, 1]
250	0	[0, 0, 0, 0]	[1, 0, 0, 0]	[0, 0, 1, 0]	[0, 1, 0, 0]	[0, 0, 0, 0]
380	1	[0, 0, 0, 0]	[0, 0, 1, 0]	[0, 1, 0, 0]	[0, 0, 0, 0]
381	0	[0, 0, 0, 0]	[1, 0, 0, 0]	[0, 0, 0, 0]	[1, 0, 0, 0]	[0, 1, 1, 0]
490	0	[0, 0, 0, 0]	[0, 0, 0, 0]
808	0	[0, 1, 1, 0]	[0, 1, 0, 0]	[1, 0, 0, 0]
864	0	[1, 0, 0, 0]
184	0	[1, 0, 0, 0]	[0, 0, 0, 0]	[0, 1, 0, 0]	[0, 1, 1, 0]
251	0	[0, 1, 0, 0]	[0, 1, 0, 1]
8	1	[1, 1, 0, 0]	[0, 1, 0, 0]	[1, 0, 0, 0]	[1, 1, 0, 0]
382	0	[0, 1, 0, 0]	[0, 0, 0, 0]	[1, 0, 0, 0]	[0, 0, 1, 0]	[0, 0, 0, 0]
601	0	[0, 1, 1, 0]	[1, 0, 0, 0]
131	0
491	1	[0, 0, 0, 0]	[1, 0, 0, 0]	[0, 0, 0, 0]
734	0	[0, 0, 0, 0]
602	0	[0, 0, 0, 0]
185	0	[0, 0, 0, 0]	[1, 0, 0, 0]	[1, 1, 0, 0]	[0, 0, 1, 0]	[0, 1, 0, 0]	[0, 0, 0, 0]
809	0	[0, 0, 0, 0]	[1, 1, 0, 0]	[1, 0, 0, 0]
603	1	[0, 0, 0, 0]	[0, 1, 0, 0]	[1, 1, 0, 0]	[0, 0, 1, 0]	[0, 0, 0, 0]	[0, 0, 0, 0]	[1, 0, 0, 0]	[1, 0, 0, 0]	[0, 0, 0, 0]	[1, 0, 0, 1]	[0, 0, 0, 0]	[1, 0, 1, 0]	[0, 1, 1, 0]	[1, 0, 0, 0]	[0, 0, 0, 0]	[0, 0, 0, 0]	[0, 1, 0, 0]	[0, 0, 0, 0]	[0, 1, 0, 0]	[0, 0, 0, 0]	[1, 0, 0, 0]	[0, 0, 0, 0]	[1, 1, 0, 0]	[0, 1, 0, 0]	[0, 1, 1, 0]	[1, 0, 0, 0]	[0, 0, 0, 0]	[1, 0, 0, 0]	[1, 0, 0, 0]	[1, 0, 0, 0]	[0, 0, 0, 0]	[1, 0, 0, 0]	[1, 0, 0, 0]	[0, 0, 0, 0]	[0, 0, 0, 0]	[1, 1, 1, 1]	[0, 1, 0, 1]	[1, 0, 0, 0]	[0, 0, 0, 0]	[0, 0, 1, 0]	[1, 0, 0, 0]	[1, 1, 0, 0]	[1, 0, 0, 0]	[0, 1, 0, 0]	[0, 0, 1, 0]	[0, 0, 0, 0]	[1, 0, 0, 0]	[0, 0, 0, 0]	[0, 0, 0, 0]	[1, 0, 0, 0]	[1, 0, 0, 0]	[1, 0, 0, 0]	[0, 0, 0, 0]	[1, 0, 0, 0]
252	0	[0, 1, 0, 1]
735	0	[0, 0, 0, 0]	[1, 0, 0, 0]	[0, 0, 0, 0]
186	1	[0, 0, 0, 0]	[1, 0, 0, 0]
132	1	[0, 0, 1, 0]	[1, 0, 0, 0]	[0, 0, 0, 0]	[1, 1, 0, 1]	[0, 0, 0, 0]	[0, 1, 0, 1]	[1, 0, 0, 0]	[1, 0, 0, 0]	[1, 1, 0, 0]
253	0	[0, 0, 1, 0]	[1, 1, 0, 1]	[1, 0, 0, 0]	[0, 0, 0, 0]	[0, 0, 0, 0]	[1, 0, 0, 0]	[1, 1, 0, 0]	[0, 0, 0, 0]	[0, 0, 1, 0]	[1, 0, 0, 0]	[1, 0, 0, 0]
321	0	[1, 0, 0, 0]	[0, 0, 0, 0]	[1, 0, 0, 0]
604	0	[0, 0, 1, 0]	[1, 1, 0, 0]	[0, 0, 0, 0]
133	0	[1, 0, 0, 0]	[1, 1, 0, 0]	[0, 0, 0, 0]	[0, 1, 0, 0]
66	0	[0, 1, 1, 0]	[0, 0, 0, 1]	[0, 0, 0, 0]	[1, 0, 0, 0]	[1, 0, 0, 0]
492	0	[0, 0, 0, 0]	[1, 0, 0, 0]	[0, 0, 0, 0]	[0, 1, 1, 0]
605	0	[0, 1, 0, 0]	[1, 0, 0, 0]	[1, 1, 0, 0]	[0, 0, 0, 0]
606	0	[0, 0, 0, 0]	[0, 1, 1, 0]	[1, 0, 0, 1]
67	0	[0, 1, 1, 0]	[0, 0, 0, 0]	[0, 1, 0, 0]	[1, 0, 0, 0]
662	0	[0, 1, 0, 0]	[1, 0, 0, 0]	[0, 1, 1, 0]
431	1	[0, 0, 0, 0]
187	0	[1, 0, 0, 0]	[1, 0, 0, 0]	[0, 1, 1, 0]	[0, 1, 0, 0]	[0, 0, 0, 0]	[0, 0, 1, 0]
736	0	[0, 0, 0, 0]
493	0	[0, 0, 0, 0]	[0, 0, 0, 0]	[1, 0, 0, 0]	[0, 1, 0, 1]	[0, 0, 0, 1]	[1, 0, 0, 0]
932	0	[0, 0, 0, 0]	[1, 1, 0, 0]
811	0	[0, 1, 0, 0]
322	0	[0, 0, 0, 0]	[1, 0, 0, 0]
134	0	[0, 0, 0, 0]	[0, 0, 1, 0]	[1, 0, 0, 0]	[0, 0, 0, 0]	[0, 0, 0, 0]	[1, 1, 1, 1]	[0, 1, 0, 1]	[0, 0, 1, 0]	[1, 1, 0, 0]	[1, 0, 0, 0]	[0, 1, 0, 1]	[0, 1, 0, 0]	[0, 0, 0, 0]	[1, 0, 0, 0]	[0, 0, 0, 0]	[0, 0, 0, 0]	[1, 0, 0, 0]
188	0	[0, 0, 0, 0]	[1, 1, 0, 0]
9	0	[0, 0, 0, 0]	[0, 1, 0, 0]	[0, 0, 0, 0]	[0, 1, 0, 0]	[0, 1, 0, 0]	[0, 0, 0, 0]	[1, 0, 0, 0]	[0, 1, 0, 0]	[0, 0, 0, 0]
189	0	[0, 1, 0, 0]	[1, 1, 0, 0]	[0, 0, 1, 0]	[0, 0, 0, 0]	[1, 0, 0, 0]	[0, 0, 1, 0]	[0, 0, 0, 0]
254	0	[0, 1, 0, 0]	[0, 0, 0, 0]	[0, 1, 0, 0]	[0, 0, 0, 0]	[0, 0, 0, 0]	[1, 0, 0, 0]	[0, 0, 0, 0]	[1, 0, 0, 0]	[0, 0, 0, 0]	[1, 0, 0, 0]	[1, 0, 0, 0]	[0, 1, 0, 0]
323	0	[0, 1, 0, 0]
190	0	[0, 0, 0, 0]	[1, 0, 0, 0]	[0, 1, 0, 0]
865	0	[0, 0, 0, 0]	[0, 0, 0, 0]
663	0	[0, 1, 0, 1]	[0, 0, 0, 0]	[0, 0, 0, 0]	[1, 1, 0, 1]	[0, 1, 0, 0]
383	0	[0, 1, 0, 1]	[0, 0, 0, 0]	[0, 1, 0, 1]	[1, 0, 0, 0]	[0, 0, 0, 0]	[0, 0, 0, 1]	[1, 0, 0, 0]
866	0	[0, 0, 0, 0]	[0, 0, 0, 0]	[0, 0, 0, 0]	[0, 0, 0, 0]	[0, 0, 0, 0]	[0, 0, 0, 0]	[1, 1, 1, 1]
255	0	[0, 0, 0, 0]	[1, 0, 0, 0]	[1, 1, 0, 0]	[0, 1, 0, 0]
812	0	[0, 1, 0, 0]	[0, 1, 0, 0]
10	0	[1, 0, 0, 0]
256	0
384	0	[0, 0, 0, 0]	[1, 0, 0, 0]	[0, 1, 0, 0]
432	1	[1, 1, 0, 1]	[0, 1, 0, 0]	[0, 0, 0, 0]	[0, 0, 0, 0]	[0, 0, 0, 0]	[0, 1, 0, 0]	[1, 0, 0, 0]	[0, 0, 1, 0]	[0, 1, 0, 0]	[0, 0, 0, 0]	[0, 0, 0, 0]	[0, 0, 0, 0]
68	0	[0, 0, 0, 0]
737	0	[0, 0, 0, 0]
933	0	[1, 1, 0, 0]	[0, 1, 1, 0]	[0, 0, 0, 0]	[0, 0, 0, 0]	[0, 1, 0, 0]	[0, 0, 0, 0]	[0, 0, 0, 0]	[1, 0, 0, 0]
494	0	[0, 0, 0, 0]
738	0	[0, 0, 0, 0]	[0, 0, 0, 0]	[1, 0, 0, 0]
324	1	[1, 0, 0, 0]	[1, 0, 0, 0]	[1, 1, 0, 0]	[0, 0, 0, 0]	[0, 0, 0, 0]	[0, 1, 0, 0]	[0, 1, 0, 0]	[0, 0, 1, 0]	[1, 0, 0, 0]	[0, 0, 1, 0]
191	1	[0, 0, 0, 0]	[1, 0, 0, 0]	[0, 1, 0, 0]	[1, 1, 1, 1]
385	0	[1, 1, 0, 1]
386	0	[0, 1, 0, 0]	[0, 0, 0, 0]	[1, 0, 0, 0]
555	0	[1, 0, 0, 0]	[0, 0, 0, 0]	[1, 0, 0, 0]
433	0
556	0	[0, 0, 0, 0]
739	0	[0, 0, 0, 0]
867	0	[0, 0, 0, 0]
69	0	[0, 1, 0, 0]	[0, 1, 0, 0]	[0, 0, 0, 0]	[0, 1, 0, 1]	[1, 0, 0, 0]	[0, 0, 0, 0]	[1, 0, 0, 0]	[0, 0, 0, 0]	[1, 1, 0, 0]	[0, 0, 0, 0]	[0, 0, 0, 0]	[0, 0, 0, 0]	[0, 0, 0, 0]
325	0
664	1	[0, 0, 0, 0]
740	1
387	0	[0, 0, 0, 0]	[0, 1, 0, 1]	[0, 0, 0, 0]
813	0	[1, 1, 0, 0]	[0, 0, 0, 0]	[0, 0, 0, 0]	[0, 0, 0, 0]	[1, 0, 0, 0]	[0, 0, 1, 0]	[0, 1, 0, 0]	[0, 0, 0, 0]	[1, 0, 0, 0]	[1, 0, 0, 0]	[0, 0, 0, 0]	[0, 0, 0, 0]	[1, 0, 0, 0]	[1, 0, 0, 0]	[1, 0, 0, 1]
388	1	[0, 0, 0, 0]	[0, 0, 0, 0]	[0, 1, 0, 1]	[1, 0, 0, 0]	[1, 0, 0, 0]	[0, 1, 0, 0]	[1, 1, 0, 0]	[1, 1, 0, 1]	[1, 0, 0, 0]	[1, 0, 0, 0]	[1, 1, 0, 0]	[1, 0, 0, 0]	[1, 1, 0, 0]
934	0	[0, 0, 0, 0]
607	1	[0, 0, 1, 0]	[0, 0, 1, 0]	[0, 0, 0, 0]	[0, 1, 0, 0]	[1, 0, 0, 0]	[0, 0, 0, 0]	[0, 0, 0, 0]	[1, 0, 0, 0]	[0, 0, 0, 0]	[1, 1, 0, 0]	[1, 1, 0, 0]	[0, 0, 1, 0]	[0, 1, 0, 0]	[0, 0, 0, 0]	[0, 0, 0, 0]	[1, 1, 0, 0]	[0, 0, 0, 0]	[1, 0, 0, 0]	[0, 0, 1, 0]	[0, 0, 0, 0]
814	0	[1, 0, 0, 0]
495	0	[0, 1, 0, 0]	[0, 0, 0, 0]	[1, 0, 0, 0]
496	0	[1, 1, 0, 1]	[0, 0, 0, 0]	[1, 0, 0, 0]	[0, 1, 0, 0]
557	0	[0, 0, 0, 0]
434	0	[0, 0, 0, 0]	[0, 0, 0, 0]
741	0	[0, 0, 0, 0]
257	1	[0, 0, 0, 0]	[1, 0, 0, 0]	[0, 0, 0, 0]
70	0	[0, 0, 0, 0]	[0, 1, 0, 1]	[0, 1, 1, 0]	[0, 0, 0, 0]	[0, 0, 0, 0]	[0, 0, 0, 0]	[0, 0, 0, 0]	[0, 0, 0, 0]	[0, 1, 0, 0]	[0, 0, 1, 0]
192	1	[0, 0, 0, 0]	[1, 0, 0, 0]
609	0	[0, 1, 0, 1]	[0, 0, 0, 0]	[0, 0, 0, 0]	[1, 1, 0, 1]	[0, 1, 1, 0]
868	0	[1, 1, 0, 0]	[0, 1, 0, 0]	[0, 1, 0, 1]	[1, 1, 0, 0]	[0, 1, 0, 0]	[0, 0, 0, 0]	[0, 1, 0, 1]	[1, 1, 0, 0]	[0, 0, 1, 0]
936	1	[0, 0, 0, 0]	[0, 0, 1, 0]	[1, 0, 0, 0]	[0, 0, 0, 0]
610	0	[0, 0, 0, 0]	[0, 1, 0, 0]
665	0	[0, 1, 0, 0]	[1, 0, 0, 0]	[0, 0, 0, 0]	[1, 0, 0, 0]
71	1	[1, 0, 0, 0]	[0, 1, 0, 0]	[0, 1, 0, 0]	[0, 0, 0, 0]	[0, 0, 0, 0]	[1, 0, 0, 0]	[1, 1, 1, 0]	[0, 0, 0, 0]	[0, 1, 1, 0]	[1, 0, 0, 0]	[0, 0, 0, 0]
937	0	[0, 0, 0, 0]
72	0
869	0	[0, 0, 0, 0]
558	0	[0, 0, 0, 0]
73	0	[0, 0, 0, 0]	[0, 1, 0, 0]	[0, 1, 0, 0]
193	0	[0, 0, 0, 0]	[1, 0, 0, 0]	[0, 1, 0, 0]
435	0	[0, 0, 0, 0]
436	0	[1, 0, 0, 0]	[0, 0, 0, 0]	[1, 0, 0, 0]	[1, 1, 0, 0]	[0, 0, 1, 0]
74	0	[0, 0, 0, 0]
870	0	[0, 0, 0, 0]
195	1	[0, 0, 1, 0]	[1, 0, 0, 0]	[0, 0, 0, 0]	[0, 0, 0, 0]	[0, 0, 0, 0]
666	0	[0, 1, 0, 0]	[0, 0, 0, 0]	[0, 0, 0, 0]	[0, 0, 1, 0]	[0, 1, 0, 0]	[0, 0, 0, 0]
12	0	[0, 1, 0, 1]	[0, 0, 0, 0]	[1, 0, 0, 0]
497	0
196	0
326	1	[0, 0, 0, 0]	[0, 1, 1, 0]	[1, 0, 0, 0]	[1, 1, 0, 1]	[0, 0, 0, 0]	[1, 0, 0, 0]	[0, 0, 0, 0]	[0, 0, 0, 0]
559	0	[0, 0, 0, 0]
258	1	[0, 1, 0, 0]	[0, 0, 0, 0]	[0, 0, 0, 0]	[1, 0, 0, 0]	[0, 0, 0, 0]	[1, 0, 0, 0]
742	0	[0, 0, 0, 0]
743	0	[0, 1, 0, 1]	[1, 0, 0, 0]
327	0	[0, 0, 0, 0]
667	0	[0, 1, 1, 0]	[0, 0, 0, 0]	[0, 0, 0, 0]	[0, 1, 0, 0]	[1, 0, 0, 0]	[1, 1, 0, 0]	[0, 0, 0, 0]
75	0	[0, 0, 0, 0]	[1, 1, 0, 1]
76	0	[0, 0, 0, 0]	[1, 0, 0, 0]	[1, 1, 0, 0]	[1, 1, 0, 0]	[1, 0, 0, 0]
745	0	[1, 0, 0, 0]
197	0
816	1	[0, 1, 0, 0]	[0, 0, 0, 0]	[1, 0, 0, 0]	[0, 1, 0, 0]	[0, 0, 1, 0]
259	0	[0, 0, 0, 0]	[0, 0, 0, 0]	[0, 0, 0, 0]	[0, 0, 0, 0]	[1, 0, 0, 0]	[1, 1, 0, 0]
746	0	[1, 1, 0, 1]	[0, 0, 0, 0]	[1, 1, 0, 0]
817	0	[0, 0, 0, 0]	[0, 1, 1, 0]
260	0	[0, 0, 0, 0]	[0, 0, 0, 0]
668	0	[0, 0, 0, 0]	[1, 0, 0, 0]	[1, 1, 0, 1]	[1, 0, 0, 1]	[1, 0, 0, 0]
669	0	[1, 1, 0, 0]
818	0	[0, 1, 0, 0]	[0, 0, 0, 0]	[0, 1, 0, 0]	[1, 0, 1, 0]	[1, 0, 0, 0]	[0, 0, 0, 0]	[0, 0, 0, 0]	[0, 1, 1, 0]	[1, 0, 0, 0]	[0, 1, 0, 1]
13	0	[0, 0, 0, 0]	[1, 0, 0, 0]	[1, 1, 0, 0]	[0, 1, 1, 0]	[0, 0, 0, 0]	[0, 0, 1, 0]	[1, 1, 0, 0]	[0, 1, 0, 0]	[0, 0, 0, 0]	[1, 1, 0, 0]	[0, 1, 0, 0]	[0, 0, 0, 0]	[1, 0, 0, 0]	[1, 0, 0, 1]	[0, 1, 0, 1]
871	0	[0, 0, 0, 0]	[0, 0, 0, 0]	[0, 0, 0, 0]	[1, 0, 0, 0]
261	0	[1, 1, 0, 0]	[1, 0, 0, 0]	[1, 0, 0, 0]	[1, 0, 0, 0]	[0, 0, 0, 0]	[0, 1, 0, 0]	[0, 0, 1, 1]
136	0	[0, 0, 0, 1]	[0, 0, 0, 0]	[1, 1, 0, 0]
819	0	[0, 0, 0, 0]	[1, 1, 0, 0]	[0, 0, 1, 0]	[1, 0, 0, 0]
198	0	[0, 1, 0, 1]	[1, 0, 0, 0]	[0, 0, 0, 0]
77	0	[0, 1, 0, 0]	[1, 0, 0, 0]	[1, 0, 0, 0]
14	0	[0, 0, 0, 0]	[0, 0, 0, 0]	[0, 0, 0, 0]
262	0	[0, 0, 0, 0]
612	0	[1, 1, 0, 0]	[0, 0, 1, 0]	[0, 0, 0, 0]	[0, 0, 0, 0]	[0, 0, 1, 0]	[0, 0, 0, 0]
561	0	[0, 0, 0, 0]
15	0	[0, 0, 0, 0]
199	0	[0, 0, 0, 0]
872	0	[0, 1, 0, 0]	[0, 0, 0, 0]	[0, 0, 0, 0]	[0, 1, 1, 0]	[0, 0, 0, 0]
200	0	[0, 0, 0, 0]	[1, 0, 0, 0]	[0, 0, 0, 0]
670	0	[0, 1, 0, 1]	[0, 1, 0, 1]	[1, 0, 0, 0]	[1, 1, 0, 0]	[1, 0, 0, 0]	[0, 0, 0, 0]	[1, 0, 0, 0]	[1, 0, 0, 0]	[1, 1, 0, 0]	[1, 1, 0, 0]	[0, 0, 0, 0]	[0, 0, 0, 1]
137	0
201	0
138	0
498	1	[0, 0, 0, 0]	[1, 0, 0, 0]	[0, 0, 1, 0]	[0, 1, 0, 0]	[0, 0, 0, 0]
263	0	[0, 0, 0, 0]	[1, 0, 0, 0]	[0, 0, 0, 0]
202	0	[0, 0, 0, 0]	[1, 0, 0, 0]
264	0	[0, 0, 0, 0]	[1, 0, 0, 0]	[0, 1, 0, 0]
437	0
204	1	[1, 1, 0, 1]	[0, 0, 0, 0]	[0, 1, 0, 1]	[1, 0, 0, 0]	[0, 0, 0, 0]	[1, 0, 0, 0]	[1, 1, 0, 0]	[1, 1, 0, 0]	[0, 1, 0, 1]	[1, 0, 0, 0]	[0, 0, 1, 0]	[0, 0, 0, 0]	[0, 1, 0, 0]	[1, 0, 0, 0]	[0, 0, 0, 0]	[0, 0, 0, 0]	[0, 1, 1, 0]	[1, 0, 0, 0]	[1, 1, 1, 1]	[0, 0, 0, 0]	[1, 0, 0, 0]
672	0	[0, 1, 0, 0]	[1, 0, 0, 0]	[1, 1, 0, 0]
328	1	[1, 1, 0, 0]	[0, 1, 0, 0]	[0, 0, 1, 0]
748	0	[1, 0, 0, 0]	[0, 1, 1, 0]	[0, 0, 0, 0]	[0, 1, 0, 0]
613	0	[1, 0, 0, 0]	[1, 0, 0, 0]	[0, 1, 0, 0]
265	0	[0, 1, 0, 1]	[0, 1, 0, 0]	[0, 0, 0, 0]	[1, 0, 0, 0]	[0, 1, 1, 0]	[1, 0, 0, 0]	[0, 0, 1, 1]	[0, 1, 1, 1]
749	0	[0, 0, 0, 0]	[0, 0, 0, 0]
139	0	[0, 0, 0, 0]	[1, 0, 0, 0]	[0, 0, 1, 0]	[0, 1, 0, 0]	[0, 0, 0, 0]
266	0	[0, 0, 1, 0]
939	0	[0, 0, 1, 0]	[1, 0, 0, 0]
750	0	[0, 1, 0, 0]
751	1	[0, 1, 0, 0]	[1, 1, 0, 0]	[0, 0, 1, 0]	[1, 0, 0, 0]	[1, 1, 0, 0]	[0, 0, 1, 0]	[0, 0, 0, 0]
267	1	[0, 0, 0, 0]	[0, 0, 0, 0]	[1, 0, 0, 0]	[1, 0, 0, 0]	[0, 1, 0, 0]	[0, 1, 0, 0]	[0, 1, 1, 0]	[0, 1, 0, 1]	[1, 0, 0, 0]	[0, 0, 0, 0]	[1, 0, 0, 0]	[0, 0, 0, 0]	[0, 1, 0, 0]	[0, 0, 1, 0]	[1, 1, 0, 0]	[1, 0, 0, 0]	[1, 0, 0, 1]	[0, 0, 0, 0]
562	0	[0, 0, 0, 0]	[1, 0, 0, 0]	[0, 1, 0, 0]
499	0	[0, 1, 0, 0]	[0, 1, 1, 0]	[0, 1, 0, 0]	[0, 0, 0, 0]	[0, 0, 0, 0]	[1, 0, 0, 0]	[0, 0, 1, 0]
205	0	[0, 0, 0, 0]
873	0	[0, 1, 0, 0]	[0, 0, 0, 0]	[1, 0, 0, 0]
16	0	[0, 1, 0, 0]	[0, 0, 0, 0]	[0, 0, 0, 0]	[1, 1, 0, 0]
140	0	[0, 1, 0, 0]	[0, 0, 0, 0]	[0, 0, 0, 0]	[0, 1, 1, 0]	[1, 0, 0, 0]	[1, 0, 0, 0]	[0, 1, 1, 0]
268	0	[0, 0, 0, 0]
438	0	[0, 0, 0, 0]
78	0	[0, 0, 0, 0]	[0, 1, 0, 0]	[0, 0, 0, 0]	[0, 0, 0, 0]
500	0	[0, 1, 1, 0]	[0, 0, 0, 0]	[1, 0, 0, 0]	[1, 1, 0, 0]	[0, 0, 0, 0]
563	0	[0, 0, 0, 0]	[1, 0, 0, 0]	[0, 0, 1, 0]
141	0	[0, 1, 1, 0]	[0, 0, 0, 0]	[1, 0, 0, 0]	[0, 1, 1, 0]
142	1	[1, 0, 0, 0]	[0, 1, 0, 0]	[1, 0, 0, 0]	[1, 0, 0, 0]
143	1	[1, 0, 0, 0]	[0, 1, 0, 0]
940	0	[0, 0, 0, 1]	[1, 0, 0, 0]	[0, 0, 0, 0]
269	0	[0, 1, 0, 1]	[0, 1, 0, 0]	[0, 0, 0, 0]	[1, 0, 0, 0]	[0, 0, 1, 1]	[0, 1, 1, 1]
439	0	[0, 0, 0, 0]	[0, 0, 0, 0]
330	1	[1, 0, 0, 0]	[1, 1, 0, 0]	[0, 0, 0, 0]	[0, 1, 0, 0]	[0, 0, 0, 0]	[1, 0, 0, 0]
440	0	[0, 1, 0, 1]	[1, 0, 0, 0]	[1, 0, 0, 0]
441	0	[0, 1, 0, 0]
331	0	[0, 0, 0, 0]	[0, 0, 0, 0]	[1, 0, 0, 0]	[1, 1, 0, 0]	[0, 0, 0, 0]
941	0	[0, 0, 0, 0]	[1, 0, 0, 0]
207	0	[0, 0, 0, 0]	[0, 0, 0, 0]
18	0	[0, 1, 0, 0]	[0, 0, 0, 0]	[0, 0, 0, 0]	[0, 0, 0, 0]	[0, 0, 0, 0]	[1, 0, 0, 0]	[0, 0, 0, 0]	[1, 0, 0, 0]	[0, 0, 1, 0]
502	0	[0, 1, 0, 0]	[1, 0, 0, 0]
942	0	[0, 1, 0, 0]	[1, 0, 0, 0]	[0, 1, 0, 0]	[1, 0, 0, 0]	[1, 0, 0, 0]	[1, 0, 0, 0]
332	0	[0, 1, 0, 0]	[0, 0, 0, 0]	[1, 0, 0, 0]	[0, 0, 1, 0]	[0, 1, 0, 0]	[0, 0, 0, 0]
442	0	[0, 1, 0, 1]	[1, 0, 0, 0]
333	0	[1, 0, 0, 0]	[0, 0, 0, 0]	[0, 0, 0, 0]	[0, 0, 0, 0]	[1, 0, 0, 0]	[0, 0, 0, 1]	[1, 0, 0, 0]
564	0	[0, 0, 0, 0]	[1, 0, 0, 0]	[0, 0, 0, 0]	[0, 0, 1, 0]
820	0	[0, 0, 0, 0]	[0, 0, 0, 0]	[0, 1, 0, 0]	[1, 0, 0, 0]	[0, 1, 0, 0]	[0, 1, 0, 0]
752	0	[0, 0, 1, 0]	[0, 1, 0, 0]	[0, 0, 0, 0]	[1, 0, 0, 0]	[0, 0, 0, 0]
389	0	[0, 1, 0, 0]	[0, 0, 0, 0]	[0, 1, 1, 0]	[1, 0, 0, 0]
503	0	[0, 0, 0, 0]	[1, 0, 0, 0]
390	0	[0, 1, 0, 0]	[0, 0, 0, 0]	[0, 1, 0, 0]
391	0	[0, 1, 1, 0]	[0, 0, 0, 0]	[1, 0, 0, 0]
614	0	[0, 1, 1, 0]	[0, 0, 0, 0]	[1, 0, 0, 0]	[0, 0, 1, 0]
674	0	[0, 0, 0, 0]
79	0	[0, 0, 0, 0]	[0, 1, 0, 0]	[1, 0, 0, 0]	[0, 0, 0, 0]
615	0	[0, 0, 0, 0]
80	0	[0, 0, 0, 0]	[1, 1, 1, 1]
144	0	[0, 0, 0, 0]
208	0	[0, 1, 0, 0]
874	0	[0, 1, 0, 0]	[0, 0, 0, 0]	[0, 0, 0, 0]	[1, 1, 0, 0]
616	0	[0, 1, 0, 0]	[0, 1, 0, 0]	[0, 1, 0, 0]	[0, 0, 0, 0]	[0, 0, 0, 0]	[1, 1, 0, 1]	[1, 0, 0, 0]
875	0	[0, 0, 0, 0]
876	0	[0, 0, 0, 0]	[0, 1, 0, 1]	[1, 0, 0, 0]	[1, 0, 0, 0]	[0, 1, 0, 0]	[1, 0, 0, 0]	[0, 1, 0, 0]	[1, 0, 0, 0]
81	0	[0, 1, 0, 0]	[0, 1, 0, 1]	[0, 0, 0, 0]
504	1	[1, 0, 0, 0]	[0, 0, 0, 0]	[0, 1, 0, 0]	[1, 0, 0, 0]
270	0	[0, 1, 0, 1]	[0, 1, 0, 0]	[0, 0, 0, 0]	[1, 0, 0, 0]	[0, 0, 1, 1]	[0, 1, 1, 1]
392	0	[0, 0, 0, 0]
334	0	[0, 1, 0, 0]	[1, 0, 0, 0]	[1, 0, 0, 0]	[0, 1, 0, 0]
83	0	[0, 1, 0, 0]	[0, 0, 0, 0]	[0, 0, 0, 0]	[0, 0, 0, 0]
675	0	[0, 0, 0, 0]	[0, 0, 0, 0]	[0, 0, 0, 0]	[0, 0, 0, 0]	[0, 0, 0, 0]	[0, 0, 0, 0]	[0, 1, 0, 1]	[0, 1, 1, 0]	[0, 0, 0, 0]	[0, 0, 0, 0]	[0, 1, 0, 0]	[0, 1, 0, 0]	[0, 0, 0, 0]	[1, 0, 0, 0]	[1, 1, 0, 0]	[0, 0, 0, 0]	[0, 0, 0, 0]	[0, 0, 0, 0]	[0, 0, 0, 0]	[0, 0, 0, 0]	[0, 0, 0, 0]	[0, 0, 0, 0]	[0, 1, 0, 1]	[0, 0, 0, 0]
617	0	[1, 1, 0, 1]	[0, 0, 0, 0]	[1, 0, 0, 0]
335	0	[0, 1, 0, 0]
618	1	[0, 1, 0, 0]	[0, 0, 0, 0]	[1, 0, 0, 0]	[1, 1, 0, 0]	[1, 0, 0, 0]
271	0	[0, 1, 0, 0]	[0, 0, 0, 0]	[0, 1, 0, 0]	[0, 0, 0, 0]	[0, 0, 0, 0]	[0, 0, 0, 0]	[0, 0, 0, 0]	[0, 1, 0, 0]	[0, 0, 0, 0]	[0, 1, 0, 0]	[0, 0, 0, 0]	[0, 0, 1, 0]	[0, 0, 0, 0]	[0, 0, 0, 0]
19	0	[1, 0, 0, 0]	[1, 1, 0, 0]
20	0	[0, 0, 0, 0]	[1, 0, 0, 0]	[0, 1, 0, 1]	[0, 1, 0, 0]
505	0
444	1	[1, 1, 0, 1]	[0, 0, 0, 0]	[0, 0, 0, 0]	[0, 0, 0, 0]	[1, 0, 0, 0]	[0, 0, 0, 0]	[0, 1, 0, 0]
677	0	[1, 0, 0, 0]	[1, 0, 0, 0]	[0, 1, 0, 0]
85	0	[0, 0, 0, 0]
943	0	[0, 0, 0, 0]
272	0	[0, 0, 0, 0]
393	0	[0, 1, 0, 0]	[0, 0, 0, 0]	[1, 1, 0, 0]
944	0	[0, 0, 0, 0]
394	0	[0, 1, 0, 0]
209	0	[0, 0, 0, 0]	[0, 1, 0, 0]
753	0	[1, 0, 0, 0]	[1, 0, 0, 0]
395	0	[0, 0, 0, 0]
621	1	[0, 0, 0, 0]	[0, 0, 0, 0]	[0, 1, 0, 0]	[0, 0, 1, 0]	[0, 1, 0, 0]	[0, 0, 0, 0]
21	0
754	0	[0, 1, 0, 0]	[0, 1, 0, 0]	[0, 0, 0, 0]	[1, 0, 0, 0]	[1, 0, 0, 0]	[1, 0, 0, 0]	[0, 1, 1, 0]	[0, 1, 0, 0]
273	0
622	0	[1, 0, 0, 0]
565	0	[0, 0, 0, 0]
506	0	[1, 1, 0, 0]	[0, 0, 0, 0]	[1, 0, 0, 0]	[0, 0, 0, 0]	[0, 0, 1, 0]	[0, 1, 0, 0]	[0, 0, 0, 0]
878	0	[0, 0, 0, 0]	[1, 0, 0, 0]
145	0	[1, 0, 0, 0]
821	0	[0, 1, 0, 0]
945	0	[0, 1, 1, 0]	[0, 0, 0, 0]	[1, 0, 0, 0]
623	0
396	0	[0, 1, 1, 1]	[1, 0, 0, 0]
86	1	[0, 1, 0, 0]	[0, 1, 0, 0]	[1, 0, 0, 0]	[1, 0, 0, 0]	[0, 1, 0, 0]
879	0	[0, 0, 0, 0]	[1, 0, 0, 0]
22	0
397	0	[0, 0, 0, 0]	[1, 0, 0, 0]	[0, 0, 0, 0]	[0, 1, 1, 0]
398	0	[1, 1, 0, 1]	[1, 1, 0, 1]
756	1	[0, 0, 0, 0]	[0, 1, 0, 0]
566	0	[0, 1, 0, 0]	[1, 0, 0, 0]	[0, 0, 0, 0]	[0, 0, 0, 0]	[0, 0, 0, 0]	[0, 1, 1, 0]
336	0	[1, 0, 1, 0]	[1, 0, 0, 1]	[0, 0, 1, 0]	[1, 0, 0, 0]	[0, 0, 1, 0]	[1, 1, 0, 0]	[1, 0, 0, 0]	[0, 0, 0, 0]	[0, 1, 0, 0]	[0, 1, 0, 0]	[0, 1, 0, 1]	[1, 0, 0, 0]	[0, 0, 0, 0]	[0, 0, 0, 0]	[0, 0, 0, 0]	[0, 0, 0, 0]	[0, 1, 1, 0]	[0, 1, 1, 0]	[1, 1, 1, 1]	[0, 0, 0, 0]	[1, 1, 0, 0]	[1, 0, 0, 0]	[1, 0, 0, 0]	[1, 0, 0, 0]
87	0	[0, 0, 0, 0]
678	0	[1, 0, 0, 0]
274	0	[0, 0, 0, 0]	[1, 0, 0, 0]	[0, 1, 0, 0]	[0, 1, 0, 0]
275	0	[0, 1, 0, 0]	[1, 0, 0, 0]	[0, 0, 0, 0]	[0, 1, 0, 0]
880	0	[0, 1, 0, 0]	[0, 0, 0, 0]	[0, 0, 0, 0]
881	0	[0, 0, 0, 0]	[0, 0, 0, 0]	[0, 0, 0, 0]	[0, 1, 0, 0]
568	0	[0, 0, 0, 0]	[1, 0, 0, 0]
882	1	[0, 0, 0, 0]	[0, 0, 0, 0]	[0, 0, 1, 0]	[0, 1, 0, 0]	[0, 0, 0, 0]
88	1	[1, 1, 0, 0]	[0, 0, 0, 0]	[0, 1, 0, 1]	[0, 0, 0, 0]	[0, 0, 0, 0]	[0, 0, 0, 0]	[0, 0, 0, 0]	[1, 1, 1, 1]	[1, 0, 0, 0]	[1, 0, 0, 0]	[1, 0, 0, 0]
23	0	[0, 0, 0, 0]	[1, 0, 0, 0]
508	0	[0, 0, 0, 0]
624	0	[0, 0, 0, 0]
625	0	[0, 0, 1, 0]	[0, 1, 0, 0]	[1, 1, 0, 1]	[1, 0, 0, 0]	[0, 0, 0, 0]	[0, 0, 0, 0]	[1, 1, 0, 0]	[0, 0, 0, 0]	[0, 0, 0, 0]	[0, 0, 0, 0]	[1, 0, 0, 0]	[0, 0, 0, 0]	[1, 0, 0, 0]	[0, 0, 0, 0]	[1, 0, 0, 0]
445	1	[1, 1, 0, 0]	[0, 1, 0, 0]	[0, 1, 0, 1]	[1, 0, 0, 0]
679	0	[0, 1, 0, 0]	[0, 0, 0, 0]	[0, 0, 0, 0]	[1, 1, 0, 0]
883	0	[1, 0, 0, 0]
338	0	[0, 0, 0, 0]	[0, 0, 0, 0]	[0, 1, 0, 0]
89	0	[0, 0, 0, 0]	[1, 0, 0, 0]	[0, 0, 0, 0]	[0, 0, 1, 0]	[0, 1, 0, 0]	[0, 0, 0, 0]
884	1	[0, 0, 0, 0]	[1, 0, 0, 0]	[0, 0, 1, 0]
146	0	[0, 0, 1, 0]	[0, 0, 0, 0]	[1, 0, 0, 0]
569	0	[0, 0, 0, 0]	[1, 0, 0, 0]	[0, 0, 1, 0]	[0, 1, 0, 0]
680	0	[0, 1, 0, 0]	[0, 0, 0, 0]	[0, 0, 0, 0]
510	0	[0, 0, 0, 0]	[0, 1, 1, 0]
511	0	[0, 0, 0, 0]	[0, 0, 0, 0]	[0, 0, 0, 0]	[1, 0, 0, 0]	[1, 1, 0, 0]
211	0
822	0
276	0	[1, 1, 0, 0]	[1, 0, 0, 0]	[1, 0, 0, 0]	[0, 1, 0, 0]
339	0	[0, 0, 0, 0]	[0, 1, 0, 1]	[1, 0, 0, 0]	[1, 0, 0, 0]	[1, 1, 0, 0]
885	0	[0, 0, 0, 0]	[0, 1, 0, 0]
570	1	[0, 0, 0, 0]	[0, 0, 0, 0]	[1, 0, 0, 0]	[0, 0, 0, 0]
626	0	[0, 0, 0, 0]	[0, 0, 0, 0]	[0, 0, 0, 0]	[0, 0, 0, 0]	[0, 0, 0, 0]	[0, 0, 0, 0]	[1, 1, 1, 1]
212	0	[0, 1, 0, 0]	[0, 0, 0, 0]	[1, 0, 0, 0]	[0, 0, 1, 0]	[0, 1, 0, 0]
512	0	[0, 1, 0, 0]	[0, 0, 0, 0]	[0, 0, 0, 0]	[0, 1, 1, 0]
340	0
886	0
571	1	[0, 0, 0, 0]	[1, 0, 0, 0]	[0, 1, 0, 0]	[1, 0, 0, 0]
757	0	[1, 1, 0, 1]	[0, 0, 0, 0]
758	0	[0, 0, 0, 0]	[0, 0, 0, 0]	[0, 0, 0, 0]	[0, 0, 0, 0]	[0, 0, 0, 0]	[1, 1, 1, 1]	[1, 0, 0, 0]	[0, 1, 1, 0]
147	1	[0, 0, 0, 0]	[1, 0, 0, 0]	[1, 0, 0, 0]	[0, 1, 0, 0]	[0, 1, 0, 0]	[1, 0, 0, 0]	[1, 0, 0, 1]	[0, 1, 0, 0]
823	0	[1, 0, 0, 0]	[0, 1, 1, 0]	[1, 1, 0, 1]	[0, 1, 1, 1]	[0, 1, 0, 0]	[0, 1, 0, 1]	[1, 0, 0, 0]	[0, 1, 1, 0]
513	0	[0, 0, 0, 0]	[0, 0, 0, 0]
681	0	[0, 1, 0, 1]	[0, 1, 0, 1]	[1, 0, 0, 0]	[0, 0, 0, 0]	[0, 0, 0, 1]	[0, 0, 0, 0]	[1, 1, 0, 1]
399	0	[0, 1, 0, 0]	[0, 0, 0, 0]	[1, 0, 0, 0]	[0, 0, 1, 0]
400	0	[0, 0, 0, 0]	[0, 0, 0, 0]	[0, 1, 1, 0]	[1, 1, 0, 1]	[1, 0, 0, 0]
213	1	[1, 1, 0, 0]	[1, 0, 0, 0]	[1, 0, 0, 0]	[0, 1, 0, 0]	[1, 0, 0, 0]
759	0	[0, 0, 0, 0]	[0, 0, 0, 0]	[0, 0, 0, 0]	[0, 0, 0, 0]	[1, 0, 0, 0]	[1, 1, 0, 0]	[0, 0, 1, 0]	[1, 0, 0, 0]	[1, 0, 0, 0]	[0, 0, 0, 0]
214	0	[1, 1, 0, 0]	[0, 0, 0, 0]	[1, 0, 0, 0]	[0, 1, 0, 0]
341	0	[0, 0, 0, 0]	[1, 1, 0, 0]	[0, 1, 0, 1]	[0, 1, 0, 1]	[0, 1, 1, 1]	[0, 1, 0, 0]	[0, 1, 0, 0]	[1, 0, 0, 0]	[0, 0, 0, 1]	[0, 1, 0, 1]	[0, 0, 0, 0]	[1, 0, 0, 0]
572	0
447	1	[1, 0, 0, 0]	[0, 1, 0, 0]
448	0	[1, 1, 0, 1]	[0, 0, 0, 0]	[1, 0, 0, 0]
514	0	[1, 1, 0, 1]	[0, 0, 0, 0]	[1, 1, 0, 0]	[0, 0, 0, 0]
947	0	[0, 0, 0, 0]	[0, 0, 0, 0]	[0, 0, 0, 0]	[0, 0, 0, 0]	[0, 0, 0, 0]	[0, 0, 0, 0]	[0, 1, 1, 0]	[1, 0, 0, 1]	[1, 0, 0, 0]	[0, 0, 0, 0]	[1, 0, 0, 0]	[0, 1, 0, 0]
627	0	[0, 0, 0, 0]
760	0	[0, 0, 0, 0]	[1, 0, 0, 0]	[0, 1, 0, 0]	[0, 0, 1, 0]
761	0	[0, 1, 0, 0]
628	0	[0, 0, 0, 0]	[0, 0, 0, 0]	[0, 0, 0, 0]	[1, 0, 0, 0]	[0, 1, 1, 0]
149	0	[0, 0, 0, 0]	[1, 0, 0, 0]
824	0	[0, 0, 0, 0]	[1, 0, 0, 0]	[1, 0, 0, 0]	[1, 1, 0, 0]
278	0	[1, 0, 0, 0]	[0, 0, 0, 0]	[0, 0, 0, 0]	[1, 0, 0, 0]
762	0	[0, 0, 0, 0]	[1, 0, 0, 0]	[0, 0, 1, 0]	[0, 1, 0, 0]
402	0	[1, 0, 0, 0]	[1, 0, 0, 0]	[0, 0, 0, 0]
825	1	[0, 1, 0, 0]	[1, 0, 0, 0]	[0, 0, 0, 0]
150	0	[0, 0, 0, 0]
279	1	[1, 0, 0, 0]	[1, 0, 0, 0]	[0, 1, 0, 0]
682	0
763	1	[0, 0, 0, 0]	[0, 0, 0, 0]	[0, 0, 0, 0]	[1, 0, 0, 1]	[1, 0, 0, 0]	[1, 1, 1, 1]	[1, 0, 0, 1]	[0, 0, 1, 0]	[0, 1, 0, 0]	[1, 1, 0, 0]	[0, 0, 0, 0]
515	0	[0, 0, 0, 0]
764	0
516	0	[0, 0, 0, 0]	[0, 0, 1, 0]
949	0	[0, 0, 0, 0]	[1, 1, 0, 0]	[0, 0, 1, 0]	[0, 0, 0, 0]	[0, 0, 0, 0]	[1, 0, 0, 0]	[0, 0, 1, 0]	[1, 0, 0, 0]	[0, 1, 0, 0]	[0, 1, 0, 0]	[0, 0, 0, 0]
826	1	[1, 0, 0, 0]	[1, 0, 0, 0]	[0, 0, 0, 0]	[1, 1, 0, 0]	[0, 1, 0, 0]	[0, 1, 0, 1]
765	0	[0, 0, 0, 0]	[0, 0, 0, 0]
766	0	[0, 0, 0, 0]	[1, 0, 0, 0]	[1, 1, 0, 1]	[1, 0, 0, 0]
887	0	[0, 0, 0, 0]
91	1	[0, 0, 0, 0]	[1, 1, 0, 0]	[0, 1, 0, 0]
517	1	[0, 0, 1, 0]	[1, 0, 0, 0]	[0, 0, 0, 0]	[1, 0, 0, 0]	[0, 0, 0, 0]	[1, 1, 0, 0]
683	0	[0, 0, 0, 0]	[0, 0, 0, 0]	[0, 0, 0, 0]
92	0	[0, 0, 0, 0]	[1, 0, 0, 0]	[0, 1, 0, 0]
684	0	[1, 0, 0, 0]
25	0	[0, 0, 0, 0]
215	0	[0, 1, 0, 0]	[0, 0, 0, 0]	[1, 0, 0, 0]	[0, 0, 1, 0]	[0, 1, 0, 0]	[0, 1, 1, 0]	[1, 0, 0, 0]	[0, 0, 0, 0]
449	0	[0, 0, 0, 0]	[1, 1, 0, 1]	[1, 0, 0, 0]
342	0	[1, 0, 0, 0]	[1, 1, 0, 0]	[0, 0, 0, 0]
216	0	[0, 1, 0, 0]
281	0	[0, 1, 0, 1]	[1, 0, 0, 0]	[1, 0, 0, 0]
629	0	[1, 0, 0, 0]	[0, 0, 0, 0]	[1, 1, 0, 0]
685	0	[0, 0, 0, 0]
151	0	[0, 0, 0, 0]	[0, 0, 0, 0]	[1, 0, 0, 0]	[0, 0, 0, 0]
950	0	[0, 0, 0, 0]
686	0	[1, 1, 0, 0]	[0, 0, 1, 0]	[0, 0, 0, 0]	[1, 0, 0, 0]
343	0	[0, 0, 0, 0]	[1, 1, 0, 0]
404	0
405	0	[1, 0, 0, 0]	[1, 0, 0, 0]	[0, 1, 0, 0]
888	0	[0, 0, 0, 0]
451	0
687	0	[0, 0, 0, 0]	[0, 0, 0, 0]	[0, 0, 0, 0]	[1, 0, 0, 0]	[0, 0, 0, 0]
217	0	[0, 0, 0, 0]	[1, 0, 0, 0]
518	0	[1, 0, 0, 0]	[1, 1, 0, 0]	[0, 1, 0, 0]
218	0	[1, 0, 0, 0]	[0, 1, 0, 0]
828	0	[0, 0, 0, 0]	[1, 0, 0, 0]
951	0	[0, 0, 0, 0]
519	0	[0, 1, 0, 0]	[0, 1, 0, 1]	[0, 0, 0, 0]	[1, 0, 0, 0]	[0, 0, 1, 0]
219	0	[0, 0, 0, 0]	[1, 0, 0, 0]
152	0	[0, 0, 0, 0]
688	0	[0, 0, 0, 0]	[1, 0, 0, 0]	[0, 1, 0, 0]
153	0	[0, 0, 0, 0]	[1, 0, 0, 0]	[0, 0, 0, 0]
574	0	[0, 0, 0, 0]	[1, 1, 0, 1]	[0, 1, 1, 0]	[1, 0, 0, 0]	[0, 1, 0, 0]	[1, 0, 0, 0]	[0, 1, 0, 0]
630	0	[0, 0, 0, 0]	[1, 1, 0, 0]
26	0	[0, 1, 0, 0]
952	0	[1, 1, 0, 0]	[0, 0, 0, 0]	[0, 0, 0, 0]	[1, 0, 0, 0]	[0, 0, 1, 0]	[0, 1, 0, 0]
631	0	[0, 1, 0, 1]	[0, 0, 0, 0]	[0, 1, 0, 1]	[1, 0, 0, 0]	[1, 0, 0, 0]	[0, 1, 0, 0]
220	0	[0, 1, 0, 0]	[0, 0, 0, 0]	[0, 1, 0, 0]	[1, 0, 1, 0]	[1, 0, 0, 0]	[0, 0, 0, 0]	[0, 0, 0, 0]	[1, 0, 0, 0]	[1, 1, 0, 1]	[0, 1, 0, 1]
221	0	[0, 0, 0, 0]
520	0	[0, 1, 0, 0]	[1, 0, 0, 0]
344	0	[0, 0, 0, 0]
283	0	[1, 0, 0, 0]	[1, 0, 0, 0]	[0, 1, 0, 0]
889	0	[0, 0, 1, 1]	[1, 0, 0, 0]
521	0	[0, 0, 0, 0]
689	0	[0, 0, 1, 0]	[0, 0, 0, 0]	[0, 1, 1, 0]	[0, 1, 0, 0]	[1, 0, 0, 0]
154	0	[0, 0, 0, 0]
829	0	[1, 0, 0, 0]	[0, 0, 0, 0]	[1, 0, 0, 0]
222	0	[1, 0, 0, 0]	[1, 1, 0, 0]
770	0	[0, 0, 0, 0]	[0, 0, 0, 0]
522	0	[0, 1, 0, 0]
690	1	[0, 0, 0, 0]
345	0
346	0
27	0	[0, 1, 0, 0]	[1, 0, 0, 0]
953	0	[1, 0, 0, 0]	[0, 0, 0, 0]	[0, 0, 0, 0]
576	0	[0, 0, 0, 0]	[0, 0, 0, 0]	[0, 0, 0, 0]	[1, 0, 0, 0]	[1, 0, 0, 0]	[0, 1, 0, 0]
523	0	[0, 0, 0, 0]	[0, 0, 0, 0]	[1, 0, 0, 0]
691	0	[0, 0, 0, 0]
155	0	[1, 0, 0, 0]	[0, 0, 0, 0]	[1, 0, 0, 0]	[0, 1, 0, 0]
347	1	[0, 0, 0, 0]	[1, 0, 0, 0]	[1, 0, 0, 0]	[0, 1, 0, 0]
890	0	[1, 1, 0, 1]	[1, 0, 0, 0]	[0, 0, 0, 0]	[1, 0, 0, 0]	[1, 0, 0, 0]	[0, 1, 0, 0]	[0, 0, 0, 0]
156	0	[0, 1, 0, 0]	[0, 0, 0, 0]	[1, 0, 0, 0]	[0, 0, 0, 0]	[0, 0, 0, 0]	[0, 0, 0, 0]
692	0	[0, 0, 0, 0]
223	0	[0, 0, 0, 0]	[0, 0, 0, 0]
632	0
693	1	[0, 1, 0, 0]	[0, 0, 0, 0]	[0, 0, 0, 0]	[1, 0, 0, 0]	[1, 0, 0, 0]
284	0	[0, 0, 0, 1]	[0, 1, 0, 0]	[0, 0, 0, 0]	[1, 1, 0, 0]
348	0	[1, 0, 0, 0]	[0, 1, 0, 0]	[0, 1, 1, 0]	[1, 0, 1, 0]	[0, 0, 0, 0]	[0, 0, 0, 0]	[0, 0, 0, 0]	[0, 0, 0, 0]	[0, 0, 0, 0]	[1, 0, 0, 0]
577	0	[0, 0, 0, 0]	[0, 1, 0, 0]
633	0	[0, 0, 0, 0]	[0, 0, 0, 0]	[0, 0, 0, 0]	[1, 0, 0, 0]	[0, 0, 0, 0]
93	0	[0, 1, 0, 0]
634	1	[0, 0, 0, 0]	[1, 0, 0, 1]	[1, 0, 1, 0]	[0, 0, 0, 0]	[1, 1, 0, 1]	[0, 1, 1, 1]	[0, 0, 0, 0]	[0, 0, 0, 0]	[0, 0, 0, 0]	[0, 1, 0, 0]	[1, 0, 0, 0]
224	0	[0, 0, 0, 0]
94	0	[0, 0, 0, 0]	[1, 0, 0, 0]	[1, 1, 0, 0]	[0, 1, 0, 0]
28	0	[0, 0, 0, 0]	[1, 0, 0, 0]	[0, 0, 0, 0]
831	0	[0, 0, 0, 0]
454	0
349	0	[0, 1, 0, 0]
578	0
635	0	[0, 0, 0, 0]
95	0	[1, 1, 0, 1]	[1, 0, 0, 0]	[0, 0, 0, 0]	[1, 0, 0, 0]	[0, 1, 0, 0]
29	0	[1, 0, 0, 0]	[1, 0, 0, 0]	[0, 1, 0, 0]	[0, 1, 0, 0]	[1, 0, 0, 0]	[1, 0, 0, 0]	[1, 0, 0, 0]	[1, 0, 0, 0]
891	0	[0, 0, 0, 0]
407	0	[0, 0, 0, 0]	[0, 0, 0, 0]
96	1	[0, 0, 0, 0]	[0, 0, 0, 0]	[0, 0, 1, 0]	[0, 1, 0, 0]	[0, 0, 0, 0]
30	1	[0, 0, 0, 0]	[1, 1, 0, 1]	[0, 1, 0, 0]	[0, 1, 0, 0]	[0, 0, 0, 0]	[1, 0, 0, 0]	[1, 1, 0, 0]	[1, 0, 0, 0]
157	0	[0, 1, 0, 1]	[0, 1, 0, 0]	[0, 0, 0, 0]	[1, 0, 0, 0]	[0, 0, 1, 1]
97	0	[1, 1, 0, 1]	[0, 0, 0, 0]
408	0	[0, 0, 0, 0]
286	0
771	0	[1, 1, 0, 0]	[0, 0, 0, 0]	[1, 0, 0, 0]
98	0	[0, 1, 0, 0]	[0, 1, 0, 0]	[0, 0, 0, 0]	[1, 0, 0, 0]	[1, 1, 0, 0]	[1, 0, 0, 0]	[0, 0, 0, 0]	[1, 0, 0, 0]	[0, 0, 1, 0]	[0, 1, 0, 1]	[1, 0, 0, 0]	[0, 1, 0, 1]	[0, 1, 0, 1]	[1, 0, 0, 0]	[0, 0, 1, 0]	[0, 0, 0, 1]	[1, 0, 0, 0]	[1, 0, 0, 0]	[0, 1, 1, 0]	[0, 1, 0, 0]
99	0	[0, 0, 0, 0]	[0, 1, 0, 0]	[1, 0, 0, 0]	[0, 1, 1, 0]
892	1	[0, 1, 0, 0]	[0, 0, 1, 0]
287	0	[0, 0, 1, 0]	[0, 0, 0, 0]	[0, 0, 0, 0]	[1, 0, 0, 0]	[0, 0, 0, 0]	[1, 0, 0, 0]
351	0	[0, 0, 0, 0]	[0, 0, 0, 0]	[0, 0, 0, 0]	[1, 0, 0, 0]
288	0	[0, 1, 0, 0]	[0, 0, 0, 0]
289	0	[0, 1, 0, 0]	[0, 0, 0, 0]	[0, 0, 0, 0]	[0, 0, 0, 0]	[0, 0, 0, 0]	[0, 1, 1, 0]	[0, 1, 0, 0]
695	0	[1, 0, 0, 0]	[0, 0, 0, 0]	[0, 1, 0, 0]	[0, 0, 0, 0]
100	0	[0, 0, 0, 0]
772	0	[0, 0, 0, 0]	[1, 0, 0, 0]
31	0	[0, 0, 0, 0]
101	0	[1, 0, 0, 0]
524	1	[0, 0, 0, 0]	[1, 0, 0, 0]	[0, 1, 0, 0]	[0, 0, 0, 0]	[1, 0, 0, 0]
955	0	[0, 1, 0, 0]
893	0	[0, 0, 0, 0]	[0, 1, 0, 0]
457	0
352	0	[0, 0, 0, 0]	[1, 0, 0, 0]	[0, 0, 0, 0]	[1, 0, 0, 0]	[0, 1, 0, 0]	[0, 1, 0, 0]	[0, 0, 0, 0]
773	0	[0, 0, 0, 0]	[0, 1, 0, 0]
636	0	[0, 0, 0, 0]	[1, 1, 0, 0]	[0, 0, 0, 0]
102	0	[0, 0, 0, 0]	[1, 1, 0, 0]	[1, 0, 0, 0]
353	0	[0, 0, 0, 0]
696	0	[1, 0, 0, 1]	[0, 0, 0, 0]	[1, 0, 0, 0]	[1, 1, 0, 0]	[1, 0, 0, 0]	[0, 1, 0, 0]
774	0	[0, 0, 0, 1]	[1, 1, 0, 0]	[1, 1, 0, 0]	[0, 0, 0, 0]	[1, 0, 0, 0]	[0, 1, 1, 0]	[1, 1, 0, 1]	[0, 1, 0, 1]	[1, 0, 0, 0]	[0, 1, 1, 1]	[0, 0, 0, 0]	[0, 1, 0, 0]	[0, 1, 0, 1]	[0, 1, 0, 0]	[1, 0, 0, 0]	[0, 0, 0, 1]	[0, 0, 0, 0]	[0, 1, 0, 1]	[0, 1, 0, 0]	[1, 0, 0, 0]
291	1	[0, 0, 0, 0]
775	0
32	0	[0, 0, 0, 0]	[1, 0, 0, 0]	[1, 1, 0, 0]	[0, 1, 0, 0]
895	0	[0, 0, 0, 0]
776	0	[0, 0, 0, 0]	[0, 0, 0, 0]	[1, 0, 0, 0]
33	1	[0, 1, 0, 0]	[0, 0, 0, 0]	[1, 0, 0, 0]	[1, 1, 0, 0]
637	1	[0, 0, 1, 0]	[1, 0, 0, 0]	[0, 1, 0, 0]	[1, 1, 0, 0]	[1, 1, 0, 0]	[0, 0, 1, 0]	[0, 1, 0, 0]
777	0	[1, 0, 1, 0]	[1, 0, 0, 0]
579	1	[0, 0, 0, 0]	[1, 1, 0, 0]	[0, 1, 0, 0]	[0, 1, 0, 0]
957	0
958	0	[0, 0, 0, 0]	[1, 0, 0, 0]
778	0	[0, 0, 0, 0]	[0, 1, 0, 0]	[0, 0, 0, 0]	[1, 0, 0, 0]	[0, 0, 0, 0]	[1, 1, 0, 0]	[0, 1, 0, 1]
697	0	[0, 0, 0, 0]	[1, 0, 0, 0]	[0, 1, 1, 0]	[0, 1, 0, 1]
580	0	[0, 0, 0, 0]	[1, 0, 0, 0]
698	0	[1, 0, 1, 0]	[1, 1, 0, 0]	[0, 0, 0, 0]	[0, 0, 0, 0]	[1, 0, 0, 0]	[0, 0, 0, 0]	[0, 1, 0, 0]	[1, 1, 1, 1]	[0, 0, 1, 0]	[1, 0, 0, 0]	[1, 0, 0, 0]	[1, 0, 0, 0]
410	0	[1, 1, 0, 0]
896	0	[0, 0, 0, 0]	[0, 0, 0, 0]
225	0	[0, 0, 0, 0]
459	0	[0, 0, 0, 0]	[0, 1, 0, 0]	[0, 0, 0, 0]	[0, 0, 0, 0]	[0, 0, 0, 0]	[1, 0, 0, 0]	[1, 1, 0, 0]	[1, 1, 0, 0]	[0, 0, 1, 0]
158	1	[0, 0, 0, 0]	[0, 1, 0, 1]	[0, 1, 0, 0]	[1, 0, 0, 0]	[0, 0, 0, 0]	[1, 1, 0, 0]	[1, 1, 1, 0]	[0, 0, 0, 0]
525	0	[1, 0, 1, 0]	[1, 0, 0, 0]	[1, 0, 0, 0]	[0, 1, 1, 0]	[0, 0, 0, 0]	[1, 0, 0, 0]	[1, 1, 0, 0]	[1, 0, 0, 0]	[0, 0, 0, 0]	[0, 0, 0, 0]	[0, 1, 0, 0]	[0, 0, 0, 0]	[1, 0, 0, 0]	[0, 1, 0, 0]
460	0	[0, 0, 1, 0]	[0, 0, 0, 0]	[1, 0, 0, 0]	[0, 1, 0, 0]	[1, 1, 0, 0]
897	1	[0, 0, 0, 0]	[0, 0, 0, 0]	[1, 0, 0, 0]	[0, 0, 0, 0]	[0, 0, 0, 0]	[1, 1, 0, 0]	[1, 0, 0, 0]	[1, 0, 0, 0]
103	0	[0, 0, 0, 0]
292	0	[0, 0, 0, 0]	[1, 0, 0, 0]
779	0	[0, 1, 0, 0]	[0, 0, 1, 0]	[1, 0, 0, 0]	[1, 0, 0, 0]
699	0	[0, 0, 0, 0]
960	0	[0, 0, 1, 0]	[0, 0, 0, 0]	[0, 1, 0, 0]	[0, 0, 0, 0]	[1, 0, 0, 0]
159	0	[0, 0, 0, 0]	[1, 0, 0, 0]
160	0	[0, 0, 0, 0]	[1, 0, 0, 0]
581	1	[1, 0, 0, 0]	[1, 1, 0, 0]	[0, 1, 0, 0]	[0, 1, 0, 0]	[0, 1, 0, 0]	[0, 1, 1, 0]
462	0	[0, 1, 0, 0]	[0, 0, 1, 0]	[1, 0, 0, 0]	[1, 0, 0, 0]	[0, 0, 1, 0]
293	0	[0, 1, 0, 0]
898	0	[0, 1, 0, 0]	[0, 0, 0, 0]	[0, 0, 0, 0]	[0, 0, 0, 0]
104	0	[1, 1, 0, 0]
36	1	[0, 0, 0, 0]	[0, 1, 0, 0]	[0, 0, 0, 0]	[1, 0, 0, 0]	[1, 1, 0, 0]	[1, 0, 0, 0]	[0, 0, 0, 0]	[0, 1, 0, 1]	[0, 1, 0, 0]	[1, 0, 0, 0]
355	0
526	1	[0, 0, 0, 0]	[1, 0, 0, 0]
228	0	[0, 0, 1, 0]	[1, 0, 0, 0]
411	0	[1, 0, 0, 0]	[0, 0, 1, 0]	[1, 0, 0, 0]
412	1	[0, 1, 0, 0]	[0, 0, 0, 0]	[0, 0, 0, 0]	[0, 0, 0, 0]	[0, 0, 0, 0]	[0, 0, 0, 0]
780	0	[0, 0, 0, 0]	[0, 0, 0, 0]	[0, 0, 0, 0]	[0, 0, 0, 0]	[0, 1, 0, 0]	[0, 1, 1, 0]	[0, 0, 0, 0]	[0, 1, 0, 0]	[0, 1, 0, 0]	[0, 0, 0, 0]	[0, 0, 0, 0]	[1, 0, 0, 0]	[0, 0, 0, 0]	[0, 1, 0, 0]	[0, 0, 0, 0]	[1, 0, 0, 0]	[0, 0, 0, 0]	[1, 0, 0, 0]	[0, 1, 0, 0]	[0, 0, 0, 0]	[0, 0, 0, 0]	[0, 1, 0, 0]	[0, 0, 1, 0]
582	0	[0, 0, 0, 0]	[1, 0, 0, 0]	[0, 1, 0, 0]	[0, 1, 0, 0]
527	0	[1, 0, 0, 0]
899	0	[0, 0, 0, 0]	[1, 1, 0, 0]	[0, 0, 0, 0]	[0, 1, 1, 0]	[1, 1, 0, 1]	[1, 0, 0, 0]	[0, 1, 1, 1]	[0, 0, 0, 0]	[0, 1, 0, 1]	[1, 0, 0, 0]
900	0	[0, 1, 0, 0]	[0, 0, 0, 0]	[1, 0, 0, 0]	[0, 0, 0, 0]	[0, 1, 0, 0]
413	0	[0, 1, 0, 0]	[0, 0, 0, 0]	[0, 0, 0, 0]	[0, 1, 1, 0]	[1, 0, 0, 0]
781	1	[0, 0, 1, 0]
39	0	[0, 1, 0, 0]	[0, 0, 0, 0]	[1, 0, 0, 0]	[0, 0, 0, 0]	[0, 1, 0, 0]	[0, 0, 0, 0]	[0, 1, 1, 0]	[0, 0, 0, 0]	[0, 0, 0, 0]	[0, 1, 0, 0]	[0, 0, 1, 0]
833	0	[0, 0, 0, 0]	[0, 0, 0, 0]	[0, 1, 0, 0]	[1, 0, 0, 0]	[1, 1, 0, 0]	[1, 1, 0, 0]	[0, 1, 0, 0]
528	0	[0, 0, 0, 0]	[0, 1, 1, 0]	[1, 0, 0, 0]
40	0	[0, 1, 0, 0]
294	0	[0, 1, 0, 0]	[1, 1, 0, 0]	[0, 0, 1, 0]	[0, 0, 0, 0]	[0, 0, 1, 0]	[0, 1, 0, 0]	[0, 0, 0, 0]
901	0	[0, 0, 0, 0]	[0, 0, 0, 0]	[0, 1, 0, 1]
902	0	[0, 1, 0, 0]	[0, 0, 0, 0]	[1, 0, 0, 0]
834	0	[0, 1, 0, 0]	[0, 0, 0, 0]	[1, 0, 1, 0]	[1, 0, 0, 0]	[0, 0, 0, 0]	[0, 0, 0, 0]	[1, 1, 0, 1]	[0, 1, 0, 1]
638	1	[0, 1, 1, 0]	[0, 1, 0, 0]	[0, 0, 0, 0]	[0, 0, 0, 0]	[1, 0, 0, 0]	[0, 1, 0, 0]
105	1	[1, 1, 0, 0]	[0, 0, 1, 0]	[0, 0, 0, 0]	[1, 0, 0, 0]	[0, 0, 1, 0]	[0, 1, 0, 0]
356	1	[0, 1, 0, 0]	[1, 0, 0, 0]	[0, 0, 1, 0]
229	0
835	0	[0, 0, 0, 0]	[1, 1, 0, 0]
639	0	[0, 0, 0, 0]	[0, 1, 0, 0]
41	1	[1, 1, 0, 0]
529	1	[0, 0, 0, 0]	[0, 0, 1, 0]	[0, 1, 0, 0]	[0, 0, 0, 0]
583	0	[0, 0, 1, 0]	[1, 0, 0, 0]	[0, 0, 0, 0]	[0, 0, 0, 0]	[0, 1, 0, 0]	[0, 1, 0, 0]	[1, 1, 0, 0]
903	0	[0, 0, 0, 0]	[0, 0, 0, 0]	[0, 0, 0, 0]	[1, 0, 0, 0]
296	0	[1, 1, 0, 1]	[0, 0, 0, 0]
161	1	[0, 0, 0, 0]	[1, 0, 0, 0]	[0, 0, 1, 0]	[0, 0, 1, 0]	[0, 1, 0, 0]	[0, 0, 0, 0]
782	0	[1, 0, 0, 1]	[0, 0, 0, 0]	[0, 1, 1, 0]
230	0	[0, 1, 0, 0]	[1, 1, 0, 0]
836	0	[1, 0, 0, 0]
702	0	[1, 0, 0, 0]
162	0	[0, 1, 1, 1]	[0, 1, 0, 0]	[1, 0, 0, 0]	[1, 0, 0, 0]
297	0	[0, 0, 0, 0]	[0, 0, 0, 0]	[1, 0, 0, 0]
837	1	[0, 0, 0, 0]	[1, 0, 0, 0]	[0, 1, 1, 0]	[0, 1, 0, 0]	[0, 1, 0, 0]
904	1	[0, 0, 0, 0]	[0, 1, 0, 0]
905	0	[0, 0, 0, 0]	[1, 0, 0, 0]	[0, 1, 0, 0]
906	0
838	0	[0, 1, 1, 0]
907	0	[0, 0, 0, 0]	[0, 0, 0, 0]	[1, 0, 0, 0]
163	0	[0, 1, 0, 0]	[0, 0, 0, 0]	[0, 1, 0, 0]
298	0	[0, 0, 0, 0]	[1, 0, 0, 0]	[0, 0, 0, 0]
783	1	[0, 0, 0, 0]	[0, 1, 0, 1]	[1, 0, 0, 0]	[0, 0, 0, 0]	[1, 0, 0, 0]
464	1	[0, 0, 0, 0]	[1, 1, 0, 0]
584	0	[1, 0, 0, 0]
703	0	[0, 0, 0, 0]
530	0	[1, 0, 0, 0]	[0, 1, 0, 0]	[0, 1, 1, 0]
299	0	[0, 1, 0, 0]	[0, 0, 0, 0]	[0, 0, 0, 0]	[0, 1, 0, 0]	[0, 1, 1, 0]
961	0	[0, 1, 0, 0]	[0, 0, 0, 0]	[0, 0, 0, 0]	[0, 1, 1, 0]	[1, 0, 0, 0]	[0, 0, 1, 0]
465	1	[0, 0, 0, 0]	[1, 1, 1, 0]	[0, 0, 0, 0]	[0, 1, 1, 0]	[0, 1, 0, 0]
466	0	[0, 0, 0, 0]	[1, 0, 0, 0]	[0, 1, 1, 0]	[0, 1, 0, 0]
640	0	[0, 0, 0, 0]
704	0	[0, 0, 0, 0]	[0, 1, 0, 0]
467	0
414	0	[1, 0, 0, 0]	[0, 0, 0, 0]	[1, 0, 0, 0]	[0, 1, 0, 0]	[0, 0, 1, 0]	[0, 1, 0, 0]
840	0	[0, 1, 0, 0]
357	0	[0, 0, 1, 0]	[1, 1, 0, 0]	[0, 0, 0, 0]	[0, 0, 1, 0]
107	0	[1, 0, 0, 0]	[1, 1, 0, 0]
468	0	[1, 0, 0, 0]	[0, 1, 1, 0]
358	0	[1, 0, 0, 0]	[0, 0, 0, 0]	[0, 1, 0, 0]	[0, 0, 0, 0]	[1, 1, 0, 0]
301	0	[1, 0, 0, 0]	[0, 0, 0, 0]	[1, 0, 0, 0]	[0, 1, 1, 0]	[0, 1, 0, 0]
531	1	[1, 0, 0, 1]	[1, 0, 1, 0]	[0, 0, 0, 0]	[1, 0, 0, 0]	[0, 1, 0, 0]
908	1	[1, 0, 0, 0]	[0, 0, 0, 0]	[1, 1, 0, 1]	[0, 1, 0, 0]
784	0	[0, 1, 0, 0]	[0, 0, 0, 0]	[1, 0, 0, 0]	[0, 0, 1, 0]	[1, 1, 0, 0]	[0, 0, 0, 0]	[0, 1, 0, 0]	[1, 1, 0, 0]	[0, 1, 0, 0]
359	0	[0, 1, 0, 1]	[1, 0, 0, 0]	[0, 0, 0, 0]
641	0	[1, 0, 0, 1]	[0, 0, 0, 0]
108	0	[0, 0, 0, 0]	[0, 1, 1, 0]
841	0	[0, 0, 0, 0]	[1, 0, 0, 0]	[0, 1, 0, 0]	[0, 1, 1, 0]	[0, 1, 0, 0]	[1, 0, 1, 0]	[0, 0, 1, 0]
962	1	[0, 0, 1, 0]	[1, 0, 0, 0]	[0, 1, 0, 0]	[0, 0, 0, 0]	[0, 0, 0, 0]	[0, 0, 0, 0]
532	0	[0, 0, 0, 0]
232	0	[0, 0, 0, 0]	[1, 0, 0, 0]	[1, 1, 0, 0]
470	0	[0, 1, 0, 1]	[1, 0, 0, 0]	[0, 0, 0, 0]
705	0	[0, 0, 0, 0]	[1, 0, 0, 0]	[0, 0, 0, 0]	[1, 0, 0, 0]	[0, 0, 0, 0]	[0, 0, 1, 0]	[0, 0, 0, 0]
910	0	[1, 0, 0, 0]
642	0	[0, 1, 0, 0]	[0, 1, 0, 1]	[1, 1, 0, 1]	[0, 1, 0, 0]	[0, 0, 0, 0]	[1, 0, 0, 0]	[0, 0, 0, 0]	[0, 1, 0, 0]	[0, 0, 0, 0]	[1, 1, 0, 0]	[0, 0, 0, 0]	[1, 0, 0, 0]	[1, 1, 0, 1]	[0, 0, 0, 0]	[1, 0, 0, 0]	[0, 1, 0, 0]	[0, 1, 0, 0]	[1, 0, 0, 0]
585	0	[0, 0, 0, 0]
360	0	[0, 0, 0, 0]	[1, 0, 0, 0]	[0, 1, 0, 0]	[0, 0, 0, 0]	[1, 0, 0, 0]	[1, 0, 0, 0]
533	0	[0, 0, 0, 0]
785	0	[0, 1, 1, 0]	[1, 0, 0, 0]	[1, 0, 0, 0]
643	0	[0, 1, 0, 1]	[0, 0, 0, 0]	[1, 0, 0, 0]	[0, 0, 1, 1]
415	0	[0, 0, 0, 0]	[0, 1, 0, 0]
164	0	[0, 0, 0, 0]	[0, 0, 1, 0]	[1, 0, 0, 0]
586	0	[1, 0, 0, 0]
302	1	[0, 1, 0, 0]	[0, 0, 0, 0]	[1, 0, 0, 0]	[1, 1, 0, 0]	[0, 0, 0, 0]
706	1	[0, 0, 1, 0]
233	0	[0, 1, 0, 1]	[1, 0, 0, 0]	[0, 0, 0, 0]	[1, 0, 0, 0]	[1, 0, 0, 0]
234	0	[0, 0, 0, 0]	[1, 0, 0, 0]
416	0	[0, 1, 0, 0]	[0, 0, 0, 0]
235	0	[0, 0, 0, 0]	[0, 1, 0, 0]	[0, 0, 0, 0]	[0, 0, 0, 0]	[0, 0, 0, 0]	[0, 0, 1, 0]
963	0	[0, 0, 0, 0]	[1, 0, 0, 0]	[0, 0, 0, 0]	[0, 0, 1, 0]	[0, 1, 0, 0]
964	1	[0, 0, 1, 0]
43	0	[1, 0, 0, 0]	[0, 0, 0, 0]	[1, 0, 0, 0]	[0, 1, 0, 0]
303	0	[0, 0, 0, 0]	[1, 0, 0, 0]	[0, 1, 1, 0]	[0, 1, 0, 0]
165	0	[0, 0, 0, 0]	[0, 1, 0, 1]	[0, 1, 0, 0]	[0, 1, 0, 0]	[0, 0, 0, 0]	[0, 0, 0, 0]	[0, 0, 0, 0]	[0, 0, 0, 0]	[0, 0, 0, 0]	[0, 0, 0, 0]	[0, 0, 0, 0]	[0, 0, 0, 0]	[1, 1, 1, 1]	[1, 0, 0, 0]	[0, 0, 0, 0]	[0, 0, 0, 0]	[0, 0, 0, 0]	[1, 1, 0, 0]
965	0	[0, 0, 0, 0]	[0, 1, 0, 0]
911	0
471	1	[0, 0, 1, 0]	[0, 1, 0, 1]	[1, 0, 0, 1]	[1, 0, 0, 0]	[0, 1, 0, 0]
109	0	[0, 1, 1, 0]	[0, 1, 0, 0]	[0, 0, 0, 0]	[1, 0, 0, 0]	[0, 0, 1, 0]
472	0	[0, 0, 1, 0]	[0, 0, 0, 0]	[1, 0, 0, 0]	[1, 1, 0, 0]
966	0	[1, 0, 0, 0]	[0, 1, 0, 0]
967	0	[0, 0, 0, 0]	[0, 0, 0, 0]
44	0	[0, 0, 0, 0]
417	0
912	0
913	0	[0, 0, 0, 0]	[1, 0, 0, 0]
914	0	[0, 0, 0, 0]
236	0
361	0	[0, 0, 0, 0]	[0, 0, 1, 0]	[0, 1, 0, 0]	[1, 0, 0, 0]	[0, 1, 0, 0]
707	0	[0, 0, 0, 0]
587	0	[1, 0, 0, 0]
110	0
473	0	[1, 0, 0, 0]	[0, 1, 0, 0]	[0, 0, 0, 0]	[0, 0, 0, 0]	[0, 0, 0, 0]	[1, 0, 0, 0]
536	0	[0, 0, 0, 0]
787	0	[0, 0, 0, 0]	[1, 0, 0, 0]	[1, 0, 0, 0]	[1, 0, 0, 0]
968	0	[0, 1, 0, 0]	[0, 1, 0, 0]	[1, 0, 0, 0]	[1, 0, 0, 0]	[1, 0, 0, 0]	[0, 1, 0, 0]
843	1	[0, 0, 0, 0]
475	1	[0, 0, 0, 0]	[1, 0, 0, 0]
708	0	[0, 1, 1, 0]	[0, 0, 0, 0]	[1, 0, 0, 0]
237	0	[0, 0, 0, 0]	[0, 1, 0, 0]
709	0	[0, 0, 0, 0]	[1, 0, 0, 0]	[0, 0, 1, 0]	[0, 1, 0, 0]
476	0	[0, 1, 0, 0]	[0, 0, 0, 0]	[1, 0, 0, 0]
167	1	[0, 0, 1, 0]	[0, 1, 0, 0]	[1, 0, 0, 0]	[0, 0, 0, 0]	[0, 1, 0, 0]	[1, 0, 0, 0]	[0, 0, 1, 0]	[0, 1, 0, 0]	[0, 0, 0, 0]
844	0	[1, 0, 0, 0]	[0, 1, 0, 0]	[1, 0, 0, 0]
362	1	[0, 0, 0, 0]	[1, 0, 0, 0]	[0, 0, 0, 0]	[0, 0, 0, 0]	[1, 0, 0, 0]	[0, 0, 1, 0]	[0, 1, 0, 0]	[0, 0, 0, 0]
168	0	[0, 0, 0, 0]
46	0	[0, 0, 0, 0]	[1, 0, 0, 0]	[0, 1, 1, 0]	[0, 1, 0, 0]
47	1	[1, 0, 1, 0]	[0, 0, 1, 0]	[0, 1, 0, 0]	[0, 1, 1, 0]	[0, 1, 1, 0]	[0, 0, 0, 0]	[1, 0, 0, 0]	[0, 0, 1, 0]	[0, 0, 0, 0]
969	1	[1, 0, 1, 0]	[0, 0, 0, 0]
915	1	[0, 0, 1, 0]	[1, 0, 0, 0]	[0, 0, 0, 0]	[0, 0, 0, 0]	[0, 0, 0, 0]	[0, 0, 0, 0]	[1, 0, 0, 0]	[0, 0, 1, 0]	[0, 1, 0, 0]	[0, 0, 1, 0]	[0, 0, 0, 0]	[1, 0, 0, 0]	[1, 1, 0, 1]
169	0	[0, 0, 0, 0]	[1, 0, 0, 0]
916	0	[0, 0, 0, 0]	[1, 0, 0, 0]
588	0	[0, 0, 0, 0]	[1, 0, 0, 0]	[0, 1, 0, 0]	[0, 1, 0, 0]
710	0	[1, 0, 0, 0]
238	0	[0, 0, 0, 0]	[0, 0, 0, 0]
239	0	[0, 1, 0, 0]	[0, 0, 0, 0]	[1, 0, 1, 0]	[1, 0, 0, 0]	[0, 0, 0, 0]	[0, 0, 0, 0]	[0, 1, 0, 1]
537	0	[1, 0, 0, 0]
711	0	[0, 0, 0, 0]	[1, 0, 0, 0]	[1, 1, 1, 0]	[1, 1, 0, 0]
363	0
846	1	[0, 0, 0, 0]
644	1	[1, 0, 0, 0]	[0, 1, 0, 0]	[1, 0, 0, 0]	[0, 0, 0, 0]	[0, 1, 1, 0]	[0, 1, 0, 0]	[0, 0, 0, 0]
48	0	[0, 1, 1, 0]	[0, 1, 0, 0]
364	0
365	0
304	0	[0, 0, 0, 0]	[0, 0, 0, 0]
538	0	[0, 1, 0, 0]	[0, 0, 0, 0]
539	0	[0, 0, 0, 0]	[0, 0, 0, 0]
418	0	[0, 0, 0, 0]	[1, 0, 0, 0]
305	0
477	1	[1, 1, 0, 1]	[1, 1, 0, 1]	[1, 0, 0, 0]	[0, 0, 0, 0]	[1, 0, 0, 0]	[1, 1, 0, 0]	[1, 1, 0, 0]	[0, 1, 0, 0]	[0, 0, 0, 0]	[0, 0, 0, 0]	[0, 0, 0, 0]
170	0	[0, 0, 0, 0]	[0, 1, 0, 0]	[0, 0, 0, 0]
847	0	[0, 0, 0, 0]
111	0	[0, 0, 0, 0]	[1, 0, 0, 0]
366	0	[0, 0, 1, 0]	[0, 0, 0, 0]
589	0	[0, 0, 0, 0]	[0, 1, 1, 0]
848	0	[0, 1, 0, 0]	[0, 1, 0, 0]
646	0	[1, 1, 0, 0]
240	1	[0, 0, 0, 0]	[1, 0, 0, 0]
171	0	[0, 0, 0, 1]	[0, 0, 0, 0]	[1, 1, 0, 0]	[0, 1, 1, 0]
788	0	[0, 0, 0, 0]
241	1	[0, 1, 0, 0]	[0, 0, 0, 0]	[1, 0, 0, 0]
306	0	[0, 0, 0, 0]	[0, 0, 0, 0]
419	0	[0, 1, 0, 1]
970	0	[0, 0, 0, 0]	[1, 1, 0, 1]	[0, 1, 1, 1]	[0, 1, 0, 0]
789	0	[1, 0, 0, 0]	[0, 1, 0, 1]	[1, 0, 0, 0]
917	0
112	0	[1, 0, 0, 1]	[1, 0, 0, 0]	[0, 0, 0, 0]	[0, 1, 0, 0]
918	0	[0, 0, 0, 0]	[1, 1, 0, 0]
478	0	[0, 1, 0, 1]	[0, 0, 0, 0]	[0, 1, 0, 1]	[1, 0, 0, 0]	[1, 1, 0, 0]	[0, 1, 0, 0]	[0, 0, 0, 0]	[1, 0, 0, 0]	[1, 0, 0, 0]	[0, 1, 1, 0]	[1, 1, 0, 0]	[1, 0, 0, 0]
113	0	[0, 0, 0, 0]	[0, 0, 0, 0]
919	1	[0, 0, 0, 0]	[0, 0, 0, 0]	[1, 0, 0, 0]	[1, 0, 0, 0]	[0, 1, 0, 0]	[0, 0, 1, 0]	[1, 1, 0, 0]	[0, 0, 0, 0]
648	0	[0, 0, 0, 0]
479	0	[0, 0, 0, 0]	[0, 0, 0, 0]	[0, 0, 0, 0]	[0, 0, 0, 0]	[1, 0, 0, 0]	[0, 0, 1, 0]	[0, 0, 1, 0]	[1, 0, 0, 0]	[1, 0, 0, 0]	[0, 0, 0, 0]
712	1	[0, 0, 0, 0]	[0, 0, 1, 0]	[0, 1, 0, 0]	[0, 0, 0, 0]
114	1	[1, 0, 0, 0]	[1, 0, 0, 0]	[1, 0, 0, 0]	[1, 0, 0, 0]	[0, 0, 0, 0]	[0, 1, 0, 0]
540	0
307	0	[0, 0, 0, 0]
480	0	[1, 1, 0, 0]
971	1	[0, 0, 0, 0]	[1, 0, 0, 0]	[1, 0, 0, 0]	[0, 1, 0, 0]
172	0	[1, 1, 0, 0]	[0, 0, 0, 0]
849	1	[0, 1, 0, 0]	[0, 0, 0, 0]	[0, 1, 1, 0]
649	0	[0, 0, 0, 0]	[1, 0, 0, 0]
590	0	[0, 0, 0, 0]	[0, 1, 0, 0]
850	0	[0, 0, 0, 0]	[1, 0, 0, 0]
713	0	[1, 0, 0, 0]	[0, 0, 0, 0]	[0, 0, 0, 0]
851	0	[0, 1, 0, 1]	[1, 0, 0, 0]	[1, 1, 0, 0]	[0, 0, 1, 0]
50	0	[1, 1, 0, 0]
173	1	[0, 0, 0, 0]	[1, 0, 0, 0]	[0, 1, 0, 0]
920	0	[1, 0, 0, 0]	[0, 0, 0, 0]	[1, 0, 0, 0]	[1, 1, 0, 0]	[0, 1, 0, 0]
591	0
852	0	[0, 1, 0, 0]	[0, 0, 0, 0]	[0, 0, 0, 0]	[0, 0, 1, 0]	[0, 1, 0, 0]	[0, 0, 0, 0]
115	0	[1, 0, 0, 0]
174	0	[1, 0, 0, 0]
481	1	[1, 0, 0, 0]	[0, 1, 0, 0]	[1, 1, 0, 0]	[0, 1, 0, 0]	[0, 1, 0, 1]
853	0	[0, 0, 0, 0]	[0, 1, 1, 0]
714	0	[0, 1, 0, 0]
921	0	[1, 0, 0, 0]	[0, 1, 1, 0]	[0, 1, 0, 0]	[1, 0, 0, 1]	[0, 0, 0, 0]	[0, 0, 0, 0]	[0, 0, 0, 0]	[1, 0, 0, 0]	[1, 1, 0, 0]	[0, 0, 1, 0]
308	1	[0, 0, 0, 0]	[0, 0, 0, 0]	[1, 0, 0, 0]	[0, 1, 1, 0]	[0, 0, 0, 0]	[1, 0, 0, 0]	[0, 0, 1, 0]	[0, 1, 0, 0]	[0, 0, 1, 0]	[0, 0, 0, 0]
715	0	[0, 1, 1, 0]	[1, 0, 0, 0]
421	0	[0, 1, 0, 0]	[0, 0, 0, 0]	[0, 0, 0, 0]
854	0	[0, 0, 0, 0]	[0, 0, 0, 0]
717	0	[0, 1, 1, 1]	[1, 0, 0, 0]	[0, 0, 0, 0]
716	1	[1, 1, 0, 1]	[0, 0, 0, 0]	[1, 0, 0, 0]	[0, 1, 0, 0]	[1, 0, 0, 0]
718	0	[0, 0, 0, 0]	[0, 0, 0, 0]	[1, 0, 1, 0]
719	0	[0, 0, 0, 0]
242	0	[0, 1, 0, 0]
541	0	[0, 1, 0, 0]	[0, 0, 0, 0]	[0, 0, 0, 0]	[1, 1, 0, 0]	[1, 1, 0, 1]	[0, 0, 0, 0]	[0, 1, 0, 0]
592	1	[0, 0, 1, 0]	[0, 0, 0, 0]	[1, 0, 0, 0]	[0, 0, 0, 0]	[0, 1, 1, 0]	[1, 0, 0, 0]	[0, 1, 0, 1]	[0, 1, 0, 0]	[0, 1, 0, 0]
116	0	[0, 1, 0, 1]	[0, 0, 0, 0]	[1, 0, 0, 0]	[1, 0, 0, 0]
368	0	[1, 1, 1, 1]	[1, 0, 0, 0]	[1, 0, 0, 0]
542	0	[0, 0, 0, 0]	[1, 0, 0, 0]	[0, 0, 1, 0]	[0, 1, 0, 0]
922	1	[0, 1, 1, 0]	[1, 0, 0, 0]	[1, 0, 0, 0]	[0, 0, 0, 0]	[1, 0, 0, 0]
176	0	[0, 0, 0, 0]
720	1	[0, 1, 0, 0]	[0, 1, 0, 0]	[0, 0, 0, 0]	[1, 0, 0, 0]	[1, 0, 0, 0]
593	0
543	0	[1, 0, 0, 0]	[1, 0, 0, 0]
422	0	[1, 0, 0, 0]	[1, 0, 0, 0]	[0, 1, 0, 0]
482	1	[1, 1, 0, 1]	[0, 0, 0, 0]
856	0	[0, 0, 0, 0]	[1, 1, 0, 0]	[0, 1, 0, 0]
177	0	[0, 1, 0, 0]	[1, 0, 0, 0]	[0, 0, 0, 0]	[0, 1, 0, 1]	[1, 0, 0, 0]	[1, 0, 0, 0]	[0, 0, 0, 0]	[1, 0, 0, 0]	[0, 1, 1, 0]	[0, 0, 0, 0]
483	0	[0, 0, 0, 0]
855	0	[0, 0, 0, 0]
117	0	[0, 0, 0, 0]	[0, 0, 0, 0]
370	0	[0, 1, 1, 0]	[0, 0, 0, 0]	[1, 0, 0, 0]	[0, 1, 1, 0]	[1, 0, 0, 0]	[0, 0, 1, 0]
