51	1	[0, 1, 0, 1]	[0, 1, 1, 0]	[0, 0, 0, 0]	[0, 1, 0, 0]
822	0	[0, 1, 0, 0]
423	0	[0, 1, 0, 0]
885	1	[1, 1, 0, 1]	[0, 1, 0, 1]	[0, 0, 0, 0]
570	1	[0, 0, 0, 0]	[1, 1, 0, 0]	[0, 1, 0, 0]
650	0	[0, 0, 1, 0]	[0, 0, 0, 0]	[0, 1, 0, 0]
626	0	[0, 1, 0, 0]
340	0	[0, 1, 0, 0]	[0, 0, 0, 0]
886	0	[0, 0, 0, 0]
571	1	[0, 1, 0, 0]	[0, 1, 1, 0]
757	1	[0, 1, 0, 1]	[0, 0, 0, 0]
0	0	[1, 1, 0, 1]	[0, 0, 0, 0]	[1, 1, 0, 1]	[0, 1, 0, 1]	[0, 0, 0, 0]
923	1	[0, 1, 0, 0]
147	1	[1, 1, 0, 1]	[0, 1, 0, 0]	[0, 1, 0, 0]	[0, 0, 0, 0]	[0, 0, 0, 0]	[1, 1, 0, 1]	[0, 0, 0, 0]	[0, 0, 0, 0]	[0, 0, 0, 0]	[0, 1, 0, 1]
758	0	[0, 1, 0, 0]	[0, 0, 0, 0]	[1, 1, 0, 0]
721	0	[0, 1, 0, 0]
513	0	[0, 1, 0, 0]
823	0	[0, 1, 0, 0]	[0, 0, 0, 0]	[1, 1, 0, 0]
857	0	[0, 0, 0, 0]
400	0	[0, 1, 0, 1]	[0, 1, 0, 0]
213	1	[0, 0, 1, 0]	[0, 0, 0, 0]	[0, 1, 0, 0]	[0, 1, 1, 1]
759	0	[0, 1, 0, 1]	[0, 1, 0, 0]
371	0	[0, 1, 0, 0]
341	0	[0, 1, 0, 0]
572	0	[0, 0, 0, 0]	[0, 0, 0, 0]
595	0	[0, 1, 0, 0]	[0, 0, 0, 0]
447	1	[0, 1, 0, 0]	[0, 1, 1, 1]	[0, 0, 0, 0]
372	0	[0, 1, 0, 1]	[0, 0, 0, 0]
514	0	[0, 1, 0, 0]	[0, 1, 0, 0]	[0, 1, 0, 0]	[0, 1, 0, 0]
448	0	[0, 0, 0, 0]
947	1	[0, 1, 0, 0]	[0, 0, 0, 1]	[0, 0, 0, 0]	[1, 0, 0, 0]	[0, 1, 0, 0]	[0, 0, 0, 0]
653	1	[0, 1, 0, 1]	[1, 0, 1, 0]	[0, 0, 0, 1]	[0, 0, 0, 1]	[0, 0, 0, 0]	[0, 0, 0, 0]	[0, 0, 0, 0]	[0, 0, 0, 0]	[0, 1, 0, 0]	[1, 0, 0, 0]
627	0	[0, 1, 0, 0]
277	0	[0, 0, 0, 0]
628	0	[0, 1, 0, 0]
149	0	[0, 1, 0, 0]
824	1	[0, 1, 1, 1]	[0, 0, 0, 0]
312	1	[0, 0, 0, 0]	[0, 0, 1, 0]	[0, 0, 0, 0]	[0, 1, 0, 0]
313	0	[0, 1, 0, 0]
762	0	[0, 0, 0, 0]	[0, 0, 0, 1]
402	0	[0, 1, 0, 0]	[0, 1, 0, 0]
596	1	[0, 0, 1, 0]	[0, 0, 0, 0]	[0, 0, 0, 0]
858	0	[0, 0, 0, 0]	[0, 0, 0, 0]
791	1	[0, 1, 0, 1]	[0, 0, 0, 1]	[0, 0, 0, 0]	[0, 1, 0, 1]
792	0	[0, 0, 0, 0]	[0, 1, 0, 0]
279	1	[1, 1, 0, 1]
90	0	[0, 1, 0, 0]
597	0	[0, 0, 0, 0]
655	0	[0, 1, 0, 0]	[0, 1, 0, 0]	[0, 1, 0, 0]
793	1	[0, 0, 0, 0]
682	0	[0, 0, 1, 0]	[0, 0, 0, 0]
180	1	[0, 1, 0, 0]	[0, 0, 0, 1]	[0, 0, 0, 0]	[0, 0, 0, 0]	[0, 0, 0, 0]	[1, 0, 0, 0]
2	0	[0, 0, 1, 0]	[1, 1, 0, 1]	[0, 1, 0, 0]	[0, 0, 0, 0]
763	1	[0, 1, 1, 0]	[0, 0, 0, 0]	[0, 0, 0, 0]	[1, 0, 0, 0]
515	0	[0, 0, 1, 0]	[0, 0, 0, 0]
484	1	[0, 0, 0, 0]
656	1	[0, 0, 0, 0]	[0, 0, 0, 0]
516	0	[0, 0, 1, 0]	[0, 1, 0, 0]
949	1	[0, 0, 1, 0]	[0, 1, 0, 1]	[1, 0, 1, 0]	[1, 0, 0, 1]	[0, 0, 0, 1]	[0, 1, 1, 0]	[0, 0, 0, 0]	[0, 0, 0, 0]	[0, 0, 0, 0]	[0, 0, 0, 0]	[0, 1, 0, 1]	[1, 0, 0, 0]
374	0	[0, 1, 0, 0]	[0, 0, 0, 0]
826	1	[0, 0, 0, 0]	[0, 0, 0, 0]	[1, 1, 0, 1]	[1, 1, 0, 0]	[0, 1, 0, 0]	[0, 1, 0, 0]	[0, 0, 0, 0]	[0, 0, 1, 0]	[0, 1, 0, 0]	[1, 1, 0, 1]	[0, 1, 0, 0]	[0, 1, 0, 0]
546	0	[0, 0, 0, 0]
827	1	[0, 0, 1, 0]	[0, 1, 1, 0]
118	0	[1, 0, 0, 0]	[0, 1, 0, 0]
598	0	[0, 0, 0, 0]
766	0	[0, 1, 0, 0]	[0, 1, 0, 1]	[0, 1, 0, 1]	[1, 1, 0, 0]
91	1	[0, 1, 1, 0]	[0, 0, 1, 0]	[0, 0, 0, 0]
245	1	[1, 1, 0, 1]
887	0	[0, 0, 0, 0]
246	0	[0, 0, 0, 0]
683	0	[0, 0, 0, 0]	[0, 0, 0, 0]
517	0	[0, 0, 0, 0]	[0, 0, 1, 0]
92	1	[1, 1, 0, 0]
280	0	[0, 0, 0, 0]
485	0	[1, 1, 0, 1]	[0, 0, 0, 0]
684	0	[0, 1, 0, 0]	[0, 1, 1, 1]	[0, 0, 0, 0]
55	0	[0, 0, 0, 0]
25	0	[0, 1, 0, 0]	[0, 1, 0, 0]
215	1	[0, 0, 1, 0]	[1, 1, 1, 0]	[1, 1, 0, 1]	[0, 0, 0, 0]	[0, 0, 0, 0]	[0, 0, 0, 0]
449	0	[0, 0, 1, 0]	[0, 1, 0, 0]
342	1	[0, 1, 1, 1]	[0, 0, 0, 0]
859	0	[0, 1, 1, 0]	[0, 1, 0, 0]
629	0	[0, 1, 0, 0]	[0, 1, 0, 0]	[0, 0, 0, 0]	[1, 1, 0, 1]
56	0	[0, 1, 0, 1]
685	0	[0, 1, 0, 0]
767	0	[1, 1, 1, 0]	[0, 0, 0, 0]	[0, 1, 0, 0]
151	0	[0, 0, 0, 0]	[0, 0, 0, 0]
950	0	[0, 0, 1, 0]	[0, 0, 0, 0]
686	1	[0, 0, 1, 0]	[0, 1, 0, 1]	[1, 0, 1, 0]	[0, 0, 0, 1]	[0, 1, 1, 0]	[0, 0, 0, 0]	[0, 0, 0, 0]	[0, 0, 0, 0]	[0, 0, 0, 0]	[0, 0, 0, 0]	[1, 0, 0, 0]
343	0	[0, 0, 0, 0]
404	0	[0, 1, 0, 1]	[0, 0, 0, 0]
405	0	[1, 1, 0, 1]
888	0	[0, 0, 0, 0]
768	0	[0, 0, 1, 0]	[0, 0, 0, 0]
451	0	[0, 1, 0, 0]
57	0	[0, 0, 0, 0]
687	0	[0, 0, 0, 0]	[0, 0, 0, 0]
217	0	[0, 1, 0, 0]
518	1	[0, 1, 1, 1]	[0, 0, 0, 0]
375	0	[0, 0, 1, 0]	[0, 0, 0, 0]
951	0	[0, 0, 1, 0]	[0, 0, 0, 0]	[0, 1, 0, 0]
796	0	[0, 1, 0, 1]	[0, 1, 0, 0]
828	0	[0, 1, 0, 0]
519	0	[0, 0, 0, 0]	[0, 0, 0, 0]
219	0	[0, 1, 0, 0]
769	0	[0, 1, 0, 0]
152	0	[0, 0, 0, 0]
688	1	[0, 0, 0, 0]	[1, 1, 0, 0]
548	1	[0, 1, 1, 1]	[0, 0, 0, 0]
4	1	[0, 1, 0, 1]	[0, 1, 0, 1]	[0, 1, 1, 1]	[0, 1, 0, 0]	[0, 1, 0, 1]	[0, 1, 1, 0]	[0, 0, 0, 0]	[0, 0, 0, 0]	[0, 1, 0, 0]	[0, 1, 1, 1]
58	0	[0, 1, 0, 0]
797	0	[0, 1, 0, 0]	[0, 1, 0, 0]
574	0	[0, 1, 0, 0]
181	1	[0, 0, 0, 0]
926	1	[0, 0, 0, 0]	[0, 0, 1, 0]
316	1	[0, 0, 0, 0]
119	0	[0, 0, 0, 0]
798	0	[0, 1, 1, 0]	[0, 1, 0, 0]	[0, 1, 0, 0]
630	1	[0, 0, 1, 0]	[0, 0, 0, 0]
952	1	[0, 0, 0, 0]
727	1	[0, 1, 0, 0]	[0, 0, 1, 0]	[0, 0, 0, 0]	[0, 1, 0, 1]
728	0	[0, 1, 1, 0]	[0, 1, 0, 0]	[1, 1, 0, 1]
488	0	[0, 1, 0, 0]
344	0	[0, 1, 0, 0]	[0, 1, 0, 0]
283	0	[1, 1, 0, 1]	[0, 1, 0, 0]
799	0	[0, 0, 0, 0]	[0, 1, 0, 0]	[0, 0, 0, 0]
521	0	[0, 1, 0, 0]	[0, 1, 0, 0]	[1, 1, 0, 0]
800	0	[0, 0, 0, 0]
657	1	[0, 0, 0, 0]
689	0	[0, 0, 0, 0]	[0, 0, 1, 0]	[0, 1, 1, 0]
154	0	[0, 0, 0, 0]	[0, 1, 0, 1]
59	0	[0, 1, 0, 0]
247	0	[0, 1, 1, 0]
770	0	[0, 1, 0, 0]
222	1	[0, 1, 0, 0]	[0, 0, 0, 0]
60	1	[0, 0, 0, 0]	[0, 0, 0, 0]
522	0	[1, 1, 0, 1]	[0, 1, 0, 0]	[0, 1, 0, 0]
690	0	[0, 1, 0, 0]	[0, 1, 0, 0]	[0, 0, 0, 0]	[0, 0, 0, 0]
377	0	[0, 0, 0, 0]	[0, 0, 0, 0]
802	1	[1, 1, 0, 1]	[1, 1, 0, 0]	[0, 1, 0, 0]	[0, 0, 0, 0]	[1, 1, 0, 0]
5	0	[0, 0, 0, 0]
345	0	[0, 0, 0, 0]
803	0	[0, 1, 0, 0]	[0, 0, 0, 0]	[0, 0, 0, 0]
122	1	[0, 0, 0, 0]	[0, 0, 1, 0]	[0, 1, 1, 0]
346	0	[0, 0, 1, 0]	[0, 1, 0, 0]
730	1	[0, 0, 0, 0]
61	0	[0, 0, 0, 0]	[0, 1, 0, 0]
123	0	[0, 0, 0, 0]
523	0	[0, 1, 0, 0]	[0, 1, 0, 0]	[0, 1, 0, 0]
953	0	[0, 1, 0, 0]	[0, 0, 1, 0]	[0, 1, 1, 0]
62	1	[0, 0, 1, 0]	[0, 0, 0, 0]
731	0	[0, 1, 0, 0]
691	0	[0, 1, 0, 0]	[0, 1, 0, 0]
928	0	[0, 0, 1, 0]
860	1	[0, 0, 0, 0]
347	1	[1, 1, 0, 1]
954	0	[0, 1, 0, 0]
317	1	[0, 0, 1, 0]	[0, 1, 0, 0]	[0, 0, 0, 1]	[0, 0, 0, 0]	[0, 0, 0, 0]	[0, 0, 0, 0]	[1, 0, 0, 0]
156	0	[0, 1, 0, 0]	[0, 0, 0, 0]
552	1	[0, 0, 0, 0]
692	0	[0, 0, 0, 0]
223	0	[0, 1, 0, 0]
632	0	[0, 1, 0, 0]
861	0	[0, 1, 0, 0]	[1, 0, 0, 1]	[0, 1, 0, 0]	[0, 1, 0, 0]
929	1	[0, 0, 0, 0]
830	0	[0, 1, 0, 0]
284	0	[0, 1, 0, 0]
348	1	[0, 1, 0, 1]	[0, 0, 0, 0]	[0, 1, 0, 1]
862	0	[0, 0, 0, 0]
248	0	[0, 1, 1, 0]	[0, 0, 0, 0]	[0, 0, 0, 0]	[1, 1, 0, 0]
732	0	[0, 1, 0, 0]	[1, 1, 0, 1]
577	0	[0, 1, 1, 0]	[0, 1, 0, 0]	[0, 1, 0, 0]
633	0	[0, 0, 0, 0]
93	1	[0, 0, 0, 0]
429	1	[0, 1, 0, 1]	[1, 1, 0, 1]	[1, 0, 0, 1]	[0, 0, 0, 1]	[0, 0, 0, 1]	[0, 1, 1, 0]	[0, 0, 0, 0]	[0, 0, 0, 0]	[1, 0, 0, 0]	[0, 1, 0, 0]
634	1	[0, 0, 0, 0]
94	1	[0, 1, 0, 1]
378	0	[0, 1, 0, 1]	[0, 1, 0, 0]
831	0	[0, 1, 0, 0]	[0, 0, 0, 0]
454	0	[0, 0, 0, 0]
318	0	[0, 1, 0, 0]
349	1	[1, 1, 0, 0]	[1, 1, 1, 0]	[0, 0, 0, 0]	[0, 0, 0, 0]	[0, 1, 0, 0]
578	0	[0, 1, 0, 0]
635	0	[0, 1, 0, 0]
124	1	[0, 0, 0, 0]	[0, 0, 0, 0]	[0, 0, 1, 0]	[0, 1, 0, 0]	[0, 0, 0, 0]	[0, 0, 0, 0]	[0, 1, 0, 0]
891	0	[0, 0, 0, 0]
7	0	[0, 0, 1, 0]	[0, 1, 1, 0]
863	1	[0, 0, 0, 0]	[0, 0, 0, 0]	[0, 1, 0, 1]
319	0	[0, 0, 0, 0]
660	1	[0, 1, 0, 0]
96	1	[0, 0, 1, 0]	[0, 1, 0, 1]	[1, 0, 1, 0]	[0, 1, 0, 0]	[0, 0, 0, 1]	[0, 0, 0, 0]	[0, 0, 0, 0]
126	1	[0, 1, 0, 0]
30	1	[0, 1, 1, 0]	[0, 0, 0, 0]	[0, 1, 0, 0]	[0, 1, 0, 0]
183	1	[0, 0, 1, 0]	[0, 0, 0, 0]
65	1	[0, 1, 0, 0]
97	1	[0, 0, 1, 0]	[0, 0, 0, 0]
553	1	[1, 1, 0, 1]
320	0	[0, 1, 0, 0]
408	0	[0, 1, 0, 0]
130	1	[1, 1, 0, 1]
286	0	[0, 1, 0, 0]
455	1	[0, 0, 0, 0]
98	0	[0, 1, 0, 0]	[0, 0, 1, 0]	[0, 1, 0, 0]	[0, 0, 0, 0]	[0, 1, 0, 0]	[0, 1, 1, 1]	[0, 0, 0, 0]
99	0	[0, 0, 0, 0]
807	0	[0, 1, 0, 0]	[0, 1, 0, 0]
249	0	[0, 1, 0, 0]	[0, 0, 0, 0]	[0, 0, 0, 0]	[0, 0, 0, 0]
892	1	[0, 0, 0, 0]
287	0	[0, 1, 0, 1]	[0, 0, 1, 0]	[0, 0, 0, 0]	[0, 0, 0, 0]	[1, 0, 0, 0]
733	0	[0, 1, 0, 0]	[1, 1, 0, 1]	[0, 0, 0, 0]	[1, 1, 0, 0]
289	0	[0, 0, 0, 0]
380	1	[0, 0, 1, 0]	[1, 0, 1, 0]	[0, 0, 0, 1]	[0, 0, 0, 0]	[0, 0, 0, 0]	[0, 0, 0, 0]
381	0	[0, 1, 0, 0]	[0, 1, 0, 0]	[1, 1, 0, 1]	[1, 0, 0, 1]	[1, 1, 1, 0]	[0, 0, 1, 1]	[0, 1, 0, 0]	[0, 1, 0, 1]	[0, 1, 1, 0]	[0, 1, 1, 0]	[0, 1, 0, 0]	[1, 0, 0, 1]	[1, 0, 0, 1]	[0, 1, 0, 0]
695	0	[0, 0, 0, 0]	[0, 1, 0, 0]	[1, 1, 0, 0]
864	0	[0, 1, 0, 0]	[1, 1, 1, 0]	[0, 1, 0, 0]	[1, 0, 0, 1]
100	0	[0, 1, 0, 0]
31	0	[1, 1, 0, 1]	[0, 1, 0, 0]	[0, 1, 0, 0]
251	1	[0, 1, 0, 0]
184	0	[0, 0, 1, 0]	[0, 1, 1, 0]	[0, 1, 0, 0]
524	1	[0, 1, 0, 0]	[0, 1, 0, 0]
955	0	[0, 0, 0, 0]
893	1	[0, 1, 0, 0]	[0, 0, 0, 0]
131	0	[0, 0, 0, 0]
491	1	[0, 1, 0, 0]	[0, 0, 0, 0]
457	0	[0, 0, 0, 0]
352	0	[0, 1, 0, 0]	[1, 0, 0, 1]
602	0	[0, 1, 0, 0]
734	0	[0, 0, 1, 0]	[0, 0, 0, 0]
185	1	[0, 1, 0, 0]	[0, 1, 0, 0]
603	1	[0, 0, 1, 0]	[0, 1, 0, 1]	[1, 0, 1, 0]	[1, 1, 1, 0]	[0, 0, 0, 1]	[0, 0, 0, 1]	[0, 1, 1, 0]	[0, 0, 0, 0]	[0, 1, 1, 0]	[0, 0, 0, 1]	[0, 1, 0, 1]	[0, 0, 0, 0]	[0, 0, 0, 0]	[0, 1, 0, 0]	[0, 0, 0, 0]	[0, 1, 0, 0]	[1, 1, 0, 0]	[0, 1, 0, 0]	[0, 0, 0, 0]	[1, 0, 0, 0]	[0, 1, 0, 0]	[0, 1, 0, 0]	[0, 0, 0, 0]	[0, 0, 1, 0]	[0, 1, 1, 0]
252	1	[0, 1, 0, 0]	[0, 0, 1, 0]	[0, 1, 0, 0]	[0, 0, 0, 0]
735	0	[0, 0, 0, 0]
773	1	[0, 1, 0, 0]	[0, 0, 0, 1]	[0, 0, 0, 0]	[1, 0, 0, 0]
810	0	[0, 1, 0, 0]	[0, 1, 0, 0]
132	1	[0, 1, 0, 0]	[0, 1, 0, 0]	[0, 1, 1, 0]	[0, 0, 0, 0]	[0, 0, 0, 0]	[1, 1, 0, 1]	[0, 1, 0, 0]	[0, 1, 0, 0]	[0, 1, 0, 0]	[0, 1, 0, 0]
253	0	[0, 1, 0, 0]	[0, 1, 0, 0]	[1, 1, 0, 1]	[0, 1, 0, 1]	[0, 1, 1, 0]	[0, 1, 1, 0]	[0, 1, 0, 0]	[0, 0, 0, 1]	[1, 1, 0, 1]
321	0	[0, 0, 0, 0]	[0, 0, 1, 0]
353	0	[0, 0, 1, 0]	[0, 0, 0, 0]
133	1	[0, 0, 0, 0]	[1, 1, 0, 1]	[1, 1, 0, 0]
696	1	[0, 1, 0, 0]	[0, 0, 0, 0]	[1, 1, 0, 0]	[0, 0, 0, 0]	[0, 1, 0, 0]	[0, 0, 0, 0]	[0, 1, 0, 0]	[0, 1, 1, 0]
774	0	[0, 1, 0, 0]
291	0	[0, 0, 1, 0]	[1, 1, 1, 0]	[0, 0, 0, 1]	[0, 0, 0, 0]
606	0	[0, 1, 0, 0]	[0, 1, 0, 0]
775	0	[0, 1, 0, 0]
431	0	[0, 1, 0, 0]	[0, 0, 0, 0]	[0, 0, 0, 0]
187	1	[0, 0, 1, 0]	[0, 0, 0, 0]
32	1	[0, 0, 0, 0]	[0, 1, 0, 0]
493	0	[0, 1, 0, 0]	[0, 0, 0, 0]
895	0	[0, 0, 1, 0]	[0, 0, 0, 0]
776	0	[0, 0, 0, 0]
932	0	[0, 1, 0, 0]
33	1	[0, 1, 0, 0]	[0, 0, 0, 0]
637	1	[0, 0, 0, 0]	[0, 1, 0, 0]	[0, 1, 0, 1]	[1, 1, 0, 0]
811	1	[0, 1, 1, 1]	[0, 0, 0, 0]
777	0	[0, 1, 0, 0]	[0, 1, 1, 0]	[0, 1, 1, 0]	[0, 1, 0, 0]
579	1	[0, 1, 0, 0]	[0, 0, 0, 0]	[0, 0, 0, 0]	[0, 0, 0, 0]	[0, 1, 0, 1]
134	1	[0, 1, 0, 0]	[0, 1, 0, 0]	[0, 1, 0, 0]	[1, 1, 0, 0]	[0, 0, 0, 0]
957	0	[0, 1, 0, 0]
958	0	[0, 0, 0, 0]
9	0	[0, 0, 0, 0]
697	0	[0, 0, 0, 0]	[0, 0, 0, 0]	[1, 1, 0, 0]	[0, 1, 0, 0]
254	0	[0, 1, 0, 0]
189	1	[0, 0, 1, 0]	[0, 1, 0, 1]	[1, 0, 1, 0]	[1, 0, 0, 1]	[0, 0, 0, 1]	[0, 0, 0, 0]	[0, 0, 0, 0]	[0, 0, 0, 0]	[0, 0, 0, 0]	[0, 0, 1, 0]	[1, 0, 0, 0]
554	0	[0, 1, 0, 0]
323	1	[0, 0, 0, 0]
580	1	[0, 1, 1, 1]	[0, 0, 0, 0]
698	1	[0, 0, 1, 0]	[0, 1, 0, 1]	[1, 0, 1, 0]	[1, 0, 0, 1]	[0, 0, 0, 1]	[0, 0, 0, 1]	[0, 0, 0, 0]	[0, 1, 0, 0]	[0, 1, 1, 0]	[0, 1, 0, 0]	[0, 1, 1, 0]	[0, 0, 0, 0]	[0, 0, 0, 0]	[0, 0, 0, 0]	[0, 0, 0, 0]	[1, 0, 0, 0]	[0, 1, 0, 0]
865	0	[0, 1, 0, 0]
190	1	[0, 0, 1, 0]	[0, 0, 0, 0]	[1, 0, 0, 0]	[1, 0, 0, 0]
410	1	[0, 1, 0, 0]
896	0	[0, 1, 1, 1]	[0, 0, 0, 0]	[0, 1, 0, 0]
225	0	[0, 0, 0, 0]
158	1	[0, 1, 0, 0]	[0, 0, 1, 0]	[0, 1, 0, 0]	[0, 1, 1, 0]	[0, 0, 0, 0]	[0, 0, 0, 0]	[0, 1, 0, 0]	[0, 1, 1, 0]	[0, 0, 0, 0]	[0, 0, 0, 0]
866	0	[0, 1, 0, 0]	[0, 1, 0, 0]	[0, 0, 0, 0]
255	1	[0, 1, 0, 1]
226	0	[0, 0, 0, 0]
525	0	[1, 1, 0, 1]	[0, 0, 1, 0]	[1, 0, 0, 1]	[0, 0, 1, 0]	[0, 1, 1, 0]	[0, 1, 0, 0]	[0, 1, 0, 0]	[0, 1, 0, 0]	[0, 1, 0, 0]	[0, 0, 1, 0]	[0, 0, 0, 0]	[0, 1, 0, 0]	[0, 0, 0, 0]	[0, 0, 0, 0]	[0, 0, 0, 0]
460	1	[0, 1, 0, 0]	[1, 1, 1, 0]	[0, 1, 0, 0]	[0, 1, 1, 0]	[0, 0, 0, 0]	[0, 1, 0, 0]	[1, 1, 0, 0]	[0, 0, 0, 0]
897	1	[0, 0, 1, 0]
103	0	[0, 1, 0, 0]	[1, 1, 0, 0]
292	0	[0, 1, 0, 0]
384	1	[1, 0, 0, 0]
699	0	[0, 0, 0, 0]	[0, 1, 0, 1]
68	0	[0, 0, 0, 0]
432	1	[0, 0, 0, 0]	[0, 0, 0, 0]	[0, 0, 0, 0]	[0, 0, 0, 0]	[1, 1, 0, 1]
737	0	[0, 1, 0, 0]	[0, 1, 0, 0]
933	1	[0, 0, 0, 0]	[1, 1, 0, 1]
700	0	[0, 0, 0, 0]
494	0	[0, 0, 0, 0]	[1, 1, 0, 0]
738	0	[0, 1, 0, 0]	[0, 1, 0, 0]	[1, 1, 0, 0]
324	1	[0, 1, 0, 1]	[0, 1, 0, 0]	[0, 0, 0, 0]	[0, 0, 0, 0]	[0, 0, 0, 0]	[0, 0, 0, 0]	[0, 0, 0, 0]	[0, 1, 0, 1]	[0, 1, 0, 0]	[1, 0, 0, 0]
160	0	[0, 1, 0, 0]
386	0	[1, 0, 0, 0]	[0, 1, 0, 0]	[0, 1, 0, 1]
581	1	[0, 0, 0, 0]	[1, 0, 0, 0]	[0, 1, 0, 0]
739	0	[0, 1, 0, 0]
293	0	[0, 0, 0, 0]
867	0	[0, 0, 1, 0]	[0, 0, 0, 0]
69	0	[0, 1, 0, 0]	[1, 1, 0, 0]	[1, 1, 0, 0]	[0, 0, 0, 0]	[0, 0, 0, 0]	[0, 0, 0, 0]
701	0	[0, 0, 0, 0]
36	1	[0, 1, 1, 1]	[0, 0, 0, 0]	[0, 1, 0, 0]	[0, 1, 1, 0]	[0, 1, 0, 0]	[1, 0, 0, 0]	[0, 1, 0, 0]	[0, 1, 0, 0]
104	0	[0, 1, 0, 0]
325	0	[0, 0, 0, 0]
355	0	[0, 1, 0, 0]
664	0	[0, 0, 1, 0]	[0, 0, 0, 0]
526	0	[0, 0, 1, 0]	[0, 0, 0, 0]
740	0	[0, 1, 0, 0]
813	1	[0, 0, 0, 0]	[1, 0, 0, 0]
387	1	[0, 1, 0, 1]	[0, 0, 0, 0]
228	0	[0, 1, 0, 0]	[0, 0, 0, 0]
388	1	[1, 1, 0, 1]	[1, 1, 0, 0]	[0, 1, 0, 0]	[0, 0, 0, 0]	[1, 1, 0, 1]	[0, 0, 0, 0]	[0, 1, 0, 0]	[0, 1, 0, 1]	[0, 0, 0, 0]
934	0	[0, 1, 1, 0]	[0, 0, 0, 0]
412	1	[0, 1, 0, 0]	[0, 1, 0, 1]	[0, 0, 0, 0]	[1, 1, 0, 1]	[0, 1, 0, 0]
607	1	[0, 1, 0, 0]	[0, 1, 0, 1]	[0, 1, 0, 0]	[0, 1, 1, 0]	[0, 0, 0, 0]	[0, 1, 0, 0]	[0, 0, 0, 1]	[0, 1, 0, 1]	[0, 0, 0, 0]	[0, 1, 0, 1]	[1, 1, 0, 0]	[0, 1, 0, 0]	[0, 1, 0, 0]
495	0	[0, 0, 0, 0]
582	1	[1, 0, 0, 0]
814	0	[0, 0, 0, 0]
780	0	[0, 1, 0, 0]	[0, 0, 0, 0]	[0, 0, 0, 0]	[0, 0, 0, 0]	[0, 0, 0, 0]	[0, 0, 0, 0]
527	0	[0, 1, 1, 0]	[0, 0, 0, 0]
899	0	[0, 1, 0, 0]
557	0	[0, 0, 1, 0]	[0, 0, 0, 0]
741	0	[0, 1, 0, 0]
781	1	[0, 1, 0, 0]	[0, 1, 0, 0]
257	0	[0, 0, 0, 0]	[0, 0, 0, 0]	[0, 0, 1, 0]	[0, 0, 0, 0]
11	1	[0, 0, 0, 0]	[0, 0, 0, 0]	[0, 1, 0, 0]
70	0	[0, 1, 0, 0]	[0, 0, 0, 0]	[0, 0, 0, 0]	[0, 0, 0, 0]	[0, 0, 0, 0]
935	1	[1, 1, 0, 1]
39	0	[0, 1, 0, 0]	[0, 0, 0, 0]	[0, 0, 0, 0]	[1, 1, 0, 0]	[0, 0, 0, 0]	[0, 0, 0, 0]
192	0	[0, 0, 1, 0]	[0, 0, 0, 0]	[0, 0, 0, 0]	[0, 1, 0, 0]
868	1	[0, 0, 0, 0]	[1, 0, 0, 0]
528	0	[0, 1, 0, 0]	[0, 1, 1, 0]	[0, 1, 0, 0]	[0, 0, 0, 0]
833	1	[0, 1, 0, 0]	[0, 0, 0, 0]	[0, 1, 0, 0]	[0, 1, 0, 0]	[0, 1, 0, 1]
665	1	[0, 0, 0, 0]
610	0	[0, 1, 0, 0]	[0, 1, 0, 0]
936	1	[0, 1, 0, 0]	[0, 0, 0, 0]	[1, 1, 0, 0]	[0, 1, 0, 0]	[0, 1, 1, 0]	[0, 1, 0, 0]
71	1	[1, 1, 0, 0]	[0, 1, 0, 0]	[0, 1, 0, 0]	[0, 0, 0, 0]	[1, 1, 0, 0]	[0, 0, 0, 0]	[0, 0, 0, 0]
40	1	[0, 0, 0, 0]
937	0	[0, 1, 0, 1]	[0, 0, 0, 0]
869	0	[0, 1, 0, 0]	[0, 1, 0, 0]
294	1	[0, 0, 0, 0]	[0, 1, 1, 0]	[0, 0, 0, 0]	[0, 0, 0, 0]	[0, 0, 0, 0]	[0, 0, 0, 0]	[1, 0, 0, 0]
901	0	[0, 1, 0, 0]	[1, 1, 0, 0]
558	0	[0, 1, 0, 0]	[0, 1, 0, 0]
73	1	[0, 0, 0, 0]
193	1	[0, 0, 0, 0]	[1, 1, 0, 0]
435	1	[0, 1, 1, 0]	[0, 0, 0, 0]
436	1	[0, 1, 1, 0]	[0, 0, 0, 0]	[0, 0, 0, 0]	[1, 1, 0, 0]
638	1	[0, 1, 0, 1]	[0, 0, 1, 0]	[0, 0, 0, 0]
74	0	[1, 0, 0, 0]	[0, 1, 0, 0]	[0, 1, 0, 1]
870	0	[0, 1, 0, 1]
105	1	[0, 1, 0, 0]	[0, 1, 1, 0]	[1, 1, 0, 1]	[1, 0, 0, 0]
666	1	[0, 1, 0, 0]	[0, 0, 0, 0]	[0, 0, 0, 0]
229	0	[0, 1, 1, 1]	[0, 0, 0, 0]
356	1	[0, 0, 0, 0]	[0, 1, 0, 1]
497	0	[0, 1, 1, 1]	[0, 0, 0, 0]
835	1	[0, 0, 0, 1]	[0, 0, 0, 0]
815	0	[0, 1, 0, 0]
639	1	[0, 1, 0, 0]	[0, 0, 1, 0]	[0, 0, 0, 0]
41	1	[0, 0, 0, 0]
258	1	[0, 1, 0, 0]	[0, 0, 0, 0]
529	1	[0, 0, 0, 0]	[0, 0, 0, 0]
742	0	[0, 0, 0, 0]
583	0	[0, 1, 0, 0]
782	1	[0, 0, 0, 0]	[0, 0, 0, 0]	[0, 1, 0, 0]	[0, 0, 0, 0]	[0, 1, 0, 0]
230	1	[0, 1, 0, 0]	[1, 0, 0, 0]	[1, 0, 0, 0]	[0, 1, 0, 0]
75	0	[0, 1, 0, 0]
76	1	[0, 1, 0, 0]	[0, 1, 1, 0]
702	0	[0, 0, 0, 0]
745	0	[0, 0, 0, 0]
197	0	[0, 1, 0, 0]
297	0	[0, 1, 0, 0]	[0, 1, 0, 1]	[0, 1, 1, 0]	[0, 1, 0, 0]	[1, 1, 0, 0]
259	0	[0, 1, 0, 0]	[0, 0, 0, 0]	[0, 0, 0, 0]
746	1	[0, 1, 1, 0]	[0, 0, 0, 0]
260	0	[0, 1, 0, 0]
837	1	[0, 0, 0, 0]	[0, 0, 0, 0]	[1, 1, 0, 0]
668	0	[1, 0, 0, 0]	[0, 1, 0, 0]	[0, 1, 0, 1]	[0, 1, 0, 1]	[1, 1, 0, 0]
669	1	[0, 1, 0, 0]
13	1	[0, 1, 0, 0]	[0, 1, 0, 0]	[1, 1, 0, 0]	[0, 0, 0, 0]
871	0	[0, 1, 0, 0]	[0, 1, 1, 1]	[0, 1, 0, 0]	[0, 1, 0, 0]
261	0	[0, 1, 0, 0]	[0, 0, 0, 1]
906	0	[0, 1, 0, 0]
838	0	[0, 0, 0, 0]
136	0	[0, 1, 0, 0]
907	0	[0, 0, 1, 0]	[0, 1, 1, 0]
819	0	[0, 1, 0, 1]	[1, 1, 0, 1]	[0, 1, 0, 0]
464	1	[0, 0, 0, 0]
262	0	[0, 0, 0, 0]
14	0	[0, 1, 0, 0]
584	0	[0, 1, 0, 0]	[0, 0, 0, 0]
703	0	[0, 0, 1, 0]	[0, 0, 0, 0]
612	1	[1, 0, 1, 0]	[1, 1, 1, 0]	[0, 1, 0, 0]	[0, 0, 0, 1]	[0, 0, 0, 0]	[0, 1, 1, 0]	[0, 0, 0, 0]	[0, 0, 0, 0]	[0, 0, 0, 0]	[0, 0, 0, 0]	[0, 0, 0, 0]	[1, 0, 0, 0]
530	0	[0, 0, 1, 0]	[0, 1, 0, 0]	[0, 0, 0, 0]
15	0	[0, 0, 0, 0]	[0, 0, 0, 0]
561	0	[0, 1, 0, 0]	[0, 1, 0, 0]	[0, 1, 0, 0]
199	0	[0, 1, 0, 0]	[0, 0, 1, 0]	[0, 0, 0, 0]
465	1	[0, 0, 0, 0]	[0, 0, 0, 0]	[0, 0, 0, 0]
466	1	[0, 0, 1, 0]	[0, 0, 0, 0]	[1, 0, 0, 0]	[1, 0, 0, 0]	[0, 0, 0, 0]	[0, 1, 0, 0]
201	0	[0, 0, 0, 0]
264	1	[0, 0, 0, 0]
640	0	[0, 1, 0, 0]
704	0	[0, 1, 0, 0]	[0, 1, 0, 0]
467	0	[0, 0, 0, 0]
437	0	[0, 1, 0, 0]
414	1	[0, 1, 0, 0]	[1, 0, 0, 1]	[0, 1, 0, 1]	[0, 1, 1, 0]	[0, 0, 1, 0]	[0, 0, 1, 0]	[0, 1, 1, 0]	[0, 0, 0, 0]	[0, 0, 0, 0]	[1, 1, 0, 0]	[0, 1, 0, 0]
204	1	[0, 1, 0, 0]	[0, 1, 0, 1]	[0, 1, 0, 0]	[1, 1, 0, 1]	[1, 1, 1, 0]	[0, 1, 0, 0]	[0, 1, 1, 0]	[0, 0, 1, 1]	[0, 0, 0, 0]	[0, 1, 0, 0]	[0, 1, 1, 0]	[0, 1, 0, 0]	[0, 1, 0, 1]	[0, 1, 0, 0]	[0, 1, 0, 1]	[0, 0, 0, 0]	[0, 0, 0, 0]
672	1	[0, 0, 1, 0]	[0, 0, 0, 0]
328	1	[0, 0, 0, 0]	[0, 1, 0, 0]
613	1	[1, 1, 0, 1]	[0, 0, 0, 0]	[1, 1, 0, 0]
748	0	[0, 1, 0, 0]	[0, 0, 0, 0]	[1, 1, 0, 0]
107	0	[0, 1, 0, 0]	[0, 0, 0, 0]
468	0	[0, 1, 0, 0]	[0, 0, 0, 0]	[1, 1, 0, 0]
42	0	[0, 0, 0, 0]
139	1	[0, 1, 0, 0]	[0, 1, 0, 0]	[0, 1, 0, 0]
531	0	[0, 0, 1, 0]	[0, 0, 0, 0]
908	1	[0, 0, 0, 0]	[1, 1, 0, 0]
108	0	[0, 1, 0, 0]	[0, 0, 0, 0]	[1, 1, 0, 0]
641	0	[0, 1, 0, 0]
939	1	[0, 0, 0, 0]	[0, 1, 0, 0]
750	1	[1, 1, 1, 0]	[0, 0, 0, 0]
751	1	[0, 1, 0, 0]
267	1	[1, 1, 0, 0]	[0, 0, 0, 0]	[0, 0, 0, 0]	[0, 0, 0, 0]	[1, 1, 0, 1]	[0, 0, 0, 0]	[1, 1, 0, 0]	[0, 1, 0, 1]
532	0	[0, 1, 0, 0]	[0, 1, 0, 0]	[0, 0, 0, 0]	[0, 0, 0, 0]
562	1	[0, 1, 0, 0]	[0, 0, 0, 0]
909	1	[0, 1, 0, 0]	[0, 1, 0, 0]	[1, 0, 0, 0]	[0, 1, 0, 0]	[1, 1, 0, 0]
232	1	[0, 1, 0, 0]
705	1	[0, 0, 1, 0]	[1, 0, 0, 1]	[1, 0, 0, 1]	[0, 0, 0, 1]	[0, 0, 0, 0]	[0, 1, 1, 0]	[0, 0, 0, 0]	[0, 0, 0, 0]	[0, 0, 1, 0]
470	0	[0, 0, 0, 0]
910	0	[0, 1, 0, 0]	[1, 1, 0, 0]
499	1	[0, 0, 1, 0]	[0, 0, 0, 0]
642	0	[0, 1, 0, 0]	[1, 1, 0, 1]	[1, 1, 0, 1]	[1, 0, 0, 0]	[0, 1, 0, 0]	[0, 1, 0, 0]
585	0	[0, 1, 0, 0]	[0, 0, 1, 0]	[0, 0, 1, 0]	[0, 0, 0, 0]
533	0	[0, 1, 0, 0]
268	0	[0, 0, 1, 0]	[0, 0, 0, 0]
415	1	[0, 0, 0, 0]
164	1	[0, 1, 0, 0]	[0, 1, 0, 0]
586	0	[0, 1, 1, 1]	[0, 0, 0, 0]
302	1	[0, 1, 1, 0]	[0, 0, 1, 0]	[0, 0, 0, 0]	[0, 1, 0, 1]	[0, 1, 0, 1]
534	0	[0, 0, 0, 0]
706	1	[0, 0, 0, 0]	[0, 1, 0, 0]
563	1	[0, 0, 0, 0]	[0, 0, 1, 0]
234	0	[0, 1, 0, 0]
142	1	[0, 0, 0, 0]	[0, 1, 0, 0]	[0, 1, 1, 0]
416	0	[0, 0, 0, 1]	[0, 0, 0, 0]
143	1	[0, 1, 0, 0]	[1, 1, 0, 0]	[0, 0, 0, 0]	[0, 0, 0, 0]	[0, 1, 0, 0]	[0, 1, 1, 0]	[0, 1, 0, 0]
43	1	[0, 0, 0, 0]	[0, 1, 0, 0]
964	1	[0, 1, 0, 0]	[0, 1, 0, 0]
439	0	[0, 1, 0, 0]
330	1	[0, 1, 0, 0]	[0, 1, 0, 1]	[1, 1, 0, 1]	[0, 0, 0, 0]	[0, 1, 0, 0]	[0, 1, 1, 0]	[0, 1, 0, 0]	[0, 0, 0, 0]
303	0	[0, 1, 0, 0]	[0, 0, 0, 0]	[0, 0, 0, 0]	[0, 1, 0, 0]
165	0	[0, 1, 0, 0]	[0, 0, 0, 0]
965	1	[0, 0, 1, 0]	[1, 0, 1, 0]	[1, 0, 0, 1]	[0, 0, 0, 1]	[0, 0, 0, 0]
911	0	[0, 1, 0, 0]
471	1	[0, 0, 0, 0]	[0, 0, 0, 0]	[0, 1, 0, 0]	[0, 0, 0, 0]	[0, 1, 0, 0]	[0, 1, 1, 0]	[0, 1, 0, 0]
966	1	[0, 1, 1, 0]	[0, 0, 0, 0]
967	0	[1, 1, 0, 1]
44	0	[0, 0, 0, 0]
912	0	[0, 1, 0, 0]
913	0	[0, 1, 0, 0]
914	0	[0, 1, 0, 0]
236	0	[0, 1, 0, 0]
707	0	[0, 0, 0, 0]
587	0	[0, 1, 1, 1]	[0, 0, 0, 0]
332	1	[0, 1, 0, 0]	[0, 1, 1, 0]	[0, 0, 0, 0]	[0, 0, 0, 0]
787	1	[0, 1, 0, 0]	[1, 0, 0, 0]
843	0	[0, 1, 1, 1]	[0, 0, 0, 0]
333	0	[0, 1, 0, 0]	[0, 0, 0, 0]	[0, 0, 0, 0]
237	0	[0, 1, 0, 0]	[0, 1, 0, 0]
167	1	[0, 1, 1, 0]	[0, 0, 0, 0]	[0, 0, 0, 0]	[1, 1, 0, 1]	[0, 0, 0, 0]
752	0	[0, 0, 0, 0]	[0, 1, 0, 0]	[0, 1, 0, 1]
46	0	[0, 0, 0, 0]	[0, 1, 0, 0]
168	0	[0, 1, 0, 0]	[0, 1, 0, 1]
673	0	[0, 0, 0, 0]
47	1	[0, 0, 0, 0]	[0, 0, 1, 0]	[0, 1, 1, 0]
969	0	[0, 0, 0, 0]	[0, 1, 1, 0]	[0, 1, 1, 0]	[0, 0, 1, 0]	[0, 0, 0, 0]	[0, 0, 1, 0]	[0, 0, 0, 0]	[0, 1, 0, 0]	[0, 0, 0, 0]	[0, 0, 1, 0]	[0, 0, 0, 0]	[0, 0, 0, 0]	[0, 0, 0, 0]	[0, 0, 1, 0]
915	1	[0, 1, 1, 0]	[0, 0, 1, 0]	[0, 1, 1, 0]	[0, 0, 0, 0]	[1, 1, 0, 1]	[0, 0, 0, 0]	[0, 0, 0, 0]	[0, 1, 0, 0]
674	0	[0, 1, 0, 0]
588	1	[1, 0, 0, 0]
615	0	[0, 0, 1, 0]	[0, 0, 0, 0]
710	0	[0, 0, 0, 0]
80	0	[0, 1, 1, 1]	[0, 0, 0, 0]	[0, 0, 0, 0]	[0, 1, 0, 0]
537	0	[0, 1, 0, 0]
711	1	[0, 0, 0, 0]
363	0	[0, 0, 0, 0]
846	0	[0, 1, 1, 1]	[0, 0, 0, 0]
644	1	[0, 1, 0, 0]	[0, 0, 0, 0]
874	0	[0, 0, 0, 0]
48	1	[0, 0, 0, 0]
364	0	[0, 0, 0, 0]
365	0	[0, 0, 0, 0]
876	0	[0, 1, 0, 0]	[0, 1, 0, 0]
304	0	[0, 1, 0, 0]
504	1	[1, 0, 0, 0]	[0, 0, 0, 0]	[0, 1, 0, 0]	[1, 1, 0, 1]
538	0	[0, 1, 0, 0]
392	0	[1, 0, 0, 0]	[0, 1, 0, 0]
539	0	[1, 1, 0, 1]	[0, 1, 0, 0]	[0, 1, 1, 0]	[0, 0, 0, 0]
82	0	[0, 1, 0, 0]
418	0	[0, 0, 0, 0]
305	0	[0, 1, 0, 0]
83	0	[0, 0, 0, 0]	[0, 0, 0, 0]
675	0	[0, 0, 0, 0]	[0, 0, 0, 0]	[0, 0, 0, 0]
617	1	[0, 1, 1, 0]	[0, 0, 1, 0]	[0, 0, 0, 0]
477	1	[0, 1, 1, 0]	[0, 0, 1, 0]	[0, 1, 1, 0]	[0, 0, 0, 0]	[1, 1, 0, 1]	[0, 0, 0, 0]	[0, 1, 0, 1]	[0, 1, 0, 1]	[0, 1, 0, 0]
170	1	[0, 1, 0, 0]	[1, 1, 0, 0]
443	0	[0, 0, 0, 0]
618	1	[0, 0, 1, 0]	[0, 1, 0, 0]	[0, 0, 0, 0]	[0, 1, 0, 0]	[0, 0, 0, 0]
847	0	[0, 1, 0, 0]	[0, 1, 1, 0]	[0, 1, 0, 0]
366	0	[0, 1, 0, 0]
271	0	[0, 1, 0, 0]	[0, 1, 0, 0]	[0, 0, 0, 0]	[0, 0, 0, 0]	[0, 0, 0, 0]
646	0	[0, 1, 0, 0]
19	0	[0, 1, 0, 0]	[0, 0, 0, 0]
240	1	[1, 1, 0, 1]	[0, 0, 0, 0]	[1, 0, 0, 1]	[0, 1, 0, 1]	[1, 0, 0, 0]
171	0	[0, 1, 0, 0]
505	0	[0, 0, 0, 0]
241	0	[0, 1, 0, 0]	[0, 0, 1, 0]	[0, 0, 1, 0]	[0, 0, 0, 0]	[0, 1, 0, 0]
306	0	[0, 1, 0, 0]
677	0	[0, 1, 0, 0]
444	1	[0, 1, 0, 0]	[0, 1, 0, 1]	[0, 0, 1, 0]	[0, 0, 0, 0]	[0, 1, 0, 1]	[0, 0, 0, 0]	[0, 1, 0, 0]	[0, 1, 0, 0]
85	0	[0, 1, 0, 1]
970	0	[0, 1, 0, 0]
789	0	[0, 0, 0, 0]	[0, 1, 0, 1]
943	0	[0, 0, 1, 0]	[0, 0, 0, 0]
272	0	[0, 0, 0, 0]
393	0	[0, 0, 1, 0]	[0, 1, 0, 0]
944	0	[0, 0, 1, 0]	[0, 0, 0, 0]
753	0	[0, 0, 0, 0]
209	0	[0, 1, 0, 0]
394	1	[0, 0, 1, 0]	[0, 0, 0, 0]
918	0	[0, 0, 0, 0]
113	0	[0, 1, 0, 0]	[0, 1, 0, 0]	[0, 1, 0, 0]	[0, 1, 0, 0]	[0, 0, 0, 0]	[0, 1, 0, 0]
919	1	[0, 0, 0, 1]	[0, 0, 0, 0]
648	0	[0, 1, 0, 0]
395	0	[0, 1, 0, 0]
479	0	[0, 1, 0, 1]	[0, 1, 0, 0]
621	1	[0, 0, 1, 0]	[0, 1, 0, 1]	[1, 0, 1, 0]	[0, 0, 0, 1]	[0, 0, 0, 0]	[0, 0, 0, 0]	[0, 0, 0, 0]
21	0	[0, 1, 0, 0]
540	0	[0, 1, 0, 0]	[0, 1, 1, 0]	[0, 0, 1, 0]	[0, 1, 1, 0]	[0, 1, 0, 0]
114	0	[0, 0, 0, 1]	[0, 1, 1, 0]	[0, 0, 0, 0]	[0, 1, 0, 0]	[0, 1, 0, 1]	[0, 1, 0, 0]	[1, 1, 0, 1]	[1, 1, 0, 1]	[1, 0, 0, 0]	[1, 0, 0, 0]	[1, 0, 0, 0]
307	0	[0, 1, 0, 0]	[0, 1, 0, 0]	[0, 1, 0, 0]
273	0	[0, 0, 0, 0]
622	0	[0, 1, 0, 0]	[0, 0, 0, 0]
565	0	[0, 0, 1, 0]	[0, 1, 0, 0]
878	0	[0, 0, 0, 0]	[0, 0, 1, 0]	[1, 1, 0, 0]
480	1	[1, 0, 0, 0]
506	1	[0, 0, 1, 0]	[0, 0, 0, 1]	[0, 1, 0, 0]	[0, 0, 0, 0]	[0, 0, 0, 0]	[0, 0, 0, 0]
145	0	[1, 1, 0, 1]	[0, 1, 0, 0]	[0, 0, 0, 0]
172	0	[0, 0, 0, 0]	[0, 0, 0, 0]
849	0	[0, 0, 1, 0]	[0, 0, 0, 0]	[0, 0, 0, 0]
945	0	[0, 0, 1, 0]	[0, 0, 0, 0]
649	0	[0, 1, 0, 1]
590	1	[0, 0, 0, 0]
623	0	[0, 1, 0, 0]
850	0	[0, 0, 1, 0]	[0, 0, 0, 0]	[1, 0, 0, 0]	[1, 0, 0, 0]	[1, 1, 0, 0]
173	1	[0, 1, 0, 0]	[0, 1, 1, 0]
50	1	[0, 1, 0, 0]	[1, 1, 0, 0]
879	0	[0, 1, 0, 0]
398	1	[0, 1, 1, 1]	[0, 0, 0, 0]
756	1	[0, 1, 0, 0]	[0, 0, 0, 0]	[0, 1, 0, 1]
591	0	[0, 1, 0, 0]
566	0	[0, 1, 0, 0]	[0, 0, 0, 0]	[1, 1, 0, 0]
852	1	[0, 0, 1, 0]	[0, 1, 0, 1]	[0, 0, 0, 1]	[0, 0, 0, 0]	[0, 0, 0, 0]	[1, 0, 0, 0]
336	0	[0, 1, 0, 0]	[0, 1, 0, 0]	[1, 1, 0, 1]	[0, 0, 1, 0]	[1, 0, 0, 1]	[1, 0, 0, 0]	[0, 1, 1, 0]	[0, 1, 0, 0]	[0, 0, 1, 1]	[0, 1, 0, 0]	[0, 1, 0, 0]	[0, 1, 1, 0]	[0, 1, 0, 1]	[0, 1, 0, 1]	[0, 1, 0, 0]	[0, 0, 0, 0]	[0, 1, 0, 0]	[0, 0, 0, 0]	[0, 0, 0, 0]
115	0	[0, 1, 1, 1]	[0, 0, 0, 0]
174	0	[1, 1, 0, 1]	[0, 1, 0, 0]	[0, 0, 0, 0]
481	1	[0, 0, 0, 0]	[1, 1, 0, 0]	[0, 1, 0, 0]	[0, 1, 0, 0]	[0, 0, 0, 0]	[0, 0, 1, 0]	[0, 1, 0, 0]	[1, 1, 0, 1]	[1, 0, 0, 0]	[0, 1, 0, 0]
274	1	[1, 0, 0, 0]
853	0	[0, 1, 0, 0]	[0, 0, 0, 0]	[1, 1, 0, 0]
714	1	[0, 0, 0, 0]
921	1	[0, 0, 1, 0]	[0, 1, 0, 1]	[1, 1, 1, 0]	[0, 0, 0, 1]	[0, 0, 0, 0]	[0, 0, 0, 0]	[0, 1, 1, 0]	[0, 0, 1, 0]	[0, 0, 0, 0]
308	1	[0, 1, 0, 0]	[0, 0, 0, 1]	[0, 1, 0, 1]	[0, 0, 0, 0]	[0, 0, 0, 0]	[0, 1, 0, 0]	[1, 0, 0, 0]
715	0	[0, 0, 0, 0]
568	0	[0, 1, 0, 0]	[0, 1, 0, 0]
716	1	[0, 1, 0, 1]	[0, 0, 0, 0]
718	0	[0, 1, 0, 0]	[0, 0, 0, 0]	[1, 1, 0, 0]	[0, 0, 0, 0]
882	1	[0, 0, 0, 0]	[0, 0, 0, 0]	[0, 0, 0, 0]
719	0	[1, 0, 0, 0]	[0, 1, 0, 0]	[0, 1, 0, 1]
242	0	[0, 1, 0, 0]
541	0	[0, 1, 0, 1]	[0, 1, 0, 0]	[1, 1, 0, 1]	[0, 1, 0, 1]	[1, 1, 0, 1]
88	1	[0, 0, 1, 0]	[1, 0, 1, 0]	[0, 1, 1, 0]	[0, 0, 0, 0]	[0, 0, 0, 0]	[0, 0, 0, 0]	[0, 1, 0, 0]	[0, 0, 0, 0]	[0, 0, 0, 0]
23	0	[0, 0, 0, 0]
592	1	[0, 1, 0, 0]	[0, 0, 0, 0]	[0, 0, 0, 0]	[0, 0, 0, 0]	[0, 0, 0, 0]	[1, 1, 0, 0]	[0, 1, 0, 0]
508	0	[0, 1, 0, 0]
625	0	[0, 1, 0, 0]	[0, 1, 0, 0]	[1, 1, 0, 0]	[1, 0, 0, 0]	[0, 0, 0, 0]
445	1	[0, 0, 0, 0]
883	0	[0, 0, 0, 0]
338	1	[0, 1, 0, 1]	[0, 0, 0, 0]
176	0	[0, 0, 0, 0]
720	0	[0, 0, 0, 0]	[1, 1, 0, 1]
593	0	[0, 1, 0, 0]
543	0	[0, 1, 0, 0]	[0, 1, 1, 0]
422	1	[0, 0, 0, 0]	[0, 1, 0, 1]
855	0	[0, 1, 0, 0]	[0, 1, 1, 0]	[0, 1, 0, 0]
856	1	[0, 0, 1, 0]	[0, 0, 0, 0]
483	0	[0, 0, 0, 0]
146	0
117	0	[0, 0, 0, 0]
510	0	[0, 1, 0, 1]	[0, 0, 0, 0]	[0, 1, 0, 0]
211	0	[0, 0, 0, 0]
511	0	[0, 1, 0, 0]	[0, 0, 0, 0]
