org.apache.poi.poifs.storage.HeaderBlockReader	11203	13093	14257	9242	9243	9244	9245
org.apache.poi.hssf.record.formula.RefVPtg	7053	12671
org.apache.poi.hssf.usermodel.HSSFChildAnchor	6438	11129	2428	2429	14186
org.apache.poi.hssf.record.LeftMarginRecord	10991	2236	2237	2238	2239	5066	5067	12221	14049
org.apache.poi.hssf.record.formula.SubtractPtg	11117	2371	2372	5396	5397	14174
org.apache.poi.poifs.filesystem.POIFSDocument	11180	14234
org.apache.poi.hssf.record.formula.ExpPtg	11088	2316	2317	5348	5349	5350	5351	7045	7523	7524	14146
org.apache.poi.ddf.EscherProperties	6339	10828	13897
org.apache.poi.hssf.record.RkRec
org.apache.poi.ddf.EscherComplexProperty	6333	10822	13891
org.apache.poi.hssf.record.formula.RefNPtg	7051	12669
org.apache.poi.util.POILogger	11231	2593	14288
org.apache.poi.ddf.EscherRGBProperty	6343	10832	12031	13901
org.apache.poi.hssf.util.HSSFColor	11157	2579	2580	9171	3261	14211
org.apache.poi.util.IOUtils	11224	14279
org.apache.poi.poifs.storage.RawDataBlock	11207	13094	14261
org.apache.poi.ddf.EscherSpRecord	6349	10838	11596	13907
org.apache.poi.hpsf.CustomProperties	3977	13916
org.apache.poi.hssf.record.IterationRecord	10988	5060	5061	12216	14046
org.apache.poi.poifs.storage.PropertyBlock	11206	14260
org.apache.poi.hssf.record.RecordInputStream	5161	12260	6319	3257	8757	8758	8759	8760	8761	8762	14082
org.apache.poi.hssf.record.formula.AreaNAPtg	7038	12663
org.apache.poi.hpsf.HPSFRuntimeException	10863	3989	13920
org.apache.poi.hssf.record.VerticalPageBreakRecord	6432	11068	5308	12313	14121
org.apache.poi.hpsf.wellknown.SectionIDMap	10890	4083	4084	4085	4086	4087	13947
org.apache.poi.hssf.record.SeriesLabelsRecord	11040	5213	5214	5215	5216	4492	12277	12278	14098
org.apache.poi.hssf.eventusermodel.HSSFUserException	10904	2106	2107	13961
org.apache.poi.hssf.eventusermodel.HSSFRequest	10903	2104	2105	12606	13960
org.apache.poi.hssf.dev.BiffViewer	6371	6372	6373	6374	6375	6376	6377	6378	6379	6380	6381	6382	10891	2063	2064	2065	2066	2067	2068	2069	2070	2071	1980	12033	12034	12035	4858	4859	4860	4861	4862	12116	3251	11880	13948	10729
org.apache.poi.hssf.record.formula.ConcatPtg	11084	2308	2309	5338	5339	12332	14139
org.apache.poi.hssf.record.DataFormatRecord	10949	4967	4968	4969	4970	4479	12180	12181	14008
org.apache.poi.poifs.storage.RawDataBlockList	11208	14262
org.apache.poi.hssf.usermodel.HSSFCell	11127	6211	6212	6213	6214	6215	6216	2392	2393	2394	2395	2396	2397	2398	2399	2400	2401	2402	2403	2404	2405	2406	2407	2408	2409	2410	2411	2412	2413	2414	2415	2416	2417	2418	2419	2420	2421	2422	2423	2424	2425	10230	7630	7631	7632	14905	14906	14907	5406	5407	5408	5409	5410	5411	5412	5413	4519	4520	4521	4522	4523	4524	12336	12337	12338	12339	12340	12341	12342	12343	12344	12345	12346	12347	12348	12349	12350	12351	12352	12353	12354	12355	12356	12357	12358	12359	12360	12361	12362	12363	3742	3743	3744	3745	12419	12420	14184	10744	10745	10746	10747	13518	1267
org.apache.poi.hssf.eventmodel.ModelFactory	10898	2092	2093	13955
org.apache.poi.poifs.storage.BlockAllocationTableWriter	11197	14251
org.apache.poi.hssf.util.RangeAddress	11159	2583	2584	4695	14213
org.apache.poi.poifs.dev.POIFSViewer	11165	14219
org.apache.poi.util.StringUtil	11234	2594	2595	13779	9237	7179	7180	7181	7182	7183	7184	7185	7186	7187	7188	7189	7190	11997	11998	14291
org.apache.poi.hssf.record.LineFormatRecord	10993	5072	5073	5074	5075	4486	12225	12226	14051
org.apache.poi.hssf.record.BlankRecord	10929	4922	12155	13988
org.apache.poi.hssf.record.DrawingRecordForBiffViewer	6413	10958	2220	2221	4988	14017
org.apache.poi.ddf.EscherDgRecord	6335	10824	13893
org.apache.poi.hssf.record.formula.NotEqualPtg	11105	11106	11107	11108	2352	2353	5378	5379	14162
org.apache.poi.hssf.eventmodel.ERFListener	10896	2088	2089	13953
org.apache.poi.hssf.record.SupBookRecord	11050	5245	5246	12294	14108
org.apache.poi.hssf.record.TopMarginRecord	11061	2267	2268	2269	5285	5286	12303	14114
org.apache.poi.hssf.record.formula.BoolPtg	11083	2306	2307	5336	5337	12330	12331	14138
org.apache.poi.hssf.model.AbstractShape	6383	10905	2108	2109	12036	12037	13962	10732
org.apache.poi.hssf.record.DSFRecord	10947	4961	4962	12177	14006
org.apache.poi.hssf.record.ExtSSTRecord	10965	2227	2228	5000	5001	14024
org.apache.poi.hssf.record.formula.MissingArgPtg	11101	2344	2345	3736	5370	5371	14158
org.apache.poi.util.BitFieldFactory	4686	14270
org.apache.poi.hpsf.NoFormatIDException	10870	4011	13928
org.apache.poi.hssf.record.BoolErrRecord	10931	2204	4925	4926	12157	12158	13990
org.apache.poi.hssf.record.FrameRecord	10977	5031	5032	5033	5034	4484	12206	12207	14035
org.apache.poi.poifs.eventfilesystem.POIFSReader	11166	14220
org.apache.poi.hssf.record.GridsetRecord	10978	5035	5036	12208	14036
org.apache.poi.poifs.storage.HeaderBlockConstants	11202	14256
org.apache.poi.hssf.record.formula.FuncPtg	11089	11090	2318	2319	2320	5352	5353	14147
org.apache.poi.hssf.dev.FormulaViewer	10894	2076	2077	12118	13951
org.apache.poi.hssf.usermodel.HSSFName	11137	2461	2462	2463	12641	8130	8131	14194
org.apache.poi.hssf.record.SSTSerializer	11035	13717	13718	13719	13720	5195	5196	5197	5198	5199	12270	14093
org.apache.poi.hssf.record.formula.AreaAPtg	7037	12662
org.apache.poi.hssf.model.ConvertAnchor	6384	2110	12038	13963
org.apache.poi.util.ArrayUtil	3897	3963	14267
org.apache.poi.hssf.model.LineShape	6386	10908	2113	2114	13967
org.apache.poi.hssf.record.IndexRecord	10985	2234	9986	5054	5055	12213	14043
org.apache.poi.hpsf.WritingNotSupportedException	10888	13832	4080	13945
org.apache.poi.hssf.record.WindowTwoRecord	11072	5315	5316	4505	4506	12317	14125
org.apache.poi.poifs.storage.BlockAllocationTableReader	11196	8045	14250
org.apache.poi.hpsf.UnexpectedPropertySetTypeException	10882	4067	13939
org.apache.poi.util.BinaryTree	11213	14268
org.apache.poi.poifs.eventfilesystem.POIFSReaderRegistry	11169	14223
org.apache.poi.util.LongField	11228	14285
org.apache.poi.hssf.record.FontBasisRecord	10971	5010	5011	5012	5013	12198	12199	14029
org.apache.poi.hssf.record.SheetPropertiesRecord	11046	5235	5236	5237	5238	4493	12288	12289	14104
org.apache.poi.hssf.record.formula.RefAPtg	7049	12667
org.apache.poi.hssf.record.formula.AreaNPtg	7039	12664	9109
org.apache.poi.hssf.model.Node
org.apache.poi.hssf.record.formula.RefNAPtg	7050	12668
org.apache.poi.hssf.record.RecordProcessor	11024	5162	12261	14083
org.apache.poi.hpsf.UnsupportedVariantTypeException	10883	13820	13821	13822	12721	4068	13940
org.apache.poi.hssf.record.BeginRecord	10928	4920	4921	12154	13987
org.apache.poi.ddf.EscherClientDataRecord	6332	10821	12022	13890
org.apache.poi.hssf.record.LabelRecord	10989	2235	5062	5063	12217	12218	12219	14047
org.apache.poi.hssf.record.SeriesTextRecord	11043	5225	5226	5227	5228	12283	12284	14101
org.apache.poi.hssf.record.formula.MemFuncPtg	11099	11100	2341	2342	2343	5368	5369	14157
org.apache.poi.hssf.record.formula.AreaPtg	11081	2300	2301	2302	2303	12629	12630	5332	5333	4509	4510	7041	7042	7043	14133
org.apache.poi.hssf.record.CustomField	10945	2211	2212	4958	14004
org.apache.poi.hssf.usermodel.HSSFErrorConstants	11133	2439	2440	14190
org.apache.poi.hpsf.VariantSupport	10886	10887	520	13823	13824	13825	13826	13827	13828	13829	13830	10701	10702	12520	3900	3901	12377	13787	13788	4073	4074	4075	4076	4077	4078	4079	14917	14918	13943
org.apache.poi.poifs.filesystem.DirectoryEntry	11171	14225
org.apache.poi.hssf.usermodel.HSSFCellStyle	11128	2426	2427	7163	9085	12364	12365	9163	9164	9165	9166	9167	14185
org.apache.poi.hssf.record.ChartFormatRecord	10938	4940	4941	4473	4474	12167	13997
org.apache.poi.poifs.filesystem.DocumentNode	11176	14230
org.apache.poi.hpsf.PropertySetFactory	10875	13816	13817	4025	4026	4027	13933
org.apache.poi.hssf.record.CellValueRecordInterface	10937	13996
org.apache.poi.hssf.util.PaneInformation	1266	13591	6510
org.apache.poi.hssf.record.formula.DeletedRef3DPtg	3684	5342	5343	14142
org.apache.poi.hssf.record.formula.UnionPtg	11120	2377	2378	5402	5403	14177
org.apache.poi.poifs.storage.SmallBlockTableWriter	11210	14264
org.apache.poi.hssf.record.formula.AttrPtg	11082	2304	2305	5334	5335	4511	4512	12329	14137
org.apache.poi.hpsf.Thumbnail	10880	9534	9535	9536	9537	4059	13937
org.apache.poi.hssf.model.PolygonShape	6387	10910	2117	2118	12128	13970
org.apache.poi.hssf.record.DeltaRecord	10954	4981	4982	12187	14013
org.apache.poi.hssf.record.LinkedDataRecord	10995	5078	5079	5080	5081	4487	12227	14053
org.apache.poi.hpsf.MarkUnsupportedException	10865	3991	13923
org.apache.poi.util.ShortField	11232	14289
org.apache.poi.hssf.record.SSTRecordSizeCalculator	11034	13715	13716	5192	5193	5194	14092
org.apache.poi.hssf.record.UnitsRecord	11063	5294	5295	5296	5297	12306	12307	14116
org.apache.poi.util.DrawingDump	6461	11219	12086	12087	14275
org.apache.poi.hssf.record.formula.DividePtg	11086	2312	2313	5344	5345	12333	14143
org.apache.poi.hssf.record.formula.GreaterThanPtg	11094	2327	2328	2329	12631	5358	5359	14150
org.apache.poi.hpsf.HPSFException	10862	3987	3988	13919
org.apache.poi.hssf.model.Model	10909	2115	2116	13968
org.apache.poi.hssf.eventusermodel.AbortableHSSFListener	10900	2096	2097	2098	12603	13957
org.apache.poi.hssf.record.ExternSheetSubRecord	10969	5006	5007	12196	14027
org.apache.poi.hssf.record.SelectionRecord	11037	5202	5203	5204	12272	8040	14095
org.apache.poi.util.DoubleList2d	6217	7459
org.apache.poi.hpsf.Variant	10885	4072	13942
org.apache.poi.hssf.record.RowRecord	11028	928	5169	5170	4490	4491	12265	12266	8946	14087
org.apache.poi.hssf.record.CalcCountRecord	10934	4932	4933	12163	13993
org.apache.poi.hssf.record.SeriesChartGroupIndexRecord	11038	5205	5206	5207	5208	12273	12274	14096
org.apache.poi.hssf.record.DimensionsRecord	10955	4983	4984	12188	14014
org.apache.poi.hpsf.MutablePropertySet	10867	10868	13131	13132	13133	3993	3994	3995	3996	3997	3998	13926
org.apache.poi.hssf.record.formula.UnaryPlusPtg	11119	2375	2376	5400	5401	14176
org.apache.poi.hssf.record.RecordFactory	6421	6422	11022	2252	2253	2254	3735	12063	12064	12065	4682	4683	4684	4685	5155	5156	5157	5158	5159	5160	12259	2678	2679	3254	3255	11884	11885	8102	8103	1260	14080	10742
org.apache.poi.poifs.filesystem.BATManaged	11170	14224
org.apache.poi.poifs.filesystem.DocumentEntry	11174	14228
org.apache.poi.hssf.record.aggregates.ValueRecordsAggregate	11076	11077	6192	6193	6194	6195	6196	6197	6198	6199	6200	6201	6202	6203	6204	6205	6206	6207	6208	6209	6210	2287	2288	2289	2290	9990	9991	9992	9993	9994	9995	9996	5327	12320	12321	12322	12323	12324	12325	12326	2682	7034	7035	7036	8115	8116	8117	8763	14129	1992	1993	1994
org.apache.poi.hssf.record.HorizontalPageBreakRecord	6418	10984	5053	14042
org.apache.poi.poifs.storage.BigBlock	11195	14249
org.apache.poi.hssf.record.CommonObjectDataSubRecord	6410	10942	4949	4950	4951	4952	4477	12171	12172	14001
org.apache.poi.poifs.storage.BlockWritable	11200	14254
org.apache.poi.hssf.record.EOFRecord	10960	4990	4991	12189	14019
org.apache.poi.hssf.record.formula.EqualPtg	11087	2314	2315	5346	5347	14144
org.apache.poi.util.IntegerField	11226	14282
org.apache.poi.hssf.record.ObjRecord	6419	11004	7374	705	12062	3190	5103	5104	5105	5106	5107	14062	9199
org.apache.poi.hssf.record.PColor
org.apache.poi.hssf.record.CountryRecord	10944	4956	4957	12175	14003
org.apache.poi.hssf.record.formula.Ptg	11113	2362	2363	2364	12633	3685	3686	3687	5386	5387	5388	9584	9585	9586	9587	9588	9589	9590	9591	3258	7046	7047	7048	8127	8128	14168
org.apache.poi.hssf.record.formula.AddPtg	11079	2293	2294	5328	5329	12327	14131
org.apache.poi.hssf.record.NameRecord	11001	2250	11632	11633	11634	11635	7081	3680	3681	3682	5089	5090	5091	5092	5093	5094	5095	5096	12234	9573	9574	9575	9576	9577	9578	9579	9580	14059
org.apache.poi.poifs.dev.POIFSViewable	11164	14218
org.apache.poi.hpsf.Property	10873	13809	13810	13811	13812	9813	9814	9815	13794	13795	13796	13797	4013	4014	4015	13931
org.apache.poi.ddf.EscherShapePathProperty	6347	10836	13905
org.apache.poi.util.TempFile	2739	14293
org.apache.poi.hssf.dev.EFBiffViewer	10892	2072	2073	12117	13949
org.apache.poi.hssf.record.WriteAccessRecord	11073	5317	5318	5319	12318	14126
org.apache.poi.hssf.record.PrecisionRecord	11013	5135	5136	12250	14071
org.apache.poi.hssf.usermodel.HSSFShapeGroup	6447	11148	2505	2506	14203	7520	7521
org.apache.poi.hssf.record.CodepageRecord	10940	2209	2210	12620	12621	4946	4947	12170	13999
org.apache.poi.hssf.record.formula.MemAreaPtg	8123	14155
org.apache.poi.ddf.EscherSplitMenuColorsRecord	6351	10840	13909
org.apache.poi.util.HexRead	11222	11223	14278
org.apache.poi.hssf.record.ValueRangeRecord	11067	5304	5305	5306	5307	4500	12311	12312	14120
org.apache.poi.ddf.EscherRecord	6344	10833	13902
org.apache.poi.hssf.usermodel.HSSFRow	11144	11145	2477	2478	2479	2480	2481	2482	2483	2484	2485	2486	2487	2488	2489	2490	2491	2492	2493	2494	2495	2496	2497	2498	2499	2500	929	930	931	932	6278	12642	12643	12366	12367	12368	12369	12370	12371	12372	12373	12374	12375	4559	4560	4561	4562	8947	8948	14200
org.apache.poi.hssf.record.ObjectLinkRecord	11005	5108	5109	5110	5111	12238	12239	14063
org.apache.poi.hssf.record.formula.NamePtg	11103	2348	2349	5374	5375	14160
org.apache.poi.hpsf.IllegalVariantTypeException	13799	13922
org.apache.poi.poifs.eventfilesystem.POIFSReaderListener	11168	14222
org.apache.poi.hssf.record.ChartRecord	10939	4942	4943	4944	4945	12168	12169	13998
org.apache.poi.hssf.model.TextboxShape	6405	10914	2176	2177	13973
org.apache.poi.hssf.usermodel.HSSFPatriarch	6442	11139	2469	2470	12074	14196	10749
org.apache.poi.poifs.property.DirectoryProperty	11186	4300	4301	4302	4303	14240
org.apache.poi.hssf.record.NoteStructureSubRecord	10741
org.apache.poi.hssf.record.FontRecord	10973	5018	5019	4482	4483	12202	8039	14031
org.apache.poi.hssf.record.LabelSSTRecord	10990	5064	5065	12220	14048
org.apache.poi.util.BitField	11214	14269
org.apache.poi.util.BlockingInputStream	11215	14271
org.apache.poi.hssf.record.DBCellRecord	10946	2213	2214	2215	9983	9984	9985	4959	4960	12176	14005
org.apache.poi.hssf.record.DatRecord	10948	4963	4964	4965	4966	4478	12178	12179	14007
org.apache.poi.poifs.property.PropertyConstants	11190	14244
org.apache.poi.hpsf.MissingSectionException	3992	13924
org.apache.poi.hpsf.Util	10884	4069	4070	4071	13941
org.apache.poi.hssf.record.formula.LessThanPtg	11097	2336	2337	2338	12632	5364	5365	14154
org.apache.poi.util.NullLogger	11229	14286
org.apache.poi.hpsf.NoPropertySetStreamException	10871	13929
org.apache.poi.hssf.record.formula.IntersectionPtg	8122	14152
org.apache.poi.hssf.usermodel.HSSFClientAnchor	6439	11130	2430	2431	12071	12072	12073	14187
org.apache.poi.hssf.record.formula.ControlPtg	11085	2310	2311	14140
org.apache.poi.hssf.record.PlotGrowthRecord	11012	5131	5132	5133	5134	12248	12249	14070
org.apache.poi.hpsf.IllegalPropertySetDataException	10864	3990	13921
org.apache.poi.poifs.property.RootProperty	11193	14247
org.apache.poi.hssf.record.aggregates.ColumnInfoRecordsAggregate	2277	12066	12067	12068	12069	5320	5321	12319	3264	3265	3266	3267	3268	3269	3270	3271	3272	3273	7457
org.apache.poi.poifs.storage.SmallDocumentBlockList	11212	14266
org.apache.poi.hssf.record.DrawingGroupRecord	6411	10956	2216	2217	12054	12055	4985	14015
org.apache.poi.hssf.record.aggregates.FormulaRecordAggregate	11074	2278	2279	830	5322	8111	8112	8113	8114	14127
org.apache.poi.poifs.filesystem.DocumentInputStream	11175	14229
org.apache.poi.hssf.record.formula.MemErrPtg	11098	2339	2340	5366	5367	8124	8125	14156
org.apache.poi.hssf.eventmodel.EventRecordFactory	10897	2090	2091	4864	4865	4866	4867	4868	4869	4870	12124	12125	3252	11881	11882	1252	1253	13954	10730	10731
org.apache.poi.hssf.usermodel.HSSFFont	6440	11134	2441	2442	2443	2444	2445	2446	2447	2448	12635	12636	12637	3677	3678	9168	9169	14191
org.apache.poi.hssf.record.RecalcIdRecord	11020	5149	5150	5151	12258	14078
org.apache.poi.hssf.record.formula.DeletedArea3DPtg	3683	5340	5341	14141
org.apache.poi.hssf.usermodel.HSSFDateUtil	11132	2434	2435	2436	2437	2438	14189
org.apache.poi.hssf.record.PrintHeadersRecord	11015	5139	5140	12252	14073
org.apache.poi.hssf.usermodel.HSSFPolygon	6443	11140	2471	2472	14197
org.apache.poi.hssf.record.formula.FuncVarPtg	11091	2321	2322	5354	5355	14148
org.apache.poi.hssf.record.formula.AreaErrPtg	8120	13590	6509
org.apache.poi.hssf.record.DrawingSelectionRecord	6414	10959	2222	2223	4989	14018
org.apache.poi.hssf.usermodel.HSSFFooter	11135	2449	2450	2451	2452	2453	2454	12638	12639	12640	13764	14192
org.apache.poi.hssf.usermodel.DummyGraphics2d	6433	11122	2381	2382	12335	14179
org.apache.poi.ddf.EscherProperty	6340	10829	12027	13898
org.apache.poi.hssf.record.GutsRecord	10980	5039	5040	12209	14038
org.apache.poi.hssf.util.Region	11160	2585	2586	2587	2588	12651	12652	14214
org.apache.poi.hssf.record.formula.AreaNVPtg	7040	12665
org.apache.poi.hssf.usermodel.HSSFWorkbook	6454	11152	9940	2548	2549	2550	2551	2552	2553	2554	2555	2556	2557	2558	2559	2560	2561	2562	2563	2564	2565	2566	2567	2568	2569	2570	2571	886	887	888	889	7159	7160	12649	12650	3754	12079	12080	12081	12082	12083	12084	12085	5427	5428	3183	4129	4130	3746	3747	2683	8132	8133	10138	10139	10140	10141	14207	2053	10311	10312	10313	10314	10315
org.apache.poi.hssf.record.WindowOneRecord	11070	5311	5312	4503	4504	12315	14123
org.apache.poi.hssf.record.ColumnInfoRecord	10941	9675	4948	4475	4476	14000
org.apache.poi.poifs.storage.HeaderBlockWriter	11204	14258
org.apache.poi.hssf.record.formula.IntPtg	11095	2330	2331	5360	5361	8042	14151
org.apache.poi.hssf.util.SheetReferences	11161	2589	2590	14215
org.apache.poi.hssf.record.FormulaRecord	10976	2233	5030	9567	9568	9569	3253	7021	7022	7023	7024	7025	7026	7515	8099	8100	8101	14034
org.apache.poi.util.ByteField	11216	14272
org.apache.poi.hssf.usermodel.EscherGraphics2d	6435	11124	9937	9938	9939	2385	2386	2387	700	701	525	526	527	14181
org.apache.poi.hssf.record.PasswordRecord	11009	5123	5124	12243	14067
org.apache.poi.hssf.record.NumberFormatIndexRecord	11002	5097	5098	5099	5100	12235	12236	14060
org.apache.poi.hssf.record.SSTRecordHeader	11032	11033	5191	14091
org.apache.poi.poifs.storage.BlockList	11198	14252
org.apache.poi.hssf.record.Record	11021	5152	5153	5154	14079
org.apache.poi.hssf.record.AxisRecord	10923	4904	4905	4906	4907	12146	12147	13982
org.apache.poi.hssf.record.ExtSSTInfoSubRecord	10964	2226	4998	4999	14023
org.apache.poi.hssf.record.InterfaceHdrRecord	10987	5058	5059	12215	14045
org.apache.poi.poifs.property.Child	11185	14239
org.apache.poi.hssf.dev.HSSF	10895	2078	2079	2080	2081	2082	2083	2084	2085	2086	2087	12119	12120	12121	12122	12123	13952
org.apache.poi.hssf.record.RecordFormatException	11023	3256	14081
org.apache.poi.hpsf.MutableProperty	10866	13800	13801	13802	13803	4398	13925
org.apache.poi.hssf.record.InterfaceEndRecord	10986	5056	5057	12214	14044
org.apache.poi.ddf.EscherDggRecord	6336	10825	12023	12024	12025	12026	13894
org.apache.poi.poifs.filesystem.POIFSDocumentPath	11181	2591	2592	12653	12654	14235
org.apache.poi.hssf.record.aggregates.RowRecordsAggregate	11075	2280	2281	2282	2283	2284	2285	2286	9987	9988	9989	12070	5323	5324	5325	5326	14128	7379
org.apache.poi.poifs.property.Property	11189	14243
org.apache.poi.hssf.record.ContinueRecord	10943	4953	4954	4955	12173	12174	14002
org.apache.poi.hssf.record.formula.StringPtg	11116	2369	2370	9560	9561	9562	9563	9564	9565	9566	3738	5394	5395	4517	4518	3741	14173
org.apache.poi.ddf.UnknownEscherRecord	6369	10858	13912
org.apache.poi.ddf.EscherPropertyMetaData	6342	10831	13900
org.apache.poi.hssf.record.RefModeRecord	11025	5163	5164	12262	14084
org.apache.poi.hssf.record.formula.ArrayPtg	9581	6615	14134
org.apache.poi.hssf.record.FormatRecord	10975	9232	9233	9234	9235	9236	7155	5028	5029	12204	12205	14033
org.apache.poi.hssf.record.SaveRecalcRecord	11036	5200	5201	12271	14094
org.apache.poi.poifs.filesystem.Entry	11178	14232
org.apache.poi.hssf.record.SSTDeserializer	11030	2258	2259	5175	5176	5177	14089
org.apache.poi.ddf.EscherArrayProperty	6326	10815	2986	2987	8038	13883	10341	10342
org.apache.poi.hpsf.ReadingNotSupportedException	10876	4028	13934
org.apache.poi.hssf.record.BottomMarginRecord	10932	2205	2206	2207	4927	4928	12159	13991
org.apache.poi.hssf.record.MergeCellsRecord	10998	2242	2243	2244	2245	2246	2247	2248	2249	5084	14056
org.apache.poi.hssf.record.WindowProtectRecord	11071	5313	5314	12316	14124
org.apache.poi.hssf.model.SimpleFilledShape	6403	10912	2174	2175	13972
org.apache.poi.ddf.EscherDump	6337	10826	13895
org.apache.poi.hssf.record.WriteProtectRecord	11887	13589	6508
org.apache.poi.poifs.storage.SmallDocumentBlock	11211	14265
org.apache.poi.hssf.record.AbstractEscherHolderRecord	6409	10917	2190	2191	2192	2193	2194	2195	2196	12049	12050	12051	12052	12053	4882	4883	13976
org.apache.poi.ddf.EscherBitmapBlip	3894	7456
org.apache.poi.hssf.record.ExternSheetRecord	10967	10968	2231	2232	5004	5005	12195	14026
org.apache.poi.util.HexDump	11221	10709	5627	5628	10317	12088	14277
org.apache.poi.hssf.record.DrawingRecord	6412	10957	2218	2219	12056	4986	4987	14016
org.apache.poi.hssf.record.MulBlankRecord	10999	5085	5086	12229	12230	12231	14057
org.apache.poi.hssf.usermodel.StaticFontMetrics	6455	11153	2572	2573	14208
org.apache.poi.ddf.EscherClientAnchorRecord	6331	10820	12021	14893	14894	14895	14896	14897	14898	14899	14900	14901	13889
org.apache.poi.hssf.usermodel.HSSFComment	10748	13519	13520	13521	13522	13523	13524	13525	13526
org.apache.poi.hssf.record.RKRecord	11019	5147	5148	12256	12257	14077
org.apache.poi.hssf.record.EndSubRecord	6415	10962	4994	4995	4996	4997	12191	12192	12193	14021
org.apache.poi.hssf.record.formula.AbstractFunctionPtg	11078	2291	2292	14753	8118	8119	14130
org.apache.poi.ddf.EscherTextboxRecord	6352	10841	8787	8788	8789	8790	8791	13910
org.apache.poi.hssf.model.DrawingManager2	3895	13965
org.apache.poi.hssf.record.formula.MultiplyPtg	11102	2346	2347	5372	5373	12334	8043	14159
org.apache.poi.hssf.usermodel.FontDetails	6436	11125	2388	2389	14182
org.apache.poi.hssf.record.MulRKRecord	11000	5087	5088	12232	12233	14058
org.apache.poi.poifs.filesystem.OfficeXmlFileException	9241
org.apache.poi.ddf.EscherOptRecord	6338	10827	13896
org.apache.poi.hssf.record.AxisLineFormatRecord	10920	4892	4893	4894	4895	12139	12140	13979
org.apache.poi.hssf.record.PageBreakRecord	6420	11006	12624	12625	5112	5113	14892	14064
org.apache.poi.hpsf.Constants	13798	12519	12376	13786	3976	14915	14916	9782	9783	9784	13915
org.apache.poi.poifs.storage.DocumentBlock	11201	14255
org.apache.poi.ddf.EscherPropertyFactory	6341	10830	12028	12029	12030	13899
org.apache.poi.hssf.record.formula.RefErrorPtg	5391	14171
org.apache.poi.hssf.record.formula.PowerPtg	11112	2360	2361	5384	5385	14167
org.apache.poi.poifs.dev.POIFSViewEngine	11163	14217
org.apache.poi.hssf.record.RightMarginRecord	11027	2255	2256	2257	5167	5168	12264	14086
org.apache.poi.hssf.record.SSTRecord	11031	5178	5179	5180	5181	5182	5183	5184	5185	5186	5187	5188	5189	5190	12269	14090
org.apache.poi.poifs.property.DocumentProperty	11187	14241
org.apache.poi.hssf.usermodel.HSSFPrintSetup	11141	11142	2473	2474	14198
org.apache.poi.util.SystemOutLogger	11235	14292
org.apache.poi.poifs.filesystem.DocumentOutputStream	11177	14231
org.apache.poi.poifs.storage.BATBlock	11194	14248
org.apache.poi.ddf.EscherBSERecord	6327	10816	12003	12004	12005	12006	12007	12008	12009	12010	13884
org.apache.poi.ddf.EscherBlipWMFRecord	12019	13886
org.apache.poi.util.LittleEndianConsts	11227	14284
org.apache.poi.hssf.record.MMSRecord	10996	5082	5083	12228	14054
org.apache.poi.hssf.record.HeaderRecord	10982	2966	2967	2968	2969	2970	2971	2972	2973	2974	2975	2976	2977	2978	2979	13777	13778	5043	5044	5045	5046	5047	5048	5049	5050	12211	14040
org.apache.poi.hssf.record.StringRecord	11047	2261	2262	2263	2264	8157	5239	5240	12290	12291	12292	14105
org.apache.poi.hssf.record.formula.RefNVPtg	7052	12670
org.apache.poi.hssf.record.formula.OperationPtg	11110	2356	2357	14164
org.apache.poi.hssf.eventusermodel.HSSFEventFactory	10901	2099	2100	2101	12604	4871	4872	4873	4874	4875	4876	4877	12126	13958
org.apache.poi.hssf.record.EndRecord	10961	4992	4993	12190	14020
org.apache.poi.hssf.model.WorkbookRecordList	10916	2188	2189	12134	13975
org.apache.poi.hssf.record.BOFRecord	10925	2197	2198	2199	2200	2201	2202	12612	12613	12614	12615	12616	12617	4912	4913	12150	13984
org.apache.poi.hssf.record.PrintSetupRecord	11016	5141	5142	4488	4489	12253	14074
org.apache.poi.hssf.usermodel.HSSFPicture	3896	7458
org.apache.poi.hssf.record.SeriesToChartGroupRecord	11044	5229	5230	5231	5232	12285	12286	14102
org.apache.poi.hssf.record.CalcModeRecord	10935	4934	4935	12164	13994
org.apache.poi.hssf.record.PrintGridlinesRecord	11014	5137	5138	12251	14072
org.apache.poi.poifs.property.Parent	11188	14242
org.apache.poi.poifs.eventfilesystem.POIFSReaderEvent	11167	14221
org.apache.poi.hpsf.MutableSection	10869	9892	9893	9894	13804	13805	13806	13807	13808	9843	9387	9388	13134	13135	13136	13137	13138	13791	13792	13793	3999	4000	4001	4002	4003	4004	4005	4006	4007	4008	4009	4010	13927
org.apache.poi.hssf.record.FooterRecord	10974	2959	2960	2961	2962	2963	2964	2965	13775	13776	5020	5021	5022	5023	5024	5025	5026	5027	12203	14032
org.apache.poi.util.IntList2d	6218	7460
org.apache.poi.hssf.usermodel.HSSFPalette	6441	11138	2464	2465	2466	2467	2468	9170	14195
org.apache.poi.poifs.property.PropertyTable	11192	14246
org.apache.poi.hssf.record.BookBoolRecord	10930	2203	12618	4923	4924	12156	13989
org.apache.poi.hssf.record.SCLRecord	11029	5171	5172	5173	5174	12267	12268	14088
org.apache.poi.hssf.record.NumberRecord	11003	5101	5102	12237	14061
org.apache.poi.ddf.DefaultEscherRecordFactory	6325	10814	12002	3667	3668	13882
org.apache.poi.ddf.NullEscherSerializationListener	6353	10842	13911
org.apache.poi.hssf.record.PlotAreaRecord	11011	5127	5128	5129	5130	12245	12246	12247	14069
org.apache.poi.hpsf.CustomProperty	3978	13917
org.apache.poi.ddf.EscherSpgrRecord	6350	10839	13908
org.apache.poi.hssf.record.AxisParentRecord	10922	4900	4901	4902	4903	12144	12145	13981
org.apache.poi.hssf.record.DateWindow1904Record	10950	4971	4972	12182	14009
org.apache.poi.hssf.record.RefreshAllRecord	11026	5165	5166	12263	14085
org.apache.poi.hssf.record.LinkedDataFormulaField	10994	5076	5077	9570	9571	9572	14052
org.apache.poi.hssf.util.CellReference	11156	2577	2578	5552	14210
org.apache.poi.hssf.usermodel.HSSFRichTextString	6444	11143	2475	2476	5414	5415	5416	5417	5418	5419	5420	5421	5422	5423	5424	5425	5426	4525	4526	4527	14199
org.apache.poi.hpsf.TypeWriter	10881	3899	4060	4061	4062	4063	4064	4065	4066	13938
org.apache.poi.hssf.record.UnicodeString	11062	2270	2271	5287	5288	5289	5290	5291	5292	5293	7353	7354	7355	7356	12304	12305	13143	6320	14115
org.apache.poi.hssf.record.formula.NumberPtg	11109	2354	2355	5380	5381	14163
org.apache.poi.hssf.record.formula.AreaVPtg	7044	12666
org.apache.poi.hssf.record.formula.ArrayPtgV	9583	14136
org.apache.poi.poifs.common.POIFSConstants	11162	14216
org.apache.poi.hssf.record.FilePassRecord	11883	13588	6507
org.apache.poi.hpsf.DocumentSummaryInformation	10861	9386	3979	3980	3981	3982	3983	3984	3985	3986	13918
org.apache.poi.hssf.record.formula.ArrayPtgA	9582	14135
org.apache.poi.hpsf.Section	10877	13818	13819	10522	10523	10524	4029	4030	4031	4032	4033	13935
org.apache.poi.hssf.record.BoundSheetRecord	10933	2208	12619	4929	4930	4931	12160	12161	12162	13992
org.apache.poi.hssf.record.formula.ErrPtg	8121	14145
org.apache.poi.ddf.EscherSimpleProperty	6348	10837	12032	13906
org.apache.poi.poifs.filesystem.POIFSWriterEvent	11183	14237
org.apache.poi.hssf.record.GroupMarkerSubRecord	6417	10979	5037	5038	14037
org.apache.poi.util.POILogFactory	11230	8046	14287
org.apache.poi.hssf.record.ExtendedFormatRecord	10966	2229	2230	12622	12623	5002	5003	4480	4481	12194	14025
org.apache.poi.hssf.record.formula.GreaterEqualPtg	11092	11093	2323	2324	2325	2326	5356	5357	14149
org.apache.poi.hpsf.NoSingleSectionException	10872	4012	13930
org.apache.poi.hssf.usermodel.HSSFSimpleShape	6452	11150	2544	2545	12076	12077	12078	14205	10750	10751	10752
org.apache.poi.hssf.usermodel.HSSFShape	6445	11146	2501	2502	14201
org.apache.poi.hpsf.PropertySet	10874	13813	13814	13815	10521	9397	4016	4017	4018	4019	4020	4021	4022	4023	4024	13932
org.apache.poi.hssf.record.PaneRecord	11008	5119	5120	5121	5122	12241	12242	14066
org.apache.poi.util.List2d	6219	7461
org.apache.poi.hssf.usermodel.HSSFTextbox	6453	11151	2546	2547	14206
org.apache.poi.hssf.model.Sheet	6388	6389	6390	6391	6392	6393	6394	6395	6396	6397	6398	6399	6400	6401	6402	10911	6191	9895	9896	9897	9898	9899	9900	9901	9902	9903	9904	9905	9906	9907	9908	9909	9910	9911	9912	9913	9914	9915	9916	2119	2120	2121	2122	2123	2124	2125	2126	2127	2128	2129	2130	2131	2132	2133	2134	2135	2136	2137	2138	2139	2140	2141	2142	2143	2144	2145	2146	2147	2148	2149	2150	2151	2152	2153	2154	2155	2156	2157	2158	2159	2160	2161	2162	2163	2164	2165	2166	2167	2168	2169	2170	2171	2172	2173	9977	9978	9979	9980	9981	9982	13712	13713	13714	12607	12608	12609	12610	12611	12039	12040	12041	12042	3664	3665	3666	801	7154	829	9193	9194	4878	4128	10697	10698	4466	12129	12130	12131	12132	13140	13141	13142	3262	3263	10705	10706	1254	1255	1256	1257	1258	1259	6724	6725	6726	6727	6728	6729	6730	13971	7378
org.apache.poi.hssf.record.ProtectionRev4Record	11018	5145	5146	12255	14076
org.apache.poi.hssf.record.TickRecord	11060	5263	5264	5265	5266	5267	5268	5269	5270	5271	5272	5273	5274	5275	5276	5277	5278	5279	5280	5281	5282	5283	5284	4499	12301	12302	14113
org.apache.poi.hssf.record.StyleRecord	11048	5241	5242	4494	4495	12293	14106
org.apache.poi.hssf.record.formula.Area3DPtg	11080	2295	2296	2297	2298	2299	12627	12628	5330	5331	4507	4508	12328	14132
org.apache.poi.hssf.record.WSBoolRecord	11069	5309	5310	4501	4502	12314	8041	14122
org.apache.poi.hssf.record.NoteRecord	10740
org.apache.poi.hssf.record.LegendRecord	10992	5068	5069	5070	5071	4485	12222	12223	12224	14050
org.apache.poi.hssf.record.DefaultDataLabelTextPropertiesRecord	10952	4975	4976	4977	4978	12184	12185	14011
org.apache.poi.hssf.eventmodel.ListenerWrapper
org.apache.poi.hssf.record.SeriesListRecord	11041	5217	5218	5219	5220	12279	12280	14099
org.apache.poi.ddf.EscherRecordFactory	6345	10834	13903
org.apache.poi.poifs.filesystem.POIFSFileSystem	11182	14236
org.apache.poi.poifs.filesystem.DirectoryNode	11172	14226
org.apache.poi.dev.RecordGenerator	6370	10859	3240	3241	3242	3243	13913
org.apache.poi.hpsf.ClassID	10860	9841	9842	3975	13914
org.apache.poi.poifs.filesystem.POIFSWriterListener	11184	14238
org.apache.poi.hssf.record.CategorySeriesAxisRecord	10936	4936	4937	4938	4939	4472	12165	12166	13995
org.apache.poi.poifs.filesystem.DocumentDescriptor	11173	14227
org.apache.poi.hssf.record.FontIndexRecord	10972	5014	5015	5016	5017	12200	12201	14030
org.apache.poi.hssf.record.formula.LessEqualPtg	11096	2332	2333	2334	2335	5362	5363	14153
org.apache.poi.hssf.record.formula.PercentPtg	8126	14166
org.apache.poi.hssf.usermodel.HSSFPictureData	10310
org.apache.poi.util.CommonsLogger	11217	14273
org.apache.poi.hssf.record.TextObjectBaseRecord	6429	11057	5249	5250	5251	5252	4496	12296	12297	14110
org.apache.poi.hssf.usermodel.EscherGraphics	6434	6879	11123	9929	9930	9931	9932	9933	9934	9935	9936	2383	2384	12634	522	523	524	14180
org.apache.poi.hssf.eventmodel.ModelFactoryListener	10899	2094	2095	13956
org.apache.poi.poifs.storage.ListManagedBlock	11205	14259
org.apache.poi.hssf.record.UnknownRecord	6431	11064	2272	2273	2274	2275	2276	5298	5299	12308	11886	14117
org.apache.poi.ddf.EscherSerializationListener	6346	10835	13904
org.apache.poi.hssf.record.AxisUsedRecord	10924	4908	4909	4910	4911	12148	12149	13983
org.apache.poi.hpsf.SummaryInformation	10879	9389	14751	14752	4038	4039	4040	4041	4042	4043	4044	4045	4046	4047	4048	4049	4050	4051	4052	4053	4054	4055	4056	4057	4058	3907
org.apache.poi.hssf.record.PasswordRev4Record	11010	5125	5126	12244	14068
org.apache.poi.ddf.EscherBoolProperty	6329	10818	12020	13887
org.apache.poi.util.DoubleList	11218	14274
org.apache.poi.hssf.record.VCenterRecord	11066	5302	5303	12310	14119
org.apache.poi.hssf.util.RKUtil	11158	2581	2582	14212
org.apache.poi.ddf.EscherContainerRecord	6334	10823	13892
org.apache.poi.hssf.usermodel.HSSFHeader	11136	2455	2456	2457	2458	2459	2460	9191	13765	14193
org.apache.poi.hssf.record.formula.Ref3DPtg	11114	2365	2366	5389	5390	4513	4514	10520	7162	14170
org.apache.poi.hssf.record.SeriesIndexRecord	11039	5209	5210	5211	5212	12275	12276	14097
org.apache.poi.hssf.record.TextRecord	11059	5259	5260	5261	5262	4498	12298	12299	12300	14112
org.apache.poi.hssf.model.PictureShape	7004	13969
org.apache.poi.hssf.record.AreaFormatRecord	10918	4884	4885	4886	4887	4468	12135	12136	13977
org.apache.poi.hssf.record.UseSelFSRecord	11065	5300	5301	12309	14118
org.apache.poi.hssf.model.Workbook	6406	6407	6408	10915	9917	9918	9919	9920	9921	9922	9923	9924	9925	9926	9927	9928	2178	2179	2180	2181	2182	2183	2184	2185	2186	2187	9238	9239	7157	7158	13504	13505	13506	12043	12044	12045	12046	12047	12048	9231	4879	4880	4881	3178	3179	3180	3181	3182	4467	12133	3739	3740	13974
org.apache.poi.hpsf.SpecialPropertySet	10878	4034	4035	4036	4037	13936
org.apache.poi.hssf.record.DefaultColWidthRecord	10951	4973	4974	12183	14010
org.apache.poi.hssf.usermodel.HSSFSheet	6448	6449	6450	6451	11149	2507	2508	2509	2510	2511	2512	2513	2514	2515	2516	2517	2518	2519	2520	2521	2522	2523	2524	2525	2526	2527	2528	2529	2530	2531	2532	2533	2534	2535	2536	2537	2538	2539	2540	2541	2542	2543	933	12644	12645	12646	12647	12648	12075	802	7156	3274	10707	10708	1261	1262	1263	1264	1265	6731	14204	9593	9594	9595	5612	1268
org.apache.poi.hssf.eventusermodel.HSSFListener	10902	2102	2103	12605	13959
org.apache.poi.hssf.record.PaletteRecord	11007	2251	12626	5114	5115	5116	5117	5118	12240	14065
org.apache.poi.hssf.record.SharedFormulaRecord	11045	2260	5233	5234	12287	7027	7028	7029	7030	7031	7032	7033	8110	7516	14103
org.apache.poi.hssf.usermodel.HSSFDataFormat	11131	2432	2433	7002	7003	10537	13124	13125	13126	13127	13128	13129	13130	1979	14188
org.apache.poi.util.LittleEndian	4628	4629	4088	4089	4090	4091	4092	14283
org.apache.poi.hssf.record.formula.UnknownPtg	11121	2379	2380	5404	5405	14178
org.apache.poi.hssf.record.Margin	10997	2240	2241	14055
org.apache.poi.hssf.record.FnGroupCountRecord	10970	5008	5009	12197	14028
org.apache.poi.hssf.record.formula.UnaryMinusPtg	11118	2373	2374	5398	5399	14175
org.apache.poi.ddf.EscherChildAnchorRecord	6330	10819	13888
org.apache.poi.hssf.util.AreaReference	11154	11155	2574	2575	2576	14209
org.apache.poi.hssf.record.BarRecord	10927	4916	4917	4918	4919	4471	12152	12153	13986
org.apache.poi.hssf.record.BackupRecord	10926	4914	4915	12151	13985
org.apache.poi.hssf.usermodel.HSSFShapeContainer	6446	11147	2503	2504	14202
org.apache.poi.hssf.model.FormulaParser	10907	12389	12427	9398	4138	4139	3166	4264	12127	9439	9440	3705	3706	2	13966
org.apache.poi.hssf.record.AreaRecord	10919	4888	4889	4890	4891	4469	12137	12138	13978
org.apache.poi.hssf.record.SeriesRecord	11042	5221	5222	5223	5224	12281	12282	14100
org.apache.poi.hssf.model.CommentShape	10733
org.apache.poi.poifs.property.PropertyFactory	11191	14245
org.apache.poi.hssf.record.formula.NameXPtg	11104	2350	2351	5376	5377	14161
org.apache.poi.util.IntMapper	5429	14281
org.apache.poi.hssf.usermodel.HSSFAnchor	6437	11126	2390	2391	14183
org.apache.poi.hssf.model.DrawingManager	6385	10906	2111	2112	13964
org.apache.poi.util.ShortList	11233	14290
org.apache.poi.hssf.record.formula.ParenthesisPtg	11111	2358	2359	3737	5382	5383	14165
org.apache.poi.poifs.storage.SmallBlockTableReader	11209	14263
org.apache.poi.hssf.record.HCenterRecord	10981	5041	5042	12210	14039
org.apache.poi.hssf.record.TextObjectRecord	6430	11058	2265	2266	5253	5254	5255	5256	5257	5258	4497	2680	2681	14111
org.apache.poi.util.IntList	11225	14280
org.apache.poi.hssf.record.EscherAggregate	6416	10963	2224	2225	12057	12058	12059	12060	12061	14022	10734	10735	10736	10737	10738	10739
org.apache.poi.ddf.EscherBlipRecord	6328	10817	12011	12012	12013	12014	12015	12016	12017	12018	13885
org.apache.poi.hssf.record.HideObjRecord	10983	5051	5052	12212	14041
org.apache.poi.hssf.record.DefaultRowHeightRecord	10953	4979	4980	12186	14012
org.apache.poi.poifs.filesystem.EntryNode	11179	8044	14233
org.apache.poi.hssf.record.formula.RangePtg	8129	14169
org.apache.poi.util.FixedField	11220	14276
org.apache.poi.hssf.record.ProtectRecord	11017	5143	5144	12254	14075
org.apache.poi.hssf.record.SubRecord	6423	11049	7375	5243	5244	14107	10743
org.apache.poi.hssf.record.AxisOptionsRecord	10921	4896	4897	4898	4899	4470	12141	12142	12143	13980
org.apache.poi.poifs.storage.BlockListImpl	11199	14253
org.apache.poi.hpsf.wellknown.PropertyIDMap	10889	9390	9391	9392	9393	9394	9395	4081	4082	13946
org.apache.poi.hssf.record.formula.ReferencePtg	11115	2367	2368	5392	5393	4515	4516	7054	7055	7056	7057	14172
org.apache.poi.hssf.record.TabIdRecord	11051	5247	5248	12295	14109
org.apache.poi.hpsf.VariantTypeException	13831	13944
