65	1	[14]	[14]
228	0	[0]	[0]	[0]
229	0	[0]	[14]	[14]
264	0	[0]
147	1	[9]	[0]	[27]
376	1	[0]	[14]	[14]
0	1	[0]	[0]	[0]	[0]
67	0	[0]	[14]
68	1	[0]	[14]	[14]	[14]	[14]	[14]
429	1	[0]	[14]	[14]	[3]	[14]	[0]	[0]
117	1	[0]	[14]	[14]	[14]
289	0	[0]
1	1	[0]
345	0	[0]	[0]
346	0	[0]
231	1	[0]	[14]	[14]
2	1	[0]	[14]
203	0	[0]
69	1	[0]	[0]
378	1	[0]
233	0	[0]	[14]
150	1	[0]	[14]	[0]	[0]
379	0	[0]
234	1	[9]	[0]	[27]
70	1	[0]	[0]
177	0	[0]	[14]
313	1	[0]	[14]	[14]	[14]
5	0	[0]	[14]	[0]
266	1	[9]	[0]	[27]	[27]
381	1	[0]	[0]	[0]	[0]	[0]	[0]
179	1	[0]	[14]	[14]	[14]	[0]	[14]
431	1	[0]	[14]
120	1	[0]	[14]
6	0	[9]	[0]
35	1	[0]	[14]
7	1	[0]	[14]
236	0	[0]
152	0	[0]
36	0	[0]
347	1	[0]	[14]
93	1	[14]	[14]
314	1	[0]	[14]	[14]	[14]	[14]
153	0	[0]	[0]
121	0	[0]
348	1	[9]	[0]	[27]
382	0	[0]
154	0	[0]	[14]
433	1	[14]	[14]	[14]	[14]
182	1	[0]	[14]	[14]
183	1	[0]	[14]	[14]
292	1	[14]	[14]	[14]	[14]
403	1	[14]	[14]	[14]
72	1	[14]	[14]	[14]
267	0	[0]
208	1	[0]	[0]
405	1	[0]	[14]
39	0	[0]	[9]
96	1	[0]	[0]	[0]	[0]	[0]	[0]	[0]
294	0	[0]	[0]
350	1	[0]	[0]
209	0	[0]
97	0	[0]
210	1	[0]	[14]
435	0	[0]
406	1	[0]	[14]	[14]
238	0	[0]
295	1	[9]	[27]	[27]	[27]	[27]	[27]
40	1	[14]	[14]	[14]	[14]	[14]
98	1	[0]
185	0	[0]	[14]	[14]
318	0	[0]	[0]
269	0	[0]	[0]
319	1	[0]	[0]	[0]	[0]	[0]	[0]	[0]
186	1	[0]
239	0	[0]	[14]	[14]
123	1	[0]	[14]
408	0	[0]	[9]	[14]	[3]
353	0	[0]
385	0	[0]
73	1	[0]	[14]	[14]
270	0	[0]	[14]
187	1	[0]	[14]
321	0	[0]
438	1	[0]	[0]	[0]	[0]	[0]	[0]
42	1	[0]	[0]
409	1	[0]	[14]	[14]	[14]	[5]
43	1	[14]	[14]	[14]
157	1	[0]	[14]
44	0	[0]	[14]	[14]
11	0	[0]
212	0	[0]
299	0	[0]
12	1	[0]	[14]	[14]	[3]	[0]	[14]
439	0	[0]	[14]
99	1	[0]	[14]	[14]	[3]	[14]	[14]	[0]	[0]
125	1	[14]	[14]	[14]
272	1	[0]	[0]
13	1	[9]	[0]	[27]	[27]
411	1	[0]	[14]
440	1	[9]	[0]	[27]
159	1	[0]	[14]
241	1	[14]	[14]	[14]
354	1	[9]	[0]	[27]	[27]
103	1	[0]
102	0	[0]
388	1	[14]	[14]	[14]	[14]	[14]
48	0	[0]	[14]
273	1	[0]	[0]	[0]	[0]	[0]	[0]	[0]	[0]	[0]	[0]	[0]	[0]	[0]	[0]	[0]	[17]	[17]
243	1	[14]	[14]
355	0	[14]	[14]	[14]
213	0	[0]
389	0	[0]
14	1	[0]	[0]
214	1	[0]	[14]
161	0	[0]
357	1	[0]	[14]	[14]
358	1	[9]	[0]	[27]
189	0	[0]	[14]
162	0	[14]	[14]
359	1	[0]	[14]	[14]
163	1	[0]	[14]	[14]
390	1	[0]	[14]	[5]	[0]
216	1	[9]	[0]	[27]
128	0	[0]	[14]	[14]	[14]	[14]	[14]	[14]	[14]	[14]	[14]
360	1	[0]	[14]	[14]	[14]
165	1	[9]	[0]	[27]	[27]	[27]	[27]
104	1	[9]	[0]	[27]
413	1	[0]	[14]	[14]	[14]	[0]	[14]
49	1	[0]	[14]
50	1	[0]	[14]	[14]	[14]	[14]	[14]	[14]	[14]	[14]	[14]	[14]	[0]	[14]	[14]	[14]
190	0	[0]	[0]
105	1	[0]	[14]
276	0	[0]	[14]
301	1	[14]	[14]	[14]	[14]
106	0	[0]
302	0	[0]	[14]
443	1	[0]	[14]
416	1	[9]	[0]	[27]
303	1	[14]	[14]	[14]
167	1	[0]	[0]	[0]	[0]	[0]	[0]	[0]	[0]	[0]	[0]	[0]	[0]	[0]	[0]
330	1	[0]	[14]	[14]
191	1	[0]
362	0	[9]	[0]
217	0	[0]	[14]	[14]
130	0	[9]	[0]	[27]
52	1	[14]	[14]	[14]	[14]
131	1	[0]
246	1	[0]	[14]
363	0	[27]	[27]
107	0	[0]
109	1	[0]	[14]	[14]	[14]
16	1	[0]	[14]
331	1	[0]	[14]	[14]	[3]	[14]	[14]	[0]
365	1	[9]	[0]	[27]
17	0	[0]	[14]
332	0	[0]
366	0	[0]
417	0	[0]
168	1	[0]	[0]	[0]	[0]	[0]	[0]
135	0	[9]	[0]
247	1	[9]	[0]	[27]
418	1	[0]	[14]	[14]	[14]
445	0	[0]	[14]	[14]
220	0	[9]	[0]
250	1	[0]	[0]
21	0	[0]	[14]
221	1	[0]	[14]	[14]	[14]
55	1	[0]	[0]
419	1	[14]	[14]
110	1	[0]	[14]	[14]	[14]	[14]	[14]
136	1	[14]	[14]	[14]
22	0	[0]
81	0	[0]
169	1	[0]	[14]
82	0	[0]	[0]
421	1	[0]	[0]
422	1	[14]	[14]
333	1	[14]	[14]	[14]	[14]
137	0	[0]	[9]	[9]	[3]	[3]
368	0	[0]	[14]
306	0	[0]
111	1	[0]	[14]	[14]	[0]	[14]	[0]	[0]	[0]
251	0	[0]
138	1	[0]	[14]	[14]
423	1	[0]	[14]
279	1	[0]	[14]	[0]	[14]
252	1	[0]	[0]	[0]	[0]	[0]
253	1	[14]	[14]
424	0	[0]	[14]	[0]	[0]
254	0	[0]
255	1	[9]	[0]	[27]
86	0	[0]
139	1	[0]	[14]
337	1	[0]	[14]	[14]
59	1	[0]	[0]	[0]	[0]	[0]	[0]
370	1	[0]	[0]	[0]	[0]	[0]	[0]	[17]
115	1	[0]	[14]	[14]	[14]
256	0	[0]	[14]
25	1	[14]	[14]	[14]
116	1	[0]	[14]	[14]
28	1	[0]	[0]
173	1	[0]	[14]	[14]	[14]	[14]	[0]	[0]
29	0	[0]	[0]
174	1	[0]	[14]
446	1	[0]	[14]	[14]
340	0	[0]
199	0	[0]
447	0	[0]
145	1	[0]	[0]	[0]	[0]	[0]	[0]	[27]
61	0	[0]
309	1	[0]	[14]	[14]	[0]
31	0	[0]	[14]	[14]
62	0	[0]	[14]	[14]	[14]
258	1	[0]	[0]	[14]
341	0	[0]	[0]
89	1	[0]	[14]
63	1	[0]	[14]
201	0	[0]	[14]
223	1	[9]	[0]	[27]
450	1	[0]	[0]	[0]	[0]	[0]	[0]	[0]	[0]	[0]
260	1	[14]	[14]
224	1	[0]	[14]
372	0	[0]	[14]
261	0	[0]
402	0	[0]
287	1	[0]	[14]	[14]	[14]	[14]	[14]	[14]	[14]	[0]
226	1	[0]
342	1	[0]	[14]
262	1	[0]	[14]	[14]
343	0	[0]	[14]	[14]
374	0	[0]
91	1	[0]
375	0	[0]
227	1	[0]	[14]	[14]	[0]	[0]	[0]	[0]	[0]	[0]	[0]	[0]
202	0	[0]
