sid,COMM,ADEV,DDEV,ADD,DEL,OWN,MINOR,SCTR,NADEV,NADDEV,NCOMM,NSCTR,OEXP,EXP,label
65,0.0625,0.0,0.0,0.05732778548312529,0.008908685968819599,1.0,0.0,0.05581790463329615,0.3534482758620686,0.3534482758620686,0.5191836734693878,0.7723889285266116,0.149380642452236,0.149380642452236,true
228,0.125,0.0,0.0,0.05825242718446602,0.015590200445434299,1.0,0.0,0.045398722774675555,0.5643770856507223,0.5643770856507223,0.4380030721966202,0.8409825424272659,1.0,1.0,false
229,0.125,0.3333333333333333,0.3333333333333333,0.049468331021729074,0.015590200445434299,0.916949152542373,0.5,0.04188793102521647,0.617016234150964,0.617016234150964,0.4568875797741768,0.8599675546906693,1.0,0.3885816443243517,false
264,0.0,0.0,0.0,0.014794267221451688,0.0,1.0,0.0,0.01475845950543651,0.5636067101584323,0.5636067101584323,0.42809266409266317,0.8398285985617103,1.0,1.0,false
147,0.125,0.6666666666666666,0.6666666666666666,0.014331946370781322,0.017817371937639197,0.9168316831683168,1.0,0.009286446175246377,0.9811236623067774,0.9811236623067774,0.48822660098522175,0.5505292982178929,0.06844425782070124,0.06385830540447729,true
376,0.125,0.3333333333333333,0.3333333333333333,0.048543689320388356,0.015590200445434299,0.9159999999999999,0.5,0.04105714971808337,0.6170162341509641,0.6170162341509641,0.4568875797741768,0.8600206037522526,1.0,0.3885816443243517,true
0,0.1875,0.0,0.0,0.03744798890429959,0.0334075723830735,1.0,0.0,0.03619552495965398,0.5380618842364531,0.5380618842364531,0.5320280612244901,0.8111725161269924,1.0,1.0,true
67,0.0625,0.3333333333333333,0.3333333333333333,0.048543689320388356,0.013363028953229399,0.928,0.5,0.0419253867844615,0.6003010399562105,0.6003010399562105,0.4320521541950104,0.8181531438344574,1.0,0.3885816443243517,false
68,0.3125,0.3333333333333333,0.3333333333333333,0.12297734627831716,0.16481069042316257,0.18125000000000008,0.0,0.07218751904455269,0.5701854261548482,0.5701854261548482,0.46333333333333426,0.8516864885888782,1.0,0.3885816443243517,true
429,0.375,0.6666666666666666,0.6666666666666666,0.382339343504392,0.2516703786191537,0.7775919732441472,0.5,0.33223352827486796,0.6073139025725215,0.6073139025725215,0.4987528344671193,0.9795377202526341,1.0,0.08135845422542154,true
117,0.1875,0.3333333333333333,0.3333333333333333,0.1558021266759131,0.017817371937639197,0.9587223587223586,0.5,0.14847530769866854,0.6179333802486497,0.6179333802486497,0.45737609329446044,0.8547594023543972,1.0,0.3885816443243517,true
289,0.0,0.0,0.0,0.1128062875635691,0.0,1.0,0.0,0.11254389357263304,0.5636067101584323,0.5636067101584323,0.42809266409266317,0.8365547004201198,1.0,1.0,false
1,0.0,0.0,0.0,0.1567267683772538,0.0,1.0,0.0,0.1563621732872051,0.5636067101584323,0.5636067101584323,0.42809266409266306,0.8350876456803858,1.0,1.0,true
345,0.0625,0.0,0.0,0.08044382801664354,0.0066815144766146995,1.0,0.0,0.07617342600366457,0.548636129696345,0.548636129696345,0.42189054726368186,0.8442655854601444,1.0,1.0,false
346,0.0,0.0,0.0,0.08460471567267684,0.0,1.0,0.0,0.08440425962455118,0.5636067101584323,0.5636067101584323,0.42809266409266317,0.8374968273960494,1.0,1.0,false
231,0.125,0.3333333333333333,0.3333333333333333,0.17105871474803513,0.031180400890868598,0.9331818181818181,0.5,0.1540686254794964,0.601555104800539,0.601555104800539,0.43350140056022324,0.820995927736513,1.0,0.3885816443243517,true
2,0.0625,0.3333333333333333,0.3333333333333333,0.08090614886731391,0.0022271714922048997,0.9914285714285713,0.5,0.07967799944534625,0.5901323891625616,0.5901323891625616,0.4623979591836736,0.8875340268451152,1.0,0.3885816443243517,true
203,0.0,0.0,0.0,0.06657420249653259,0.0,1.0,0.0,0.06641793515864994,0.5636067101584323,0.5636067101584323,0.42809266409266317,0.8380990172293785,1.0,1.0,false
69,0.0625,0.0,0.0,0.008784096162736944,0.004454342984409799,1.0,0.0,0.007758725578928326,0.5486361296963449,0.5486361296963449,0.42189054726368175,0.848482027081859,1.0,1.0,true
378,0.0,0.0,0.0,0.02450300508552936,0.0,1.0,0.0,0.024438657822718795,0.5636067101584323,0.5636067101584323,0.42809266409266317,0.8395045013831941,1.0,1.0,true
233,0.0625,0.3333333333333333,0.3333333333333333,0.05224225612575127,0.013363028953229399,0.9311475409836065,0.5,0.0455627189054613,0.6003010399562104,0.6003010399562104,0.4320521541950104,0.8179743406963771,1.0,0.3885816443243517,false
150,0.1875,0.3333333333333333,0.3333333333333333,0.11742949607027275,0.16703786191536749,0.974074074074074,0.5,0.06748128234439812,0.5658932501834183,0.5658932501834183,0.4301215805471123,0.855995634420965,1.0,0.3885816443243517,true
379,0.0,0.0,0.0,0.006934812760055485,0.0,1.0,0.0,0.0069096944527020105,0.5636067101584323,0.5636067101584323,0.42809266409266317,0.8400913785714845,1.0,1.0,false
234,0.125,0.6666666666666666,0.6666666666666666,0.014331946370781322,0.017817371937639197,0.9168316831683168,1.0,0.009286446175246377,0.9811236623067773,0.9811236623067773,0.48822660098522175,0.5505292982178929,0.06844425782070124,0.06385830540447729,true
70,0.0625,0.0,0.0,0.09477577438742488,0.0334075723830735,1.0,0.0,0.08458968468892969,0.5486361296963449,0.5486361296963449,0.42189054726368175,0.8437468860695259,1.0,1.0,true
177,0.0625,0.3333333333333333,0.3333333333333333,0.0517799352750809,0.013363028953229399,0.9307692307692308,0.5,0.04519319223908028,0.6003010399562104,0.6003010399562104,0.4320521541950104,0.8179925058034818,1.0,0.3885816443243517,false
313,0.1875,0.3333333333333333,0.3333333333333333,0.26537216828478966,0.05790645879732739,0.9152173913043478,0.5,0.23093956223755113,0.6179333802486496,0.6179333802486496,0.456861030126336,0.853163649442754,1.0,0.3885816443243517,true
5,0.125,0.3333333333333333,0.3333333333333333,0.023116042533518264,0.004454342984409799,0.93,0.5,0.01744654336309657,0.5616961789375563,0.5616961789375563,0.42645559845559744,0.839738600364842,1.0,0.3885816443243517,false
266,0.1875,0.6666666666666666,0.6666666666666666,0.10725843735552473,0.017817371937639197,0.8331125827814571,0.5,0.099516088016586,0.98623470522803,0.98623470522803,0.49092165898617485,0.5440019070720385,0.06844425782070124,0.06385830540447729,true
381,0.3125,0.0,0.0,0.03744798890429959,0.066815144766147,1.0,0.0,0.032631158276364675,0.5324284666177541,0.5324284666177541,0.5522310030395131,0.7924983322199972,1.0,1.0,true
179,0.3125,0.3333333333333333,0.3333333333333333,0.07766990291262135,0.0334075723830735,0.9205882352941177,0.5,0.06608005425377912,0.6194330800701326,0.6194330800701326,0.457878934624697,0.8584414615955639,1.0,0.3885816443243517,true
431,0.0625,0.3333333333333333,0.3333333333333333,0.13777161349976882,0.004454342984409799,0.9885869565217391,0.5,0.13384172698584182,0.5901323891625617,0.5901323891625617,0.46239795918367366,0.8845386377388375,1.0,0.3885816443243517,true
120,0.0625,0.3333333333333333,0.3333333333333333,0.05224225612575127,0.013363028953229399,0.9311475409836065,0.5,0.04557179953139701,0.6003010399562104,0.6003010399562104,0.4320521541950104,0.8179738943130503,1.0,0.3885816443243517,true
6,0.0625,0.3333333333333333,0.3333333333333333,0.03143781784558484,0.0,0.9391304347826086,0.5,0.027577073696720536,1.0,1.0,0.4875261324041814,0.5313810037975726,0.06844425782070124,0.2660293884351079,false
35,0.0625,0.3333333333333333,0.3333333333333333,0.0651872399445215,0.0022271714922048997,0.9900473933649288,0.5,0.06349769359227034,0.5741379310344829,0.5741379310344829,0.46610452961672494,0.8981328549208879,1.0,0.3885816443243517,true
7,0.0625,0.3333333333333333,0.3333333333333333,0.12251502542764679,0.013363028953229399,0.9623880597014927,0.5,0.11776740425051307,0.6003010399562104,0.6003010399562104,0.4320521541950104,0.8144249193363503,1.0,0.3885816443243517,true
236,0.0,0.0,0.0,0.026352288488210817,0.0,1.0,0.0,0.026283782676666045,0.5636067101584323,0.5636067101584323,0.42809266409266317,0.8394427258141844,1.0,1.0,false
152,0.0,0.0,0.0,0.0,0.0,1.0,0.0,0.0,0.5636067101584323,0.5636067101584323,0.42809266409266317,0.8403227180960613,1.0,1.0,false
36,0.0,0.0,0.0,0.11095700416088763,0.0,1.0,0.0,0.11069884673331148,0.5636067101584323,0.5636067101584323,0.42809266409266306,0.8366164733771663,1.0,1.0,false
347,0.0625,0.3333333333333333,0.3333333333333333,0.13730929264909847,0.013363028953229399,0.96566757493188,0.5,0.13101288435742964,0.6003010399562104,0.6003010399562104,0.4320521541950104,0.813773801063476,1.0,0.3885816443243517,true
93,0.0625,0.0,0.0,0.15349052242256125,0.015590200445434299,1.0,0.0,0.15171323437877277,0.3534482758620686,0.3534482758620686,0.5191836734693878,0.7511759257215334,0.149380642452236,0.149380642452236,true
314,0.25,0.3333333333333333,0.3333333333333333,0.2501155802126676,0.0378619153674833,0.9415711947626841,0.5,0.22906409995678678,0.6188319981423434,0.6188319981423434,0.4563251563251566,0.8532211956145254,1.0,0.3885816443243517,true
153,0.0625,0.0,0.0,0.11881645862228386,0.011135857461024499,1.0,0.0,0.11669428463666814,0.548636129696345,0.548636129696345,0.42189054726368175,0.8417682590986008,1.0,1.0,false
121,0.0,0.0,0.0,0.003236245954692559,0.0,1.0,0.0,0.0032192809278869523,0.5636067101584323,0.5636067101584323,0.42809266409266317,0.8402149351941639,1.0,1.0,false
348,0.125,0.6666666666666666,0.6666666666666666,0.04761904761904762,0.017817371937639197,0.9514450867052023,1.0,0.043654096434430564,0.9811236623067773,0.9811236623067773,0.48822660098522175,0.5395188290488968,0.06844425782070124,0.06385830540447729,true
382,0.0,0.0,0.0,0.28109107720758203,0.0,1.0,0.0,0.28044409215559185,0.5636067101584323,0.5636067101584323,0.42809266409266317,0.8309333299843588,1.0,1.0,false
154,0.0625,0.3333333333333333,0.3333333333333333,0.036523347202958856,0.013363028953229399,0.9154362416107381,0.5,0.030600888691696006,0.6003010399562104,0.6003010399562104,0.4320521541950104,0.8187098309141109,1.0,0.3885816443243517,false
433,0.1875,0.0,0.0,0.12066574202496533,0.026726057906458798,1.0,0.0,0.11416179507662279,0.4806896551724133,0.4806896551724133,0.6400380952380953,0.9688484370779568,0.149380642452236,0.149380642452236,true
182,0.125,0.3333333333333333,0.3333333333333333,0.04900601017105872,0.015590200445434299,0.9164772727272726,0.5,0.041378379746672495,0.617016234150964,0.617016234150964,0.4568875797741768,0.8600000917939036,1.0,0.3885816443243517,true
183,0.125,0.3333333333333333,0.3333333333333333,0.16551086453999073,0.022271714922048998,0.9509345794392524,0.5,0.1534402791727777,0.617016234150964,0.617016234150964,0.4568875797741768,0.8528444437879301,1.0,0.3885816443243517,true
292,0.1875,0.0,0.0,0.09708737864077668,0.022271714922048998,1.0,0.0,0.09077179427405016,0.4806896551724133,0.4806896551724133,0.6400380952380953,0.9765750950556638,0.149380642452236,0.149380642452236,true
403,0.125,0.0,0.0,0.056865464632454926,0.011135857461024499,1.0,0.0,0.05392598007949006,0.39026580459770077,0.39026580459770077,0.5773214285714283,0.8301675798343056,0.149380642452236,0.149380642452236,true
72,0.125,0.0,0.0,0.05779010633379566,0.011135857461024499,1.0,0.0,0.054826144709718715,0.36881559220389776,0.36881559220389776,0.536583850931677,0.7881446497662952,0.149380642452236,0.149380642452236,true
267,0.0,0.0,0.0,0.0744336569579288,0.0,1.0,0.0,0.07425631093860313,0.5636067101584323,0.5636067101584323,0.42809266409266317,0.8378365850568993,1.0,1.0,false
208,0.0625,0.0,0.0,0.06148867313915858,0.008908685968819599,1.0,0.0,0.05524360120706854,0.548636129696345,0.548636129696345,0.42189054726368175,0.8455555039112915,1.0,1.0,true
405,0.0625,0.3333333333333333,0.3333333333333333,0.13083680073971335,0.013363028953229399,0.9643059490084986,0.5,0.12606923930512037,0.6003010399562104,0.6003010399562104,0.4320521541950104,0.8140168196329941,1.0,0.3885816443243517,true
39,0.0625,0.3333333333333333,0.3333333333333333,0.19325011558021266,0.0022271714922048997,0.9956967213114755,0.5,0.1907461675693439,0.5616961789375563,0.5616961789375563,0.4272741312741303,0.8339364548506412,1.0,0.2660293884351079,false
96,0.375,0.0,0.0,0.04900601017105872,0.08463251670378619,1.0,0.0,0.04117643505030541,0.5309118453325624,0.5309118453325624,0.5683323371189467,0.7901289311127024,1.0,1.0,true
294,0.0625,0.0,0.0,0.021266759130836806,0.004454342984409799,1.0,0.0,0.018548598140596034,0.548636129696345,0.548636129696345,0.42189054726368175,0.8478170403541591,1.0,1.0,false
350,0.0625,0.0,0.0,0.23578363384188622,0.008908685968819599,1.0,0.0,0.23372828663402598,0.548636129696345,0.548636129696345,0.42189054726368186,0.8345553789118297,1.0,1.0,true
209,0.0,0.0,0.0,0.02912621359223301,0.0,1.0,0.0,0.029051463296383348,0.5636067101584323,0.5636067101584323,0.42809266409266317,0.8393500626836903,1.0,1.0,false
97,0.0,0.0,0.0,0.0425335182616736,0.0,1.0,0.0,0.042432771680473665,0.5636067101584323,0.5636067101584323,0.42809266409266317,0.838902050757695,1.0,1.0,false
210,0.0625,0.3333333333333333,0.3333333333333333,0.05085529357374018,0.0066815144766146995,0.9649999999999999,0.5,0.047360047673673446,0.5901323891625616,0.5901323891625616,0.46239795918367366,0.8893212901128014,1.0,0.3885816443243517,true
435,0.0,0.0,0.0,0.005547850208044385,0.0,1.0,0.0,0.0055342333155908845,0.5636067101584323,0.5636067101584323,0.4280926640926631,0.8401374295984454,1.0,1.0,false
406,0.125,0.3333333333333333,0.3333333333333333,0.05085529357374018,0.015590200445434299,0.9183333333333333,0.5,0.04303216558169535,0.6170162341509641,0.6170162341509641,0.4568875797741768,0.859894490252494,1.0,0.3885816443243517,true
238,0.0,0.0,0.0,0.0023116042533518257,0.0,1.0,0.0,0.002296668147588544,0.5636067101584323,0.5636067101584323,0.42809266409266317,0.8402458246645194,1.0,1.0,false
295,0.3125,0.3333333333333333,0.3333333333333333,0.11742949607027275,0.011135857461024499,0.7796296296296296,0.0,0.11467460968525746,0.9952359346642464,0.9952359346642464,0.4742105263157895,0.5282561167816017,0.06844425782070124,0.013431949329530552,true
40,0.25,0.0,0.0,0.09616273693943596,0.028953229398663696,1.0,0.0,0.08647632727342747,0.4831951113051068,0.4831951113051068,0.6555515370705244,1.0,0.149380642452236,0.149380642452236,true
98,0.0,0.0,0.0,0.04993065187239945,0.0,1.0,0.0,0.04981277893015825,0.5636067101584323,0.5636067101584323,0.42809266409266317,0.8386549649595887,1.0,1.0,true
185,0.125,0.3333333333333333,0.3333333333333333,0.07350901525658807,0.015590200445434299,0.9358078602620088,0.5,0.06368704586120068,0.6003010399562104,0.6003010399562104,0.4308503401360535,0.8170833891892085,1.0,0.3885816443243517,false
318,0.0625,0.0,0.0,0.2787794729542302,0.008908685968819599,1.0,0.0,0.28308172237798396,0.548636129696345,0.548636129696345,0.42189054726368175,0.8315136951895669,1.0,1.0,false
269,0.0625,0.0,0.0,0.11742949607027275,0.004454342984409799,1.0,0.0,0.11612955919385361,0.548636129696345,0.548636129696345,0.42189054726368175,0.8418030634878204,1.0,1.0,false
319,0.375,0.0,0.0,0.03929727230698104,0.066815144766147,1.0,0.0,0.034894090957842364,0.5324284666177541,0.5324284666177541,0.5483647416413369,0.7921404684386312,1.0,1.0,true
186,0.0,0.0,0.0,0.04345815996301433,0.0,1.0,0.0,0.043355269855916964,0.5636067101584323,0.5636067101584323,0.42809266409266317,0.838871165124359,1.0,1.0,true
239,0.125,0.3333333333333333,0.3333333333333333,0.05224225612575127,0.015590200445434299,0.9196721311475409,0.5,0.044425970193033744,0.6170162341509641,0.6170162341509641,0.4568875797741768,0.8598054896622941,1.0,0.3885816443243517,false
123,0.0625,0.3333333333333333,0.3333333333333333,0.03698566805362921,0.013363028953229399,0.9159999999999999,0.5,0.03113071350762924,0.6003010399562104,0.6003010399562104,0.4320521541950104,0.8186837859073395,1.0,0.3885816443243517,true
408,0.1875,1.0,1.0,0.4225612575127138,0.36525612472160357,0.4600609756097561,0.5,0.2864443718215562,0.5812632783134499,0.5812632783134499,0.4772511848341238,0.9334155220342664,1.0,0.07792954440604123,false
353,0.0,0.0,0.0,0.013407304669440595,0.0,1.0,0.0,0.013367808469294532,0.5636067101584323,0.5636067101584323,0.42809266409266317,0.8398751581529856,1.0,1.0,false
385,0.0,0.0,0.0,0.0023116042533518257,0.0,1.0,0.0,0.002296668147588544,0.5636067101584323,0.5636067101584323,0.42809266409266317,0.8402458246645195,1.0,1.0,false
73,0.125,0.3333333333333333,0.3333333333333333,0.05085529357374018,0.015590200445434299,0.9183333333333333,0.5,0.04303216558169535,0.6170162341509641,0.6170162341509641,0.4568875797741768,0.859894490252494,1.0,0.3885816443243517,true
270,0.0625,0.3333333333333333,0.3333333333333333,0.049468331021729074,0.015590200445434299,0.916949152542373,0.5,0.04188793102521647,0.6003010399562104,0.6003010399562104,0.4320521541950104,0.8181549850760789,1.0,0.3885816443243517,false
187,0.0625,0.3333333333333333,0.3333333333333333,0.13592233009708737,0.013363028953229399,0.9653846153846153,0.5,0.13106110224046605,0.6003010399562104,0.6003010399562104,0.4320521541950104,0.8137714307798418,1.0,0.3885816443243517,true
321,0.0,0.0,0.0,0.28109107720758203,0.0,1.0,0.0,0.28044409215559185,0.5636067101584323,0.5636067101584323,0.42809266409266317,0.8309333299843588,1.0,1.0,false
438,0.3125,0.0,0.0,0.03698566805362921,0.066815144766147,1.0,0.0,0.03268381581778403,0.5324284666177541,0.5324284666177541,0.552231003039513,0.7924900048724609,1.0,1.0,true
42,0.0625,0.0,0.0,0.14794267221451687,0.0022271714922048997,1.0,0.0,0.14777266753147547,0.5643770856507223,0.5643770856507223,0.43230414746543744,0.8440541387375129,1.0,1.0,true
409,0.25,0.6666666666666666,0.6666666666666666,0.26860841423948223,0.12472160356347439,0.5161290322580645,0.5,0.22922769295632378,0.5636569872958266,0.5636569872958266,0.4407368421052627,0.8337946883408608,1.0,0.045920159998672876,true
43,0.125,0.0,0.0,0.10402219140083216,0.0200445434298441,1.0,0.0,0.0986606397851858,0.36848862802641197,0.36848862802641197,0.53483282674772,0.7713034486989058,0.149380642452236,0.149380642452236,true
157,0.0625,0.3333333333333333,0.3333333333333333,0.05871474803513638,0.013363028953229399,0.9360406091370559,0.5,0.05201647545927627,0.6003010399562104,0.6003010399562104,0.4320521541950104,0.8176570884120544,1.0,0.3885816443243517,true
44,0.125,0.3333333333333333,0.3333333333333333,0.03698566805362921,0.015590200445434299,0.902,0.5,0.029311157503067547,0.6068395030425944,0.6068395030425944,0.45929621848739477,0.8661523198085852,1.0,0.3885816443243517,false
11,0.0,0.0,0.0,0.006010171058714752,0.0,1.0,0.0,0.005987096167310837,0.5636067101584323,0.5636067101584323,0.42809266409266306,0.8401222675565442,1.0,1.0,false
212,0.0,0.0,0.0,0.0036985668053629256,0.0,1.0,0.0,0.0036894559258378364,0.5636067101584323,0.5636067101584323,0.42809266409266317,0.8401991935342049,1.0,1.0,false
299,0.0,0.0,0.0,0.02080443828016644,0.0,1.0,0.0,0.020748395788584513,0.5636067101584323,0.5636067101584323,0.42809266409266317,0.8396280529339007,1.0,1.0,false
12,0.3125,0.6666666666666666,0.6666666666666666,0.9981507165973186,1.0,0.9858681022880216,1.0,0.7561224208634629,0.573550156739811,0.573550156739811,0.47287012987012994,0.8899054785384205,1.0,0.08135845422542154,true
439,0.0625,0.3333333333333333,0.3333333333333333,0.08876560332871013,0.011135857461024499,0.9599236641221375,0.5,0.08276858618296007,0.5901323891625617,0.5901323891625617,0.46239795918367366,0.8873631096969382,1.0,0.3885816443243517,false
99,0.4375,0.6666666666666666,0.6666666666666666,0.9223300970873787,0.09799554565701558,0.9633898305084745,1.0,0.9317857262900417,0.5925456389452316,0.5925456389452316,0.5227626050420169,0.8743898201721902,1.0,0.08135845422542154,true
125,0.125,0.0,0.0,0.11049468331021728,0.0200445434298441,1.0,0.0,0.10524621274875763,0.36881559220389776,0.36881559220389776,0.536583850931677,0.7745665712634431,0.149380642452236,0.149380642452236,true
272,0.0625,0.0,0.0,0.20804438280166435,0.0022271714922048997,1.0,0.0,0.2082881424316375,0.548636129696345,0.548636129696345,0.42189054726368175,0.836123271224614,1.0,1.0,true
13,0.1875,0.6666666666666666,0.6666666666666666,0.22376329172445678,0.0200445434298441,0.9014440433212997,1.0,0.21918684546765052,0.9862347052280301,0.9862347052280301,0.49092165898617485,0.49618086170024917,0.06844425782070124,0.06385830540447729,true
411,0.0625,0.3333333333333333,0.3333333333333333,0.07582061950993989,0.013363028953229399,0.9461538461538461,0.5,0.06928187390901326,0.6003010399562104,0.6003010399562104,0.4320521541950104,0.8168083599153644,1.0,0.3885816443243517,true
440,0.125,0.6666666666666666,0.6666666666666666,0.014331946370781322,0.017817371937639197,0.9168316831683168,1.0,0.009286446175246377,0.9811236623067773,0.9811236623067773,0.48822660098522175,0.5505292982178929,0.06844425782070124,0.06385830540447729,true
159,0.0625,0.3333333333333333,0.3333333333333333,0.11511789181692093,0.013363028953229399,0.9605015673981191,0.5,0.10953213110887966,0.6003010399562104,0.6003010399562104,0.4320521541950104,0.8148297470044564,1.0,0.3885816443243517,true
241,0.125,0.0,0.0,0.12159038372630605,0.024498886414253896,1.0,0.0,0.11553100456092008,0.36881559220389776,0.36881559220389776,0.536583850931677,0.7717968861749004,0.149380642452236,0.149380642452236,true
354,0.1875,0.6666666666666666,0.6666666666666666,0.11927877947295422,0.015590200445434299,0.6542682926829267,0.5,0.09578433723549312,0.9862347052280301,0.9862347052280301,0.49092165898617474,0.5454931337277388,0.06844425782070124,0.06385830540447729,true
103,0.0,0.0,0.0,0.04345815996301433,0.0,1.0,0.0,0.043355269855916964,0.5636067101584323,0.5636067101584323,0.42809266409266317,0.838871165124359,1.0,1.0,true
102,0.0,0.0,0.0,0.13592233009708737,0.0,1.0,0.0,0.1356070142129728,0.5636067101584323,0.5636067101584323,0.42809266409266317,0.8357825372802417,1.0,1.0,false
388,0.25,0.0,0.0,0.20665742024965325,0.05790645879732739,1.0,0.0,0.18933398557683048,0.48319511130510673,0.48319511130510673,0.6555515370705244,0.9596779810206869,0.149380642452236,0.149380642452236,true
48,0.0625,0.3333333333333333,0.3333333333333333,0.04808136846971798,0.013363028953229399,0.9275862068965518,0.5,0.0414877664812363,0.6003010399562105,0.6003010399562105,0.43205215419501036,0.8181746562729428,1.0,0.3885816443243517,false
273,1.0,0.3333333333333333,0.3333333333333333,0.29218677762367085,0.48106904231625836,0.9910256410256411,0.5,0.16858763525958598,0.4201366297983081,0.4201366297983081,1.0,0.7494264014737447,1.0,0.013445655347277867,true
243,0.0625,0.0,0.0,0.13222376329172447,0.013363028953229399,1.0,0.0,0.13087423851476823,0.36881559220389776,0.36881559220389776,0.5431677018633541,0.7676649672145438,0.149380642452236,0.149380642452236,true
355,0.125,0.0,0.0,0.19833564493758668,0.042316258351893093,1.0,0.0,0.19110474869056568,0.38172413793103444,0.38172413793103444,0.5875428571428573,0.7913771432193315,0.149380642452236,0.149380642452236,false
213,0.0,0.0,0.0,0.07258437355524733,0.0,1.0,0.0,0.07241122755129792,0.5636067101584323,0.5636067101584323,0.42809266409266317,0.8378983592375878,1.0,1.0,false
389,0.0,0.0,0.0,0.0050855293573740185,0.0,1.0,0.0,0.0050644946525001035,0.5636067101584323,0.5636067101584323,0.42809266409266317,0.8401531566497267,1.0,1.0,false
14,0.0625,0.0,0.0,0.013869625520110961,0.0022271714922048997,1.0,0.0,0.013114791453669488,0.5474983096686935,0.5474983096686935,0.4713585434173662,0.829710366224168,1.0,1.0,true
214,0.0625,0.3333333333333333,0.3333333333333333,0.08599167822468792,0.013363028953229399,0.95078125,0.5,0.079509840293015,0.6003010399562104,0.6003010399562104,0.4320521541950104,0.8163055758899301,1.0,0.3885816443243517,true
161,0.0,0.0,0.0,0.020342117429496074,0.0,1.0,0.0,0.020293180925580807,0.5636067101584323,0.5636067101584323,0.42809266409266317,0.8396432937221452,1.0,1.0,false
357,0.125,0.3333333333333333,0.3333333333333333,0.08552935737401757,0.017817371937639197,0.9341176470588235,0.5,0.07620354062751516,0.6170162341509641,0.6170162341509641,0.4568875797741768,0.8577763512157865,1.0,0.3885816443243517,true
358,0.125,0.6666666666666666,0.6666666666666666,0.030050855293573743,0.017817371937639197,0.9377777777777777,1.0,0.025127583816984038,0.9811236623067773,0.9811236623067773,0.48822660098522175,0.5454542245282226,0.06844425782070124,0.06385830540447729,true
189,0.0625,0.3333333333333333,0.3333333333333333,0.05131761442441054,0.013363028953229399,0.9303867403314916,0.5,0.04464491808495916,0.6003010399562104,0.6003010399562104,0.4320521541950104,0.8180194577385882,1.0,0.3885816443243517,false
162,0.0625,0.0,0.0,0.020342117429496074,0.0022271714922048997,1.0,0.0,0.021892607178368342,0.7068965517241376,0.7068965517241376,0.5552380952380952,0.9553070514989062,0.149380642452236,0.149380642452236,false
359,0.125,0.3333333333333333,0.3333333333333333,0.11927877947295422,0.0200445434298441,0.9423780487804877,0.5,0.11041699902873761,0.6170162341509641,0.6170162341509641,0.4568875797741768,0.8555916705469779,1.0,0.3885816443243517,true
163,0.125,0.3333333333333333,0.3333333333333333,0.08737864077669902,0.022271714922048998,0.9189189189189189,0.5,0.07465133270859527,0.617016234150964,0.617016234150964,0.4568875797741768,0.8578754665579033,1.0,0.3885816443243517,true
390,0.1875,0.6666666666666666,0.6666666666666666,0.1128062875635691,0.004454342984409799,0.5652866242038217,0.0,0.07569476537953633,0.5577023046265809,0.5577023046265809,0.4725484565685564,0.851481266066482,1.0,0.045920159998672876,true
216,0.125,0.6666666666666666,0.6666666666666666,0.14008321775312066,0.024498886414253896,0.8198391420911529,0.5,0.13405077400946874,0.9811236623067774,0.9811236623067774,0.48822660098522175,0.5105581691284925,0.06844425782070124,0.06385830540447729,true
128,0.5625,0.3333333333333333,0.3333333333333333,0.2575127138233934,0.30066815144766146,0.7354066985645932,0.0,0.2010662480629186,0.5927296307598401,0.5927296307598401,0.45495575221238876,0.8893846995105551,1.0,0.3885816443243517,false
360,0.1875,0.3333333333333333,0.3333333333333333,0.08321775312066575,0.022271714922048998,0.9159999999999999,0.5,0.07025239878058473,0.6179333802486496,0.6179333802486496,0.45737609329446044,0.8613512831783665,1.0,0.3885816443243517,true
165,0.3125,0.6666666666666666,0.6666666666666666,0.1035598705501618,0.062360801781737196,0.8357142857142857,0.5,0.099062517319034,0.9862347052280301,0.9862347052280301,0.4713824884792624,0.5441831562374064,0.06844425782070124,0.06385830540447729,true
104,0.125,0.6666666666666666,0.6666666666666666,0.07766990291262135,0.017817371937639197,0.9647058823529411,1.0,0.07522184294706993,0.9811236623067774,0.9811236623067774,0.48822660098522175,0.529405373601962,0.06844425782070124,0.06385830540447729,true
413,0.3125,0.3333333333333333,0.3333333333333333,0.07674526121128063,0.0334075723830735,0.9199152542372881,0.5,0.06561650759667376,0.6194330800701325,0.6194330800701325,0.4578789346246971,0.858499857906423,1.0,0.3885816443243517,true
49,0.0625,0.3333333333333333,0.3333333333333333,0.09523809523809523,0.013363028953229399,0.9467391304347826,0.5,0.09633306079653828,0.5901323891625616,0.5901323891625616,0.4623979591836736,0.8866129604488181,1.0,0.3885816443243517,true
50,0.875,0.3333333333333333,0.3333333333333333,0.4188626907073509,0.5501113585746102,0.33514344262295087,0.0,0.28453327064385275,0.5441981390257236,0.5441981390257236,0.465702947845804,0.8721899662517008,1.0,0.3885816443243517,true
190,0.0625,0.0,0.0,0.09893666204345815,0.0066815144766146995,1.0,0.0,0.09493272500021113,0.548636129696345,0.548636129696345,0.42189054726368175,0.8431094378984045,1.0,1.0,false
105,0.0625,0.3333333333333333,0.3333333333333333,0.033287101248266296,0.0066815144766146995,0.9556338028169015,0.5,0.035559507996103454,0.5901323891625616,0.5901323891625616,0.4623979591836736,0.8899738893633228,1.0,0.3885816443243517,true
276,0.0625,0.3333333333333333,0.3333333333333333,0.04900601017105872,0.013363028953229399,0.928409090909091,0.5,0.04238756603722236,0.6003010399562104,0.6003010399562104,0.4320521541950104,0.8181304241327638,1.0,0.3885816443243517,false
301,0.1875,0.0,0.0,0.06981044845122515,0.015590200445434299,1.0,0.0,0.06474783492400905,0.47126436781609143,0.47126436781609143,0.6148917748917747,0.9874974638462737,0.149380642452236,0.149380642452236,true
106,0.0,0.0,0.0,0.04392048081368471,0.0,1.0,0.0,0.04381232596642547,0.5636067101584323,0.5636067101584323,0.42809266409266317,0.8388558626903608,1.0,1.0,false
302,0.0625,0.3333333333333333,0.3333333333333333,0.052704576976421634,0.013363028953229399,0.9315217391304347,0.5,0.04603434538741348,0.6003010399562104,0.6003010399562104,0.4320521541950104,0.8179511565899581,1.0,0.3885816443243517,false
443,0.0625,0.3333333333333333,0.3333333333333333,0.06981044845122515,0.004454342984409799,0.9809954751131222,0.5,0.0680771442764426,0.5616961789375563,0.5616961789375563,0.4272741312741303,0.8380434661987055,1.0,0.3885816443243517,true
416,0.125,0.6666666666666666,0.6666666666666666,0.012020342117429495,0.017817371937639197,0.9125000000000001,1.0,0.0071998717019561885,0.9811236623067773,0.9811236623067773,0.48822660098522175,0.5511977804601677,0.06844425782070124,0.06385830540447729,true
303,0.125,0.0,0.0,0.06426259824318076,0.011135857461024499,1.0,0.0,0.06126054205760865,0.36881559220389776,0.36881559220389776,0.536583850931677,0.7864118724078722,0.149380642452236,0.149380642452236,true
167,0.8125,0.0,0.0,0.15349052242256125,0.19821826280623608,1.0,0.0,0.09536277055295816,0.5338087129274867,0.5338087129274867,0.5552380952380953,0.8227048941978681,1.0,1.0,true
330,0.125,0.3333333333333333,0.3333333333333333,0.05131761442441054,0.015590200445434299,0.9187845303867404,0.5,0.04353191166450753,0.6170162341509641,0.6170162341509641,0.4568875797741768,0.8598625792543824,1.0,0.3885816443243517,true
191,0.0,0.0,0.0,0.08830328247803976,0.0,1.0,0.0,0.0880944191542135,0.5636067101584323,0.5636067101584323,0.42809266409266317,0.8373732792772359,1.0,1.0,true
362,0.0625,0.3333333333333333,0.3333333333333333,0.029588534442903377,0.0,0.9373134328358209,0.5,0.025678237832787214,1.0,1.0,0.4875261324041814,0.5319547189082486,0.06844425782070124,0.2660293884351079,false
217,0.125,0.3333333333333333,0.3333333333333333,0.06056403143781784,0.017817371937639197,0.9164179104477611,0.5,0.05121466066208352,0.617016234150964,0.617016234150964,0.4568875797741768,0.859372001744752,1.0,0.3885816443243517,false
130,0.125,0.6666666666666666,0.6666666666666666,0.022653721682847898,0.004454342984409799,0.8941176470588235,1.0,0.017667036025650364,0.9896551724137925,0.9896551724137925,0.49803174603174594,0.5753417968495975,0.06844425782070124,0.06385830540447729,false
52,0.1875,0.0,0.0,0.10263522884882108,0.022271714922048998,1.0,0.0,0.096180591840245,0.4806896551724133,0.4806896551724133,0.6400380952380953,0.9747883516853924,0.149380642452236,0.149380642452236,true
131,0.0,0.0,0.0,0.17383263985205732,0.0,1.0,0.0,0.17343063000401832,0.5636067101584323,0.5636067101584323,0.42809266409266317,0.8345161864517383,1.0,1.0,true
246,0.0625,0.3333333333333333,0.3333333333333333,0.08183079056865465,0.013363028953229399,0.9489878542510122,0.5,0.07569443274432874,0.6003010399562104,0.6003010399562104,0.4320521541950104,0.816493132819038,1.0,0.3885816443243517,true
363,0.0625,0.0,0.0,9.246417013407332E-4,0.0066815144766146995,1.0,0.0,0.0016500334032065892,0.0,0.0,0.0,0.0,0.0,0.0,false
107,0.0,0.0,0.0,0.028663892741562644,0.0,1.0,0.0,0.028595425299333573,0.5636067101584323,0.5636067101584323,0.42809266409266317,0.8393653310308145,1.0,1.0,false
109,0.1875,0.3333333333333333,0.3333333333333333,0.2085067036523347,0.024498886414253896,0.955662188099808,0.5,0.20006338428987266,0.6188360597858075,0.6188360597858075,0.46100438810336414,0.8567053224514429,1.0,0.3885816443243517,true
16,0.0625,0.3333333333333333,0.3333333333333333,0.04993065187239945,0.013363028953229399,0.9292134831460674,0.5,0.04338501725154408,0.6003010399562104,0.6003010399562104,0.4320521541950104,0.8180813916547636,1.0,0.3885816443243517,true
331,0.375,0.6666666666666666,0.6666666666666666,0.29449838187702265,0.17371937639198218,0.8009900990099009,0.5,0.24276180037672462,0.5767633228840118,0.5767633228840118,0.4776883116883116,0.9810591407879691,1.0,0.08135845422542154,true
365,0.125,0.6666666666666666,0.6666666666666666,0.05640314378178455,0.017817371937639197,0.9562499999999999,1.0,0.052889688744233394,0.9811236623067773,0.9811236623067773,0.48822660098522175,0.5365599941091318,0.06844425782070124,0.06385830540447729,true
17,0.0625,0.3333333333333333,0.3333333333333333,0.05316689782709201,0.013363028953229399,0.9318918918918919,0.5,0.04654280228389966,0.6003010399562104,0.6003010399562104,0.4320521541950104,0.8179261619824694,1.0,0.3885816443243517,false
332,0.0,0.0,0.0,0.05501618122977346,0.0,1.0,0.0,0.0548828982295472,0.5636067101584323,0.5636067101584323,0.42809266409266317,0.8384852151976713,1.0,1.0,false
366,0.0,0.0,0.0,0.0864539990753583,0.0,1.0,0.0,0.08624933960683147,0.5636067101584323,0.5636067101584323,0.42809266409266317,0.8374350533293624,1.0,1.0,false
417,0.0,0.0,0.0,0.06981044845122515,0.0,1.0,0.0,0.06964360127619865,0.5636067101584323,0.5636067101584323,0.42809266409266317,0.8379910205486012,1.0,1.0,false
168,0.3125,0.0,0.0,0.04623208506703653,0.11581291759465479,1.0,0.0,0.015665388657303273,0.5372413793103448,0.5372413793103448,0.5337015873015869,0.8133421627811798,1.0,1.0,true
135,0.0625,0.3333333333333333,0.3333333333333333,0.012482662968099863,0.0,0.9134020618556702,0.5,0.008660269730013872,1.0,1.0,0.4875261324041814,0.5370965353437883,0.06844425782070124,0.2660293884351079,false
247,0.125,0.6666666666666666,0.6666666666666666,0.06796116504854369,0.017817371937639197,0.9612903225806451,1.0,0.06509822330892945,0.9811236623067773,0.9811236623067773,0.48822660098522175,0.5326487085714396,0.06844425782070124,0.06385830540447729,true
418,0.1875,0.3333333333333333,0.3333333333333333,0.14609338881183542,0.10690423162583519,0.9510362694300518,0.5,0.13775735127877559,0.6001690331304917,0.6001690331304917,0.4299383753501392,0.8122969332564041,1.0,0.3885816443243517,true
445,0.125,0.3333333333333333,0.3333333333333333,0.10957004160887657,0.10467706013363029,0.9452768729641694,0.5,0.10161682342599851,0.6001690331304917,0.6001690331304917,0.4317198879551812,0.8149304633748925,1.0,0.3885816443243517,false
220,0.0625,0.3333333333333333,0.3333333333333333,0.012020342117429495,0.0,0.9125000000000001,0.5,0.008261350607868876,1.0,1.0,0.4875261324041814,0.5372170649444028,0.06844425782070124,0.2660293884351079,false
250,0.0625,0.0,0.0,0.07905686546463245,0.062360801781737196,1.0,0.0,0.06327286489342678,0.5474983096686935,0.5474983096686935,0.47135854341736616,0.8266645520801169,1.0,1.0,true
21,0.0625,0.3333333333333333,0.3333333333333333,1.0,0.011135857461024499,0.9981191222570533,0.5,1.0,0.5616961789375563,0.5616961789375563,0.4272741312741303,0.8068422905372825,1.0,0.3885816443243517,false
221,0.1875,0.3333333333333333,0.3333333333333333,0.13499768839574663,0.0200445434298441,0.9535911602209943,0.5,0.126442251154452,0.6167311752287108,0.6167311752287108,0.4553158406219629,0.8533937211106751,1.0,0.3885816443243517,true
55,0.0625,0.0,0.0,0.08136846971798428,0.013363028953229399,1.0,0.0,0.07297509965124807,0.5486361296963449,0.5486361296963449,0.42189054726368175,0.8444627003531198,1.0,1.0,true
419,0.0625,0.0,0.0,0.12343966712898752,0.0200445434298441,1.0,0.0,0.12038574904204867,0.3656361474435192,0.3656361474435192,0.5796059113300491,0.7996331747646931,0.149380642452236,0.149380642452236,true
110,0.3125,0.3333333333333333,0.3333333333333333,0.18122977346278316,0.22494432071269488,0.0,0.0,0.1181098290517422,0.5315112330198543,0.5315112330198543,0.49042207792207937,0.8816230091626127,1.0,0.3885816443243517,true
136,0.125,0.0,0.0,0.05779010633379566,0.011135857461024499,1.0,0.0,0.054826144709718715,0.36881559220389776,0.36881559220389776,0.536583850931677,0.7881446497662953,0.149380642452236,0.149380642452236,true
22,0.0,0.0,0.0,0.08460471567267684,0.0,1.0,0.0,0.08440425962455118,0.5636067101584323,0.5636067101584323,0.42809266409266306,0.8374968273960492,1.0,1.0,false
81,0.0,0.0,0.0,0.021729079981507166,0.0,1.0,0.0,0.02167096296959801,0.5636067101584323,0.5636067101584323,0.42809266409266306,0.8395971649902286,1.0,1.0,false
169,0.0625,0.3333333333333333,0.3333333333333333,0.06934812760055478,0.013363028953229399,0.9427272727272729,0.5,0.06265651796299883,0.6003010399562104,0.6003010399562104,0.4320521541950104,0.8171340476432479,1.0,0.3885816443243517,true
82,0.0625,0.0,0.0,0.033287101248266296,0.0066815144766146995,1.0,0.0,0.03220129040192349,0.5486361296963449,0.5486361296963449,0.42189054726368175,0.8469756162224779,1.0,1.0,false
421,0.0625,0.0,0.0,0.036523347202958856,0.008908685968819599,1.0,0.0,0.030220458294179568,0.548636129696345,0.548636129696345,0.42189054726368186,0.8470976961686423,1.0,1.0,true
422,0.0625,0.0,0.0,0.11558021266759129,0.022271714922048998,1.0,0.0,0.11169131895667407,0.3534482758620686,0.3534482758620686,0.5191836734693878,0.7600291723433129,0.149380642452236,0.149380642452236,true
333,0.1875,0.0,0.0,0.08737864077669902,0.0200445434298441,1.0,0.0,0.08111685817882762,0.4806896551724133,0.4806896551724133,0.6400380952380953,0.9797645087557351,0.149380642452236,0.149380642452236,true
137,0.25,0.6666666666666666,0.6666666666666666,0.05316689782709201,0.1291759465478842,0.5232432432432432,0.0,0.030586810270673608,0.5792110489257967,0.5792110489257967,0.44001495886312614,0.911178025546453,1.0,0.062454668228093556,false
368,0.0625,0.3333333333333333,0.3333333333333333,0.05131761442441054,0.013363028953229399,0.9303867403314916,0.5,0.04464801292612001,0.6003010399562104,0.6003010399562104,0.4320521541950104,0.8180193056030961,1.0,0.3885816443243517,false
306,0.0,0.0,0.0,0.13499768839574663,0.0,1.0,0.0,0.13468448831714053,0.5636067101584323,0.5636067101584323,0.42809266409266317,0.8358134238416681,1.0,1.0,false
111,0.4375,0.3333333333333333,0.3333333333333333,0.4133148404993065,0.028953229398663696,0.8910788381742738,0.0,0.36981812124288105,0.5696754563894506,0.5696754563894506,0.5035742296918759,0.8604267376282172,1.0,0.3885816443243517,true
251,0.0,0.0,0.0,0.11465557096625058,0.0,1.0,0.0,0.11438894088879188,0.5636067101584323,0.5636067101584323,0.42809266409266317,0.8364929274471087,1.0,1.0,false
138,0.125,0.3333333333333333,0.3333333333333333,0.053629218677762366,0.015590200445434299,0.9209677419354839,0.5,0.04542700898872595,0.6068395030425944,0.6068395030425944,0.45929621848739477,0.8650513679445834,1.0,0.3885816443243517,true
423,0.0625,0.3333333333333333,0.3333333333333333,0.060101710587147486,0.015590200445434299,0.9264999999999999,0.5,0.05225103252799059,0.6003010399562104,0.6003010399562104,0.4320521541950104,0.8176455581094728,1.0,0.3885816443243517,true
279,0.1875,0.3333333333333333,0.3333333333333333,0.680998613037448,0.27839643652561247,0.9945560596241089,0.5,0.6671028504179136,0.5643770856507223,0.5643770856507223,0.428233486943164,0.8398446888064982,1.0,0.3885816443243517,true
252,0.25,0.0,0.0,0.07582061950993989,0.042316258351893093,1.0,0.0,0.0726264853140363,0.5410238959467631,0.5410238959467631,0.5505889724310772,0.8114380334410511,1.0,1.0,true
253,0.0625,0.0,0.0,0.12713823393435045,0.011135857461024499,1.0,0.0,0.1259643541435612,0.3656361474435192,0.3656361474435192,0.5796059113300491,0.7984416849186124,0.149380642452236,0.149380642452236,true
424,0.1875,0.3333333333333333,0.3333333333333333,0.05732778548312529,0.0334075723830735,0.9675257731958764,0.5,0.048597818840939555,0.5658932501834183,0.5658932501834183,0.4301215805471122,0.8578620475576509,1.0,0.3885816443243517,false
254,0.0,0.0,0.0,0.003236245954692559,0.0,1.0,0.0,0.0032192809278869523,0.5636067101584323,0.5636067101584323,0.42809266409266317,0.8402149351941639,1.0,1.0,false
255,0.125,0.6666666666666666,0.6666666666666666,0.014331946370781322,0.017817371937639197,0.9168316831683168,1.0,0.009286446175246377,0.9811236623067773,0.9811236623067773,0.48822660098522175,0.5505292982178929,0.06844425782070124,0.06385830540447729,true
86,0.0,0.0,0.0,0.003236245954692559,0.0,1.0,0.0,0.0032192809278869523,0.5636067101584323,0.5636067101584323,0.42809266409266306,0.8402149351941639,1.0,1.0,false
139,0.0625,0.3333333333333333,0.3333333333333333,0.16181229773462782,0.0200445434298441,0.955,0.5,0.15285160386234065,0.6003010399562104,0.6003010399562104,0.43205215419501036,0.812700258299375,1.0,0.3885816443243517,true
337,0.125,0.3333333333333333,0.3333333333333333,0.05085529357374018,0.015590200445434299,0.9183333333333333,0.5,0.04312899429668185,0.6170162341509641,0.6170162341509641,0.4568875797741768,0.8598883073107014,1.0,0.3885816443243517,true
59,0.3125,0.0,0.0,0.04669440591770689,0.11804008908685969,1.0,0.0,0.039753070253813354,0.5415216703574812,0.5415216703574812,0.532778505897772,0.8176244800869085,1.0,1.0,true
370,0.375,0.3333333333333333,0.3333333333333333,0.1447064262598243,0.15812917594654788,0.9177545691906006,0.5,0.0901303423935082,0.5377104101977451,0.5377104101977451,0.4916046039268794,0.8175703997709328,1.0,0.013445655347277867,true
115,0.1875,0.3333333333333333,0.3333333333333333,0.10402219140083216,0.0200445434298441,0.9359322033898306,0.5,0.09287317298305202,0.6179333802486497,0.6179333802486497,0.45737609329446044,0.8594450200420167,1.0,0.3885816443243517,true
256,0.0625,0.3333333333333333,0.3333333333333333,0.06287563569116968,0.013363028953229399,0.9388349514563107,0.5,0.056178277310696134,0.6003010399562104,0.6003010399562104,0.4320521541950104,0.8174525035112681,1.0,0.3885816443243517,false
25,0.125,0.0,0.0,0.05779010633379566,0.011135857461024499,1.0,0.0,0.054826144709718715,0.36848862802641197,0.36848862802641197,0.53483282674772,0.7886335910075684,0.149380642452236,0.149380642452236,true
116,0.125,0.3333333333333333,0.3333333333333333,0.05224225612575127,0.015590200445434299,0.9196721311475409,0.5,0.04442298993124128,0.6170162341509641,0.6170162341509641,0.4568875797741768,0.8598056799651933,1.0,0.3885816443243517,true
28,0.0625,0.0,0.0,0.018492834026814613,0.0022271714922048997,1.0,0.0,0.01716676675528163,0.5474983096686935,0.5474983096686935,0.4713585434173662,0.8294643128405623,1.0,1.0,true
173,0.375,0.3333333333333333,0.3333333333333333,0.15117891816920942,0.08463251670378619,0.9788413098236776,0.5,0.10384918204522187,0.5800610460320078,0.5800610460320078,0.4796445659603553,0.931860495555708,1.0,0.3885816443243517,true
29,0.0625,0.0,0.0,0.09616273693943596,0.008908685968819599,1.0,0.0,0.09091127023434167,0.5486361296963449,0.5486361296963449,0.42189054726368175,0.8433572827204879,1.0,1.0,false
174,0.0625,0.3333333333333333,0.3333333333333333,0.06148867313915858,0.013363028953229399,0.9379310344827587,0.5,0.05488151332142805,0.6003010399562104,0.6003010399562104,0.4320521541950104,0.8175162495380034,1.0,0.3885816443243517,true
446,0.125,0.3333333333333333,0.3333333333333333,0.09893666204345815,0.015590200445434299,0.9482394366197183,0.5,0.09189538488144446,0.6170162341509641,0.6170162341509641,0.4568875797741768,0.8567743575442467,1.0,0.3885816443243517,true
340,0.0,0.0,0.0,0.026814609338881183,0.0,1.0,0.0,0.02675046869708735,0.5636067101584323,0.5636067101584323,0.42809266409266317,0.8394271009666853,1.0,1.0,false
199,0.0,0.0,0.0,0.06195099398982894,0.0,1.0,0.0,0.061805376329648075,0.5636067101584323,0.5636067101584323,0.42809266409266317,0.8382534476711134,1.0,1.0,false
447,0.0,0.0,0.0,0.003236245954692559,0.0,1.0,0.0,0.0032192809278869523,0.5636067101584323,0.5636067101584323,0.4280926640926631,0.840214935194164,1.0,1.0,false
145,0.375,0.3333333333333333,0.3333333333333333,0.01756819232547388,0.0378619153674833,0.9805555555555555,0.5,0.013905676283026667,0.5234042553191482,0.5234042553191482,0.5483647416413366,0.7954596097908613,1.0,0.06167485233563397,true
61,0.0,0.0,0.0,0.014331946370781322,0.0,1.0,0.0,0.014290387500956748,0.5636067101584323,0.5636067101584323,0.42809266409266306,0.8398442698125487,1.0,1.0,false
309,0.1875,0.3333333333333333,0.3333333333333333,0.10263522884882108,0.017817371937639197,0.9856164383561643,0.5,0.08947709935347943,0.5986980999296279,0.5986980999296279,0.49322448979591926,0.9350210350337999,1.0,0.3885816443243517,true
31,0.125,0.3333333333333333,0.3333333333333333,0.05224225612575127,0.015590200445434299,0.9196721311475409,0.5,0.044521938963072355,0.6170162341509641,0.6170162341509641,0.4568875797741768,0.8597993616317906,1.0,0.3885816443243517,false
62,0.1875,0.3333333333333333,0.3333333333333333,0.21035598705501618,0.0467706013363029,0.9159999999999999,0.5,0.1807053583285619,0.6179333802486497,0.6179333802486497,0.4568610301263361,0.8573969091109902,1.0,0.3885816443243517,false
258,0.125,0.3333333333333333,0.3333333333333333,0.04808136846971798,0.07349665924276169,0.6741379310344828,0.0,0.030895548123234442,0.3534482758620688,0.3534482758620688,0.3028571428571428,0.5457621663316637,1.0,0.3885816443243517,true
341,0.0625,0.0,0.0,0.04669440591770689,0.004454342984409799,1.0,0.0,0.042997328308451425,0.548636129696345,0.548636129696345,0.42189054726368186,0.846310249520642,1.0,1.0,false
89,0.0625,0.3333333333333333,0.3333333333333333,0.04900601017105872,0.013363028953229399,0.928409090909091,0.5,0.04244646129146199,0.6003010399562104,0.6003010399562104,0.4320521541950104,0.8181275289733652,1.0,0.3885816443243517,true
63,0.0625,0.3333333333333333,0.3333333333333333,0.05224225612575127,0.015590200445434299,0.9196721311475409,0.5,0.044431930369337756,0.5593227870600765,0.5593227870600765,0.44726067746686204,0.8454813796204292,1.0,0.3885816443243517,true
201,0.0625,0.3333333333333333,0.3333333333333333,0.05224225612575127,0.013363028953229399,0.9311475409836065,0.5,0.04560811145051669,0.6003010399562104,0.6003010399562104,0.4320521541950104,0.8179721093000594,1.0,0.3885816443243517,false
223,0.125,0.6666666666666666,0.6666666666666666,0.030050855293573743,0.017817371937639197,0.9377777777777777,1.0,0.025127583816984038,0.9811236623067773,0.9811236623067773,0.48822660098522175,0.5454542245282227,0.06844425782070124,0.06385830540447729,true
450,0.5,0.0,0.0,0.052704576976421634,0.12472160356347439,1.0,0.0,0.03875488382620811,0.5287238552854701,0.5287238552854701,0.5715807962529259,0.7887092478341415,1.0,1.0,true
260,0.0625,0.0,0.0,0.05732778548312529,0.008908685968819599,1.0,0.0,0.05581790463329615,0.3656361474435193,0.3656361474435193,0.5169458128078817,0.7592512448967892,0.149380642452236,0.149380642452236,true
224,0.0625,0.3333333333333333,0.3333333333333333,0.5344429033749422,0.015590200445434299,0.9914355628058727,0.5,0.5259488217737414,0.5901323891625616,0.5901323891625616,0.46239795918367366,0.8628541382858828,1.0,0.3885816443243517,true
372,0.0625,0.3333333333333333,0.3333333333333333,0.05732778548312529,0.013363028953229399,0.9350515463917526,0.5,0.050643031101566545,0.6003010399562104,0.6003010399562104,0.4320521541950104,0.8177246038747528,1.0,0.3885816443243517,false
261,0.0,0.0,0.0,0.023116042533518264,0.0,1.0,0.0,0.023060577328764757,0.5636067101584323,0.5636067101584323,0.42809266409266317,0.8395506401073419,1.0,1.0,false
402,0.0,0.0,0.0,0.03837263060564032,0.0,1.0,0.0,0.038277018951924556,0.5636067101584323,0.5636067101584323,0.42809266409266317,0.8390411871358756,1.0,1.0,false
287,0.5,0.3333333333333333,0.3333333333333333,0.387424872861766,0.0556792873051225,0.7849118942731278,0.0,0.36320053150898074,0.5896017699115034,0.5896017699115034,0.4522756005056884,0.8925381214010737,1.0,0.3885816443243517,true
226,0.0,0.0,0.0,0.07905686546463245,0.0,1.0,0.0,0.07886901685177136,0.5636067101584323,0.5636067101584323,0.42809266409266317,0.8376821496907235,1.0,1.0,true
342,0.0625,0.3333333333333333,0.3333333333333333,0.04761904761904762,0.013363028953229399,0.9271676300578034,0.5,0.04100888028028047,0.6003010399562104,0.6003010399562104,0.4320521541950104,0.8181981972509634,1.0,0.3885816443243517,true
262,0.125,0.3333333333333333,0.3333333333333333,0.8418862690707352,0.028953229398663696,0.9278159703860391,0.5,0.8238537189818833,0.6007223660896805,0.6007223660896805,0.43453416149068214,0.7863158345216422,1.0,0.3885816443243517,true
343,0.125,0.3333333333333333,0.3333333333333333,0.03698566805362921,0.015590200445434299,0.902,0.5,0.029311157503067547,0.6068395030425944,0.6068395030425944,0.45929621848739477,0.8661523198085853,1.0,0.3885816443243517,false
374,0.0,0.0,0.0,0.027739251040221916,0.0,1.0,0.0,0.027672946158349317,0.5636067101584323,0.5636067101584323,0.42809266409266317,0.8393962160268689,1.0,1.0,false
91,0.0,0.0,0.0,0.012944983818770229,0.0,1.0,0.0,0.012913578264253147,0.5636067101584323,0.5636067101584323,0.42809266409266306,0.8398903659744603,1.0,1.0,true
375,0.0,0.0,0.0,0.022191400832177532,0.0,1.0,0.0,0.02213810957554837,0.5636067101584323,0.5636067101584323,0.42809266409266317,0.839581524722129,1.0,1.0,false
227,0.625,0.3333333333333333,0.3333333333333333,0.23624595469255666,0.0556792873051225,0.9638554216867471,0.5,0.21052582172654208,0.6060696140957726,0.6060696140957726,0.5292879534258841,0.8481723557906179,1.0,0.3885816443243517,true
202,0.0,0.0,0.0,0.08599167822468792,0.0,1.0,0.0,0.08579077237561607,0.5636067101584323,0.5636067101584323,0.42809266409266317,0.8374504063563278,1.0,1.0,false
