sid,cDel,oState,func,mDel,stmt,cond,else,label
349,0.0,0.0,0.0,0.0,0.0,0.0,0.0,true
80,0.0,0.0,0.0,0.0,0.0,0.0,0.0,true
196,0.043478260869565216,0.1,0.02857142857142857,0.0,0.21221864951768488,0.0392156862745098,0.043478260869565216,true
290,0.08695652173913043,0.1,0.11428571428571428,0.0,0.08681672025723473,0.058823529411764705,0.021739130434782608,true
439,0.0,0.0,0.0,0.0,0.0,0.0,0.0,true
524,0.0,0.0,0.0,0.0,0.003215434083601286,0.0,0.0,true
551,0.0,0.0,0.0,0.0,0.0,0.0,0.0,true
352,0.043478260869565216,0.35,0.14285714285714285,0.0,0.5016077170418006,0.23529411764705882,0.41304347826086957,true
678,0.0,0.0,0.0,0.0,0.0,0.0196078431372549,0.0,true
91,0.0,0.1,0.05714285714285714,0.0,0.24115755627009647,0.0392156862745098,0.021739130434782608,true
204,0.0,0.0,0.0,0.0,0.006430868167202572,0.0,0.0,true
273,0.0,0.35,0.5714285714285714,0.16666666666666666,0.42443729903536975,0.0784313725490196,0.08695652173913043,true
579,0.0,0.0,0.11428571428571428,0.0,0.0,0.0,0.0,true
389,0.043478260869565216,0.2,0.2,0.0,0.1607717041800643,0.0784313725490196,0.08695652173913043,true
110,0.0,0.0,0.02857142857142857,0.0,0.04501607717041801,0.0,0.0,true
111,0.0,0.0,0.0,0.0,0.006430868167202572,0.0,0.021739130434782608,true
223,0.043478260869565216,0.0,0.08571428571428572,0.16666666666666666,0.05466237942122187,0.0,0.0,true
6,0.0,0.05,0.05714285714285714,0.0,0.16720257234726688,0.0,0.043478260869565216,true
412,0.0,0.0,0.0,0.0,0.0,0.0,0.0,true
36,0.0,0.0,0.0,0.0,0.006430868167202572,0.0,0.0,true
658,0.0,0.0,0.0,0.0,0.04501607717041801,0.0196078431372549,0.043478260869565216,true
122,0.0,0.0,0.0,0.0,0.0,0.0,0.0,true
394,0.0,0.2,0.14285714285714285,0.0,0.17363344051446947,0.09803921568627451,0.0,true
357,0.0,0.15,0.0,0.0,0.2282958199356913,0.0392156862745098,0.0,true
587,0.0,0.1,0.02857142857142857,0.0,0.06430868167202572,0.0,0.0,true
536,0.0,0.0,0.0,0.0,0.003215434083601286,0.0,0.0,true
156,0.0,0.0,0.02857142857142857,0.0,0.03536977491961415,0.0,0.0,true
212,0.21739130434782608,0.5,0.7142857142857143,0.0,0.6463022508038585,0.47058823529411764,0.17391304347826086,true
462,0.0,0.0,0.02857142857142857,0.0,0.003215434083601286,0.0,0.0,true
27,0.0,0.3,0.2857142857142857,0.2222222222222222,0.1832797427652733,0.21568627450980393,0.10869565217391304,true
319,0.0,0.0,0.0,0.0,0.01607717041800643,0.0,0.0,true
414,0.043478260869565216,0.05,0.08571428571428572,0.0,0.17363344051446947,0.0,0.06521739130434782,true
505,0.0,0.15,0.02857142857142857,0.0,0.12540192926045016,0.0392156862745098,0.06521739130434782,true
331,0.0,0.0,0.0,0.0,0.00964630225080386,0.0,0.0,true
552,0.0,0.0,0.0,0.0,0.0,0.0,0.0,true
706,0.08695652173913043,0.05,0.22857142857142856,0.0,0.2347266881028939,0.21568627450980393,0.41304347826086957,true
637,0.08695652173913043,0.25,0.14285714285714285,0.05555555555555555,0.2604501607717042,0.45098039215686275,0.08695652173913043,true
300,0.0,0.05,0.0,0.0,0.15755627009646303,0.058823529411764705,0.021739130434782608,true
732,0.0,0.0,0.0,0.0,0.0,0.0,0.0,true
297,0.0,0.3,0.22857142857142856,0.0,0.0707395498392283,0.0196078431372549,0.0,true
571,0.17391304347826086,0.6,0.4857142857142857,0.0,0.19614147909967847,0.0392156862745098,0.021739130434782608,true
329,0.043478260869565216,0.05,0.08571428571428572,0.1111111111111111,0.42443729903536975,0.0196078431372549,0.043478260869565216,true
321,0.0,0.4,0.05714285714285714,0.2777777777777778,0.1639871382636656,0.0,0.021739130434782608,true
229,0.0,0.05,0.5714285714285714,0.0,0.01607717041800643,0.09803921568627451,0.0,true
271,0.0,0.0,0.0,0.0,0.0,0.0,0.0,true
562,0.043478260869565216,0.1,0.02857142857142857,0.0,0.028938906752411574,0.0,0.021739130434782608,true
72,0.0,0.65,0.5142857142857142,0.0,0.21864951768488747,0.0,0.08695652173913043,true
351,0.0,0.0,0.02857142857142857,0.0,0.10289389067524116,0.0196078431372549,0.08695652173913043,true
253,0.043478260869565216,0.05,0.05714285714285714,0.0,0.04823151125401929,0.0,0.0,true
512,0.0,0.0,0.0,0.0,0.006430868167202572,0.0,0.0,true
77,0.0,0.0,0.0,0.0,0.0,0.0,0.0,true
496,0.043478260869565216,0.0,0.0,0.0,0.05466237942122187,0.0,0.0,true
17,0.043478260869565216,0.2,0.22857142857142856,0.0,0.26688102893890675,0.1568627450980392,0.021739130434782608,true
143,0.0,0.0,0.02857142857142857,0.0,0.0,0.0,0.0,true
247,0.0,0.05,0.17142857142857143,0.0,0.5530546623794212,0.27450980392156865,0.2826086956521739,true
299,0.0,0.2,0.14285714285714285,0.0,0.1864951768488746,0.058823529411764705,0.06521739130434782,true
249,0.391304347826087,0.8,0.34285714285714286,0.1111111111111111,0.44694533762057875,0.17647058823529413,0.10869565217391304,true
187,0.0,0.0,0.0,0.0,0.0,0.0,0.0,true
597,0.21739130434782608,0.1,0.14285714285714285,1.0,0.6945337620578779,0.47058823529411764,0.1956521739130435,true
501,0.0,0.3,0.14285714285714285,0.0,0.04501607717041801,0.0196078431372549,0.043478260869565216,true
282,0.0,0.0,0.0,0.0,0.006430868167202572,0.0,0.0,true
355,0.21739130434782608,0.0,0.0,0.0,0.06752411575562701,0.0,0.0,true
396,0.0,0.0,0.0,0.0,0.02572347266881029,0.0,0.021739130434782608,true
529,0.0,0.05,0.11428571428571428,0.05555555555555555,0.012861736334405145,0.0,0.0,true
166,0.0,0.0,0.0,0.0,0.003215434083601286,0.0,0.0,true
694,0.0,0.0,0.02857142857142857,0.0,0.03858520900321544,0.0392156862745098,0.021739130434782608,true
361,0.0,0.05,0.08571428571428572,0.0,0.04180064308681672,0.0,0.0,true
145,0.0,0.05,0.02857142857142857,0.0,0.04180064308681672,0.0,0.0,true
429,0.0,0.0,0.0,0.0,0.0,0.0,0.0,true
66,0.0,0.1,0.02857142857142857,0.05555555555555555,0.10610932475884244,0.0784313725490196,0.021739130434782608,true
624,0.0,0.0,0.05714285714285714,0.0,0.09646302250803858,0.0,0.0,true
218,0.30434782608695654,0.95,1.0,0.3888888888888889,0.8070739549839229,0.37254901960784315,0.13043478260869565,true
227,0.0,0.0,0.0,0.0,0.02572347266881029,0.0,0.0,true
494,0.0,0.05,0.02857142857142857,0.0,0.05466237942122187,0.0196078431372549,0.021739130434782608,true
303,0.0,0.0,0.0,0.0,0.0,0.0,0.0,true
606,0.0,0.05,0.0,0.0,0.05466237942122187,0.0392156862745098,0.0,true
314,0.043478260869565216,0.0,0.08571428571428572,0.0,0.13183279742765272,0.058823529411764705,0.0,true
139,0.0,0.15,0.08571428571428572,0.0,0.06752411575562701,0.0392156862745098,0.021739130434782608,true
289,0.043478260869565216,0.0,0.02857142857142857,0.0,0.006430868167202572,0.0196078431372549,0.0,true
465,0.0,0.0,0.0,0.0,0.04180064308681672,0.0,0.0,true
575,0.0,0.05,0.08571428571428572,0.0,0.003215434083601286,0.0,0.0,true
438,0.043478260869565216,0.0,0.0,0.0,0.003215434083601286,0.0,0.0,true
444,0.0,0.0,0.0,0.0,0.003215434083601286,0.0,0.0,true
68,0.0,0.2,0.5428571428571428,0.2777777777777778,0.5176848874598071,0.39215686274509803,0.10869565217391304,true
59,0.0,0.0,0.05714285714285714,0.0,0.03215434083601286,0.0,0.021739130434782608,true
87,0.0,0.0,0.0,0.0,0.33440514469453375,0.17647058823529413,0.13043478260869565,true
736,0.043478260869565216,0.2,0.22857142857142856,0.0,0.08360128617363344,0.0,0.0,true
375,0.0,0.05,0.08571428571428572,0.0,0.04180064308681672,0.0196078431372549,0.0,true
343,0.0,0.0,0.0,0.0,0.0,0.0,0.0,true
286,0.13043478260869565,0.15,0.5428571428571428,0.4444444444444444,0.6205787781350482,0.7058823529411765,0.2391304347826087,true
76,0.0,0.05,0.14285714285714285,0.0,0.12540192926045016,0.0,0.021739130434782608,true
236,0.0,0.05,0.0,0.0,0.03536977491961415,0.0,0.0,true
185,0.0,0.0,0.0,0.0,0.006430868167202572,0.0196078431372549,0.0,false
498,0.0,0.0,0.0,0.0,0.0,0.0,0.0,false
515,0.0,0.0,0.0,0.0,0.01607717041800643,0.0,0.0,false
126,0.0,0.0,0.0,0.0,0.0,0.0,0.0,false
275,0.0,0.0,0.0,0.0,0.0,0.0,0.0,false
572,0.0,0.0,0.0,0.0,0.0,0.0,0.0,false
255,0.0,0.0,0.0,0.0,0.0,0.0,0.0,false
346,0.0,0.0,0.0,0.0,0.0,0.0,0.0,false
490,0.0,0.25,0.14285714285714285,0.05555555555555555,0.028938906752411574,0.0,0.0,false
217,0.0,0.0,0.0,0.0,0.0,0.0,0.0,false
52,0.0,0.0,0.0,0.0,0.0,0.0,0.0,false
523,0.0,0.05,0.0,0.0,0.06752411575562701,0.0392156862745098,0.021739130434782608,false
123,0.0,0.0,0.0,0.0,0.0,0.0,0.0,false
581,0.0,0.0,0.0,0.0,0.00964630225080386,0.0,0.0,false
186,0.391304347826087,0.15,0.2,0.0,0.1414790996784566,0.0392156862745098,0.0,false
684,0.0,0.0,0.0,0.0,0.0,0.0,0.0,false
403,0.0,0.0,0.0,0.0,0.0,0.0,0.0,false
607,0.0,0.05,0.0,0.0,0.028938906752411574,0.0,0.0,false
96,0.0,0.0,0.0,0.0,0.0,0.0,0.0,false
32,0.0,0.0,0.0,0.05555555555555555,0.0,0.0,0.0,false
308,0.0,0.0,0.0,0.0,0.0,0.0,0.0,false
224,0.21739130434782608,0.0,0.0,0.0,0.0,0.0,0.0,false
648,0.0,0.0,0.02857142857142857,0.0,0.09646302250803858,0.0392156862745098,0.043478260869565216,false
400,0.0,0.0,0.02857142857142857,0.0,0.0,0.0,0.0,false
370,0.0,0.0,0.0,0.0,0.003215434083601286,0.0,0.0,false
611,0.0,0.0,0.0,0.0,0.0,0.0,0.0,false
483,0.0,0.0,0.0,0.0,0.006430868167202572,0.0392156862745098,0.0,false
604,0.043478260869565216,0.0,0.02857142857142857,0.0,0.028938906752411574,0.0,0.0,false
193,0.0,0.05,0.0,0.0,0.003215434083601286,0.0,0.0,false
558,0.043478260869565216,0.1,0.22857142857142856,0.0,0.06430868167202572,0.11764705882352941,0.0,false
44,0.0,0.0,0.0,0.0,0.006430868167202572,0.0196078431372549,0.0,false
200,0.0,0.0,0.0,0.0,0.0,0.0,0.0,false
172,0.0,0.0,0.0,0.0,0.0,0.0,0.0,false
154,0.0,0.0,0.0,0.0,0.0,0.0,0.0,false
312,0.0,0.05,0.02857142857142857,0.0,0.10932475884244373,0.0,0.043478260869565216,false
521,0.0,0.0,0.2,0.0,0.1832797427652733,0.13725490196078433,0.0,false
420,0.0,0.0,0.0,0.0,0.0,0.0,0.0,false
51,0.0,0.2,0.0,0.0,0.07395498392282958,0.7058823529411765,0.043478260869565216,false
652,0.0,0.0,0.02857142857142857,0.0,0.0,0.0,0.0,false
21,0.0,0.0,0.0,0.0,0.0,0.0,0.0,false
318,0.13043478260869565,0.1,0.11428571428571428,0.0,0.012861736334405145,0.0,0.0,false
614,0.043478260869565216,0.25,0.11428571428571428,0.0,0.04823151125401929,0.0,0.0,false
584,0.0,0.0,0.0,0.0,0.0,0.0,0.0,false
481,0.0,0.0,0.0,0.0,0.0,0.0,0.0,false
310,0.0,0.0,0.0,0.0,0.0,0.0,0.0,false
722,0.0,0.0,0.0,0.0,0.0,0.0,0.0,false
500,0.0,0.0,0.02857142857142857,0.0,0.01929260450160772,0.0,0.0,false
374,0.0,0.0,0.0,0.0,0.00964630225080386,0.0,0.0,false
197,0.0,0.0,0.0,0.0,0.0,0.0,0.0,false
733,0.0,0.0,0.0,0.0,0.0,0.0,0.0,false
623,0.0,0.1,0.0,0.05555555555555555,0.04501607717041801,0.0196078431372549,0.0,false
525,0.0,0.0,0.0,0.0,0.022508038585209004,0.0,0.0,false
0,0.0,0.05,0.02857142857142857,0.0,0.00964630225080386,0.0,0.0,false
129,0.0,0.0,0.0,0.0,0.00964630225080386,0.0,0.0,false
677,0.0,0.15,0.02857142857142857,0.0,0.03858520900321544,0.058823529411764705,0.043478260869565216,false
270,0.0,0.0,0.0,0.0,0.0,0.0,0.0,false
556,0.0,0.0,0.17142857142857143,0.0,0.22186495176848875,0.13725490196078433,0.021739130434782608,false
467,0.043478260869565216,0.65,0.05714285714285714,0.0,0.11254019292604502,0.0,0.0,false
533,0.0,0.0,0.0,0.0,0.02572347266881029,0.0,0.021739130434782608,false
150,0.0,0.0,0.0,0.0,0.0,0.0,0.0,false
502,0.0,0.0,0.0,0.0,0.00964630225080386,0.0,0.043478260869565216,false
720,0.0,0.0,0.02857142857142857,0.0,0.01607717041800643,0.0,0.0,false
583,0.0,0.45,0.2,0.0,0.09003215434083602,0.1568627450980392,0.021739130434782608,false
194,0.0,0.0,0.0,0.0,0.0,0.0,0.0,false
738,0.0,0.0,0.0,0.0,0.03536977491961415,0.0,0.0,false
671,0.0,0.0,0.0,0.0,0.0,0.0,0.0,false
146,0.0,0.0,0.05714285714285714,0.0,0.0,0.0,0.0,false
550,0.0,0.0,0.0,0.0,0.02572347266881029,0.058823529411764705,0.0,false
157,0.0,0.0,0.0,0.0,0.0,0.0,0.0,false
568,0.043478260869565216,0.15,0.02857142857142857,0.1111111111111111,0.05787781350482315,0.0196078431372549,0.021739130434782608,false
686,0.0,0.0,0.08571428571428572,0.0,0.00964630225080386,0.0,0.021739130434782608,false
541,0.0,0.0,0.0,0.0,0.03215434083601286,0.0,0.043478260869565216,false
151,0.0,0.0,0.0,0.0,0.0,0.0,0.0,false
634,0.0,0.0,0.0,0.0,0.0,0.0,0.0,false
99,0.0,0.0,0.0,0.0,0.003215434083601286,0.0,0.0,false
417,0.0,0.05,0.0,0.05555555555555555,0.01607717041800643,0.0196078431372549,0.0,false
240,0.0,0.0,0.0,0.0,0.0,0.0,0.0,false
662,0.0,0.05,0.0,0.0,0.06109324758842444,0.0784313725490196,0.0,false
88,0.0,0.0,0.0,0.0,0.0,0.0,0.0,false
657,0.0,0.0,0.0,0.0,0.006430868167202572,0.0,0.0,false
39,0.0,0.0,0.0,0.0,0.0,0.0,0.0,false
705,0.043478260869565216,1.0,0.3142857142857143,0.1111111111111111,0.6527331189710611,0.11764705882352941,0.21739130434782608,false
539,0.0,0.0,0.0,0.0,0.006430868167202572,0.0,0.0,false
324,0.0,0.0,0.0,0.0,0.0,0.0,0.0,false
45,0.0,0.0,0.0,0.0,0.0,0.0,0.0,false
293,0.0,0.0,0.0,0.0,0.0,0.0,0.0,false
215,0.0,0.0,0.0,0.0,0.0,0.0,0.0,false
276,0.0,0.0,0.08571428571428572,0.0,0.022508038585209004,0.0,0.0,false
12,0.0,0.2,0.08571428571428572,0.0,0.05466237942122187,0.058823529411764705,0.0,false
108,0.0,0.0,0.0,0.0,0.0,0.0,0.0,false
392,0.0,0.0,0.0,0.0,0.0,0.0,0.0,false
241,0.0,0.0,0.0,0.0,0.003215434083601286,0.0,0.0,false
