lucene(2.2->2.4),RH-LR,0.6526806526806526
lucene(2.2->2.4),RH-LR,0.6799116997792495
lucene(2.2->2.4),RH-LR,0.6116504854368932
lucene(2.2->2.4),RH-LR,0.6455981941309256
lucene(2.2->2.4),RH-LR,0.6542923433874711
lucene(2.2->2.4),RH-LR,0.6547085201793723
lucene(2.2->2.4),RH-LR,0.6471910112359551
lucene(2.2->2.4),RH-LR,0.6210268948655256
lucene(2.2->2.4),RH-LR,0.5493333333333333
lucene(2.2->2.4),RH-LR,0.6666666666666666
lucene(2.2->2.4),RH-LR,0.6576576576576577
lucene(2.2->2.4),RH-LR,0.6513761467889908
lucene(2.2->2.4),RH-LR,0.7024793388429751
lucene(2.2->2.4),RH-LR,0.6480186480186481
lucene(2.2->2.4),RH-LR,0.6559633027522935
lucene(2.2->2.4),RH-LR,0.65
lucene(2.2->2.4),RH-LR,0.6651685393258426
lucene(2.2->2.4),RH-LR,0.663716814159292
lucene(2.2->2.4),RH-LR,0.6666666666666667
lucene(2.2->2.4),RH-LR,0.638095238095238
lucene(2.2->2.4),RH-NB,0.3985239852398524
lucene(2.2->2.4),RH-NB,0.43389830508474575
lucene(2.2->2.4),RH-NB,0.5095541401273885
lucene(2.2->2.4),RH-NB,0.478688524590164
lucene(2.2->2.4),RH-NB,0.304
lucene(2.2->2.4),RH-NB,0.3657587548638132
lucene(2.2->2.4),RH-NB,0.4206896551724138
lucene(2.2->2.4),RH-NB,0.5079365079365079
lucene(2.2->2.4),RH-NB,0.5032258064516127
lucene(2.2->2.4),RH-NB,0.4000000000000001
lucene(2.2->2.4),RH-NB,0.30769230769230765
lucene(2.2->2.4),RH-NB,0.5329153605015674
lucene(2.2->2.4),RH-NB,0.47213114754098356
lucene(2.2->2.4),RH-NB,0.3622641509433962
lucene(2.2->2.4),RH-NB,0.35797665369649806
lucene(2.2->2.4),RH-NB,0.4599999999999999
lucene(2.2->2.4),RH-NB,0.28099173553719003
lucene(2.2->2.4),RH-NB,0.4429530201342282
lucene(2.2->2.4),RH-NB,0.4635761589403974
lucene(2.2->2.4),RH-NB,0.48366013071895425
lucene(2.2->2.4),RH-ADT,0.6698795180722892
lucene(2.2->2.4),RH-ADT,0.4
lucene(2.2->2.4),RH-ADT,0.3266932270916335
lucene(2.2->2.4),RH-ADT,0.4249084249084249
lucene(2.2->2.4),RH-ADT,0.36015325670498083
lucene(2.2->2.4),RH-ADT,0.3900709219858156
lucene(2.2->2.4),RH-ADT,0.660377358490566
lucene(2.2->2.4),RH-ADT,0.4300341296928328
lucene(2.2->2.4),RH-ADT,0.42320819112627983
lucene(2.2->2.4),RH-ADT,0.5978835978835978
lucene(2.2->2.4),RH-ADT,0.4115523465703971
lucene(2.2->2.4),RH-ADT,0.6954643628509719
lucene(2.2->2.4),RH-ADT,0.39416058394160586
lucene(2.2->2.4),RH-ADT,0.208695652173913
lucene(2.2->2.4),RH-ADT,0.592797783933518
lucene(2.2->2.4),RH-ADT,0.6916666666666667
lucene(2.2->2.4),RH-ADT,0.559610705596107
lucene(2.2->2.4),RH-ADT,0.6666666666666667
lucene(2.2->2.4),RH-ADT,0.36293436293436293
lucene(2.2->2.4),RH-ADT,0.3942652329749104
lucene(2.2->2.4),RH-RF,0.5731343283582089
lucene(2.2->2.4),RH-RF,0.5755813953488372
lucene(2.2->2.4),RH-RF,0.501628664495114
lucene(2.2->2.4),RH-RF,0.6057142857142858
lucene(2.2->2.4),RH-RF,0.5855072463768116
lucene(2.2->2.4),RH-RF,0.5382262996941897
lucene(2.2->2.4),RH-RF,0.5862068965517241
lucene(2.2->2.4),RH-RF,0.5644171779141104
lucene(2.2->2.4),RH-RF,0.5096774193548388
lucene(2.2->2.4),RH-RF,0.6136363636363635
lucene(2.2->2.4),RH-RF,0.43356643356643354
lucene(2.2->2.4),RH-RF,0.48666666666666664
lucene(2.2->2.4),RH-RF,0.5531914893617021
lucene(2.2->2.4),RH-RF,0.5558912386706949
lucene(2.2->2.4),RH-RF,0.5959885386819485
lucene(2.2->2.4),RH-RF,0.48184818481848174
lucene(2.2->2.4),RH-RF,0.5662650602409638
lucene(2.2->2.4),RH-RF,0.6455026455026456
lucene(2.2->2.4),RH-RF,0.47706422018348615
lucene(2.2->2.4),RH-RF,0.5806451612903225
lucene(2.2->2.4),MO-LR,0.38661710037174724
lucene(2.2->2.4),MO-LR,0.36704119850187267
lucene(2.2->2.4),MO-LR,0.30645161290322576
lucene(2.2->2.4),MO-LR,0.37800687285223367
lucene(2.2->2.4),MO-LR,0.35036496350364965
lucene(2.2->2.4),MO-LR,0.3407407407407408
lucene(2.2->2.4),MO-LR,0.3687943262411348
lucene(2.2->2.4),MO-LR,0.3663003663003663
lucene(2.2->2.4),MO-LR,0.3985507246376812
lucene(2.2->2.4),MO-LR,0.3370786516853932
lucene(2.2->2.4),MO-LR,0.3346007604562738
lucene(2.2->2.4),MO-LR,0.42176870748299317
lucene(2.2->2.4),MO-LR,0.3717472118959108
lucene(2.2->2.4),MO-LR,0.369811320754717
lucene(2.2->2.4),MO-LR,0.3157894736842105
lucene(2.2->2.4),MO-LR,0.44
lucene(2.2->2.4),MO-LR,0.3656716417910448
lucene(2.2->2.4),MO-LR,0.3550724637681159
lucene(2.2->2.4),MO-LR,0.3602941176470588
lucene(2.2->2.4),MO-LR,0.35687732342007433
lucene(2.2->2.4),MO-NB,0.2184873949579832
lucene(2.2->2.4),MO-NB,0.24267782426778242
lucene(2.2->2.4),MO-NB,0.2127659574468085
lucene(2.2->2.4),MO-NB,0.23140495867768596
lucene(2.2->2.4),MO-NB,0.2459016393442623
lucene(2.2->2.4),MO-NB,0.2591093117408907
lucene(2.2->2.4),MO-NB,0.21757322175732222
lucene(2.2->2.4),MO-NB,0.211864406779661
lucene(2.2->2.4),MO-NB,0.226890756302521
lucene(2.2->2.4),MO-NB,0.25203252032520324
lucene(2.2->2.4),MO-NB,0.2459016393442623
lucene(2.2->2.4),MO-NB,0.19213973799126638
lucene(2.2->2.4),MO-NB,0.2166666666666667
lucene(2.2->2.4),MO-NB,0.22978723404255322
lucene(2.2->2.4),MO-NB,0.1842105263157895
lucene(2.2->2.4),MO-NB,0.26016260162601623
lucene(2.2->2.4),MO-NB,0.24267782426778242
lucene(2.2->2.4),MO-NB,0.21551724137931036
lucene(2.2->2.4),MO-NB,0.19213973799126638
lucene(2.2->2.4),MO-NB,0.23236514522821577
lucene(2.2->2.4),MO-ADT,0.5123456790123457
lucene(2.2->2.4),MO-ADT,0.5313432835820895
lucene(2.2->2.4),MO-ADT,0.5872576177285318
lucene(2.2->2.4),MO-ADT,0.5203761755485894
lucene(2.2->2.4),MO-ADT,0.6
lucene(2.2->2.4),MO-ADT,0.5459770114942529
lucene(2.2->2.4),MO-ADT,0.6005509641873278
lucene(2.2->2.4),MO-ADT,0.44370860927152317
lucene(2.2->2.4),MO-ADT,0.43986254295532645
lucene(2.2->2.4),MO-ADT,0.44927536231884063
lucene(2.2->2.4),MO-ADT,0.47564469914040114
lucene(2.2->2.4),MO-ADT,0.6470588235294118
lucene(2.2->2.4),MO-ADT,0.510752688172043
lucene(2.2->2.4),MO-ADT,0.4359861591695502
lucene(2.2->2.4),MO-ADT,0.5415384615384615
lucene(2.2->2.4),MO-ADT,0.4623955431754875
lucene(2.2->2.4),MO-ADT,0.4774193548387097
lucene(2.2->2.4),MO-ADT,0.3895131086142322
lucene(2.2->2.4),MO-ADT,0.5393939393939393
lucene(2.2->2.4),MO-ADT,0.5648414985590778
lucene(2.2->2.4),MO-RF,0.5865102639296188
lucene(2.2->2.4),MO-RF,0.5224719101123594
lucene(2.2->2.4),MO-RF,0.5953757225433527
lucene(2.2->2.4),MO-RF,0.44654088050314467
lucene(2.2->2.4),MO-RF,0.5047318611987381
lucene(2.2->2.4),MO-RF,0.5159420289855073
lucene(2.2->2.4),MO-RF,0.5917808219178082
lucene(2.2->2.4),MO-RF,0.5527065527065527
lucene(2.2->2.4),MO-RF,0.6194225721784776
lucene(2.2->2.4),MO-RF,0.5428571428571429
lucene(2.2->2.4),MO-RF,0.5584045584045584
lucene(2.2->2.4),MO-RF,0.6666666666666666
lucene(2.2->2.4),MO-RF,0.5015479876160991
lucene(2.2->2.4),MO-RF,0.43046357615894043
lucene(2.2->2.4),MO-RF,0.6751269035532995
lucene(2.2->2.4),MO-RF,0.690744920993228
lucene(2.2->2.4),MO-RF,0.6246973365617434
lucene(2.2->2.4),MO-RF,0.6682352941176471
lucene(2.2->2.4),MO-RF,0.5207756232686981
lucene(2.2->2.4),MO-RF,0.6933333333333332
lucene(2.2->2.4),SCC-LR,0.4604810996563573
lucene(2.2->2.4),SCC-LR,0.4240282685512367
lucene(2.2->2.4),SCC-LR,0.4072727272727273
lucene(2.2->2.4),SCC-LR,0.43508771929824563
lucene(2.2->2.4),SCC-LR,0.402930402930403
lucene(2.2->2.4),SCC-LR,0.37918215613382905
lucene(2.2->2.4),SCC-LR,0.402930402930403
lucene(2.2->2.4),SCC-LR,0.4366197183098592
lucene(2.2->2.4),SCC-LR,0.42753623188405787
lucene(2.2->2.4),SCC-LR,0.4390243902439025
lucene(2.2->2.4),SCC-LR,0.43971631205673756
lucene(2.2->2.4),SCC-LR,0.41007194244604317
lucene(2.2->2.4),SCC-LR,0.40569395017793597
lucene(2.2->2.4),SCC-LR,0.4142857142857143
lucene(2.2->2.4),SCC-LR,0.48484848484848486
lucene(2.2->2.4),SCC-LR,0.40714285714285714
lucene(2.2->2.4),SCC-LR,0.45051194539249145
lucene(2.2->2.4),SCC-LR,0.43416370106761565
lucene(2.2->2.4),SCC-LR,0.39560439560439564
lucene(2.2->2.4),SCC-LR,0.4567474048442906
lucene(2.2->2.4),SCC-NB,0.26666666666666666
lucene(2.2->2.4),SCC-NB,0.24786324786324782
lucene(2.2->2.4),SCC-NB,0.28099173553719003
lucene(2.2->2.4),SCC-NB,0.24786324786324782
lucene(2.2->2.4),SCC-NB,0.24034334763948495
lucene(2.2->2.4),SCC-NB,0.24786324786324782
lucene(2.2->2.4),SCC-NB,0.23829787234042552
lucene(2.2->2.4),SCC-NB,0.2627118644067797
lucene(2.2->2.4),SCC-NB,0.24786324786324782
lucene(2.2->2.4),SCC-NB,0.2627118644067797
lucene(2.2->2.4),SCC-NB,0.24034334763948495
lucene(2.2->2.4),SCC-NB,0.2821576763485477
lucene(2.2->2.4),SCC-NB,0.26666666666666666
lucene(2.2->2.4),SCC-NB,0.24786324786324782
lucene(2.2->2.4),SCC-NB,0.24034334763948495
lucene(2.2->2.4),SCC-NB,0.2627118644067797
lucene(2.2->2.4),SCC-NB,0.27004219409282704
lucene(2.2->2.4),SCC-NB,0.24786324786324782
lucene(2.2->2.4),SCC-NB,0.27004219409282704
lucene(2.2->2.4),SCC-NB,0.2892561983471075
lucene(2.2->2.4),SCC-ADT,0.3940520446096655
lucene(2.2->2.4),SCC-ADT,0.5431309904153354
lucene(2.2->2.4),SCC-ADT,0.4452296819787986
lucene(2.2->2.4),SCC-ADT,0.5311475409836066
lucene(2.2->2.4),SCC-ADT,0.4673539518900343
lucene(2.2->2.4),SCC-ADT,0.5950920245398773
lucene(2.2->2.4),SCC-ADT,0.4657534246575342
lucene(2.2->2.4),SCC-ADT,0.4778156996587031
lucene(2.2->2.4),SCC-ADT,0.4673539518900343
lucene(2.2->2.4),SCC-ADT,0.49491525423728816
lucene(2.2->2.4),SCC-ADT,0.40148698884758366
lucene(2.2->2.4),SCC-ADT,0.48299319727891155
lucene(2.2->2.4),SCC-ADT,0.4545454545454546
lucene(2.2->2.4),SCC-ADT,0.4545454545454546
lucene(2.2->2.4),SCC-ADT,0.4673539518900343
lucene(2.2->2.4),SCC-ADT,0.4332129963898918
lucene(2.2->2.4),SCC-ADT,0.4673539518900343
lucene(2.2->2.4),SCC-ADT,0.5932721712538226
lucene(2.2->2.4),SCC-ADT,0.5678233438485806
lucene(2.2->2.4),SCC-ADT,0.46315789473684205
lucene(2.2->2.4),SCC-RF,0.5431309904153354
lucene(2.2->2.4),SCC-RF,0.5448717948717948
lucene(2.2->2.4),SCC-RF,0.4610169491525423
lucene(2.2->2.4),SCC-RF,0.48484848484848486
lucene(2.2->2.4),SCC-RF,0.56875
lucene(2.2->2.4),SCC-RF,0.5354838709677419
lucene(2.2->2.4),SCC-RF,0.46938775510204084
lucene(2.2->2.4),SCC-RF,0.6011904761904762
lucene(2.2->2.4),SCC-RF,0.5408805031446541
lucene(2.2->2.4),SCC-RF,0.6099706744868035
lucene(2.2->2.4),SCC-RF,0.5049180327868852
lucene(2.2->2.4),SCC-RF,0.5825825825825827
lucene(2.2->2.4),SCC-RF,0.4967320261437908
lucene(2.2->2.4),SCC-RF,0.5515151515151516
lucene(2.2->2.4),SCC-RF,0.5820433436532507
lucene(2.2->2.4),SCC-RF,0.5792682926829268
lucene(2.2->2.4),SCC-RF,0.5180327868852459
lucene(2.2->2.4),SCC-RF,0.5963855421686748
lucene(2.2->2.4),SCC-RF,0.476510067114094
lucene(2.2->2.4),SCC-RF,0.5113268608414239
