sid,COMM,ADEV,DDEV,ADD,DEL,OWN,MINOR,SCTR,NADEV,NADDEV,NCOMM,NSCTR,OEXP,EXP,label
131,0.11764705882352941,0.5,0.3333333333333333,0.10745098039215686,0.05401844532279315,0.9927007299270073,0.3333333333333333,0.10893921290082287,0.5735294117647058,0.6911764705882352,0.42016806722689065,0.2854007087802651,1.0,0.40479329591836,true
409,0.11764705882352941,0.5,0.3333333333333333,0.09411764705882353,0.01844532279314888,0.7333333333333333,0.0,0.18294693795903733,0.4666666666666666,0.5666666666666667,0.3238095238095238,0.25860055852588204,0.163857612420449,0.40479329591836,true
136,0.35294117647058826,0.75,0.6666666666666666,0.05176470588235294,0.05401844532279315,0.48484848484848486,0.0,0.33096181352333615,0.45238095238095194,0.6051587301587295,0.3455215419501131,0.2392688962431716,0.163857612420449,0.2719955649216245,true
420,0.29411764705882354,0.25,0.0,0.09490196078431372,0.1383399209486166,1.0,0.0,0.09606595502950997,0.45578231292517035,0.6173469387755104,0.3471817298347909,0.2522723080692978,1.0,1.0,true
18,0.20588235294117646,0.5,0.6666666666666666,0.02823529411764706,0.019762845849802372,0.5833333333333334,0.0,0.2438177000287652,0.4531250000000001,0.6067708333333335,0.30803571428571436,0.23293734291864895,0.163857612420449,0.40479329591836,true
428,0.20588235294117646,0.5,0.6666666666666666,0.09803921568627451,0.08563899868247694,1.0,0.3333333333333333,0.4056285192142989,0.4926470588235291,0.6029411764705878,0.375,0.25920578689217255,1.0,0.35043657145727286,true
290,0.17647058823529413,0.5,0.3333333333333333,0.07372549019607844,0.09090909090909091,0.7021276595744681,0.0,0.1880720648034705,0.4459459459459461,0.6081081081081086,0.2982625482625482,0.23128323591032118,0.163857612420449,0.40479329591836,true
153,0.14705882352941177,0.25,0.0,0.27372549019607845,0.06060606060606061,1.0,0.0,0.16425072384988806,0.55,0.6500000000000001,0.5809523809523809,0.45656972137788965,1.0,1.0,true
294,0.11764705882352941,0.75,0.6666666666666666,0.010980392156862745,0.006587615283267457,0.5,0.0,0.3365840798341907,0.25,0.75,0.07142857142857142,0.11172309128453393,0.163857612420449,0.2719955649216245,true
444,0.17647058823529413,0.5,0.3333333333333333,0.22431372549019607,0.06587615283267458,0.8356643356643356,0.0,0.13266969297488004,0.4642857142857143,0.5,0.1836734693877551,0.13724081135299349,1.0,0.40479329591836,true
160,0.47058823529411764,0.5,0.6666666666666666,0.08784313725490196,0.1067193675889328,0.9464285714285714,0.0,0.4783244469589861,0.4938016528925616,0.6033057851239666,0.3414994096812277,0.2657147296263727,1.0,0.40479329591836,true
303,0.08823529411764706,0.5,0.3333333333333333,0.02431372549019608,0.0013175230566534915,0.9032258064516129,0.0,0.021929942105089487,0.5357142857142857,0.6250000000000001,0.503826530612245,0.28973214113308765,1.0,0.40479329591836,true
165,0.14705882352941177,0.25,0.0,0.02666666666666667,0.013175230566534914,1.0,0.0,0.10636468541873516,0.4232954545454548,0.579545454545455,0.28571428571428575,0.2102600882422743,1.0,1.0,true
178,0.3235294117647059,0.5,0.3333333333333333,0.10588235294117647,0.08168642951251646,0.8962962962962963,0.0,0.1247303169469358,0.4772727272727272,0.5606060606060604,0.2673160173160173,0.17789793424056344,0.163857612420449,0.40479329591836,true
180,0.5882352941176471,0.75,0.6666666666666666,1.0,0.21870882740447958,0.9576470588235294,0.6666666666666666,0.6436270262250591,0.4864130434782611,0.6100543478260869,0.36548913043478265,0.2570352478915718,1.0,0.2719955649216245,true
324,0.29411764705882354,0.25,0.6666666666666666,0.09411764705882353,0.11594202898550725,1.0,0.0,0.18680450070559396,0.48684210526315824,0.6074561403508772,0.4320175438596489,0.27987062389623374,1.0,1.0,true
37,0.11764705882352941,0.5,0.3333333333333333,0.0407843137254902,0.003952569169960474,0.8461538461538461,0.0,0.026879839674746595,0.55,0.6333333333333335,0.5357142857142858,0.2932624361294156,1.0,0.40479329591836,true
334,0.20588235294117646,0.75,0.6666666666666666,0.07686274509803921,0.04479578392621871,0.4897959183673469,0.0,0.16215118924548866,0.5645161290322579,0.6129032258064515,0.45046082949308763,0.28087053211711654,1.0,0.2719955649216245,true
201,0.0,0.0,0.0,0.0,0.0,0.0,0.0,0.0,0.0,0.0,0.0,0.0,0.0,0.0,true
476,0.23529411764705882,0.5,0.6666666666666666,0.07372549019607844,0.030303030303030304,0.8723404255319149,0.0,0.14333993838769082,0.41216216216216206,0.5540540540540541,0.22490347490347493,0.20589866975242865,1.0,0.40479329591836,true
212,0.7941176470588235,0.75,0.6666666666666666,0.49176470588235294,0.5638998682476943,0.7974481658692185,0.0,0.30663353525500386,0.48344370860927194,0.6175496688741726,0.3396404919583725,0.2807737085641631,1.0,0.2719955649216245,true
57,0.058823529411764705,0.25,0.3333333333333333,0.002352941176470588,0.003952569169960474,1.0,0.0,0.0055408759470780364,0.5000000000000001,0.6127450980392156,0.4243697478991596,0.29108999262833324,1.0,1.0,true
227,0.2647058823529412,0.5,0.3333333333333333,0.12627450980392158,0.20685111989459815,0.9130434782608695,0.0,0.3138373242325011,0.46116504854368917,0.6213592233009707,0.32697642163661605,0.23864484289262997,1.0,0.40479329591836,true
69,0.11764705882352941,0.25,0.6666666666666666,0.010980392156862745,0.002635046113306983,1.0,0.0,0.03178409076308185,0.48770491803278715,0.610655737704918,0.3641686182669788,0.2930523439100601,1.0,1.0,true
71,0.17647058823529413,0.5,0.3333333333333333,0.043137254901960784,0.034255599472990776,0.7090909090909091,0.0,0.06894455777420502,0.4500000000000001,0.54,0.23285714285714287,0.16955690823933592,0.163857612420449,0.40479329591836,true
73,0.08823529411764706,0.5,0.3333333333333333,0.12470588235294118,0.011857707509881422,0.8679245283018868,0.0,0.09968911820265489,0.5125,0.6062499999999998,0.33214285714285724,0.2602900730945535,0.12280579061472831,0.35043657145727286,true
90,0.17647058823529413,0.5,0.3333333333333333,0.04862745098039216,0.03689064558629776,0.8548387096774194,0.0,0.2823127437328468,0.5,0.6071428571428572,0.5229591836734694,0.35223354495142667,1.0,0.40479329591836,true
240,0.029411764705882353,0.25,0.0,0.01568627450980392,0.026350461133069828,1.0,0.0,0.052235100525545454,0.36111111111111116,0.4722222222222222,0.10714285714285712,0.16474577051493464,1.0,1.0,true
92,0.5588235294117647,0.75,0.6666666666666666,0.4611764705882353,0.4927536231884058,0.9421768707482994,0.6666666666666666,0.582266386069281,0.5101626016260165,0.6138211382113824,0.3992450638792101,0.2738158857887723,1.0,0.2719955649216245,true
93,0.7058823529411765,0.75,0.6666666666666666,0.4886274509803922,0.11198945981554677,0.5184590690208668,0.0,0.29682231343198867,0.5709459459459463,0.6520270270270271,0.5497104247104247,0.3081660383360681,0.12280579061472831,0.2719955649216245,true
374,0.5294117647058824,0.75,0.6666666666666666,0.5066666666666667,0.07378129117259552,0.5510835913312694,0.0,0.36620560513674844,0.5624999999999997,0.6323529411764702,0.5068277310924371,0.28397254072734435,0.12280579061472831,0.2719955649216245,true
521,0.029411764705882353,0.25,0.3333333333333333,0.003137254901960784,0.0,1.0,0.0,0.00703914601072645,0.75,0.75,1.0,0.5499531054768411,0.163857612420449,0.163857612420449,true
104,0.9411764705882353,0.75,0.6666666666666666,0.45098039215686275,0.49670619235836627,0.9443478260869566,0.6666666666666666,0.6793745209547285,0.4734251968503933,0.6082677165354327,0.3458942632170979,0.2549773321655175,1.0,0.2719955649216245,true
113,0.47058823529411764,0.5,0.6666666666666666,0.25019607843137254,0.14756258234519104,0.987460815047022,0.3333333333333333,0.32778714023121,0.4740099009900993,0.6212871287128716,0.3806577086280051,0.26102038640778524,1.0,0.40479329591836,true
386,0.29411764705882354,0.5,0.6666666666666666,0.09568627450980392,0.07246376811594203,0.860655737704918,0.0,0.4550343316367643,0.542307692307692,0.6038461538461536,0.4126373626373625,0.2841003333103458,1.0,0.35043657145727286,true
390,0.0,0.0,0.0,0.0,0.0,0.0,0.0,0.0,0.0,0.0,0.0,0.0,0.0,0.0,true
391,0.3235294117647059,0.5,0.6666666666666666,0.08705882352941176,0.10276679841897234,0.9369369369369369,0.0,0.23381374705120728,0.4496527777777774,0.5868055555555552,0.3025793650793651,0.23229253831133131,1.0,0.40479329591836,true
260,0.8235294117647058,0.75,0.6666666666666666,0.39294117647058824,0.44664031620553357,0.9421157684630739,0.3333333333333333,0.5499531054768411,0.4502369668246446,0.6030805687203794,0.3449559918754233,0.2422695742671138,1.0,0.2719955649216245,true
262,0.5588235294117647,0.5,0.6666666666666666,0.25176470588235295,0.45454545454545453,0.9937694704049844,0.3333333333333333,0.7135065629486271,0.449275362318841,0.5760869565217397,0.3383367839889579,0.22959719599836007,1.0,0.35043657145727286,true
267,0.4117647058823529,0.5,0.6666666666666666,0.32235294117647056,0.1370223978919631,0.9732360097323601,0.3333333333333333,0.315658212778519,0.4876543209876544,0.6172839506172841,0.4206349206349206,0.26811006785188163,1.0,0.40479329591836,true
130,0.0,0.0,0.0,0.0,0.0,0.0,0.0,0.0,0.0,0.0,0.0,0.0,0.0,0.0,false
405,0.029411764705882353,0.25,0.0,0.022745098039215685,0.0,1.0,0.0,0.02020037960977852,0.375,0.453125,0.24553571428571427,0.20132911023960207,1.0,1.0,false
272,0.0,0.0,0.0,0.0,0.0,0.0,0.0,0.0,0.0,0.0,0.0,0.0,0.0,0.0,false
132,0.029411764705882353,0.25,0.3333333333333333,0.01568627450980392,0.0,1.0,0.0,0.01814824922898795,0.43749999999999994,0.6145833333333333,0.29464285714285715,0.22325036207070967,1.0,1.0,false
0,0.029411764705882353,0.25,0.3333333333333333,0.008627450980392156,0.002635046113306983,1.0,0.0,0.031497933183137795,0.0,0.0,0.0,0.0,1.0,1.0,false
1,0.0,0.0,0.3333333333333333,0.0,0.0,0.0,0.0,0.0,0.0,0.0,0.0,0.0,0.0,0.0,false
407,0.029411764705882353,0.25,0.3333333333333333,0.00392156862745098,0.0,1.0,0.0,0.0076350258337962796,0.0,0.0,0.0,0.0,0.163857612420449,0.163857612420449,false
4,0.029411764705882353,0.25,0.6666666666666666,0.003137254901960784,0.0013175230566534915,1.0,0.0,0.00703914601072645,0.625,0.75,0.9107142857142857,0.6964405419516779,0.12280579061472831,0.12280579061472831,false
408,0.08823529411764706,0.5,0.3333333333333333,0.02196078431372549,0.007905138339920948,0.6428571428571429,0.0,0.021539608948008722,0.34375,0.375,0.12053571428571429,0.13653385831468914,1.0,0.40479329591836,false
5,0.058823529411764705,0.5,0.3333333333333333,0.018823529411764704,0.02766798418972332,0.9583333333333334,0.3333333333333333,0.04599610857699847,0.5178571428571427,0.6249999999999999,0.25510204081632654,0.2515115514497972,1.0,0.35043657145727286,false
137,0.058823529411764705,0.25,0.0,0.0988235294117647,0.07905138339920949,1.0,0.0,0.21492863823332573,0.375,0.453125,0.24330357142857142,0.18915859407563032,1.0,1.0,false
8,0.029411764705882353,0.25,0.0,0.00392156862745098,0.002635046113306983,1.0,0.0,0.011195145460773773,0.5000000000000002,0.6250000000000004,0.4011904761904762,0.28314207881889325,1.0,1.0,false
273,0.08823529411764706,0.5,0.3333333333333333,0.0203921568627451,0.0013175230566534915,0.8076923076923077,0.0,0.01708665788198614,0.5625,0.75,0.5982142857142857,0.277389469952605,0.163857612420449,0.40479329591836,false
9,0.0,0.0,0.0,0.0,0.0,0.0,0.0,0.0,0.0,0.0,0.0,0.0,0.0,0.0,false
11,0.029411764705882353,0.25,0.6666666666666666,0.009411764705882352,0.025032938076416336,1.0,0.0,0.053986766769047574,0.43749999999999994,0.6093749999999999,0.29464285714285715,0.2225037262886251,1.0,1.0,false
139,0.029411764705882353,0.25,0.0,0.01568627450980392,0.015810276679841896,1.0,0.0,0.033546713053035,0.53125,0.65625,0.5848214285714286,0.3497385723684238,1.0,1.0,false
274,0.029411764705882353,0.25,0.0,0.007058823529411765,0.011857707509881422,1.0,0.0,0.029897081776241875,0.39999999999999997,0.39999999999999997,0.09285714285714287,0.08114086451384604,1.0,1.0,false
413,0.029411764705882353,0.25,0.0,0.002352941176470588,0.0,1.0,0.0,0.004828814325804485,0.59375,0.65625,0.36160714285714285,0.3702004553981817,1.0,1.0,false
12,0.0,0.0,0.3333333333333333,0.0,0.0,0.0,0.0,0.0,0.0,0.0,0.0,0.0,0.0,0.0,false
414,0.029411764705882353,0.25,0.0,7.84313725490196E-4,0.0013175230566534915,1.0,0.0,0.004828814325804486,0.37500000000000006,0.37500000000000006,0.05952380952380953,0.019348656582571053,1.0,1.0,false
415,0.058823529411764705,0.25,0.0,0.1027450980392157,0.007905138339920948,1.0,0.0,0.09031680186237015,0.43292682926829296,0.5426829268292686,0.27264808362369347,0.2319789503124713,1.0,1.0,false
275,0.029411764705882353,0.25,0.0,0.050980392156862744,0.0,1.0,0.0,0.04529829363002902,0.3333333333333333,0.4166666666666667,0.10119047619047618,0.10702239267331716,1.0,1.0,false
416,0.11764705882352941,0.25,0.3333333333333333,0.04470588235294118,0.022397891963109356,1.0,0.0,0.5203740710259301,0.453125,0.5520833333333335,0.2671130952380952,0.22234158140138374,1.0,1.0,false
141,0.0,0.0,0.3333333333333333,0.0,0.0,0.0,0.0,0.0,0.0,0.0,0.0,0.0,0.0,0.0,false
417,0.058823529411764705,0.25,0.3333333333333333,0.001568627450980392,0.002635046113306983,1.0,0.0,0.004828814325804486,0.4919354838709675,0.6129032258064513,0.38940092165898615,0.2743844644118149,1.0,1.0,false
142,0.029411764705882353,0.25,0.0,0.00392156862745098,0.0,1.0,0.0,0.006233972488589523,0.4375,0.4375,0.30357142857142855,0.21898072339971372,1.0,1.0,false
276,0.0,0.0,0.0,0.0,0.0,0.0,0.0,0.0,0.0,0.0,0.0,0.0,0.0,0.0,false
277,0.029411764705882353,0.25,0.3333333333333333,0.001568627450980392,0.003952569169960474,1.0,0.0,0.017577149463394337,0.5769230769230769,0.6730769230769231,0.5467032967032968,0.359943556416011,1.0,1.0,false
14,0.058823529411764705,0.25,0.6666666666666666,0.008627450980392156,0.003952569169960474,1.0,0.0,0.012464947514705829,0.25,0.75,0.14285714285714285,0.37898975757027414,0.163857612420449,0.163857612420449,false
278,0.7647058823529411,1.0,1.0,0.32313725490196077,0.2845849802371542,0.9563106796116505,1.0,1.0,0.4553191489361697,0.5914893617021268,0.32264437689969616,0.23162334551649352,1.0,0.053905460818249665,false
421,0.23529411764705882,0.25,0.3333333333333333,0.05019607843137255,0.06982872200263504,1.0,0.0,0.11263119548238773,0.4691558441558437,0.6233766233766233,0.38033395176252316,0.26028076858923205,1.0,1.0,false
15,0.029411764705882353,0.25,0.3333333333333333,0.01803921568627451,0.022397891963109356,1.0,0.0,0.045012635764269296,0.75,0.75,0.7976190476190474,0.4342506661065381,0.163857612420449,0.163857612420449,false
16,0.0,0.0,0.0,0.0,0.0,0.0,0.0,0.0,0.0,0.0,0.0,0.0,0.0,0.0,false
281,0.0,0.0,0.3333333333333333,0.0,0.0,0.0,0.0,0.0,0.0,0.0,0.0,0.0,0.0,0.0,false
422,0.029411764705882353,0.25,0.3333333333333333,0.001568627450980392,0.0,1.0,0.0,0.005662286703753627,0.4285714285714285,0.6071428571428571,0.21428571428571427,0.16156115308099944,1.0,1.0,false
143,0.0,0.0,0.0,0.0,0.0,0.0,0.0,0.0,0.0,0.0,0.0,0.0,0.0,0.0,false
423,0.0,0.0,0.0,0.0,0.0,0.0,0.0,0.0,0.0,0.0,0.0,0.0,0.0,0.0,false
424,0.029411764705882353,0.25,0.3333333333333333,0.001568627450980392,0.002635046113306983,1.0,0.0,0.00903388439575309,0.4210526315789473,0.618421052631579,0.3101503759398496,0.24876654907526766,1.0,1.0,false
17,0.20588235294117646,0.5,0.3333333333333333,0.03607843137254902,0.005270092226613966,0.8043478260869565,0.0,0.2203810673633385,0.5303030303030302,0.6287878787878785,0.4123376623376624,0.2981860112391292,1.0,0.35043657145727286,false
282,0.0,0.0,0.0,0.0,0.0,0.0,0.0,0.0,0.0,0.0,0.0,0.0,0.0,0.0,false
425,0.2647058823529412,0.5,0.6666666666666666,0.08313725490196078,0.10013175230566534,0.9811320754716981,0.3333333333333333,0.17554625426682433,0.44279661016949107,0.5911016949152537,0.2908595641646489,0.22849877525064072,1.0,0.40479329591836,false
426,0.08823529411764706,0.5,0.3333333333333333,0.013333333333333334,0.022397891963109356,0.8235294117647058,0.0,0.1488983848846922,0.4999999999999998,0.6209677419354835,0.42281105990783413,0.2914817305192777,1.0,0.40479329591836,false
427,0.0,0.0,0.3333333333333333,0.0,0.0,0.0,0.0,0.0,0.0,0.0,0.0,0.0,0.0,0.0,false
284,0.0,0.0,0.0,0.0,0.0,0.0,0.0,0.0,0.0,0.0,0.0,0.0,0.0,0.0,false
146,0.0,0.0,0.0,0.0,0.0,0.0,0.0,0.0,0.0,0.0,0.0,0.0,0.0,0.0,false
285,0.058823529411764705,0.25,0.0,0.005490196078431373,0.003952569169960474,1.0,0.0,0.015664600362286434,0.5,0.6481481481481481,0.37301587301587297,0.278578604325131,1.0,1.0,false
286,0.029411764705882353,0.25,0.0,0.025098039215686273,0.0,1.0,0.0,0.022325107985794776,0.75,0.8333333333333333,0.8214285714285714,0.5448068918287379,1.0,1.0,false
20,0.058823529411764705,0.5,0.6666666666666666,0.01411764705882353,0.002635046113306983,0.9444444444444444,0.0,0.029570327902156388,0.611111111111111,0.6851851851851853,0.49074074074074076,0.32294177850851474,0.12280579061472831,0.14185437477051938,false
147,0.08823529411764706,0.5,0.3333333333333333,0.03686274509803922,0.04743083003952569,0.9574468085106383,0.3333333333333333,0.11307719920857374,0.4814814814814814,0.6296296296296297,0.37037037037037024,0.27136285626244305,1.0,0.40479329591836,false
288,0.058823529411764705,0.5,0.3333333333333333,0.03137254901960784,0.04084321475625823,0.775,0.0,0.06249493569570666,0.5178571428571427,0.6249999999999998,0.25510204081632654,0.24915457614712458,1.0,0.35043657145727286,false
148,0.0,0.0,0.0,0.0,0.0,0.0,0.0,0.0,0.0,0.0,0.0,0.0,0.0,0.0,false
429,0.11764705882352941,0.5,0.3333333333333333,0.011764705882352941,0.021080368906455864,0.8,0.0,0.3055260593780555,0.5223214285714286,0.6249999999999997,0.4183673469387755,0.2866235436996222,1.0,0.35043657145727286,false
431,0.0,0.0,0.3333333333333333,0.0,0.0,0.0,0.0,0.0,0.0,0.0,0.0,0.0,0.0,0.0,false
430,0.29411764705882354,0.5,0.6666666666666666,0.04156862745098039,0.04216073781291173,0.9811320754716981,0.3333333333333333,0.6931592015560759,0.4270072992700733,0.5711678832116794,0.28832116788321194,0.2130440989197455,1.0,0.40479329591836,false
149,0.17647058823529413,0.25,0.3333333333333333,0.07294117647058823,0.013175230566534914,1.0,0.0,0.21552693697245848,0.4711538461538458,0.6201923076923069,0.36298076923076933,0.2541921648814439,1.0,1.0,false
150,0.0,0.0,0.0,0.0,0.0,0.0,0.0,0.0,0.0,0.0,0.0,0.0,0.0,0.0,false
151,0.0,0.0,0.0,0.0,0.0,0.0,0.0,0.0,0.0,0.0,0.0,0.0,0.0,0.0,false
21,0.0,0.0,0.0,0.0,0.0,0.0,0.0,0.0,0.0,0.0,0.0,0.0,0.0,0.0,false
434,0.0,0.0,0.0,0.0,0.0,0.0,0.0,0.0,0.0,0.0,0.0,0.0,0.0,0.0,false
433,0.058823529411764705,0.25,0.3333333333333333,0.002352941176470588,0.003952569169960474,1.0,0.0,0.005289701064494434,0.4919354838709675,0.6129032258064513,0.38940092165898615,0.27435472978351233,1.0,1.0,false
291,0.08823529411764706,0.5,0.3333333333333333,0.004705882352941176,0.011857707509881422,1.0,0.3333333333333333,0.04288664361920651,0.451923076923077,0.5865384615384617,0.22527472527472522,0.1965327546406954,1.0,0.35043657145727286,false
292,0.029411764705882353,0.25,0.0,0.05176470588235294,0.0,1.0,0.0,0.046011193720094344,0.375,0.625,0.26785714285714285,0.3134841753582476,1.0,1.0,false
435,0.029411764705882353,0.25,0.0,0.00784313725490196,0.005270092226613966,1.0,0.0,0.12924660293277077,0.4,0.4,0.09285714285714286,0.06127096028254027,1.0,1.0,false
436,0.0,0.0,0.3333333333333333,0.0,0.0,0.0,0.0,0.0,0.0,0.0,0.0,0.0,0.0,0.0,false
437,0.058823529411764705,0.25,0.3333333333333333,0.003137254901960784,0.005270092226613966,1.0,0.0,0.006233972488589523,0.4328358208955226,0.6156716417910447,0.2979744136460555,0.23070591045480163,1.0,1.0,false
438,0.058823529411764705,0.5,0.3333333333333333,0.006274509803921568,0.0013175230566534915,0.875,0.0,0.05995237627711737,0.5750000000000001,0.625,0.3892857142857143,0.20109681794909517,0.163857612420449,0.40479329591836,false
440,0.029411764705882353,0.25,0.0,0.011764705882352941,0.019762845849802372,1.0,0.0,0.03310468314718399,0.41666666666666663,0.5,0.21428571428571425,0.22221466564029152,1.0,1.0,false
156,0.14705882352941177,0.5,0.6666666666666666,0.09098039215686274,0.022397891963109356,0.8362068965517241,0.0,0.14184340355311248,0.4375000000000001,0.5336538461538461,0.27266483516483514,0.22371252768454883,1.0,0.40479329591836,false
443,0.029411764705882353,0.25,0.0,7.84313725490196E-4,0.0013175230566534915,1.0,0.0,0.004828814325804486,0.47000000000000014,0.6000000000000001,0.29285714285714287,0.25781902435067383,1.0,1.0,false
296,0.0,0.0,0.0,0.0,0.0,0.0,0.0,0.0,0.0,0.0,0.0,0.0,0.0,0.0,false
445,0.0,0.0,0.0,0.0,0.0,0.0,0.0,0.0,0.0,0.0,0.0,0.0,0.0,0.0,false
24,0.08823529411764706,0.5,0.3333333333333333,0.022745098039215685,0.007905138339920948,0.8275862068965517,0.0,0.039816495017172264,0.4318181818181818,0.4318181818181818,0.11363636363636363,0.06845638253746152,0.163857612420449,0.40479329591836,false
446,0.0,0.0,0.0,0.0,0.0,0.0,0.0,0.0,0.0,0.0,0.0,0.0,0.0,0.0,false
298,0.0,0.0,0.0,0.0,0.0,0.0,0.0,0.0,0.0,0.0,0.0,0.0,0.0,0.0,false
299,0.029411764705882353,0.25,0.3333333333333333,0.00784313725490196,0.013175230566534914,1.0,0.0,0.13669260188268145,0.36111111111111116,0.4444444444444444,0.10714285714285712,0.15536160369747512,1.0,1.0,false
301,0.08823529411764706,0.5,0.3333333333333333,0.003137254901960784,0.006587615283267457,0.75,0.0,0.04462350330633793,0.49999999999999994,0.6206896551724137,0.31527093596059114,0.23532795550428492,0.163857612420449,0.40479329591836,false
25,0.0,0.0,0.0,0.0,0.0,0.0,0.0,0.0,0.0,0.0,0.0,0.0,0.0,0.0,false
26,0.0,0.0,0.0,0.0,0.0,0.0,0.0,0.0,0.0,0.0,0.0,0.0,0.0,0.0,false
158,0.14705882352941177,0.25,0.0,0.27137254901960783,0.013175230566534914,1.0,0.0,0.24411905546003682,0.47524752475247545,0.6336633663366339,0.3585572842998585,0.26770282522218514,1.0,1.0,false
159,0.0,0.0,0.0,0.0,0.0,0.0,0.0,0.0,0.0,0.0,0.0,0.0,0.0,0.0,false
161,0.029411764705882353,0.25,0.0,0.018823529411764704,0.0,1.0,0.0,0.016756519144555285,0.46875,0.53125,0.32142857142857145,0.38044489943208276,1.0,1.0,false
448,0.08823529411764706,0.5,0.3333333333333333,0.36627450980392157,0.011857707509881422,0.9892933618843683,0.3333333333333333,0.32102537264759934,0.5,0.75,0.4642857142857143,0.231169834174329,1.0,0.40479329591836,false
162,0.17647058823529413,0.5,0.3333333333333333,0.21176470588235294,0.03293807641633729,0.9518518518518518,0.3333333333333333,0.151920626871408,0.4609375,0.5703125,0.26339285714285715,0.22383796269404868,1.0,0.40479329591836,false
163,0.029411764705882353,0.25,0.0,0.01411764705882353,0.0,1.0,0.0,0.035956490422840715,0.5,0.6136363636363635,0.3928571428571429,0.36663050569332994,1.0,1.0,false
164,0.0,0.0,0.0,0.0,0.0,0.0,0.0,0.0,0.0,0.0,0.0,0.0,0.0,0.0,false
451,0.0,0.0,0.0,0.0,0.0,0.0,0.0,0.0,0.0,0.0,0.0,0.0,0.0,0.0,false
27,0.058823529411764705,0.5,0.3333333333333333,0.12,0.017127799736495388,0.8366013071895425,0.0,0.08036681583551773,0.29166666666666663,0.375,0.09523809523809523,0.10117763897240237,1.0,0.40479329591836,false
452,0.029411764705882353,0.25,0.0,0.04470588235294118,0.0,1.0,0.0,0.03972170650076273,0.4736842105263157,0.6447368421052632,0.3515037593984963,0.2636876806386992,1.0,1.0,false
304,0.0,0.0,0.0,0.0,0.0,0.0,0.0,0.0,0.0,0.0,0.0,0.0,0.0,0.0,false
305,0.058823529411764705,0.5,0.3333333333333333,0.11686274509803922,0.01844532279314888,0.8993288590604027,0.0,0.09357222741188738,0.6,0.6333333333333333,0.40714285714285714,0.271548093364912,0.12280579061472831,0.35043657145727286,false
454,0.0,0.0,0.0,0.0,0.0,0.0,0.0,0.0,0.0,0.0,0.0,0.0,0.0,0.0,false
306,0.029411764705882353,0.25,0.0,0.07058823529411765,0.0,1.0,0.0,0.0627358818811805,0.46875,0.53125,0.32142857142857145,0.37469747909000467,1.0,1.0,false
166,0.0,0.0,0.0,0.0,0.0,0.0,0.0,0.0,0.0,0.0,0.0,0.0,0.0,0.0,false
168,0.0,0.0,0.0,0.0,0.0,0.0,0.0,0.0,0.0,0.0,0.0,0.0,0.0,0.0,false
28,0.029411764705882353,0.25,0.0,0.04941176470588235,0.0,1.0,0.0,0.04390416477088655,0.40625,0.546875,0.32142857142857145,0.2013916941506338,1.0,1.0,false
170,0.0,0.0,0.0,0.0,0.0,0.0,0.0,0.0,0.0,0.0,0.0,0.0,0.0,0.0,false
169,0.20588235294117646,0.5,0.6666666666666666,0.1011764705882353,0.06324110671936758,0.751937984496124,0.0,0.26093383688950345,0.4499999999999999,0.6100000000000001,0.31761904761904763,0.2386540955513133,1.0,0.35043657145727286,false
29,0.029411764705882353,0.25,0.0,0.004705882352941176,0.0,1.0,0.0,0.008421633078209723,0.53125,0.625,0.5133928571428571,0.3675600866523739,1.0,1.0,false
30,0.0,0.0,0.0,0.0,0.0,0.0,0.0,0.0,0.0,0.0,0.0,0.0,0.0,0.0,false
309,0.0,0.0,0.0,0.0,0.0,0.0,0.0,0.0,0.0,0.0,0.0,0.0,0.0,0.0,false
311,0.0,0.0,0.0,0.0,0.0,0.0,0.0,0.0,0.0,0.0,0.0,0.0,0.0,0.0,false
458,0.11764705882352941,0.75,0.6666666666666666,0.07686274509803921,0.03162055335968379,0.6020408163265306,0.0,0.07998933059704691,0.42708333333333326,0.6093749999999999,0.2924107142857143,0.2219620062088751,1.0,0.2719955649216245,false
315,0.029411764705882353,0.25,0.3333333333333333,0.008627450980392156,0.006587615283267457,1.0,0.0,0.018334663137086742,0.5833333333333333,0.75,0.4345238095238095,0.29242510908779473,0.163857612420449,0.163857612420449,false
31,0.11764705882352941,0.25,0.6666666666666666,0.013333333333333334,0.00922266139657444,1.0,0.0,0.37898975757027414,0.5,0.8125,0.17857142857142858,0.23739294236147096,0.163857612420449,0.163857612420449,false
32,0.0,0.0,0.0,0.0,0.0,0.0,0.0,0.0,0.0,0.0,0.0,0.0,0.0,0.0,false
173,0.029411764705882353,0.25,0.0,0.02431372549019608,0.0,1.0,0.0,0.021595114166447296,0.7000000000000001,0.7000000000000001,0.45,0.43357003707258757,0.12280579061472831,0.12280579061472831,false
318,0.0,0.0,0.0,0.0,0.0,0.0,0.0,0.0,0.0,0.0,0.0,0.0,0.0,0.0,false
174,0.0,0.0,0.0,0.0,0.0,0.0,0.0,0.0,0.0,0.0,0.0,0.0,0.0,0.0,false
459,0.08823529411764706,0.5,0.6666666666666666,0.004705882352941176,0.015810276679841896,0.8333333333333334,0.0,0.05728263764515706,0.4000000000000001,0.5500000000000002,0.21428571428571427,0.1482233898931157,1.0,0.40479329591836,false
175,0.058823529411764705,0.25,0.3333333333333333,0.003137254901960784,0.005270092226613966,1.0,0.0,0.00903388439575309,0.4328358208955226,0.6156716417910448,0.2979744136460554,0.2306223309948863,1.0,1.0,false
320,0.0,0.0,0.3333333333333333,0.0,0.0,0.0,0.0,0.0,0.0,0.0,0.0,0.0,0.0,0.0,false
321,0.0,0.0,0.0,0.0,0.0,0.0,0.0,0.0,0.0,0.0,0.0,0.0,0.0,0.0,false
181,0.029411764705882353,0.25,0.3333333333333333,0.001568627450980392,0.002635046113306983,1.0,0.0,0.016464061789082454,0.5882352941176471,0.6911764705882352,0.42647058823529405,0.2908404235515439,0.163857612420449,0.163857612420449,false
33,0.08823529411764706,0.25,0.3333333333333333,0.010980392156862745,0.0013175230566534915,1.0,0.0,0.0593762304681864,0.4666666666666666,0.5666666666666667,0.30952380952380965,0.17378501874029198,0.163857612420449,0.163857612420449,false
463,0.0,0.0,0.0,0.0,0.0,0.0,0.0,0.0,0.0,0.0,0.0,0.0,0.0,0.0,false
182,0.0,0.0,0.3333333333333333,0.0,0.0,0.0,0.0,0.0,0.0,0.0,0.0,0.0,0.0,0.0,false
183,0.0,0.0,0.3333333333333333,0.0,0.0,0.0,0.0,0.0,0.0,0.0,0.0,0.0,0.0,0.0,false
464,0.08823529411764706,0.25,0.0,0.10745098039215686,0.0,1.0,0.0,0.09105607709067003,0.46428571428571425,0.6607142857142857,0.3622448979591836,0.3029661116135931,1.0,1.0,false
465,0.029411764705882353,0.25,0.0,0.04470588235294118,0.0,1.0,0.0,0.03972170650076273,0.3333333333333333,0.4166666666666667,0.10119047619047618,0.1079518238615282,1.0,1.0,false
34,0.029411764705882353,0.25,0.0,0.002352941176470588,0.003952569169960474,1.0,0.0,0.01661093411636704,0.25,0.3333333333333333,0.03571428571428571,0.00835587125305316,1.0,1.0,false
35,0.35294117647058826,0.5,0.6666666666666666,0.07294117647058823,0.04216073781291173,0.5161290322580645,0.0,0.14668145557013895,0.5214285714285709,0.6249999999999993,0.37040816326530573,0.25177041033452513,0.163857612420449,0.40479329591836,false
323,0.058823529411764705,0.25,0.0,0.03137254901960784,0.0013175230566534915,1.0,0.0,0.09511925291402973,0.5,0.6225490196078429,0.4243697478991596,0.2875771151002175,1.0,1.0,false
185,0.029411764705882353,0.25,0.3333333333333333,0.011764705882352941,0.0,1.0,0.0,0.07769713027630637,1.0,1.0,0.9285714285714286,1.0,0.163857612420449,0.163857612420449,false
36,0.0,0.0,0.0,0.0,0.0,0.0,0.0,0.0,0.0,0.0,0.0,0.0,0.0,0.0,false
466,0.029411764705882353,0.25,0.3333333333333333,0.001568627450980392,0.0013175230566534915,1.0,0.0,0.005662286703753627,0.3958333333333333,0.5416666666666666,0.20238095238095236,0.13497461061339897,1.0,1.0,false
186,0.20588235294117646,0.75,0.6666666666666666,0.054901960784313725,0.04743083003952569,0.7428571428571429,0.3333333333333333,0.20166513484206064,0.46721311475409816,0.618852459016393,0.375,0.266799067251863,1.0,0.2719955649216245,false
325,0.17647058823529413,0.5,0.6666666666666666,0.06980392156862746,0.010540184453227932,0.9662921348314607,0.3333333333333333,0.08106235955438394,0.457317073170732,0.6280487804878052,0.3654181184668989,0.24058083690207216,1.0,0.40479329591836,false
187,0.029411764705882353,0.25,0.0,7.84313725490196E-4,0.0013175230566534915,1.0,0.0,0.004828814325804486,0.37500000000000006,0.37500000000000006,0.05952380952380953,0.019348656582571053,1.0,1.0,false
327,0.058823529411764705,0.25,0.3333333333333333,0.012549019607843137,0.002635046113306983,1.0,0.0,0.04975390661908251,0.4477611940298508,0.6194029850746268,0.30970149253731344,0.23409620080628257,1.0,1.0,false
467,0.0,0.0,0.3333333333333333,0.0,0.0,0.0,0.0,0.0,0.0,0.0,0.0,0.0,0.0,0.0,false
468,0.058823529411764705,0.25,0.0,0.012549019607843137,0.0013175230566534915,1.0,0.0,0.06931598554313323,0.5,0.5,0.17857142857142858,0.07183345465876453,1.0,1.0,false
328,0.0,0.0,0.0,0.0,0.0,0.0,0.0,0.0,0.0,0.0,0.0,0.0,0.0,0.0,false
329,0.029411764705882353,0.25,0.3333333333333333,0.004705882352941176,0.0,1.0,0.0,0.027280308076149062,0.0,0.0,0.0,0.0,0.12280579061472831,0.12280579061472831,false
39,0.029411764705882353,0.25,0.3333333333333333,0.006274509803921568,0.0,1.0,0.0,0.01759786502681612,0.0,0.0,0.0,0.0,0.163857612420449,0.163857612420449,false
40,0.029411764705882353,0.25,0.3333333333333333,0.008627450980392156,0.013175230566534914,1.0,0.0,0.03865507199003991,0.0,0.0,0.0,0.0,1.0,1.0,false
190,0.029411764705882353,0.25,0.0,0.002352941176470588,0.003952569169960474,1.0,0.0,0.010431431175432016,0.25,0.3333333333333333,0.03571428571428571,0.01041570556669817,1.0,1.0,false
330,0.0,0.0,0.0,0.0,0.0,0.0,0.0,0.0,0.0,0.0,0.0,0.0,0.0,0.0,false
42,0.0,0.0,0.0,0.0,0.0,0.0,0.0,0.0,0.0,0.0,0.0,0.0,0.0,0.0,false
469,0.029411764705882353,0.25,0.0,0.08941176470588236,0.0,1.0,0.0,0.07946175526821116,0.3333333333333333,0.4166666666666667,0.10119047619047618,0.1013284824002868,1.0,1.0,false
191,0.0,0.0,0.0,0.0,0.0,0.0,0.0,0.0,0.0,0.0,0.0,0.0,0.0,0.0,false
192,0.0,0.0,0.0,0.0,0.0,0.0,0.0,0.0,0.0,0.0,0.0,0.0,0.0,0.0,false
193,0.17647058823529413,0.5,0.3333333333333333,0.2784313725490196,0.33992094861660077,0.9802816901408451,0.3333333333333333,0.15708659432240613,0.43209876543209885,0.6049382716049387,0.3311287477954145,0.22532524105791926,1.0,0.40479329591836,false
44,0.058823529411764705,0.25,0.3333333333333333,0.001568627450980392,0.022397891963109356,1.0,0.0,0.051543493361681646,0.4477611940298509,0.6194029850746267,0.3097014925373135,0.23404278030650352,1.0,1.0,false
194,0.0,0.0,0.0,0.0,0.0,0.0,0.0,0.0,0.0,0.0,0.0,0.0,0.0,0.0,false
333,0.029411764705882353,0.25,0.3333333333333333,0.002352941176470588,0.003952569169960474,1.0,0.0,0.011195145460773773,0.4833333333333333,0.5666666666666667,0.330952380952381,0.27005067802576627,1.0,1.0,false
45,0.0,0.0,0.0,0.0,0.0,0.0,0.0,0.0,0.0,0.0,0.0,0.0,0.0,0.0,false
195,0.0,0.0,0.3333333333333333,0.0,0.0,0.0,0.0,0.0,0.0,0.0,0.0,0.0,0.0,0.0,false
196,0.029411764705882353,0.25,0.0,0.06666666666666667,0.0,1.0,0.0,0.059239141560802025,0.5,0.5,0.21428571428571427,0.142295159923144,1.0,1.0,false
471,0.0,0.0,0.0,0.0,0.0,0.0,0.0,0.0,0.0,0.0,0.0,0.0,0.0,0.0,false
197,0.0,0.0,0.0,0.0,0.0,0.0,0.0,0.0,0.0,0.0,0.0,0.0,0.0,0.0,false
336,0.29411764705882354,0.5,0.3333333333333333,0.10588235294117647,0.08168642951251646,0.9555555555555556,0.3333333333333333,0.23499043920608217,0.4827586206896551,0.5689655172413792,0.29433497536945813,0.15040142833648124,0.163857612420449,0.40479329591836,false
199,0.0,0.0,0.3333333333333333,0.0,0.0,0.0,0.0,0.0,0.0,0.0,0.0,0.0,0.0,0.0,false
51,0.029411764705882353,0.25,0.0,0.004705882352941176,0.0,1.0,0.0,0.008421633078209723,0.375,0.453125,0.24553571428571427,0.20206528189782508,1.0,1.0,false
337,0.08823529411764706,0.25,0.0,0.022745098039215685,0.01844532279314888,1.0,0.0,0.09048055941000482,0.43269230769230776,0.6201923076923075,0.2898351648351648,0.22794523855684856,1.0,1.0,false
338,0.058823529411764705,0.5,0.6666666666666666,0.001568627450980392,0.0,0.5,0.0,0.004828814325804486,0.38461538461538464,0.5192307692307693,0.1978021978021978,0.12622058839740002,1.0,0.40479329591836,false
473,0.029411764705882353,0.25,0.0,0.01568627450980392,0.026350461133069828,1.0,0.0,0.043593256303437716,0.36111111111111116,0.4722222222222222,0.10714285714285714,0.16570597542850218,1.0,1.0,false
339,0.0,0.0,0.0,0.0,0.0,0.0,0.0,0.0,0.0,0.0,0.0,0.0,0.0,0.0,false
204,0.11764705882352941,0.25,0.0,0.018823529411764704,0.014492753623188406,1.0,0.0,0.08934849544249665,0.47297297297297297,0.5945945945945945,0.3156370656370657,0.2844507790209788,1.0,1.0,false
340,0.0,0.0,0.0,0.0,0.0,0.0,0.0,0.0,0.0,0.0,0.0,0.0,0.0,0.0,false
205,0.029411764705882353,0.25,0.3333333333333333,0.003137254901960784,0.00922266139657444,1.0,0.0,0.051814915924874236,0.43749999999999994,0.6145833333333333,0.29464285714285715,0.22254897318121206,1.0,1.0,false
52,0.0,0.0,0.0,0.0,0.0,0.0,0.0,0.0,0.0,0.0,0.0,0.0,0.0,0.0,false
475,0.0,0.0,0.0,0.0,0.0,0.0,0.0,0.0,0.0,0.0,0.0,0.0,0.0,0.0,false
343,0.0,0.0,0.3333333333333333,0.0,0.0,0.0,0.0,0.0,0.0,0.0,0.0,0.0,0.0,0.0,false
53,0.029411764705882353,0.25,0.0,0.001568627450980392,0.002635046113306983,1.0,0.0,0.009807368257922987,0.25,0.3333333333333333,0.03571428571428571,0.010623726539201179,1.0,1.0,false
206,0.029411764705882353,0.25,0.3333333333333333,0.01019607843137255,0.021080368906455864,1.0,0.0,0.06666440481617994,0.5,0.6666666666666666,0.3928571428571428,0.3848858856780705,1.0,1.0,false
208,0.029411764705882353,0.25,0.0,0.005490196078431373,0.00922266139657444,1.0,0.0,0.020986146521363172,0.4833333333333333,0.5833333333333334,0.330952380952381,0.26939794462172695,1.0,1.0,false
207,0.029411764705882353,0.25,0.0,0.0392156862745098,0.0,1.0,0.0,0.03486290243532597,0.875,0.875,0.8214285714285714,0.8218135131125295,1.0,1.0,false
209,0.029411764705882353,0.25,0.0,0.00784313725490196,0.0,1.0,0.0,0.010431431175432012,0.0,0.0,0.0,0.0,1.0,1.0,false
210,0.29411764705882354,0.5,0.6666666666666666,0.0611764705882353,0.08959156785243742,0.8846153846153846,0.0,0.12478841633868391,0.4565217391304344,0.6021739130434779,0.3322981366459628,0.2526641390584382,1.0,0.40479329591836,false
55,0.11764705882352941,0.25,0.0,0.0203921568627451,0.007905138339920948,1.0,0.0,0.04973809746817962,0.4214285714285713,0.5785714285714283,0.3234693877551019,0.21051650984671172,1.0,1.0,false
58,0.029411764705882353,0.25,0.3333333333333333,0.007058823529411765,0.0,1.0,0.0,0.013974391767342416,0.40625,0.5,0.13392857142857142,0.13112125167677602,1.0,1.0,false
345,0.20588235294117646,0.25,0.6666666666666666,0.03137254901960784,0.05533596837944664,1.0,0.0,0.34550852412822547,0.46370967741935454,0.6048387096774193,0.3292050691244242,0.24895590666848025,1.0,1.0,false
213,0.029411764705882353,0.25,0.0,0.002352941176470588,0.003952569169960474,1.0,0.0,0.021160526095817426,0.0,0.0,0.0,0.0,1.0,1.0,false
60,0.0,0.0,0.0,0.0,0.0,0.0,0.0,0.0,0.0,0.0,0.0,0.0,0.0,0.0,false
61,0.058823529411764705,0.25,0.0,0.06274509803921569,0.0013175230566534915,1.0,0.0,0.05776737559242117,0.46212121212121193,0.5984848484848482,0.36471861471861483,0.23821323420579635,1.0,1.0,false
214,0.11764705882352941,0.5,0.6666666666666666,0.006274509803921568,0.00922266139657444,0.5,0.0,0.008518228444332036,0.4440789473684211,0.6249999999999999,0.31343984962406024,0.24464147011031662,1.0,0.40479329591836,false
215,0.058823529411764705,0.25,0.6666666666666666,0.00784313725490196,0.010540184453227932,1.0,0.0,0.05779764095536099,0.4999999999999999,0.607142857142857,0.3494897959183673,0.23116396101149253,0.163857612420449,0.163857612420449,false
348,0.0,0.0,0.0,0.0,0.0,0.0,0.0,0.0,0.0,0.0,0.0,0.0,0.0,0.0,false
350,0.0,0.0,0.0,0.0,0.0,0.0,0.0,0.0,0.0,0.0,0.0,0.0,0.0,0.0,false
64,0.0,0.0,0.0,0.0,0.0,0.0,0.0,0.0,0.0,0.0,0.0,0.0,0.0,0.0,false
218,0.029411764705882353,0.25,0.0,0.04549019607843137,0.021080368906455864,1.0,0.0,0.04879850772175096,0.4375,0.4375,0.30357142857142855,0.20833958959142335,1.0,1.0,false
351,0.4117647058823529,0.75,0.6666666666666666,0.17333333333333334,0.06324110671936758,0.7285067873303167,0.0,0.3170851008173367,0.5357142857142856,0.6349206349206347,0.409863945578231,0.30001455463980936,1.0,0.2719955649216245,false
352,0.0,0.0,0.3333333333333333,0.0,0.0,0.0,0.0,0.0,0.0,0.0,0.0,0.0,0.0,0.0,false
482,0.058823529411764705,0.25,0.3333333333333333,0.012549019607843137,0.0,1.0,0.0,0.13212713139482368,0.44642857142857134,0.5535714285714285,0.26785714285714285,0.15390285314257868,0.163857612420449,0.163857612420449,false
220,0.0,0.0,0.0,0.0,0.0,0.0,0.0,0.0,0.0,0.0,0.0,0.0,0.0,0.0,false
65,0.0,0.0,0.0,0.0,0.0,0.0,0.0,0.0,0.0,0.0,0.0,0.0,0.0,0.0,false
483,0.0,0.0,0.0,0.0,0.0,0.0,0.0,0.0,0.0,0.0,0.0,0.0,0.0,0.0,false
219,0.029411764705882353,0.25,0.0,0.050980392156862744,0.0,1.0,0.0,0.04529829363002902,0.0,0.0,0.0,0.0,1.0,1.0,false
221,0.029411764705882353,0.25,0.0,0.002352941176470588,0.003952569169960474,1.0,0.0,0.011828131160862555,0.37500000000000006,0.37500000000000006,0.05952380952380953,0.01818210377672804,1.0,1.0,false
67,0.0,0.0,0.3333333333333333,0.0,0.0,0.0,0.0,0.0,0.0,0.0,0.0,0.0,0.0,0.0,false
353,0.058823529411764705,0.25,0.3333333333333333,0.02666666666666667,0.017127799736495388,1.0,0.0,0.05063943634873575,0.4999999999999999,0.6428571428571428,0.34948979591836726,0.23218656166958185,0.163857612420449,0.163857612420449,false
222,0.029411764705882353,0.25,0.0,0.03294117647058824,0.030303030303030304,1.0,0.0,0.08951392269932969,0.5833333333333334,0.6666666666666666,0.6547619047619048,0.6031908393260457,1.0,1.0,false
224,0.0,0.0,0.3333333333333333,0.0,0.0,0.0,0.0,0.0,0.0,0.0,0.0,0.0,0.0,0.0,false
485,0.029411764705882353,0.25,0.0,0.034509803921568626,0.0,1.0,0.0,0.030682926109584063,0.5,0.619047619047619,0.46088435374149656,0.300977663800095,1.0,1.0,false
68,0.0,0.0,0.0,0.0,0.0,0.0,0.0,0.0,0.0,0.0,0.0,0.0,0.0,0.0,false
225,0.029411764705882353,0.25,0.0,0.002352941176470588,0.002635046113306983,1.0,0.0,0.09916720025662547,0.40625,0.53125,0.13392857142857142,0.12047215061561564,1.0,1.0,false
70,0.08823529411764706,0.25,0.0,0.0815686274509804,0.014492753623188406,1.0,0.0,0.08177036876440164,0.4423076923076923,0.5865384615384616,0.40659340659340665,0.28422198332862403,1.0,1.0,false
228,0.17647058823529413,0.5,0.6666666666666666,0.043137254901960784,0.20421607378129117,0.6363636363636364,0.0,0.40982550212241364,0.4166666666666667,0.5486111111111108,0.2281746031746031,0.2200994435874536,1.0,0.40479329591836,false
72,0.29411764705882354,0.5,0.6666666666666666,0.10823529411764705,0.14097496706192358,0.6521739130434783,0.0,0.2135559889313076,0.4594594594594594,0.5608108108108107,0.24613899613899615,0.2264996823214403,1.0,0.40479329591836,false
491,0.0,0.0,0.0,0.0,0.0,0.0,0.0,0.0,0.0,0.0,0.0,0.0,0.0,0.0,false
356,0.029411764705882353,0.25,0.0,7.84313725490196E-4,0.011857707509881422,1.0,0.0,0.006233972488589523,0.5961538461538463,0.6923076923076925,0.554945054945055,0.38657104687158866,1.0,1.0,false
492,0.14705882352941177,0.5,0.3333333333333333,0.04941176470588235,0.00922266139657444,0.9841269841269841,0.3333333333333333,0.5348339787979923,0.4764150943396226,0.5943396226415095,0.3261455525606469,0.2496590938136637,1.0,0.40479329591836,false
229,0.0,0.0,0.0,0.0,0.0,0.0,0.0,0.0,0.0,0.0,0.0,0.0,0.0,0.0,false
74,0.14705882352941177,0.25,0.6666666666666666,0.027450980392156862,0.03820816864295125,1.0,0.0,0.16356699666304464,0.44047619047619035,0.5922619047619044,0.34183673469387754,0.22761874988257338,1.0,1.0,false
230,0.14705882352941177,0.25,0.0,0.02588235294117647,0.017127799736495388,1.0,0.0,0.1374789676289116,0.4346153846153844,0.619230769230769,0.31043956043956034,0.24310527056326411,1.0,1.0,false
231,0.0,0.0,0.0,0.0,0.0,0.0,0.0,0.0,0.0,0.0,0.0,0.0,0.0,0.0,false
358,0.0,0.0,0.0,0.0,0.0,0.0,0.0,0.0,0.0,0.0,0.0,0.0,0.0,0.0,false
359,0.17647058823529413,0.5,0.3333333333333333,0.025098039215686273,0.03820816864295125,0.59375,0.0,0.15661030599765333,0.4610091743119265,0.6169724770642202,0.31028833551769336,0.2367830322427144,0.163857612420449,0.40479329591836,false
233,0.0,0.0,0.0,0.0,0.0,0.0,0.0,0.0,0.0,0.0,0.0,0.0,0.0,0.0,false
493,0.029411764705882353,0.25,0.3333333333333333,0.003137254901960784,0.003952569169960474,1.0,0.0,0.0076350258337962796,0.0,0.0,0.0,0.0,0.163857612420449,0.163857612420449,false
362,0.20588235294117646,0.25,0.0,0.08392156862745098,0.06060606060606061,1.0,0.0,0.18417933851908885,0.4722222222222222,0.5833333333333334,0.30476190476190473,0.2914738371250793,1.0,1.0,false
363,0.058823529411764705,0.25,0.3333333333333333,0.005490196078431373,0.0013175230566534915,1.0,0.0,0.2914960473667293,0.5000000000000001,0.6730769230769231,0.5109890109890111,0.2642746565886145,1.0,1.0,false
78,0.14705882352941177,0.5,0.3333333333333333,0.009411764705882352,0.003952569169960474,0.8333333333333334,0.0,0.02033884942746391,0.4391891891891894,0.5574324324324327,0.3088803088803088,0.23456364864863172,1.0,0.40479329591836,false
80,0.0,0.0,0.3333333333333333,0.0,0.0,0.0,0.0,0.0,0.0,0.0,0.0,0.0,0.0,0.0,false
495,0.0,0.0,0.0,0.0,0.0,0.0,0.0,0.0,0.0,0.0,0.0,0.0,0.0,0.0,false
234,0.058823529411764705,0.25,0.3333333333333333,0.02588235294117647,0.34914361001317523,1.0,0.0,0.036304527768649925,0.5,0.6296296296296297,0.37301587301587297,0.2770497208135485,1.0,1.0,false
497,0.0,0.0,0.0,0.0,0.0,0.0,0.0,0.0,0.0,0.0,0.0,0.0,0.0,0.0,false
235,0.0,0.0,0.3333333333333333,0.0,0.0,0.0,0.0,0.0,0.0,0.0,0.0,0.0,0.0,0.0,false
364,0.0,0.0,0.0,0.0,0.0,0.0,0.0,0.0,0.0,0.0,0.0,0.0,0.0,0.0,false
81,0.0,0.0,0.3333333333333333,0.0,0.0,0.0,0.0,0.0,0.0,0.0,0.0,0.0,0.0,0.0,false
237,0.029411764705882353,0.25,0.0,0.03607843137254902,0.0,1.0,0.0,0.032076196530609745,0.375,0.453125,0.24553571428571427,0.2005868716820501,1.0,1.0,false
500,0.0,0.0,0.3333333333333333,0.0,0.0,0.0,0.0,0.0,0.0,0.0,0.0,0.0,0.0,0.0,false
83,0.029411764705882353,0.25,0.0,0.008627450980392156,0.006587615283267457,1.0,0.0,0.09069805123954168,0.40625,0.53125,0.13392857142857142,0.12153079424275111,1.0,1.0,false
84,0.029411764705882353,0.25,0.0,0.01411764705882353,0.023715415019762844,1.0,0.0,0.05102805731741404,0.36111111111111116,0.4722222222222223,0.10714285714285716,0.16487988642694926,1.0,1.0,false
85,0.0,0.0,0.0,0.0,0.0,0.0,0.0,0.0,0.0,0.0,0.0,0.0,0.0,0.0,false
365,0.0,0.0,0.3333333333333333,0.0,0.0,0.0,0.0,0.0,0.0,0.0,0.0,0.0,0.0,0.0,false
501,0.08823529411764706,0.5,0.3333333333333333,0.043137254901960784,0.014492753623188406,0.9818181818181818,0.3333333333333333,0.02835441452793869,0.4652777777777778,0.5902777777777779,0.31944444444444453,0.29062465686350675,1.0,0.40479329591836,false
239,0.029411764705882353,0.25,0.3333333333333333,7.84313725490196E-4,0.0013175230566534915,1.0,0.0,0.0076350258337962796,0.0,0.0,0.0,0.0,0.163857612420449,0.163857612420449,false
502,0.0,0.0,0.0,0.0,0.0,0.0,0.0,0.0,0.0,0.0,0.0,0.0,0.0,0.0,false
87,0.029411764705882353,0.25,0.0,0.06509803921568627,0.0,1.0,0.0,0.05784508413261302,0.375,0.453125,0.24553571428571427,0.19897631620692488,1.0,1.0,false
88,0.0,0.0,0.0,0.0,0.0,0.0,0.0,0.0,0.0,0.0,0.0,0.0,0.0,0.0,false
89,0.0,0.0,0.0,0.0,0.0,0.0,0.0,0.0,0.0,0.0,0.0,0.0,0.0,0.0,false
503,0.0,0.0,0.0,0.0,0.0,0.0,0.0,0.0,0.0,0.0,0.0,0.0,0.0,0.0,false
504,0.08823529411764706,0.5,0.3333333333333333,0.21098039215686273,0.01844532279314888,0.8921933085501859,0.0,0.160293030159323,0.5535714285714285,0.625,0.3494897959183673,0.32721743799583203,1.0,0.35043657145727286,false
91,0.0,0.0,0.3333333333333333,0.0,0.0,0.0,0.0,0.0,0.0,0.0,0.0,0.0,0.0,0.0,false
241,0.029411764705882353,0.25,0.0,0.003137254901960784,0.005270092226613966,1.0,0.0,0.021799534950178365,0.36111111111111116,0.4722222222222222,0.10714285714285712,0.16812750002330878,1.0,1.0,false
368,0.0,0.0,0.0,0.0,0.0,0.0,0.0,0.0,0.0,0.0,0.0,0.0,0.0,0.0,false
506,0.058823529411764705,0.25,0.3333333333333333,0.023529411764705882,0.022397891963109356,1.0,0.0,0.2007112500740782,0.4285714285714286,0.6071428571428571,0.2889030612244898,0.21845226476815593,1.0,1.0,false
505,0.0,0.0,0.3333333333333333,0.0,0.0,0.0,0.0,0.0,0.0,0.0,0.0,0.0,0.0,0.0,false
242,0.0,0.0,0.0,0.0,0.0,0.0,0.0,0.0,0.0,0.0,0.0,0.0,0.0,0.0,false
95,0.0,0.0,0.0,0.0,0.0,0.0,0.0,0.0,0.0,0.0,0.0,0.0,0.0,0.0,false
94,0.029411764705882353,0.25,0.3333333333333333,7.84313725490196E-4,0.0013175230566534915,1.0,0.0,0.004828814325804485,0.5882352941176471,0.6911764705882352,0.42647058823529405,0.29152484987291316,0.163857612420449,0.163857612420449,false
507,0.0,0.0,0.0,0.0,0.0,0.0,0.0,0.0,0.0,0.0,0.0,0.0,0.0,0.0,false
371,0.11764705882352941,0.25,0.3333333333333333,0.07215686274509804,0.0013175230566534915,1.0,0.0,0.15701788678794207,0.5326086956521738,0.6304347826086955,0.29347826086956524,0.2659189281638785,1.0,1.0,false
510,0.029411764705882353,0.25,0.3333333333333333,7.84313725490196E-4,0.01844532279314888,1.0,0.0,0.006233972488589523,1.0,1.0,0.9285714285714286,1.0,1.0,1.0,false
511,0.08823529411764706,0.25,0.0,0.004705882352941176,0.005270092226613966,1.0,0.0,0.00845042507015785,0.42346938775510223,0.5561224489795918,0.34548104956268205,0.22866435812792982,1.0,1.0,false
513,0.0,0.0,0.0,0.0,0.0,0.0,0.0,0.0,0.0,0.0,0.0,0.0,0.0,0.0,false
243,0.08823529411764706,0.5,0.3333333333333333,0.09725490196078432,0.002635046113306983,1.0,0.3333333333333333,0.08743140462253483,0.4062500000000001,0.5833333333333334,0.2976190476190476,0.23020000573606383,1.0,0.40479329591836,false
244,0.0,0.0,0.0,0.0,0.0,0.0,0.0,0.0,0.0,0.0,0.0,0.0,0.0,0.0,false
99,0.14705882352941177,0.5,0.3333333333333333,0.012549019607843137,0.006587615283267457,0.9375,0.0,0.07183345465876453,0.49166666666666664,0.6083333333333335,0.2999999999999999,0.22707322803700386,1.0,0.40479329591836,false
515,0.029411764705882353,0.25,0.3333333333333333,0.0,0.002635046113306983,0.0,0.0,0.004828814325804486,0.25,0.25,0.03571428571428571,0.012283244516574013,0.0,1.0,false
100,0.029411764705882353,0.25,0.3333333333333333,0.0,0.007905138339920948,0.0,0.0,0.0034144873548670987,0.5,0.6000000000000001,0.17142857142857146,0.202408107748595,0.0,0.12280579061472831,false
516,0.058823529411764705,0.25,0.3333333333333333,0.006274509803921568,0.007905138339920948,1.0,0.0,0.02080456980231312,0.0,0.0,0.0,0.0,1.0,1.0,false
101,0.0,0.0,0.0,0.0,0.0,0.0,0.0,0.0,0.0,0.0,0.0,0.0,0.0,0.0,false
102,0.058823529411764705,0.5,0.3333333333333333,0.004705882352941176,0.007905138339920948,0.8333333333333334,0.0,0.0167854846270985,0.375,0.375,0.0625,0.022393719092749603,1.0,0.40479329591836,false
103,0.2647058823529412,0.75,0.6666666666666666,0.1388235294117647,0.07905138339920949,0.536723163841808,0.0,0.292011705039736,0.5288461538461539,0.6730769230769231,0.4120879120879121,0.2958907627710079,1.0,0.2719955649216245,false
519,0.058823529411764705,0.25,0.3333333333333333,0.03058823529411765,0.003952569169960474,1.0,0.0,0.061409177745371114,0.4469696969696968,0.5909090909090908,0.3982683982683982,0.23835213104681474,1.0,1.0,false
376,0.17647058823529413,0.5,0.3333333333333333,0.1607843137254902,0.15019762845849802,0.697560975609756,0.0,0.18395031904017745,0.4999999999999999,0.6052631578947368,0.3176691729323308,0.25877769005455636,0.163857612420449,0.40479329591836,false
247,0.14705882352941177,0.5,0.6666666666666666,0.005490196078431373,0.010540184453227932,1.0,0.3333333333333333,0.08190776399732044,0.45945945945945943,0.6126126126126124,0.3487773487773488,0.25614292961244367,1.0,0.40479329591836,false
377,0.029411764705882353,0.25,0.0,7.84313725490196E-4,0.0,1.0,0.0,0.004828814325804486,0.375,0.453125,0.24553571428571427,0.2022898330698504,1.0,1.0,false
249,0.08823529411764706,0.25,0.3333333333333333,0.011764705882352941,0.01844532279314888,1.0,0.0,0.23508211420400146,0.4333333333333335,0.6041666666666669,0.28452380952380946,0.21440314227915463,1.0,1.0,false
522,0.11764705882352941,0.5,0.3333333333333333,0.10823529411764705,0.10144927536231885,0.9202898550724637,0.0,0.09811713182723511,0.4583333333333333,0.6041666666666666,0.2470238095238095,0.2171246033456865,0.163857612420449,0.40479329591836,false
250,0.029411764705882353,0.25,0.0,0.02431372549019608,0.04084321475625823,1.0,0.0,0.112998535571801,0.36111111111111116,0.4722222222222222,0.10714285714285712,0.15799427773201735,1.0,1.0,false
379,0.0,0.0,0.3333333333333333,0.0,0.0,0.0,0.0,0.0,0.0,0.0,0.0,0.0,0.0,0.0,false
523,0.029411764705882353,0.25,0.0,0.043137254901960784,0.0,1.0,0.0,0.038327525500154086,0.5,0.7083333333333333,0.3928571428571428,0.3896086988974082,1.0,1.0,false
380,0.0,0.0,0.0,0.0,0.0,0.0,0.0,0.0,0.0,0.0,0.0,0.0,0.0,0.0,false
251,0.11764705882352941,0.25,0.3333333333333333,0.00392156862745098,0.04084321475625823,1.0,0.0,0.008757975273905354,0.476470588235294,0.6264705882352941,0.3617647058823527,0.2753113805123917,1.0,1.0,false
525,0.2647058823529412,0.5,0.3333333333333333,0.27450980392156865,0.026350461133069828,0.9571428571428572,0.3333333333333333,0.1917362891618592,0.46304347826086917,0.6108695652173907,0.35186335403726726,0.2499749584848778,1.0,0.35043657145727286,false
106,0.058823529411764705,0.5,0.3333333333333333,0.0203921568627451,0.005270092226613966,0.8846153846153846,0.0,0.035197988530692226,0.375,0.375,0.0625,0.017790593116851168,0.163857612420449,0.40479329591836,false
383,0.029411764705882353,0.25,0.3333333333333333,7.84313725490196E-4,0.0013175230566534915,1.0,0.0,0.004828814325804486,0.0,0.0,0.0,0.0,0.163857612420449,0.163857612420449,false
382,0.08823529411764706,0.25,0.6666666666666666,0.05019607843137255,0.011857707509881422,1.0,0.0,0.11199023505835491,0.4342105263157894,0.5131578947368419,0.30639097744360894,0.2859292261187849,1.0,1.0,false
384,0.23529411764705882,0.5,0.6666666666666666,0.08627450980392157,0.03820816864295125,0.9,0.0,0.1856080190746292,0.4459459459459458,0.5833333333333334,0.31177606177606165,0.23588024360520665,1.0,0.35043657145727286,false
385,0.029411764705882353,0.25,0.0,0.005490196078431373,0.006587615283267457,1.0,0.0,0.028208294984620293,0.625,0.8125,0.5803571428571429,0.5230937309478373,1.0,1.0,false
527,0.0,0.0,0.0,0.0,0.0,0.0,0.0,0.0,0.0,0.0,0.0,0.0,0.0,0.0,false
254,0.11764705882352941,0.5,0.3333333333333333,0.05725490196078432,0.003952569169960474,0.9315068493150684,0.0,0.043119931915050036,0.5555555555555555,0.648148148148148,0.4378306878306878,0.35070791775506227,1.0,0.40479329591836,false
109,0.08823529411764706,0.5,0.3333333333333333,0.009411764705882352,0.006587615283267457,0.5833333333333334,0.0,0.0717678890969329,0.46000000000000013,0.5900000000000002,0.29000000000000004,0.25514146135982874,1.0,0.40479329591836,false
110,0.0,0.0,0.3333333333333333,0.0,0.0,0.0,0.0,0.0,0.0,0.0,0.0,0.0,0.0,0.0,false
111,0.0,0.0,0.0,0.0,0.0,0.0,0.0,0.0,0.0,0.0,0.0,0.0,0.0,0.0,false
255,0.17647058823529413,0.5,0.6666666666666666,0.021176470588235293,0.015810276679841896,0.9629629629629629,0.3333333333333333,0.13527002081577844,0.4601769911504428,0.6039823008849559,0.3179519595448798,0.2545623019980461,1.0,0.40479329591836,false
112,0.029411764705882353,0.25,0.0,0.010980392156862745,0.015810276679841896,1.0,0.0,0.03533904038997684,0.39999999999999997,0.39999999999999997,0.09285714285714287,0.08005247279109906,1.0,1.0,false
257,0.029411764705882353,0.25,0.0,0.018823529411764704,0.0,1.0,0.0,0.016756519144555285,0.3333333333333333,0.4166666666666667,0.10119047619047618,0.11177935508756277,1.0,1.0,false
388,0.029411764705882353,0.25,0.0,0.003137254901960784,0.0013175230566534915,1.0,0.0,0.0076350258337962796,0.37500000000000006,0.37500000000000006,0.05952380952380953,0.01888095466457242,1.0,1.0,false
387,0.058823529411764705,0.25,0.6666666666666666,0.04392156862745098,0.005270092226613966,1.0,0.0,0.11172309128453393,0.75,0.75,0.14285714285714285,0.3365840798341907,1.0,1.0,false
389,0.0,0.0,0.3333333333333333,0.0,0.0,0.0,0.0,0.0,0.0,0.0,0.0,0.0,0.0,0.0,false
533,0.0,0.0,0.0,0.0,0.0,0.0,0.0,0.0,0.0,0.0,0.0,0.0,0.0,0.0,false
115,0.23529411764705882,0.25,0.3333333333333333,0.02431372549019608,0.04216073781291173,1.0,0.0,0.30377462911489594,0.4477272727272722,0.5931818181818179,0.26655844155844155,0.20951089542703538,1.0,1.0,false
535,0.029411764705882353,0.25,0.0,0.010980392156862745,0.014492753623188406,1.0,0.0,0.05771833000034565,0.53125,0.625,0.5133928571428571,0.36139799953710694,1.0,1.0,false
536,0.029411764705882353,0.25,0.3333333333333333,0.002352941176470588,0.003952569169960474,1.0,0.0,0.02029634394855401,0.3958333333333333,0.5416666666666666,0.20238095238095236,0.13375510584299893,1.0,1.0,false
261,0.14705882352941177,0.5,0.3333333333333333,0.06274509803921569,0.005270092226613966,0.925,0.0,0.07787670903464115,0.4807692307692308,0.5769230769230771,0.31043956043956034,0.1775348227539582,0.163857612420449,0.40479329591836,false
393,0.3235294117647059,0.75,0.6666666666666666,0.07137254901960784,0.06324110671936758,0.5714285714285714,0.0,0.2793718509123965,0.4794520547945208,0.6198630136986302,0.35078277886497045,0.25983077607128807,1.0,0.2719955649216245,false
395,0.058823529411764705,0.25,0.3333333333333333,0.001568627450980392,0.006587615283267457,1.0,0.0,0.009095131771043518,0.484375,0.640625,0.40401785714285715,0.29419535737985286,1.0,1.0,false
263,0.17647058823529413,0.75,1.0,0.054901960784313725,0.04216073781291173,0.6714285714285714,0.0,0.11745581768635067,0.4250000000000002,0.5000000000000001,0.2339285714285714,0.18749728565628,0.163857612420449,0.04096730566295634,false
397,0.0,0.0,0.0,0.0,0.0,0.0,0.0,0.0,0.0,0.0,0.0,0.0,0.0,0.0,false
398,0.0,0.0,0.3333333333333333,0.0,0.0,0.0,0.0,0.0,0.0,0.0,0.0,0.0,0.0,0.0,false
264,0.029411764705882353,0.25,0.0,7.84313725490196E-4,0.0013175230566534915,1.0,0.0,0.004828814325804486,0.4833333333333333,0.5833333333333334,0.330952380952381,0.27047510010143083,1.0,1.0,false
121,0.0,0.0,0.0,0.0,0.0,0.0,0.0,0.0,0.0,0.0,0.0,0.0,0.0,0.0,false
266,0.0,0.0,0.3333333333333333,0.0,0.0,0.0,0.0,0.0,0.0,0.0,0.0,0.0,0.0,0.0,false
122,0.029411764705882353,0.25,0.3333333333333333,0.003137254901960784,0.005270092226613966,1.0,0.0,0.012192158532473987,0.47000000000000014,0.5900000000000002,0.29285714285714287,0.2575244905824071,1.0,1.0,false
540,0.058823529411764705,0.25,0.3333333333333333,0.009411764705882352,0.002635046113306983,1.0,0.0,0.02652669125355345,0.469387755102041,0.6173469387755103,0.36443148688046634,0.26914290702747556,1.0,1.0,false
401,0.029411764705882353,0.25,0.0,0.005490196078431373,0.00922266139657444,1.0,0.0,0.01741053765138315,0.4833333333333333,0.5833333333333334,0.330952380952381,0.2696363185463923,1.0,1.0,false
123,0.0,0.0,0.0,0.0,0.0,0.0,0.0,0.0,0.0,0.0,0.0,0.0,0.0,0.0,false
124,0.029411764705882353,0.25,0.6666666666666666,7.84313725490196E-4,0.0013175230566534915,1.0,0.0,0.004828814325804485,0.43749999999999994,0.6093749999999999,0.29464285714285715,0.22352785029785932,1.0,1.0,false
542,0.0,0.0,0.0,0.0,0.0,0.0,0.0,0.0,0.0,0.0,0.0,0.0,0.0,0.0,false
543,0.0,0.0,0.0,0.0,0.0,0.0,0.0,0.0,0.0,0.0,0.0,0.0,0.0,0.0,false
269,1.0,0.75,0.6666666666666666,0.40862745098039216,1.0,0.54510556621881,0.0,0.40340051143299677,0.5144230769230765,0.6394230769230763,0.3972069597069597,0.25748421970526325,0.12280579061472831,0.2719955649216245,false
402,0.11764705882352941,0.25,0.0,0.02588235294117647,0.005270092226613966,1.0,0.0,0.030389180615962765,0.4439655172413792,0.564655172413793,0.31157635467980294,0.22898471940840745,1.0,1.0,false
126,0.029411764705882353,0.25,0.0,0.011764705882352941,0.019762845849802372,1.0,0.0,0.05742788105298525,0.39999999999999997,0.39999999999999997,0.09285714285714287,0.07563470465849738,1.0,1.0,false
544,0.08823529411764706,0.25,0.6666666666666666,0.011764705882352941,0.022397891963109356,1.0,0.0,0.3826643070938663,0.4299999999999999,0.5933333333333335,0.2785714285714285,0.20512953905798462,1.0,1.0,false
404,0.029411764705882353,0.25,0.0,0.001568627450980392,0.002635046113306983,1.0,0.0,0.005662286703753627,0.4833333333333333,0.5833333333333334,0.330952380952381,0.2704195352762343,1.0,1.0,false
270,0.20588235294117646,0.5,0.6666666666666666,0.04784313725490196,0.00922266139657444,0.5737704918032787,0.0,0.1662503707221853,0.45987654320987664,0.6049382716049385,0.42107583774250434,0.2644766022605808,1.0,0.40479329591836,false
127,0.0,0.0,0.0,0.0,0.0,0.0,0.0,0.0,0.0,0.0,0.0,0.0,0.0,0.0,false
271,0.08823529411764706,0.5,0.3333333333333333,0.012549019607843137,0.0013175230566534915,0.875,0.0,0.04831037610052955,0.4254385964912283,0.600877192982456,0.2706766917293234,0.21743242952911607,1.0,0.40479329591836,false
