ivy.core.IvyPatternHelper	5027	5028	3525	13276	12475	12476	12477	12478	12479	12480	4392	4393	7633	7634	2376	3026	12929	12930	12931	12932	9676	9677	8757	13414
ivy.plugins.lock.AbstractLockStrategy
ivy.plugins.circular.ErrorCircularDependencyStrategy
ivy.core.settings.IvyVariableContainer	12484	12485
ivy.plugins.resolver.util.ResourceMDParser	11974
ivy.core.module.id.ModuleRevisionId	9980	9383	9384	9385	9386	9387	5543	5544	2361	2362	11966	5384	5385	310	311	312	12330
ivy.core.sort.CollectionOfModulesToSort
ivy.ant.IvyBuildNumber	4387	4388	4389	4390	4391	8609	8610	8611	396	397	9469
ivy.util.cli.OptionBuilder	5861
ivy.plugins.parser.xml.UpdateOptions	11151	9029	9030	12335	12336
ivy.core.NormalRelativeUrlResolver
ivy.plugins.matcher.MatcherHelper	7415
ivy.ant.IvyDeliver	9928	4991	4992	4993	4994	12317	12318	12319	12320
ivy.util.url.AbstractURLHandler	3691	3692	12462	12463	13045	13046	12355	12356	2356
ivy.core.resolve.IvyNodeUsage	2439	12248	12249	12250	12251	12252	4580	4581	4582	4583	4584	5419	5420	1600
ivy.util.ConfigurationUtils	7477	7478	7479	12461
ivy.tools.analyser.DependencyAnalyser
ivy.util.MessageLoggerEngine	5452	5453	5454	5455	5456
ivy.plugins.report.XmlReportParser	10753	10754	10755	10756	5102	5103	5104	5105	5106	5107	3553	3554	3555	3556	3557	3558	3559	3560	9176	9177	9178	9179	1707	1708	13431	13432
ivy.plugins.resolver.util.ResolvedResource
ivy.core.RelativeUrlResolver	10926
ivy.plugins.circular.WarnCircularDependencyStrategy
ivy.core.cache.CacheDownloadOptions	6447
ivy.util.FileResolver	4117	1767	4669
ivy.core.deliver.DeliverEngineSettings	5041	10831
ivy.core.cache.ArtifactOrigin	3526	13415	13416	13417	13418
ivy.plugins.resolver.VsftpResolver
ivy.core.report.DownloadReport
ivy.plugins.repository.vsftp.VsftpRepository	8457	11116	11117	11118	11119	11120	11121	11122	11123	11124	11125	11126	4106	1757	1758
ivy.core.event.retrieve.EndRetrieveEvent	4142
ivy.plugins.resolver.IBiblioResolver	12739	12740	12741	12742	12743	12744	12745	9183	9354	9579	9987	9988	9989	9990	9991	9992	2686	2687	2688	7461	13187	13188	12157	12158	12159	5816	11809	13449	13450	6339	7638	7639
ivy.plugins.trigger.AbstractTrigger	4797
ivy.plugins.conflict.RegexpConflictManager
ivy.core.event.resolve.ResolveEvent
ivy.core.deliver.DeliverOptions	5042	5043	5044	5045	5046	12328	12329
ivy.plugins.circular.AbstractCircularDependencyStrategy
ivy.core.sort.ModuleDescriptorSorter
ivy.core.retrieve.RetrieveEngine	4154	4155	4156	4157	4158	4159	5084	5085	5086	5087	5088	5089	5090	5091	5092	5093	3550	321	322	5492	11005	2288	2289	2290	2291	7715	7716	7717	8914	10933	4077	4078	4079
ivy.plugins.repository.vfs.VfsRepository	11103	11104	11105	11106	11107
ivy.plugins.latest.LatestRevisionStrategy
ivy.ant.IvyCacheTask	4987	4988	4989	4990
ivy.ant.IvyCachePath	4985	4986
ivy.plugins.conflict.LatestCompatibleConflictManager	10955	10956	4770	4771	4772	9336
ivy.plugins.parser.xml.XmlModuleDescriptorWriter	8545	8546	8547	8548	8549	9070	1608	5481	12414	12415	12416	12417	12418	12419	12420	12421	12422	12423	8775	8776	8777	8778	8779	8780	8781	8782	9612	10564	9343	7768	7769	7770	9748	9749	9955	5393	5394	5395	9028
ivy.util.extendable.ExtendableItemHelper	10587	10588
ivy.plugins.resolver.FileSystemResolver	210	3717	9280	9281	9282	9283	7301	7302	10789	10790	10791	10792	10793	4109	4110	1759	1760	1761	1762
ivy.plugins.parser.m2.PomModuleDescriptorWriter	5840	5841	10476
ivy.ant.IvyMakePom	5446	9929	10472	10473	10474	10475	1672	10924
ivy.plugins.conflict.FixedConflictManager
ivy.core.cache.ModuleDescriptorProvider	9687
ivy.util.cli.Option	5860
ivy.plugins.matcher.AnyMatcher	7410
ivy.plugins.namespace.MRIDRule
ivy.util.FileUtil	4167	8918	10979	3689	3690	4118
ivy.plugins.resolver.AbstractSshBasedResolver	4107	4108
ivy.plugins.repository.vsftp.VsftpResource	11127	11128
ivy.core.module.descriptor.DefaultDependencyArtifactDescriptor	12226	12227	12228
ivy.plugins.conflict.StrictConflictException
ivy.ant.IvyReport	5009	5010	5011	5012	5013	5014	5015	4548	4549	4550	4551	4552	4553	4554	4555	4556	4557	4558	13463	12014	9042	4060	4061	4062	4063
ivy.plugins.repository.file.FileResource	4103
ivy.core.module.descriptor.DefaultModuleDescriptor	3704	8769	8770	8771	9594	9595	5429	5430	5431	183	184	11811	11812	5728	5729	5730	9531	9532	9533	9726	9727	9728	9729	9730	4922
ivy.plugins.parser.xml.XmlModuleDescriptorParser	5480	8774	8755	9607	9608	9609	9610	9611	10558	10559	10560	10561	10562	10563	9339	9340	4399	4400	4401	4402	4403	4404	4405	4406	4407	4408	4409	4410	4411	4412	4413	4414	4415	4416	4417	4418	4419	11152	11153	5736	5737	5738	9566	9567	9568	9569	9570	7760	7761	7762	7763	7764	7765	7766	7767	9744	9745	9746	9747	12255	259	10578	10579	10580	10581	10582	10583	10584	9948	9949	9950	9031	7882	7883	7884	7885	9835	9836	9837	9838	9839	9840	9841	9842	9843	9844	9845	9846	9847	9848	9849	9850	9851	9852	9853	9854	9855	9856	9857	9858	9859	9860	9861	9862	9863	9864	9865	9866	9867	9868	9869
ivy.core.event.IvyEvent	299	5771
ivy.plugins.latest.AbstractLatestStrategy	12081
ivy.util.filter.FilterHelper
ivy.core.module.descriptor.Artifact
ivy.plugins.resolver.SshResolver	8913	11132
ivy.plugins.repository.file.FileRepository	9279	3362	4101	4102	1753	1754	1755	1756
ivy.core.resolve.ResolveData	5070	11774	9319	9320	9543	9544	9545	9546	13135	8921	8922
ivy.core.module.descriptor.ModuleDescriptor	3705	3706	8772	8773	2357	9596	5731	9536	9537	9731	9732
ivy.plugins.parser.ModuleDescriptorParserRegistry	9975	9976	9977
ivy.ant.IvyRepositoryReport	415	5016	5017	5018	5019	2261	2374	2375	6319	4064	4065	4066	4067
ivy.util.MessageLoggerHelper
ivy.ant.IvyInfo	7869	7870	4730	4731	4732	4733	10781	10782	10783	10923
ivy.core.install.InstallEngine	416	5047	5048	5049	5050	5051	3541	3542	3543	6453	2271	2272	2273	13504	9768	9769	9770	9771	9772	9773	9774	9775	9776	2377	249	250	251	11928	11929
ivy.util.extendable.UnmodifiableExtendableItem	8788	8789	8790	8791	8792	4926	4927	4928	4929
ivy.core.event.publish.PublishEvent
ivy.plugins.resolver.util.ResolverHelper	3585
ivy.plugins.repository.LazyResource	11082	11083
ivy.util.AbstractMessageLogger
ivy.core.sort.SortEngine	8649	8650	8651	8652
ivy.core.module.id.ArtifactRevisionId	8543	8544	2359	308	309
ivy.plugins.repository.ssh.Scp	11088	11089	11090	11091	11092	11093	11094	11095	13067	13068	4603	10057	10058	335	4104	4105
ivy.util.PropertiesFile	4230	4231	4232	4233
ivy.core.cache.ModuleDescriptorMemoryCache	9686	12447	12448	12449	12450	12451
ivy.plugins.version.VersionMatcher
ivy.util.filter.NoFilter	5559
ivy.core.cache.CacheMetadataOptions	7303	7304
ivy.plugins.resolver.ResolverSettings	10866	9355	9356
ivy.plugins.repository.TransferListener
ivy.plugins.parser.ModuleDescriptorParser
ivy.core.check.CheckEngine	5035	10829	10021	13278	9300	9301	9302
ivy.plugins.repository.url.URLRepository	11096	11097	11098	11099	13090	13091	3687	3688	8540	8541	8760	8761	12459
ivy.core.resolve.ResolveProcessException
ivy.plugins.circular.CircularDependencyHelper	13675	13676
ivy.util.ChecksumHelper	9692
ivy.util.cli.CommandLine	5858
ivy.plugins.resolver.util.FileURLLister	4792	4793
ivy.core.sort.SimpleSortEngineSettings
ivy.util.HostUtil	8458	4229	10124	10125
ivy.core.search.OrganisationEntry
ivy.plugins.version.SubVersionMatcher
ivy.plugins.resolver.SFTPResolver
ivy.core.install.InstallEngineSettings	10832
ivy.core.module.status.Status
ivy.tools.analyser.JarModuleFinder	4426	4427
ivy.core.event.download.StartArtifactDownloadEvent
ivy.core.event.retrieve.StartRetrieveEvent	4144
ivy.ant.IvyResolve	9931	5020	5021	5022	5023	5528	5529	5530	6445	6446	2262	2263	2264	2265	2266	9288	9289	9290	12638	6320	10925	11362	11363	11364	11365	11366	12276	12277	12278
ivy.plugins.resolver.DualResolver	3578	3579	9353	7856	8937	8938	11808	13447	13448	3586	3587	3588
ivy.plugins.resolver.packager.PackagerCacheEntry	9785	10974	10975	9013	9014	9015	9016	9017	10733	3408	3409	3410	9699	9700	9701
ivy.core.event.download.PrepareDownloadEvent
ivy.plugins.matcher.AbstractPatternMatcher
ivy.plugins.resolver.URLResolver
ivy.plugins.resolver.packager.BuiltFileResource	9784
ivy.Ivy14	4954	4955	4956	4957	4958	4959	4960	4961	4962	4963	4964	4965	4966	4967	10818	10819	6441	6442	2255	2256	4386	9764	9765	8640	8641
ivy.ant.IvyInstall	4995	4996	4997	4998	13540	13541	13542	13543	13544	9766	9767
ivy.ant.IvyAntVariableContainer	12472	12473	12474	13039
ivy.util.MemoryUtil	3718
ivy.core.event.IvyEventFilter
ivy.plugins.resolver.BasicResolver	8627	11895	11896	11897	11898	9946	9947	2705	5114	5115	5116	3563	3564	3565	3566	3567	3568	3569	3570	3571	3572	3573	3574	3575	7336	7337	7338	7339	7340	7341	7342	6468	2308	2306	2307	9347	9348	9349	4422	185	186	187	188	189	190	9573	9574	11971	8557	8558	9051	9052	9053	3738	3739	7843	7844	7845	7846	7847	7848	7849	7850	7851	7852	150	8926	8927	8928	8929	8930	13650	13651	13652	13653	13654	11804	13436	13437	13438	13439	11720	7542	7543	9691	9964
ivy.plugins.parser.m2.DefaultPomDependencyMgt	9553	5755	13261	4253
ivy.core.module.status.StatusManager
ivy.plugins.latest.LatestLexicographicStrategy
ivy.plugins.resolver.ChainResolver	3576	3577	361	362	363	364	7346	6608	6609	6610	9352	9578	7853	7854	7855	8931	8932	8933	8934	8935	8936	11806	13442	13443
ivy.core.settings.Validatable	1833
ivy.plugins.resolver.VfsResolver	3731	3732
ivy.plugins.version.AbstractVersionMatcher
ivy.plugins.repository.ssh.AbstractSshBasedRepository	8998	8999	9000	9001	9002	9003	9369
ivy.core.module.descriptor.License
ivy.util.Configurator	5555	5556	5557	5558	4213	4214	4215	4216	4217	4113	4114	4115	4116	1765	1766	13044
ivy.core.module.descriptor.DefaultExcludeRule
ivy.plugins.repository.TransferEvent	1	2	3	4	5	6	7	8	4160	4161	4162	4163	4164	4165
ivy.plugins.repository.AbstractRepository
ivy.plugins.resolver.RepositoryResolver	12746	12747	4423	4469	4470	4471	4472	4473	2388	9388	9389	9390	9391	11558	11026	11027	10942	11136	13453	12460	5491
ivy.plugins.repository.ssh.SshRepository	412	13069	13070	13071	11129	11130	11131	10059
ivy.plugins.version.ChainVersionMatcher
ivy.plugins.version.VersionRangeMatcher	7528	7529	12823
ivy.util.CopyProgressListener
ivy.ant.IvyPostResolveTask	4999	5000	5001	5002	5003	2257	2258	2259	2260	380	381	11557	9174	4058	9521
ivy.util.filter.Filter
ivy.core.event.download.NeedArtifactEvent
ivy.plugins.namespace.Namespace	3680	3681
ivy.plugins.matcher.GlobPatternMatcher	7413	7414	2506	2507
ivy.core.check.CheckEngineSettings	10830	13279	13280
ivy.core.publish.PublishOptions	4365	5057	5058	5059	8526	8527	12333	12334	7408	7409
ivy.core.cache.ResolutionCacheManager	10997
ivy.plugins.trigger.LogTrigger	4166	4112
ivy.plugins.parser.ParserSettings	10858	10859	13308	13309	10576	10577	4098	4099
ivy.util.cli.ParseException	5862
ivy.core.settings.IvyPattern
ivy.ant.PackageMapping
ivy.core.resolve.ResolvedModuleRevision	4371	3549	7839	7840	7841
ivy.plugins.namespace.NamespaceRule
ivy.core.module.descriptor.ConfigurationAware
ivy.plugins.repository.url.URLResource	11100	11101	11102
ivy.core.module.descriptor.Configuration	5477	5478
ivy.core.report.ResolveReport	417	418	419	4146	4147	4148	5065	5066	2367	2368	2369	2370	2371	2372	6348	6349	6350	6351	6352	2274	12232	11370	11371
ivy.core.sort.WarningNonMatchingVersionReporter
ivy.core.sort.ModuleInSort	9335	379
ivy.plugins.parser.m2.PomModuleDescriptorParser	9394	9395	9396	9397	9398	9399	10549	10550	10551	10552	10553	10554	10555	10556	5479	11872	11873	5101	13310	7744	7745	7746	13367	13368	9602	9603	9604	9605	11187	11188	5386	5387	9970	9971	13242	5733	11010	9561	9562	10495	10496	10497	13270	13271	13272	12367	4259	4700	4701	11800	11801	13429	13430	12223	6557	11542	11543	11544	12455	13678	3034	3035	5575	10719	8897	11046	9522
ivy.plugins.version.Match
ivy.core.module.descriptor.DependencyDescriptorMediator	9535
ivy.plugins.resolver.DependencyResolver	5122	5123	2387	212	4662	4663	4664	11807	13444	13445	13446
ivy.core.retrieve.RetrieveOptions	5095	5096	5097	2292	2293
ivy.core.module.descriptor.AbstractArtifact	8767	302	303	4920
ivy.core.module.descriptor.DefaultArtifact	304	305	306
ivy.plugins.repository.ResourceHelper	9613	9614	10941
ivy.core.settings.IvySettings	425	4372	9886	9887	3712	3713	3714	3715	3716	5098	5099	5100	10839	10840	10841	10842	10843	10844	10845	10846	10847	10848	10849	10850	12079	12080	13288	13289	13290	13291	13292	13293	13294	13295	13296	12482	12483	5546	5547	5548	5549	5550	5551	5552	5553	6464	6465	9100	9101	9102	9327	9328	9329	9330	9331	9332	8956	1830	1831	1832	8916	8917	10574	10575	11602	8520	10934	10935	9689	4080	4081	4082	4083	4084	4085	4086	4087	4088	4089	4090	4091	1731	1732	1733	1734	1735	1736	1737	1738	1739	1740	1741	1742	1743	3040	3041	7835	12424
ivy.core.module.id.ModuleId	9382	5541	5542	2360	9733	9734	9735	9736
ivy.util.url.URLHandlerRegistry	10910
ivy.core.module.descriptor.DependencyArtifactDescriptor	12229
ivy.util.filter.NotFilter
ivy.core.module.descriptor.DependencyDescriptor	9313	9314	9534
ivy.core.search.RevisionEntry
ivy.core.sort.SortOptions	8653
ivy.core.install.InstallOptions	9777
ivy.ant.IvyTask	5447	5448	5025	10740
ivy.core.cache.DefaultResolutionCacheManager	10826	10020	10994	10995
ivy.core.sort.MessageBasedNonMatchingVersionReporter	9334	378
ivy.plugins.repository.Resource
ivy.plugins.conflict.LatestConflictManager	12425	12426
ivy.plugins.resolver.IvyRepResolver	11810	13451	13452
ivy.plugins.trigger.Trigger
ivy.util.DefaultMessageLogger
ivy.plugins.resolver.util.URLLister
ivy.core.deliver.DeliverEngine	5036	5037	5038	5039	5040	11146	11147	12326	12327	10929	4072	1729	1730
ivy.core.report.DownloadStatus	5064
ivy.core.cache.RepositoryCacheManager	13247	9883	9884	5034	3538	3539	10827	10828	5464	5465	10996	7318	7319	7320	7321	7322	7323	9297	9298	9299	13425
ivy.util.cli.CommandLineParser	5859	13117
ivy.ant.IvyArtifactReport	4975	4976	4977	4978	4979	4980	4981	3524	5461	5462	5463	9180	9181	13413
ivy.core.resolve.VisitData
ivy.ant.AntCallTrigger
ivy.core.event.resolve.StartResolveEvent
ivy.util.filter.OrFilter
ivy.util.Message	5451
ivy.util.MessageLogger
ivy.plugins.report.ReportOutputter	433	434	2298	2299
ivy.util.url.BasicURLHandler	8459	1633	10708	3693	3694	7521	7522	7523	7524	7525	11767	11768	11769	2393	2394	2395	2396	2397	2398	2399	12464	12465	12466	13047	12357	12358	12359	12360	12361	12362	12363	7776
ivy.plugins.resolver.CacheResolver	5117	5118	5119	5120	5121	10864	10865	5466	5467	5468	5469	7343	7344	7345	9350	9351	9575	9576	9577	11805	13440	13441
ivy.plugins.matcher.ExactOrRegexpPatternMatcher	7411	2505
ivy.core.ExecutionRelativeUrlResolver
ivy.util.url.CredentialsStore
ivy.plugins.repository.BasicResource	8455	8456
ivy.core.module.descriptor.ExcludeRule	8920
ivy.util.extendable.ExtendableItem	8785	8786	8787	4924	4925
ivy.util.extendable.DefaultExtendableItem	4923
ivy.plugins.resolver.util.HasLatestStrategy
ivy.plugins.parser.m2.PomReader	9606	5388	5389	5390	5391	194	195	196	197	198	4398	5734	5735	9563	9564	9565	10498	10499	10500	5763	5764	13273	13274	13275	2983	12870	12871	6558	6559	6560	6561	8910	3512	3513	3514	3515	8898	8899	8900	8901	12207	12208	12368	7777	7778	7779
ivy.plugins.repository.vfs.VfsResource	11108	11109	11110	11111	11112	11113	11114	11115
ivy.plugins.namespace.MRIDTransformationRule	316
ivy.plugins.parser.m2.PomDependencyMgt	9554	5756	13262
ivy.core.event.publish.StartArtifactPublishEvent
ivy.core.settings.IvyVariableContainerImpl	12486	12487	12488	12489	13040
ivy.plugins.repository.ArtifactResourceResolver
ivy.core.resolve.IvyNodeCallers	9318	9542
ivy.util.CredentialsUtil	4225	4226	4227	4228
ivy.plugins.matcher.PatternMatcher
ivy.util.url.URLHandlerDispatcher	3699	13059	13060	11305
ivy.core.retrieve.RetrieveEngineSettings	5094	10838	12481	8915
ivy.ant.IvyListModules
ivy.core.resolve.IvyNodeEviction	11380
ivy.plugins.repository.RepositoryCopyProgressListener
ivy.ant.IvyConvertPom	5442	9927	10922
ivy.plugins.circular.IgnoreCircularDependencyStrategy
ivy.core.event.publish.EndArtifactPublishEvent
ivy.core.IvyContext	5449	5450	5026	10822	10823	10824
ivy.plugins.namespace.NameSpaceHelper	3551	3552	317	3733	3734	3735	7842
ivy.ant.IvyCacheFileset	4982	4983	4984	13496	13497	12525	12526	9163
ivy.plugins.conflict.StrictConflictManager	9168	9169
ivy.plugins.matcher.NoMatcher	7417
ivy.plugins.matcher.Matcher
ivy.ant.IvyRetrieve	5024	2267	2268	2269
ivy.core.resolve.RestartResolveProcess
ivy.core.resolve.IvyNodeBlacklist
ivy.util.url.ApacheURLLister	12748	9523	11871
ivy.plugins.IvySettingsAware
ivy.core.module.descriptor.OverrideDependencyDescriptorMediator	9538	307
ivy.core.event.download.EndArtifactDownloadEvent	4137	3540	13426
ivy.plugins.resolver.AbstractPatternsBasedResolver	11135	9830	7635	7636	7637
ivy.core.event.resolve.EndResolveDependencyEvent	4138	4139	9303	9304	356	300
ivy.core.search.ModuleEntry
ivy.plugins.repository.ResourceDownloader
ivy.ant.AddPathTask
ivy.util.url.URLHandler	3698	13057	13058
ivy.core.module.descriptor.IncludeRule
ivy.core.resolve.DownloadOptions	4367	5068	6456	2275
ivy.core.sort.SortEngineSettings
ivy.core.resolve.VisitNode	9552	5838	11964	5422	5423	5424	5425	5426	5427	1603	1604	1605	13335	13336	13337
ivy.plugins.circular.CircularDependencyStrategy
ivy.ant.IvyCheck	10920	10921
ivy.core.event.EventManager
ivy.plugins.circular.AbstractLogCircularDependencyStrategy
ivy.util.StringUtils	6611	6612	5857	1768	1769
ivy.util.CopyProgressEvent	4220	4221
ivy.ant.IvyFindRevision
ivy.core.publish.PublishEngineSettings	5056	10833
ivy.core.deliver.DefaultPublishingDRResolver
ivy.plugins.version.PatternVersionMatcher
ivy.core.event.FilteredIvyListener
ivy.util.Checks	1763	1764
ivy.core.deliver.PublishingDependencyRevisionResolver
ivy.core.module.descriptor.DefaultIncludeRule
ivy.plugins.version.ExactVersionMatcher
ivy.ant.IvyAntSettings	5434	5435	5436	5437	5438	7693	7694	7695	7696	7697	7698	7699	7700	7701	7702	7703	9967	4604	4605	4606	4607	4608	4609	4610	4611	4612	4057	2339	3038	13501	8762	8763	8764	5837
ivy.plugins.matcher.MapMatcher	13307	5554	9742	9743	9423
ivy.core.resolve.ResolveOptions	5080	5081	5082	5083	7325	7326	7327	6461	6462	6463	2285	2286	2287	10972	10973	9323	9324	9325	9326	11374	11375	11376	11377
ivy.util.url.IvyAuthenticator
ivy.core.event.download.DownloadEvent	4136
ivy.core.event.resolve.StartResolveDependencyEvent	9307
ivy.core.cache.ParserSettingsMonitor	9688	4070	4071	12452	12453	12454
ivy.core.resolve.ResolveEngineSettings	13286	13287
ivy.core.repository.RepositoryManagementEngine	3707	5067	10834	10835	10836	10837	13281	6454	6455
ivy.plugins.latest.ComparatorLatestStrategy
ivy.ant.IvyExtractFromSources	5443	5444	5445
ivy.util.filter.AndFilter
ivy.ant.IvyCleanCache	10991
ivy.core.event.resolve.EndResolveEvent	4140
ivy.core.sort.SilentNonMatchingVersionReporter
ivy.util.EncrytedProperties
ivy.util.filter.ArtifactTypeFilter
ivy.core.cache.ModuleDescriptorWriter
ivy.ant.IvyArtifactProperty	4974
ivy.plugins.circular.CircularDependencyException
ivy.core.report.MetadataArtifactDownloadReport	3545
ivy.plugins.matcher.RegexpPatternMatcher	7418	2508	2509	2510	6331
ivy.plugins.report.XmlReportOutputter	435	2300	2301
ivy.plugins.repository.sftp.SFTPRepository	11084	11085	411	7380	7381	7382	11559	11560	9425	9426	9427	9428	9429	12456	12457	12458
ivy.plugins.report.XmlReportWriter	436	5108	3561	3562	13311	2713	9344	7671	7672	7673	7674	348	349	350	3504
ivy.core.cache.DefaultRepositoryCacheManager	10825	10992	10993	357	358	359	9162	13277	7305	7306	7307	7308	7309	7310	7311	7312	7313	7314	7315	7316	7317	5531	5532	5533	5534	5535	5536	5537	5538	5539	5540	6448	6449	6450	6451	6452	12057	9098	9099	6491	9291	9292	9293	9294	9295	9296	253	254	2406	10927	10928	9678	9679	9680	9681	9682	9683	9684	9685	13419	13420	13421	13422	13423	13424	4068	4069	1726	1727	1728	12443	12444	12445	12446
ivy.Main	4968	4969	4970	4971	4972	4973	10820	10821	6443	6444	5846	5847	5848	5849	5850	5851	5852	5853	5854	5855	5856	11134	10916	10917	10918	2980	463	464	1724	1725
ivy.plugins.repository.ssh.SshCache	9035	10490	9370	9371	2753	2754	2755
ivy.core.event.IvyListener
ivy.core.resolve.IvyNode	4368	4149	9885	5069	3546	3547	3548	13282	2276	2277	6606	6607	9315	9316	9317	9539	9540	9541	2412	2413	2414	2415	2416	2417	2418	2419	2420	2421	2422	2423	2424	2425	2426	2427	2428	2429	2430	2431	2432	2433	2434	2435	2436	2437	2438	12233	12234	12235	12236	12237	12238	12239	12240	12241	12242	12243	12244	12245	12246	12247	11960	11961	11962	314	315	4578	4579	7837	7838	5407	5408	5409	5410	5411	5412	5413	5414	5415	5416	5417	5418	9	11379
ivy.plugins.latest.ArtifactInfo
ivy.util.ContextualSAXHandler	3508
ivy.core.IvyThread
ivy.ant.AntBuildTrigger	4056	12471	2519
ivy.plugins.conflict.ConflictManager
ivy.plugins.resolver.util.MDResolvedResource	4794
ivy.plugins.resolver.packager.PackagerResolver	9786	10976	10977	10978	9018	9019	9020	3411	3412	3413	3414	4111	9702	9703	9704
ivy.core.event.retrieve.RetrieveEvent	4143
ivy.plugins.parser.m2.PomModuleDescriptorBuilder	9601	9968	9969	9114	5732	9555	9556	9557	9558	9559	9560	12254	10491	10492	10493	10494	11079	11080	5757	5758	5759	5760	5761	5762	13263	13264	13265	13266	13267	13268	13269	7460	12869	4254	4255	4256	4257	4258	4695	4696	4697	4698	4699	13315	4191	4192	11796	11797	11798	11799	6555	6556	11541	5709	5710	5711	5570	5571	5572	5573	5574	8895	8896	2740	7874	7875	7876
ivy.core.module.id.ModuleRules	5545	9737	9738	9739	9740	9741	12876	12877	12878	12879	12880	12881
ivy.core.event.resolve.ResolveDependencyEvent	4141	9305	9306	4394	301	5772
ivy.core.module.descriptor.MDArtifact
ivy.core.LogOptions	2270
ivy.plugins.repository.ssh.RemoteScpException
ivy.plugins.lock.NoLockStrategy
ivy.plugins.lock.LockStrategy
ivy.plugins.conflict.NoConflictManager
ivy.tools.analyser.RepositoryAnalyser	4428
ivy.tools.analyser.JarJarDependencyAnalyser	4424
ivy.plugins.resolver.util.ApacheHttpURLLister	4791
ivy.core.resolve.ResolveEngine	420	421	422	423	424	4369	4370	4623	4150	4151	4152	4153	4767	4768	4769	5071	5072	5073	5074	5075	5076	5077	5078	5079	13283	13284	13285	7324	6457	6458	6459	6460	7670	2278	2279	2280	2281	2282	2283	2284	9430	9431	9432	9433	4786	4787	4788	6598	6599	6600	6601	5578	9597	9321	9322	9547	9548	9549	9550	9551	9182	2402	2403	2404	12253	11963	2324	2325	2326	5421	10932	11372	11373	11381	11382	11383	11384	11385	11386	11387	5576	5577	12824	12825	8647	8648	13427	13428	1601	1602
ivy.plugins.latest.LatestTimeStrategy	4395
ivy.core.repository.RepositoryManagementEngineSettings	3708
ivy.core.settings.XmlSettingsParser	7647	12162	10851	10852	10853	10854	10855	10856	10857	9416	9417	9418	4875	4876	4877	4878	4879	13297	13298	13299	13300	13301	13302	13303	13304	13305	13306	12490	6466	13339	13340	13341	13342	13343	13072	13073	9333	5765	5766	5767	5768	11577	4589	4590	4591	1834	258	2718	6372	13464	4211	4212	3036	3037	10936	10937	10938	4092	4093	4094	4095	4096	4097	1744	1745	1746	1747	1748	1749	1750	13041	13042	13043	11304	4680	4681	4682
ivy.plugins.lock.ArtifactLockStrategy
ivy.core.cache.DownloadListener
ivy.plugins.parser.AbstractModuleDescriptorParser	9598	9599	9600	9337	9338	4396	4397	9834
ivy.core.search.SearchEngine	3709	3710	3711	2378	2379	2380	2381	6321	6322	6323	6324	6325	6326	6327	6328	6329	6330	10901	4656	4657	4658	4659	4660	4661	12149
ivy.plugins.report.LogReportOutputter	426	427	428	429	430	431	432	2294	2295	2296	2297	11458	11459
ivy.plugins.lock.FileBasedLockStrategy	9888	9889	9890	9891
ivy.plugins.repository.ssh.SshResource
ivy.util.XMLHelper	4234	4235	4236	4237	4238	4239	8783	8784	9615	9616	9617	13076	13077	13078	1632	3516	3517	8902
ivy.ant.IvyVar
ivy.core.publish.PublishEngine	5052	5053	5054	5055	11148	11149	11150	313	8522	8523	8524	8525	12331	12332	5521	5522	5523	5524	10930	10931	4073	4074	4075	4076	7406	7407
ivy.core.cache.CacheUtil	9097
ivy.util.Credentials	4222	4223	4224
ivy.plugins.repository.sftp.SFTPResource	11086	11087
ivy.ant.IvyBuildList	4335	4336	4337	4338	4339	9038	9039	3431	12655	12656	12657	12658	12659	12660	11555	11556	9045	9046	9047	9048	9049	9050	13465	13466	13467	10919	8642	8643	8644
ivy.core.module.descriptor.AbstractIncludeExcludeRule
ivy.util.url.HttpClientHandler	10709	10710	7517	7518	7519	7520	13690	3695	3696	3697	7526	7527	11770	11771	11772	11773	12467	12468	12469	13048	13049	13050	13051	13052	13053	13054	13055	13056	13139	13140	13141	12364	12365	12366
ivy.Ivy	4135	3700	3701	3702	3703	4950	4951	4952	4953	10817	2252	2253	2254	4385	9761	9762	9763	248	10738	10739	8637	8638	8639
ivy.ant.AntMessageLogger	2391
ivy.core.report.ArtifactDownloadReport	8625	8626	4145	5060	5061	3544	2363
ivy.plugins.namespace.NamespaceTransformer
ivy.core.report.ConfigurationResolveReport	5062	5063	2364	2365	2366	6343	6344	6345	6346	6347	12230	12231	13134	11367	11368	11369	8645	8646
ivy.plugins.resolver.AbstractResolver	5109	5110	5111	5112	5113	10860	10861	10862	10863	360	7328	7329	7330	7331	7332	7333	7334	7335	6467	2302	2303	2304	2305	9345	2382	9571	1835	1836	1837	1838	1839	1840	1841	211	10988	3736	3737	8923	8924	8925	11802	11803	13433	13434	13435
ivy.plugins.version.LatestVersionMatcher
ivy.tools.analyser.JarModule	4425
ivy.plugins.matcher.ExactPatternMatcher	7412
ivy.ant.IvyConfigure	5439	5440	5441	7704	4613	3039
ivy.core.sort.NonMatchingVersionReporter
ivy.core.module.descriptor.DefaultDependencyDescriptor	9372	9373	9374	9375	9376	9377	9378	9379	9380	9381	8768	9308	9309	9310	9311	9312	7833	9525	9526	9527	9528	9529	9530	12519	12520	4921
ivy.plugins.conflict.AbstractConflictManager
ivy.plugins.latest.LatestStrategy
ivy.core.module.id.ArtifactId	2358
ivy.plugins.repository.Repository
ivy.ant.IvyPublish	9930	5004	5005	5006	5007	5008	8766	298	8521	12321	12322	12323	12324	12325	4059	7402	7403	7404	7405
ivy.plugins.parser.xml.XmlModuleDescriptorUpdater	12860	7354	7355	7356	13074	13075	9341	9342	4420	4421	11154	11155	11156	11157	11158	11159	11160	11161	7834	10585	10586	9951	9952	9953	9954	9032	9033	12337	12338	12339	6629	10939	10940	4100	12430	1751	1752
